sub14_h2_lg_2_001.jpg: Predicted in 0.155522 seconds.
baseball bat: 82%
(492.124420, 305.032318) (576.961670, 407.238220)
sub14_h2_lg_2_002.jpg: Predicted in 0.159080 seconds.
baseball bat: 80%
(493.680786, 305.378174) (576.820251, 407.528564)
sub14_h2_lg_2_003.jpg: Predicted in 0.157785 seconds.
baseball bat: 79%
(496.481842, 304.016449) (577.460022, 407.965607)
sub14_h2_lg_2_004.jpg: Predicted in 0.155949 seconds.
baseball bat: 79%
(498.606445, 302.773621) (578.056702, 409.089203)
sub14_h2_lg_2_005.jpg: Predicted in 0.164692 seconds.
baseball bat: 80%
(499.600220, 302.545563) (577.493652, 410.084991)
sub14_h2_lg_2_006.jpg: Predicted in 0.156489 seconds.
baseball bat: 79%
(501.771667, 301.492737) (577.424561, 410.400635)
sub14_h2_lg_2_007.jpg: Predicted in 0.155073 seconds.
baseball bat: 79%
(501.989380, 302.110992) (577.598389, 411.402100)
sub14_h2_lg_2_008.jpg: Predicted in 0.158134 seconds.
baseball bat: 80%
(502.272644, 302.352692) (578.434387, 413.030182)
sub14_h2_lg_2_009.jpg: Predicted in 0.157140 seconds.
baseball bat: 81%
(503.941772, 300.936401) (578.533508, 413.627960)
sub14_h2_lg_2_010.jpg: Predicted in 0.156033 seconds.
baseball bat: 79%
(504.209137, 301.204712) (578.614136, 412.875397)
sub14_h2_lg_2_011.jpg: Predicted in 0.155565 seconds.
baseball bat: 80%
(504.954559, 301.374634) (578.484863, 413.534760)
sub14_h2_lg_2_012.jpg: Predicted in 0.156929 seconds.
baseball bat: 81%
(506.441254, 302.056152) (577.880127, 414.261322)
sub14_h2_lg_2_013.jpg: Predicted in 0.156205 seconds.
baseball bat: 80%
(508.263824, 301.261353) (577.707336, 415.066406)
sub14_h2_lg_2_014.jpg: Predicted in 0.156863 seconds.
baseball bat: 80%
(510.179504, 300.599274) (577.047302, 415.433228)
sub14_h2_lg_2_015.jpg: Predicted in 0.165389 seconds.
baseball bat: 78%
(513.409241, 300.009186) (578.053772, 415.848083)
sub14_h2_lg_2_016.jpg: Predicted in 0.155264 seconds.
baseball bat: 77%
(514.933533, 299.918121) (578.330444, 415.219208)
sub14_h2_lg_2_017.jpg: Predicted in 0.156495 seconds.
baseball bat: 76%
(515.591675, 300.101227) (577.705383, 415.564453)
sub14_h2_lg_2_018.jpg: Predicted in 0.166003 seconds.
baseball bat: 73%
(516.652344, 300.686340) (578.479858, 415.732697)
sub14_h2_lg_2_019.jpg: Predicted in 0.157999 seconds.
baseball bat: 74%
(517.386353, 299.575928) (578.208923, 417.550690)
sub14_h2_lg_2_020.jpg: Predicted in 0.157498 seconds.
baseball bat: 76%
(518.471985, 297.706390) (577.194641, 419.002655)
sub14_h2_lg_2_021.jpg: Predicted in 0.155086 seconds.
baseball bat: 75%
(519.890015, 297.159515) (578.495117, 419.532318)
sub14_h2_lg_2_022.jpg: Predicted in 0.157381 seconds.
baseball bat: 74%
(520.508362, 295.092499) (577.768799, 420.826660)
sub14_h2_lg_2_023.jpg: Predicted in 0.157055 seconds.
baseball bat: 71%
(522.921509, 293.701874) (578.799927, 420.514862)
sub14_h2_lg_2_024.jpg: Predicted in 0.166077 seconds.
baseball bat: 68%
(525.227417, 292.836700) (579.721252, 420.647888)
sub14_h2_lg_2_025.jpg: Predicted in 0.156081 seconds.
baseball bat: 66%
(528.441956, 288.827759) (582.583130, 419.779175)
sub14_h2_lg_2_026.jpg: Predicted in 0.158522 seconds.
baseball bat: 65%
(531.166687, 287.113708) (583.593628, 419.413330)
sub14_h2_lg_2_027.jpg: Predicted in 0.154744 seconds.
baseball bat: 66%
(531.940857, 285.361389) (582.508545, 419.594330)
sub14_h2_lg_2_028.jpg: Predicted in 0.159271 seconds.
baseball bat: 68%
(532.994446, 282.970795) (581.150146, 421.784546)
sub14_h2_lg_2_029.jpg: Predicted in 0.156032 seconds.
baseball bat: 74%
(533.515442, 279.504272) (579.452454, 423.384521)
sub14_h2_lg_2_030.jpg: Predicted in 0.157746 seconds.
baseball bat: 79%
(532.019836, 275.897095) (577.109985, 426.087494)
sub14_h2_lg_2_031.jpg: Predicted in 0.165024 seconds.
baseball bat: 81%
(533.233398, 274.584625) (576.393372, 425.747345)
sub14_h2_lg_2_032.jpg: Predicted in 0.154718 seconds.
baseball bat: 81%
(534.710144, 274.128204) (575.077637, 426.902161)
sub14_h2_lg_2_033.jpg: Predicted in 0.157256 seconds.
baseball bat: 82%
(536.372986, 273.946503) (574.303894, 426.765381)
sub14_h2_lg_2_034.jpg: Predicted in 0.157899 seconds.
baseball bat: 82%
(536.715576, 272.975739) (573.348450, 427.168335)
sub14_h2_lg_2_035.jpg: Predicted in 0.162569 seconds.
baseball bat: 81%
(539.296021, 272.369476) (572.515259, 427.172668)
sub14_h2_lg_2_036.jpg: Predicted in 0.156305 seconds.
baseball bat: 81%
(540.851501, 272.142456) (570.824402, 427.565765)
sub14_h2_lg_2_037.jpg: Predicted in 0.155829 seconds.
baseball bat: 81%
(542.170715, 271.866119) (569.676941, 426.534882)
sub14_h2_lg_2_038.jpg: Predicted in 0.156947 seconds.
baseball bat: 81%
(543.261169, 272.834106) (569.065796, 425.592529)
sub14_h2_lg_2_039.jpg: Predicted in 0.155947 seconds.
baseball bat: 81%
(543.172791, 274.268890) (567.710327, 427.237488)
sub14_h2_lg_2_040.jpg: Predicted in 0.155828 seconds.
baseball bat: 80%
(544.180298, 274.646393) (566.936340, 428.070282)
sub14_h2_lg_2_041.jpg: Predicted in 0.164326 seconds.
baseball bat: 78%
(544.718872, 275.272980) (565.151550, 428.291718)
sub14_h2_lg_2_042.jpg: Predicted in 0.155897 seconds.
baseball bat: 76%
(545.378235, 275.366730) (563.232117, 428.109955)
sub14_h2_lg_2_043.jpg: Predicted in 0.155110 seconds.
baseball bat: 70%
(545.711853, 275.893555) (559.533020, 429.409454)
sub14_h2_lg_2_044.jpg: Predicted in 0.156533 seconds.
baseball bat: 53%
(548.281128, 272.686279) (558.888733, 431.750031)
sub14_h2_lg_2_045.jpg: Predicted in 0.155265 seconds.
baseball bat: 40%
(548.858887, 271.670898) (557.879578, 434.120911)
sub14_h2_lg_2_046.jpg: Predicted in 0.158163 seconds.
baseball bat: 41%
(548.928040, 271.422638) (557.879395, 433.665955)
sub14_h2_lg_2_047.jpg: Predicted in 0.155135 seconds.
baseball bat: 63%
(547.760498, 274.692505) (559.886536, 430.244690)
sub14_h2_lg_2_048.jpg: Predicted in 0.155916 seconds.
baseball bat: 73%
(546.911377, 276.573242) (562.077026, 428.787750)
sub14_h2_lg_2_049.jpg: Predicted in 0.155958 seconds.
baseball bat: 79%
(545.258057, 277.463501) (563.190247, 429.494324)
sub14_h2_lg_2_050.jpg: Predicted in 0.154843 seconds.
baseball bat: 82%
(544.005249, 277.707916) (566.750427, 430.687653)
sub14_h2_lg_2_051.jpg: Predicted in 0.156691 seconds.
baseball bat: 85%
(541.751099, 278.014435) (570.069275, 432.180115)
sub14_h2_lg_2_052.jpg: Predicted in 0.155647 seconds.
baseball bat: 87%
(539.253723, 280.366211) (571.561951, 432.574951)
sub14_h2_lg_2_053.jpg: Predicted in 0.155038 seconds.
baseball bat: 87%
(537.636414, 280.934937) (572.738037, 434.506836)
sub14_h2_lg_2_054.jpg: Predicted in 0.156722 seconds.
baseball bat: 88%
(535.450867, 280.409668) (575.957947, 436.095551)
sub14_h2_lg_2_055.jpg: Predicted in 0.157116 seconds.
baseball bat: 89%
(533.729919, 280.813293) (575.841309, 438.513214)
sub14_h2_lg_2_056.jpg: Predicted in 0.155217 seconds.
baseball bat: 89%
(532.536804, 280.870392) (578.848206, 439.839935)
sub14_h2_lg_2_057.jpg: Predicted in 0.157037 seconds.
baseball bat: 90%
(530.734497, 280.774536) (582.511963, 441.711761)
sub14_h2_lg_2_058.jpg: Predicted in 0.155802 seconds.
baseball bat: 91%
(525.932861, 280.861664) (587.544312, 442.687469)
sub14_h2_lg_2_059.jpg: Predicted in 0.158299 seconds.
baseball bat: 91%
(523.723877, 282.361389) (590.192505, 444.971924)
sub14_h2_lg_2_060.jpg: Predicted in 0.156188 seconds.
baseball bat: 91%
(522.580872, 284.488403) (594.600586, 445.043884)
sub14_h2_lg_2_061.jpg: Predicted in 0.155115 seconds.
baseball bat: 91%
(521.535400, 286.549622) (595.955933, 444.193878)
sub14_h2_lg_2_062.jpg: Predicted in 0.155780 seconds.
baseball bat: 91%
(520.004944, 283.950775) (600.727356, 445.572357)
sub14_h2_lg_2_063.jpg: Predicted in 0.156120 seconds.
baseball bat: 92%
(520.409485, 285.470551) (602.771423, 446.551758)
sub14_h2_lg_2_064.jpg: Predicted in 0.156878 seconds.
baseball bat: 93%
(519.604065, 286.614136) (604.303223, 446.006775)
sub14_h2_lg_2_065.jpg: Predicted in 0.156220 seconds.
baseball bat: 93%
(518.051636, 287.630432) (606.227844, 445.386414)
sub14_h2_lg_2_066.jpg: Predicted in 0.157953 seconds.
baseball bat: 93%
(516.514282, 287.767456) (608.384155, 445.858521)
sub14_h2_lg_2_067.jpg: Predicted in 0.156927 seconds.
baseball bat: 92%
(513.845093, 287.894928) (609.874634, 446.401062)
sub14_h2_lg_2_068.jpg: Predicted in 0.155297 seconds.
baseball bat: 92%
(510.552368, 288.295197) (612.017822, 446.346283)
sub14_h2_lg_2_069.jpg: Predicted in 0.156383 seconds.
baseball bat: 91%
(505.451538, 288.806549) (613.585693, 459.066040)
sub14_h2_lg_2_070.jpg: Predicted in 0.156957 seconds.
baseball bat: 91%
(503.100525, 289.682220) (615.585144, 459.702423)
sub14_h2_lg_2_071.jpg: Predicted in 0.157774 seconds.
baseball bat: 91%
(502.439972, 290.851837) (618.315979, 459.889557)
sub14_h2_lg_2_072.jpg: Predicted in 0.157565 seconds.
baseball bat: 91%
(500.647736, 291.650574) (619.828186, 459.824371)
sub14_h2_lg_2_073.jpg: Predicted in 0.156907 seconds.
baseball bat: 91%
(497.511292, 292.223389) (622.043884, 460.139862)
sub14_h2_lg_2_074.jpg: Predicted in 0.162152 seconds.
baseball bat: 91%
(494.954834, 293.339172) (624.594604, 460.753387)
sub14_h2_lg_2_075.jpg: Predicted in 0.157255 seconds.
baseball bat: 91%
(492.546722, 295.532349) (626.906494, 457.985168)
sub14_h2_lg_2_076.jpg: Predicted in 0.155095 seconds.
baseball bat: 91%
(490.245026, 297.234711) (628.489807, 456.405457)
sub14_h2_lg_2_077.jpg: Predicted in 0.155295 seconds.
baseball bat: 91%
(489.492706, 299.066620) (630.623108, 456.901703)
sub14_h2_lg_2_078.jpg: Predicted in 0.154311 seconds.
baseball bat: 91%
(487.071930, 301.509735) (637.351074, 458.207428)
sub14_h2_lg_2_079.jpg: Predicted in 0.156436 seconds.
baseball bat: 91%
(486.267029, 304.412781) (640.053223, 458.891235)
sub14_h2_lg_2_080.jpg: Predicted in 0.156266 seconds.
baseball bat: 92%
(484.355469, 307.535950) (644.543213, 457.721252)
sub14_h2_lg_2_081.jpg: Predicted in 0.157626 seconds.
baseball bat: 92%
(485.153931, 310.396240) (647.812256, 457.470123)
sub14_h2_lg_2_082.jpg: Predicted in 0.156372 seconds.
baseball bat: 92%
(483.649078, 311.773193) (647.829468, 455.071899)
sub14_h2_lg_2_083.jpg: Predicted in 0.157413 seconds.
baseball bat: 92%
(482.044250, 314.658264) (650.949158, 454.816956)
sub14_h2_lg_2_084.jpg: Predicted in 0.199048 seconds.
baseball bat: 92%
(480.423584, 315.839264) (650.912476, 452.382477)
sub14_h2_lg_2_085.jpg: Predicted in 0.154676 seconds.
baseball bat: 92%
(480.085693, 318.006287) (653.054565, 452.105957)
sub14_h2_lg_2_086.jpg: Predicted in 0.156173 seconds.
baseball bat: 91%
(479.193359, 320.496796) (656.760681, 450.761414)
sub14_h2_lg_2_087.jpg: Predicted in 0.164120 seconds.
baseball bat: 92%
(476.840729, 322.067474) (662.297974, 450.585083)
sub14_h2_lg_2_088.jpg: Predicted in 0.157570 seconds.
baseball bat: 92%
(476.611664, 324.301971) (665.443054, 451.071228)
sub14_h2_lg_2_089.jpg: Predicted in 0.157097 seconds.
baseball bat: 92%
(475.406830, 326.496582) (666.760010, 450.146851)
sub14_h2_lg_2_090.jpg: Predicted in 0.156904 seconds.
baseball bat: 92%
(474.447449, 328.538849) (667.157593, 447.590332)
sub14_h2_lg_2_091.jpg: Predicted in 0.157347 seconds.
baseball bat: 92%
(471.863586, 330.331421) (668.668091, 446.425171)
sub14_h2_lg_2_092.jpg: Predicted in 0.156845 seconds.
baseball bat: 92%
(470.607361, 331.769440) (670.487793, 446.413116)
sub14_h2_lg_2_093.jpg: Predicted in 0.160886 seconds.
baseball bat: 92%
(468.963501, 334.190704) (672.605408, 445.843323)
sub14_h2_lg_2_094.jpg: Predicted in 0.155996 seconds.
baseball bat: 92%
(468.496704, 337.118134) (675.788269, 444.397095)
sub14_h2_lg_2_095.jpg: Predicted in 0.163285 seconds.
baseball bat: 92%
(468.189423, 341.188507) (679.507874, 443.912415)
sub14_h2_lg_2_096.jpg: Predicted in 0.157336 seconds.
baseball bat: 92%
(468.688660, 343.290436) (683.667358, 443.108276)
sub14_h2_lg_2_097.jpg: Predicted in 0.164996 seconds.
baseball bat: 92%
(467.712952, 345.415802) (688.262085, 442.268616)
sub14_h2_lg_2_098.jpg: Predicted in 0.154606 seconds.
baseball bat: 92%
(465.878448, 347.339020) (692.509705, 439.972595)
sub14_h2_lg_2_099.jpg: Predicted in 0.157672 seconds.
baseball bat: 92%
(464.760803, 349.674347) (695.244873, 438.790344)
sub14_h2_lg_2_100.jpg: Predicted in 0.154123 seconds.
baseball bat: 92%
(462.928833, 351.537903) (700.364380, 437.877136)
sub14_h2_lg_2_101.jpg: Predicted in 0.165373 seconds.
baseball bat: 93%
(461.904236, 353.911987) (707.056335, 439.638794)
sub14_h2_lg_2_102.jpg: Predicted in 0.157302 seconds.
baseball bat: 93%
(462.855530, 357.703796) (708.300232, 438.338928)
sub14_h2_lg_2_103.jpg: Predicted in 0.155290 seconds.
baseball bat: 93%
(459.783325, 360.487823) (713.120667, 438.361725)
sub14_h2_lg_2_104.jpg: Predicted in 0.157163 seconds.
baseball bat: 92%
(458.965149, 363.718475) (715.210205, 436.526978)
sub14_h2_lg_2_105.jpg: Predicted in 0.156135 seconds.
baseball bat: 92%
(458.692261, 368.281952) (717.339844, 434.772552)
sub14_h2_lg_2_106.jpg: Predicted in 0.156388 seconds.
baseball bat: 92%
(459.204742, 373.415741) (716.691772, 432.886627)
sub14_h2_lg_2_107.jpg: Predicted in 0.156209 seconds.
baseball bat: 92%
(457.848755, 377.644684) (718.385071, 432.293091)
sub14_h2_lg_2_108.jpg: Predicted in 0.154774 seconds.
baseball bat: 92%
(456.234711, 380.988739) (719.143066, 431.986206)
sub14_h2_lg_2_109.jpg: Predicted in 0.156706 seconds.
baseball bat: 91%
(458.874603, 381.379761) (732.411743, 429.746490)
sub14_h2_lg_2_110.jpg: Predicted in 0.155227 seconds.
baseball bat: 90%
(457.941071, 383.424622) (736.917480, 429.466309)
sub14_h2_lg_2_111.jpg: Predicted in 0.157937 seconds.
baseball bat: 87%
(461.420013, 388.279480) (736.729614, 426.080078)
sub14_h2_lg_2_112.jpg: Predicted in 0.157277 seconds.
baseball bat: 87%
(459.097198, 390.639587) (738.454224, 424.730408)
sub14_h2_lg_2_113.jpg: Predicted in 0.156532 seconds.
baseball bat: 86%
(456.415924, 395.550385) (740.298035, 423.755981)
sub14_h2_lg_2_114.jpg: Predicted in 0.164717 seconds.
baseball bat: 83%
(458.344696, 399.991455) (739.989502, 422.372986)
sub14_h2_lg_2_115.jpg: Predicted in 0.164241 seconds.
baseball bat: 78%
(457.881500, 404.897552) (742.897461, 421.243622)
sub14_h2_lg_2_116.jpg: Predicted in 0.156767 seconds.
baseball bat: 69%
(454.838013, 409.127319) (750.770569, 420.237152)
sub14_h2_lg_2_117.jpg: Predicted in 0.155660 seconds.
baseball bat: 61%
(450.936829, 412.268158) (755.958313, 420.955658)
sub14_h2_lg_2_118.jpg: Predicted in 0.157682 seconds.
baseball bat: 40%
(458.347351, 415.104462) (754.604919, 420.495148)
sub14_h2_lg_2_119.jpg: Predicted in 0.156191 seconds.
baseball bat: 35%
(461.275879, 416.240570) (756.053955, 421.149445)
sub14_h2_lg_2_120.jpg: Predicted in 0.155654 seconds.
baseball bat: 42%
(458.726929, 416.971497) (760.310181, 422.490967)
sub14_h2_lg_2_121.jpg: Predicted in 0.155587 seconds.
baseball bat: 52%
(460.116821, 415.310547) (760.836975, 422.272797)
sub14_h2_lg_2_122.jpg: Predicted in 0.157707 seconds.
baseball bat: 69%
(455.445374, 413.143250) (765.710754, 424.524323)
sub14_h2_lg_2_123.jpg: Predicted in 0.156149 seconds.
baseball bat: 80%
(457.035431, 411.399475) (768.826172, 428.947723)
sub14_h2_lg_2_124.jpg: Predicted in 0.165483 seconds.
baseball bat: 85%
(464.707428, 409.433411) (771.337280, 432.604553)
sub14_h2_lg_2_125.jpg: Predicted in 0.155320 seconds.
baseball bat: 87%
(470.117828, 406.525574) (773.928345, 436.873474)
sub14_h2_lg_2_126.jpg: Predicted in 0.156950 seconds.
baseball bat: 89%
(478.890533, 403.919586) (770.671936, 439.715881)
sub14_h2_lg_2_127.jpg: Predicted in 0.154357 seconds.
baseball bat: 90%
(477.506927, 401.494049) (776.618286, 442.968994)
sub14_h2_lg_2_128.jpg: Predicted in 0.158002 seconds.
baseball bat: 91%
(480.128815, 401.405670) (778.492004, 445.897339)
sub14_h2_lg_2_129.jpg: Predicted in 0.155774 seconds.
baseball bat: 91%
(488.790985, 398.911133) (782.260742, 448.133698)
sub14_h2_lg_2_130.jpg: Predicted in 0.157275 seconds.
baseball bat: 91%
(494.827393, 396.244507) (781.599365, 452.063660)
sub14_h2_lg_2_131.jpg: Predicted in 0.155340 seconds.
baseball bat: 90%
(501.203949, 393.858765) (786.191833, 455.712952)
sub14_h2_lg_2_132.jpg: Predicted in 0.156599 seconds.
baseball bat: 90%
(506.525970, 391.563690) (786.119324, 459.111969)
sub14_h2_lg_2_133.jpg: Predicted in 0.157483 seconds.
baseball bat: 90%
(509.682404, 388.539581) (788.715881, 462.508698)
sub14_h2_lg_2_134.jpg: Predicted in 0.155234 seconds.
baseball bat: 90%
(512.212952, 387.148315) (791.069092, 466.199738)
sub14_h2_lg_2_135.jpg: Predicted in 0.157009 seconds.
baseball bat: 91%
(509.472351, 393.300262) (787.061646, 471.523651)
sub14_h2_lg_2_136.jpg: Predicted in 0.155386 seconds.
baseball bat: 91%
(517.326721, 390.653107) (788.552185, 474.345154)
sub14_h2_lg_2_137.jpg: Predicted in 0.155683 seconds.
baseball bat: 92%
(524.819275, 387.139374) (793.908752, 477.964630)
sub14_h2_lg_2_138.jpg: Predicted in 0.157689 seconds.
baseball bat: 92%
(532.413269, 384.946564) (793.812195, 480.663757)
sub14_h2_lg_2_139.jpg: Predicted in 0.156068 seconds.
baseball bat: 93%
(544.599976, 382.771240) (793.306519, 482.810364)
sub14_h2_lg_2_140.jpg: Predicted in 0.158821 seconds.
baseball bat: 93%
(551.547852, 380.897491) (797.231140, 484.930542)
sub14_h2_lg_2_141.jpg: Predicted in 0.156257 seconds.
baseball bat: 93%
(555.592651, 379.453247) (798.751221, 487.226593)
sub14_h2_lg_2_142.jpg: Predicted in 0.154330 seconds.
baseball bat: 93%
(560.388916, 377.409149) (797.060852, 490.034393)
sub14_h2_lg_2_143.jpg: Predicted in 0.154914 seconds.
baseball bat: 92%
(562.830261, 376.187744) (799.482971, 492.399261)
sub14_h2_lg_2_144.jpg: Predicted in 0.157603 seconds.
baseball bat: 92%
(567.922913, 374.963318) (798.358521, 495.697723)
sub14_h2_lg_2_145.jpg: Predicted in 0.154848 seconds.
baseball bat: 92%
(576.813416, 375.546814) (794.352783, 497.816376)
sub14_h2_lg_2_146.jpg: Predicted in 0.155971 seconds.
baseball bat: 92%
(583.750122, 373.137360) (790.273743, 500.438416)
sub14_h2_lg_2_147.jpg: Predicted in 0.155577 seconds.
baseball bat: 92%
(592.664185, 371.655670) (782.451355, 503.498169)
sub14_h2_lg_2_148.jpg: Predicted in 0.156113 seconds.
baseball bat: 91%
(600.705139, 369.637787) (790.276611, 505.754944)
sub14_h2_lg_2_149.jpg: Predicted in 0.156419 seconds.
baseball bat: 91%
(606.700623, 367.099609) (791.028748, 509.807190)
sub14_h2_lg_2_150.jpg: Predicted in 0.156938 seconds.
baseball bat: 90%
(616.858948, 367.081390) (788.359436, 509.573639)
sub14_h2_lg_2_151.jpg: Predicted in 0.158286 seconds.
baseball bat: 90%
(628.160706, 364.548370) (791.929199, 510.236664)
sub14_h2_lg_2_152.jpg: Predicted in 0.155516 seconds.
baseball bat: 90%
(634.222290, 363.760437) (794.692505, 513.959717)
sub14_h2_lg_2_153.jpg: Predicted in 0.157598 seconds.
baseball bat: 90%
(647.556396, 361.536011) (792.866394, 510.981842)
sub14_h2_lg_2_154.jpg: Predicted in 0.155414 seconds.
baseball bat: 91%
(656.713379, 360.053162) (792.282288, 511.684784)
sub14_h2_lg_2_155.jpg: Predicted in 0.157469 seconds.
baseball bat: 90%
(667.062866, 359.668915) (791.698608, 512.321289)
sub14_h2_lg_2_156.jpg: Predicted in 0.155043 seconds.
baseball bat: 90%
(678.036011, 359.261230) (792.434143, 511.067749)
sub14_h2_lg_2_157.jpg: Predicted in 0.157757 seconds.
baseball bat: 90%
(690.451782, 357.889984) (791.461792, 510.769989)
sub14_h2_lg_2_158.jpg: Predicted in 0.155904 seconds.
baseball bat: 89%
(701.097839, 356.721436) (792.790405, 510.183014)
sub14_h2_lg_2_159.jpg: Predicted in 0.155618 seconds.
baseball bat: 88%
(712.067322, 355.632721) (787.462708, 510.605408)
sub14_h2_lg_2_160.jpg: Predicted in 0.155992 seconds.
baseball bat: 86%
(723.411377, 353.908752) (787.495178, 512.119080)
sub14_h2_lg_2_161.jpg: Predicted in 0.156853 seconds.
baseball bat: 84%
(729.167480, 349.999664) (782.803955, 503.186859)
sub14_h2_lg_2_162.jpg: Predicted in 0.156318 seconds.
baseball bat: 80%
(747.221375, 354.380981) (781.254150, 512.682373)
sub14_h2_lg_2_163.jpg: Predicted in 0.164600 seconds.
baseball bat: 77%
(757.574890, 355.003265) (781.314148, 513.198914)
sub14_h2_lg_2_164.jpg: Predicted in 0.156469 seconds.
baseball bat: 64%
(765.382812, 350.365173) (782.026550, 505.597595)
sub14_h2_lg_2_165.jpg: Predicted in 0.155169 seconds.
sub14_h2_lg_2_166.jpg: Predicted in 0.158093 seconds.
baseball bat: 73%
(774.222534, 346.374207) (791.799500, 508.792877)
sub14_h2_lg_2_167.jpg: Predicted in 0.156939 seconds.
baseball bat: 83%
(775.275696, 350.158203) (803.980286, 503.979401)
sub14_h2_lg_2_168.jpg: Predicted in 0.164510 seconds.
baseball bat: 86%
(773.711060, 349.607483) (811.660522, 502.452057)
sub14_h2_lg_2_169.jpg: Predicted in 0.166477 seconds.
baseball bat: 87%
(769.275269, 351.666382) (826.489929, 496.892426)
sub14_h2_lg_2_170.jpg: Predicted in 0.158149 seconds.
baseball bat: 89%
(770.022949, 346.299652) (839.518066, 496.489441)
sub14_h2_lg_2_171.jpg: Predicted in 0.165191 seconds.
baseball bat: 90%
(769.272949, 346.149353) (850.528259, 490.215881)
sub14_h2_lg_2_172.jpg: Predicted in 0.161781 seconds.
baseball bat: 89%
(766.477051, 343.257874) (859.743347, 489.227112)
sub14_h2_lg_2_173.jpg: Predicted in 0.158600 seconds.
baseball bat: 90%
(764.456665, 343.207733) (863.892700, 484.678009)
sub14_h2_lg_2_174.jpg: Predicted in 0.155266 seconds.
baseball bat: 91%
(764.062744, 344.164612) (871.155762, 478.893982)
sub14_h2_lg_2_175.jpg: Predicted in 0.157533 seconds.
baseball bat: 89%
(761.890137, 344.641632) (878.449524, 471.838135)
sub14_h2_lg_2_176.jpg: Predicted in 0.155500 seconds.
baseball bat: 86%
(759.525574, 344.672028) (887.812256, 467.871277)
sub14_h2_lg_2_177.jpg: Predicted in 0.158182 seconds.
baseball bat: 84%
(759.032776, 343.749084) (900.839478, 465.813812)
sub14_h2_lg_2_178.jpg: Predicted in 0.157967 seconds.
baseball bat: 78%
(755.643799, 341.736603) (910.098389, 459.786713)
sub14_h2_lg_2_179.jpg: Predicted in 0.157551 seconds.
baseball bat: 79%
(753.755920, 341.015106) (919.379578, 459.334808)
sub14_h2_lg_2_180.jpg: Predicted in 0.165275 seconds.
baseball bat: 72%
(754.734863, 342.417267) (934.140747, 457.433014)
sub14_h2_lg_2_181.jpg: Predicted in 0.157189 seconds.
baseball bat: 56%
(748.600891, 342.447296) (943.315918, 454.226074)
sub14_h2_lg_2_182.jpg: Predicted in 0.158214 seconds.
baseball bat: 40%
(748.836609, 344.247894) (946.726440, 449.875366)
sub14_h2_lg_2_183.jpg: Predicted in 0.166486 seconds.
baseball bat: 38%
(748.790039, 346.048370) (952.067383, 447.417175)
sub14_h2_lg_2_184.jpg: Predicted in 0.154753 seconds.
baseball bat: 38%
(751.723572, 347.870728) (953.929504, 447.769135)
sub14_h2_lg_2_185.jpg: Predicted in 0.158567 seconds.
baseball bat: 34%
(750.542664, 349.401581) (957.599426, 445.475098)
sub14_h2_lg_2_186.jpg: Predicted in 0.156786 seconds.
baseball bat: 36%
(752.265442, 351.567078) (960.800049, 444.042145)
sub14_h2_lg_2_187.jpg: Predicted in 0.156434 seconds.
baseball bat: 37%
(750.627747, 352.575684) (964.700745, 441.215576)
sub14_h2_lg_2_188.jpg: Predicted in 0.155592 seconds.
sub14_h2_lg_2_189.jpg: Predicted in 0.156405 seconds.
sub14_h2_lg_2_190.jpg: Predicted in 0.156528 seconds.
sub14_h2_lg_2_191.jpg: Predicted in 0.160381 seconds.
sub14_h2_lg_2_192.jpg: Predicted in 0.154527 seconds.
sub14_h2_lg_2_193.jpg: Predicted in 0.155178 seconds.
sub14_h2_lg_2_194.jpg: Predicted in 0.155500 seconds.
sub14_h2_lg_2_195.jpg: Predicted in 0.155182 seconds.
sub14_h2_lg_2_196.jpg: Predicted in 0.164149 seconds.
sub14_h2_lg_2_197.jpg: Predicted in 0.155449 seconds.
sub14_h2_lg_2_198.jpg: Predicted in 0.155693 seconds.
sub14_h2_lg_2_199.jpg: Predicted in 0.155739 seconds.
sub14_h2_lg_2_200.jpg: Predicted in 0.166331 seconds.
sub14_h2_lg_2_201.jpg: Predicted in 0.157529 seconds.
