sub16_h1_sg_2_001.jpg: Predicted in 0.156909 seconds.
baseball bat: 52%
(789.864990, 148.206406) (817.100220, 293.187531)
baseball bat: 40%
(787.420959, 160.571396) (830.047607, 372.584534)
person: 80%
(653.859863, 203.755661) (863.313599, 803.833313)
sub16_h1_sg_2_002.jpg: Predicted in 0.157416 seconds.
baseball bat: 45%
(790.690063, 146.129822) (817.695251, 295.586304)
baseball bat: 43%
(787.319824, 161.958527) (831.074036, 372.839386)
person: 80%
(652.152771, 202.881454) (863.659302, 805.597595)
sub16_h1_sg_2_003.jpg: Predicted in 0.155322 seconds.
baseball bat: 48%
(792.802917, 145.599792) (819.011841, 299.206635)
baseball bat: 48%
(786.002686, 162.709946) (829.783325, 370.374878)
person: 80%
(654.785339, 204.825623) (865.484741, 804.442261)
sub16_h1_sg_2_004.jpg: Predicted in 0.155982 seconds.
baseball bat: 49%
(791.387268, 139.387146) (819.653992, 306.698944)
person: 80%
(653.779663, 205.555801) (864.051758, 801.970703)
sub16_h1_sg_2_005.jpg: Predicted in 0.159922 seconds.
baseball bat: 48%
(791.602600, 142.133469) (819.715454, 303.066742)
baseball bat: 44%
(785.340637, 160.231689) (831.546570, 372.650482)
person: 80%
(654.605896, 207.209518) (864.495361, 800.260132)
sub16_h1_sg_2_006.jpg: Predicted in 0.154952 seconds.
baseball bat: 48%
(787.088684, 162.359802) (830.085571, 369.383759)
person: 80%
(655.990540, 206.573181) (861.611267, 801.299194)
sub16_h1_sg_2_007.jpg: Predicted in 0.155703 seconds.
baseball bat: 43%
(787.446167, 165.471329) (828.728882, 365.283295)
person: 80%
(652.206543, 203.847122) (865.473328, 802.964233)
sub16_h1_sg_2_008.jpg: Predicted in 0.158669 seconds.
baseball bat: 39%
(791.081604, 149.360306) (817.007568, 297.509918)
baseball bat: 48%
(785.789490, 155.807037) (827.568237, 373.444489)
person: 80%
(655.118286, 203.768204) (864.299316, 803.947998)
sub16_h1_sg_2_009.jpg: Predicted in 0.164245 seconds.
baseball bat: 44%
(789.679321, 157.527924) (817.187561, 286.899933)
baseball bat: 49%
(784.997986, 159.153961) (827.752991, 369.962616)
person: 80%
(655.307068, 204.074448) (864.310120, 804.876648)
sub16_h1_sg_2_010.jpg: Predicted in 0.157839 seconds.
baseball bat: 41%
(790.455994, 157.146408) (816.626221, 282.708008)
baseball bat: 49%
(784.696167, 153.048584) (827.829773, 378.852570)
person: 80%
(653.656860, 204.884598) (864.464600, 802.278076)
sub16_h1_sg_2_011.jpg: Predicted in 0.156521 seconds.
baseball bat: 44%
(790.247803, 156.569366) (815.536926, 282.809906)
baseball bat: 47%
(785.384949, 164.176590) (829.056274, 367.951996)
person: 79%
(649.934143, 205.126404) (861.883789, 802.861572)
sub16_h1_sg_2_012.jpg: Predicted in 0.157971 seconds.
baseball bat: 48%
(790.227173, 154.336227) (817.275574, 284.166748)
baseball bat: 50%
(783.811218, 162.936798) (829.132996, 370.466217)
person: 79%
(648.229980, 205.917358) (864.090576, 802.323914)
sub16_h1_sg_2_013.jpg: Predicted in 0.157120 seconds.
baseball bat: 53%
(790.388184, 149.655075) (820.041809, 287.061676)
baseball bat: 49%
(782.968445, 169.564850) (830.688782, 365.997162)
person: 80%
(650.999878, 204.722260) (866.272583, 803.516602)
sub16_h1_sg_2_014.jpg: Predicted in 0.157498 seconds.
baseball bat: 53%
(791.157593, 146.936035) (821.136597, 292.453857)
baseball bat: 50%
(783.193176, 167.207153) (831.313965, 369.480164)
person: 80%
(649.298828, 206.489182) (866.772644, 801.158508)
sub16_h1_sg_2_015.jpg: Predicted in 0.157741 seconds.
baseball bat: 52%
(790.710938, 148.402390) (819.726379, 293.814575)
baseball bat: 48%
(783.317444, 168.043350) (830.025146, 365.147919)
person: 79%
(651.602051, 207.241913) (867.725220, 800.828430)
sub16_h1_sg_2_016.jpg: Predicted in 0.166213 seconds.
baseball bat: 45%
(790.722595, 149.897659) (821.026794, 289.595001)
baseball bat: 49%
(784.836548, 156.075027) (830.643494, 379.078308)
person: 79%
(650.255493, 209.453369) (864.040466, 799.113770)
sub16_h1_sg_2_017.jpg: Predicted in 0.156828 seconds.
baseball bat: 45%
(790.545227, 153.124481) (819.470459, 288.201202)
baseball bat: 51%
(785.874023, 156.064636) (829.091003, 379.408936)
person: 79%
(650.666931, 209.655243) (864.711914, 797.465820)
sub16_h1_sg_2_018.jpg: Predicted in 0.157297 seconds.
baseball bat: 44%
(790.526367, 154.547958) (818.460876, 286.816040)
baseball bat: 50%
(785.437134, 159.520325) (829.316101, 375.332123)
person: 80%
(651.062195, 210.214920) (867.306335, 799.325134)
sub16_h1_sg_2_019.jpg: Predicted in 0.156411 seconds.
baseball bat: 51%
(790.606689, 153.869492) (819.490845, 289.932922)
baseball bat: 49%
(785.083557, 157.587921) (830.608765, 373.084015)
person: 79%
(647.410400, 207.731461) (868.011047, 800.902344)
sub16_h1_sg_2_020.jpg: Predicted in 0.157440 seconds.
baseball bat: 50%
(789.738281, 151.420929) (817.462646, 296.176636)
baseball bat: 54%
(785.363647, 142.558060) (831.980713, 389.120697)
person: 79%
(647.608398, 207.946594) (864.494873, 801.223206)
sub16_h1_sg_2_021.jpg: Predicted in 0.156285 seconds.
baseball bat: 47%
(788.763123, 151.282196) (817.498596, 298.259766)
baseball bat: 53%
(785.920105, 147.353287) (831.405640, 385.237854)
person: 79%
(650.121460, 210.296219) (860.747375, 800.212036)
sub16_h1_sg_2_022.jpg: Predicted in 0.165286 seconds.
baseball bat: 52%
(789.765991, 145.731506) (820.522095, 300.781891)
person: 79%
(648.715820, 213.021133) (863.835449, 796.497192)
sub16_h1_sg_2_023.jpg: Predicted in 0.155096 seconds.
baseball bat: 54%
(789.969604, 146.941971) (818.246155, 299.012360)
baseball bat: 49%
(784.288635, 159.348618) (830.779724, 373.892517)
person: 79%
(647.510620, 208.934601) (862.334045, 799.938660)
sub16_h1_sg_2_024.jpg: Predicted in 0.157250 seconds.
baseball bat: 53%
(790.084106, 144.228073) (817.768188, 304.958618)
baseball bat: 49%
(784.843262, 158.020599) (830.959961, 374.404694)
person: 79%
(649.364624, 212.355087) (861.370544, 796.866760)
sub16_h1_sg_2_025.jpg: Predicted in 0.154535 seconds.
baseball bat: 56%
(789.814392, 142.645615) (819.682983, 302.692535)
person: 79%
(648.893311, 210.812347) (863.935669, 798.931885)
sub16_h1_sg_2_026.jpg: Predicted in 0.154837 seconds.
baseball bat: 52%
(789.964783, 148.382965) (819.777222, 294.844513)
baseball bat: 49%
(784.690430, 151.726776) (831.403809, 381.546539)
person: 79%
(650.694946, 209.041672) (865.443665, 802.019714)
sub16_h1_sg_2_027.jpg: Predicted in 0.156650 seconds.
baseball bat: 47%
(789.163574, 153.372131) (818.893494, 286.802979)
baseball bat: 52%
(783.655029, 149.916687) (829.820496, 381.729187)
person: 79%
(649.723022, 207.400513) (865.799866, 800.301453)
sub16_h1_sg_2_028.jpg: Predicted in 0.155961 seconds.
baseball bat: 45%
(789.776611, 156.825363) (819.178162, 284.354797)
baseball bat: 55%
(784.344910, 146.694855) (829.644775, 382.724426)
person: 79%
(650.799438, 210.948395) (862.974976, 795.322388)
sub16_h1_sg_2_029.jpg: Predicted in 0.159130 seconds.
baseball bat: 45%
(788.272766, 152.560669) (816.394775, 288.676910)
baseball bat: 50%
(784.612305, 144.211044) (828.975342, 388.900757)
person: 78%
(644.034973, 208.715942) (864.959045, 800.462585)
sub16_h1_sg_2_030.jpg: Predicted in 0.157203 seconds.
baseball bat: 52%
(787.582397, 145.831818) (817.212830, 300.630402)
baseball bat: 53%
(785.595276, 138.541931) (831.885925, 393.541534)
person: 79%
(647.623840, 210.089706) (864.228271, 800.508850)
sub16_h1_sg_2_031.jpg: Predicted in 0.157770 seconds.
baseball bat: 55%
(787.075073, 143.720123) (817.345093, 302.634735)
person: 79%
(645.244507, 209.344864) (863.914612, 801.048828)
sub16_h1_sg_2_032.jpg: Predicted in 0.156976 seconds.
baseball bat: 55%
(787.323608, 141.822678) (818.283875, 299.932343)
person: 79%
(647.129395, 212.587814) (862.961060, 799.644287)
sub16_h1_sg_2_033.jpg: Predicted in 0.159454 seconds.
baseball bat: 60%
(787.366943, 143.364502) (820.076904, 297.329193)
person: 78%
(647.889282, 212.128693) (863.317139, 798.711060)
sub16_h1_sg_2_034.jpg: Predicted in 0.157380 seconds.
baseball bat: 55%
(787.592285, 147.763702) (819.509338, 291.894836)
person: 79%
(648.081665, 211.865265) (863.731506, 800.029358)
sub16_h1_sg_2_035.jpg: Predicted in 0.164327 seconds.
baseball bat: 54%
(788.592529, 152.227264) (818.653259, 290.154724)
baseball bat: 54%
(784.006165, 155.056595) (829.833435, 377.025482)
person: 79%
(647.066833, 207.687927) (863.711975, 801.573669)
sub16_h1_sg_2_036.jpg: Predicted in 0.155088 seconds.
baseball bat: 57%
(787.297119, 147.126205) (816.739319, 288.350372)
baseball bat: 51%
(784.319702, 161.424728) (827.322327, 372.123108)
person: 80%
(649.606262, 206.645462) (867.451233, 800.637573)
sub16_h1_sg_2_037.jpg: Predicted in 0.155320 seconds.
baseball bat: 53%
(787.011841, 144.264069) (816.488098, 295.809570)
person: 79%
(654.603760, 208.441589) (865.435059, 798.669678)
sub16_h1_sg_2_038.jpg: Predicted in 0.156111 seconds.
baseball bat: 54%
(787.332336, 146.231476) (816.667175, 292.577118)
person: 79%
(650.114258, 210.026886) (866.689514, 799.708252)
sub16_h1_sg_2_039.jpg: Predicted in 0.156104 seconds.
baseball bat: 53%
(787.640381, 146.351730) (815.601807, 291.247345)
baseball bat: 51%
(783.741028, 160.183807) (826.649902, 376.116516)
person: 79%
(650.051147, 208.157776) (864.656189, 800.962585)
sub16_h1_sg_2_040.jpg: Predicted in 0.155552 seconds.
baseball bat: 55%
(788.720398, 141.287979) (815.430603, 297.260162)
baseball bat: 49%
(784.102234, 164.590439) (825.229248, 366.881348)
person: 79%
(650.021851, 207.082794) (864.041138, 803.718628)
sub16_h1_sg_2_041.jpg: Predicted in 0.155929 seconds.
baseball bat: 56%
(787.684204, 139.964203) (816.417664, 294.897125)
baseball bat: 48%
(784.388855, 168.517441) (828.451843, 365.234314)
person: 79%
(649.271667, 206.446701) (862.611084, 803.236938)
sub16_h1_sg_2_042.jpg: Predicted in 0.156711 seconds.
baseball bat: 61%
(788.458740, 132.123627) (817.045715, 302.390930)
person: 79%
(649.310730, 210.323120) (864.278748, 802.895935)
sub16_h1_sg_2_043.jpg: Predicted in 0.154953 seconds.
baseball bat: 59%
(788.579651, 134.716721) (816.561035, 300.355835)
person: 79%
(647.522888, 210.833313) (863.406982, 801.616638)
sub16_h1_sg_2_044.jpg: Predicted in 0.155111 seconds.
baseball bat: 56%
(788.960876, 141.610306) (816.863220, 290.051392)
baseball bat: 45%
(783.255737, 164.819061) (825.711853, 369.909943)
person: 79%
(645.175598, 207.501404) (864.443054, 800.884277)
sub16_h1_sg_2_045.jpg: Predicted in 0.156482 seconds.
baseball bat: 62%
(788.464844, 134.671707) (818.770264, 292.895386)
baseball bat: 41%
(782.560242, 172.487946) (825.957031, 362.892548)
person: 79%
(647.679810, 210.806442) (863.863464, 799.203613)
sub16_h1_sg_2_046.jpg: Predicted in 0.156567 seconds.
baseball bat: 65%
(786.844543, 130.394043) (820.003113, 293.440094)
baseball bat: 37%
(782.149292, 180.851654) (826.822449, 358.223419)
person: 80%
(648.430237, 209.219940) (867.943787, 798.388367)
sub16_h1_sg_2_047.jpg: Predicted in 0.157111 seconds.
baseball bat: 62%
(786.282532, 131.470520) (820.821655, 295.639435)
person: 79%
(648.198914, 209.821945) (866.324402, 796.932556)
sub16_h1_sg_2_048.jpg: Predicted in 0.155365 seconds.
baseball bat: 60%
(785.565979, 123.076279) (817.739990, 301.714783)
person: 78%
(647.731934, 210.321808) (866.158447, 795.073120)
sub16_h1_sg_2_049.jpg: Predicted in 0.158022 seconds.
baseball bat: 60%
(787.482361, 122.784393) (818.843811, 300.090149)
person: 79%
(643.929138, 210.963623) (867.536316, 798.221558)
sub16_h1_sg_2_050.jpg: Predicted in 0.156561 seconds.
baseball bat: 56%
(789.084106, 126.413330) (818.307434, 301.863586)
baseball bat: 38%
(783.319092, 170.021774) (826.850159, 368.093292)
person: 78%
(647.807007, 209.768295) (862.612915, 796.271423)
sub16_h1_sg_2_051.jpg: Predicted in 0.156937 seconds.
baseball bat: 61%
(788.635864, 125.376572) (817.585144, 297.931000)
baseball bat: 37%
(783.882141, 169.756256) (827.882690, 369.788605)
person: 79%
(648.272522, 211.863739) (864.830994, 796.610535)
sub16_h1_sg_2_052.jpg: Predicted in 0.156028 seconds.
baseball bat: 64%
(788.663086, 128.667603) (819.500854, 297.614716)
baseball bat: 40%
(782.601746, 166.098679) (827.960388, 371.275970)
person: 80%
(648.731140, 209.856934) (863.292969, 798.169861)
sub16_h1_sg_2_053.jpg: Predicted in 0.155517 seconds.
baseball bat: 60%
(787.851440, 135.073746) (818.195190, 295.640106)
baseball bat: 45%
(782.210632, 165.164886) (829.113953, 373.623444)
person: 80%
(651.469055, 208.331207) (862.693115, 798.960999)
sub16_h1_sg_2_054.jpg: Predicted in 0.154627 seconds.
baseball bat: 60%
(788.400085, 137.645126) (818.665833, 294.784424)
baseball bat: 45%
(782.393799, 162.903900) (828.735474, 375.878265)
person: 80%
(652.404663, 209.268097) (862.818237, 799.309631)
sub16_h1_sg_2_055.jpg: Predicted in 0.156479 seconds.
baseball bat: 55%
(787.748779, 139.825653) (819.503723, 289.166534)
baseball bat: 44%
(781.967163, 160.011215) (829.607849, 378.345154)
person: 80%
(646.579956, 206.901733) (863.639587, 799.694824)
sub16_h1_sg_2_056.jpg: Predicted in 0.157118 seconds.
baseball bat: 57%
(787.022827, 134.948578) (820.239136, 293.361969)
baseball bat: 40%
(782.593689, 167.578629) (830.458801, 374.155884)
person: 79%
(649.799133, 206.760620) (862.528015, 799.013611)
sub16_h1_sg_2_057.jpg: Predicted in 0.156460 seconds.
baseball bat: 63%
(787.237122, 129.895996) (819.726257, 298.660828)
baseball bat: 42%
(781.452087, 169.538849) (828.314880, 368.409851)
person: 80%
(644.035828, 207.485245) (866.297729, 797.242188)
sub16_h1_sg_2_058.jpg: Predicted in 0.155895 seconds.
baseball bat: 59%
(787.159241, 128.371353) (819.126892, 298.814606)
baseball bat: 41%
(782.900818, 166.226608) (829.607727, 372.512482)
person: 79%
(639.261414, 206.710861) (866.272522, 797.929626)
sub16_h1_sg_2_059.jpg: Predicted in 0.157796 seconds.
baseball bat: 60%
(787.957397, 123.912605) (821.316284, 303.979462)
baseball bat: 36%
(782.538025, 168.303711) (848.292847, 369.027832)
person: 79%
(643.497437, 209.146576) (861.949158, 798.041626)
sub16_h1_sg_2_060.jpg: Predicted in 0.154944 seconds.
baseball bat: 63%
(786.183777, 121.699562) (820.466919, 304.964355)
baseball bat: 33%
(780.106812, 169.965668) (848.664734, 363.270660)
person: 80%
(643.162659, 209.252625) (858.970398, 798.453735)
sub16_h1_sg_2_061.jpg: Predicted in 0.155507 seconds.
baseball bat: 62%
(787.567261, 121.378548) (821.888123, 307.386749)
baseball bat: 30%
(782.546021, 168.727356) (850.595581, 366.938904)
person: 80%
(646.358398, 210.737259) (861.561401, 799.846252)
sub16_h1_sg_2_062.jpg: Predicted in 0.155361 seconds.
baseball bat: 65%
(786.788208, 122.276634) (822.732178, 307.133148)
baseball bat: 30%
(783.290588, 167.802872) (851.424805, 366.106445)
person: 80%
(647.115906, 213.135406) (861.009888, 800.024048)
sub16_h1_sg_2_063.jpg: Predicted in 0.155511 seconds.
baseball bat: 63%
(788.142700, 124.132439) (820.749329, 299.821716)
person: 80%
(646.015320, 208.827454) (859.087402, 798.897339)
sub16_h1_sg_2_064.jpg: Predicted in 0.156327 seconds.
baseball bat: 58%
(789.350403, 124.338928) (821.856079, 300.634521)
baseball bat: 40%
(783.448914, 161.937027) (831.771606, 378.747894)
person: 80%
(645.868164, 209.707016) (858.711609, 798.876404)
sub16_h1_sg_2_065.jpg: Predicted in 0.155360 seconds.
baseball bat: 58%
(789.816284, 118.507835) (821.890686, 305.028839)
baseball bat: 36%
(784.178101, 162.221436) (831.600708, 377.257477)
person: 80%
(645.170288, 210.376099) (859.755859, 797.691406)
sub16_h1_sg_2_066.jpg: Predicted in 0.154677 seconds.
baseball bat: 62%
(788.350708, 116.314247) (824.142273, 306.087372)
person: 80%
(646.853149, 204.766495) (861.421265, 799.724854)
sub16_h1_sg_2_067.jpg: Predicted in 0.156998 seconds.
baseball bat: 61%
(787.248108, 113.371979) (823.137939, 315.405243)
baseball bat: 31%
(779.624512, 166.094238) (847.476746, 368.978821)
person: 80%
(640.202637, 203.807312) (863.614502, 797.997620)
sub16_h1_sg_2_068.jpg: Predicted in 0.161251 seconds.
baseball bat: 62%
(786.658203, 109.208740) (824.074524, 316.358551)
person: 80%
(641.349976, 204.749008) (863.421021, 798.692810)
sub16_h1_sg_2_069.jpg: Predicted in 0.177792 seconds.
baseball bat: 56%
(787.867371, 116.659225) (821.173462, 315.703522)
person: 81%
(638.727234, 205.766769) (860.489685, 798.863770)
sub16_h1_sg_2_070.jpg: Predicted in 0.154632 seconds.
baseball bat: 56%
(788.493958, 106.770134) (819.918335, 324.920929)
baseball bat: 31%
(782.009338, 162.216812) (841.968018, 373.869019)
person: 80%
(641.668823, 213.096970) (857.646667, 796.292786)
sub16_h1_sg_2_071.jpg: Predicted in 0.158503 seconds.
baseball bat: 52%
(788.087708, 101.399551) (817.493042, 329.531403)
person: 80%
(636.686401, 208.921906) (859.965942, 800.723938)
sub16_h1_sg_2_072.jpg: Predicted in 0.157235 seconds.
baseball bat: 51%
(786.428162, 105.769310) (816.730103, 320.155884)
person: 80%
(643.075928, 213.020920) (859.215637, 798.081726)
sub16_h1_sg_2_073.jpg: Predicted in 0.157221 seconds.
baseball bat: 52%
(787.201050, 105.342926) (817.831421, 317.368927)
person: 80%
(641.738037, 211.112167) (859.561218, 797.236084)
sub16_h1_sg_2_074.jpg: Predicted in 0.156028 seconds.
baseball bat: 57%
(787.153381, 109.628540) (821.266296, 309.395599)
person: 79%
(642.038147, 206.542389) (860.521057, 799.657471)
sub16_h1_sg_2_075.jpg: Predicted in 0.155279 seconds.
baseball bat: 56%
(786.688599, 107.192802) (821.250854, 314.903076)
person: 80%
(642.347351, 212.028580) (857.581055, 794.892517)
sub16_h1_sg_2_076.jpg: Predicted in 0.158141 seconds.
baseball bat: 57%
(786.500305, 111.329742) (823.527161, 313.541412)
person: 80%
(638.153748, 209.771423) (859.038513, 795.510864)
sub16_h1_sg_2_077.jpg: Predicted in 0.156296 seconds.
baseball bat: 56%
(786.629761, 110.900940) (821.913330, 314.381195)
person: 80%
(638.360291, 207.961029) (860.340759, 794.789062)
sub16_h1_sg_2_078.jpg: Predicted in 0.160127 seconds.
baseball bat: 55%
(787.550903, 115.412888) (821.598694, 310.999847)
person: 81%
(640.435852, 206.377335) (858.273071, 797.885681)
sub16_h1_sg_2_079.jpg: Predicted in 0.157265 seconds.
baseball bat: 54%
(787.929138, 104.843117) (821.002930, 322.446564)
person: 81%
(638.356812, 209.072235) (857.569214, 798.147644)
sub16_h1_sg_2_080.jpg: Predicted in 0.156912 seconds.
baseball bat: 50%
(788.349121, 106.712639) (818.837585, 320.211639)
person: 82%
(637.355469, 208.045410) (857.814514, 800.074829)
sub16_h1_sg_2_081.jpg: Predicted in 0.158353 seconds.
baseball bat: 50%
(787.736145, 102.472794) (817.707458, 320.608551)
person: 81%
(637.863892, 206.953308) (857.329468, 803.747986)
sub16_h1_sg_2_082.jpg: Predicted in 0.156112 seconds.
baseball bat: 46%
(787.577759, 106.887840) (817.610657, 317.066162)
person: 81%
(637.339478, 209.466736) (855.281372, 799.990356)
sub16_h1_sg_2_083.jpg: Predicted in 0.155857 seconds.
baseball bat: 53%
(788.869202, 104.752441) (819.742737, 314.542145)
person: 81%
(637.356323, 209.780884) (856.760925, 800.429138)
sub16_h1_sg_2_084.jpg: Predicted in 0.155465 seconds.
baseball bat: 56%
(789.120605, 97.698334) (821.101440, 325.194336)
person: 81%
(637.845215, 211.709641) (855.533081, 798.960999)
sub16_h1_sg_2_085.jpg: Predicted in 0.155508 seconds.
baseball bat: 57%
(788.185059, 101.174103) (821.423096, 320.106171)
person: 80%
(636.391174, 213.615005) (852.993713, 795.619873)
sub16_h1_sg_2_086.jpg: Predicted in 0.167264 seconds.
baseball bat: 56%
(789.565857, 107.722069) (819.684326, 322.718658)
person: 80%
(639.315857, 210.496109) (857.517639, 797.293701)
sub16_h1_sg_2_087.jpg: Predicted in 0.165399 seconds.
baseball bat: 55%
(788.593323, 118.418869) (818.445557, 316.836945)
person: 81%
(639.586731, 208.602219) (858.457520, 797.325989)
sub16_h1_sg_2_088.jpg: Predicted in 0.157414 seconds.
baseball bat: 50%
(788.221985, 116.705414) (818.713745, 317.045776)
person: 80%
(639.383057, 207.569855) (858.824768, 795.752808)
sub16_h1_sg_2_089.jpg: Predicted in 0.154873 seconds.
baseball bat: 48%
(789.008301, 114.051102) (818.841858, 319.461548)
person: 80%
(634.868408, 209.516998) (856.823059, 797.830872)
sub16_h1_sg_2_090.jpg: Predicted in 0.154806 seconds.
baseball bat: 47%
(789.305908, 109.350525) (817.355469, 321.742371)
person: 80%
(633.496887, 209.392502) (856.249207, 799.626709)
sub16_h1_sg_2_091.jpg: Predicted in 0.157095 seconds.
baseball bat: 48%
(788.764587, 100.911057) (817.462097, 325.181458)
person: 80%
(635.386536, 209.098740) (858.718994, 800.166321)
sub16_h1_sg_2_092.jpg: Predicted in 0.156512 seconds.
baseball bat: 49%
(787.787781, 98.617363) (816.038208, 325.194275)
person: 80%
(634.530762, 210.542480) (856.333618, 798.460938)
sub16_h1_sg_2_093.jpg: Predicted in 0.157376 seconds.
baseball bat: 54%
(786.494385, 93.590309) (815.970093, 333.735504)
person: 80%
(635.680847, 208.492401) (854.284241, 799.734253)
sub16_h1_sg_2_094.jpg: Predicted in 0.157829 seconds.
baseball bat: 49%
(788.739075, 102.993416) (816.359680, 328.023590)
person: 80%
(633.705627, 211.325958) (858.859680, 795.231628)
sub16_h1_sg_2_095.jpg: Predicted in 0.156913 seconds.
baseball bat: 47%
(789.376038, 104.203964) (818.071045, 329.273071)
person: 79%
(631.766479, 212.522964) (857.757751, 795.530457)
sub16_h1_sg_2_096.jpg: Predicted in 0.157481 seconds.
baseball bat: 51%
(787.807373, 118.134369) (819.988831, 315.489838)
person: 79%
(634.691467, 210.132263) (860.064087, 795.059753)
sub16_h1_sg_2_097.jpg: Predicted in 0.156625 seconds.
baseball bat: 46%
(787.528687, 123.504822) (817.261963, 308.804138)
person: 80%
(631.224060, 213.786530) (857.424438, 792.328918)
sub16_h1_sg_2_098.jpg: Predicted in 0.158128 seconds.
baseball bat: 47%
(787.570984, 121.856720) (817.046814, 308.865326)
person: 80%
(628.909180, 216.371536) (857.781311, 791.658875)
sub16_h1_sg_2_099.jpg: Predicted in 0.156161 seconds.
baseball bat: 45%
(788.481934, 113.057877) (816.704224, 316.398468)
person: 80%
(627.987915, 216.262985) (858.534302, 796.136780)
sub16_h1_sg_2_100.jpg: Predicted in 0.155253 seconds.
baseball bat: 38%
(788.914795, 113.585594) (816.626465, 318.088318)
person: 80%
(623.320618, 214.715820) (857.462280, 796.198059)
sub16_h1_sg_2_101.jpg: Predicted in 0.156248 seconds.
baseball bat: 43%
(789.918945, 111.197067) (818.336243, 314.921967)
baseball bat: 31%
(783.809692, 154.849655) (828.146301, 383.383606)
person: 80%
(624.586060, 212.640289) (853.171814, 798.152710)
sub16_h1_sg_2_102.jpg: Predicted in 0.158415 seconds.
baseball bat: 43%
(790.659546, 115.135612) (819.493225, 310.016296)
baseball bat: 33%
(784.600769, 162.949539) (829.955505, 380.789917)
person: 80%
(627.792114, 220.329453) (852.954224, 793.700500)
sub16_h1_sg_2_103.jpg: Predicted in 0.155529 seconds.
baseball bat: 42%
(792.850952, 116.213524) (821.498596, 311.085846)
baseball bat: 37%
(784.655884, 164.791077) (830.224182, 381.194763)
person: 80%
(629.353149, 219.648163) (849.934387, 794.878113)
sub16_h1_sg_2_104.jpg: Predicted in 0.157315 seconds.
baseball bat: 44%
(792.497253, 119.468132) (820.035706, 301.653320)
baseball bat: 33%
(785.012329, 170.377472) (827.704224, 377.663483)
person: 79%
(623.470276, 217.033203) (849.118103, 795.227417)
sub16_h1_sg_2_105.jpg: Predicted in 0.156825 seconds.
baseball bat: 42%
(792.211121, 115.624290) (819.975342, 303.305084)
baseball bat: 32%
(785.753601, 177.148056) (827.935364, 375.119080)
person: 79%
(625.598816, 216.959045) (851.600891, 795.478210)
sub16_h1_sg_2_106.jpg: Predicted in 0.165799 seconds.
baseball bat: 44%
(794.412537, 117.625908) (819.994995, 305.947540)
baseball bat: 41%
(788.066101, 170.401199) (829.052856, 378.496246)
person: 81%
(625.601746, 218.641754) (858.231567, 793.590088)
sub16_h1_sg_2_107.jpg: Predicted in 0.155805 seconds.
baseball bat: 42%
(794.726379, 124.996681) (819.820129, 300.741699)
baseball bat: 40%
(787.586975, 166.318512) (827.635803, 378.369995)
person: 80%
(628.281982, 224.489761) (856.808777, 788.698425)
sub16_h1_sg_2_108.jpg: Predicted in 0.163858 seconds.
baseball bat: 46%
(795.516113, 122.669594) (821.465881, 296.891418)
baseball bat: 39%
(786.030640, 162.884491) (827.984253, 381.324890)
person: 80%
(629.271973, 225.653549) (855.581543, 788.083252)
sub16_h1_sg_2_109.jpg: Predicted in 0.157287 seconds.
baseball bat: 44%
(792.054871, 120.932755) (818.853027, 296.004059)
baseball bat: 37%
(784.626404, 159.946060) (826.405579, 386.670776)
person: 80%
(630.666443, 221.202255) (849.651550, 793.074036)
sub16_h1_sg_2_110.jpg: Predicted in 0.156579 seconds.
baseball bat: 50%
(792.046265, 117.195473) (819.942139, 304.782227)
baseball bat: 38%
(783.535400, 162.880890) (826.118408, 383.734955)
person: 80%
(629.974854, 218.068222) (851.543213, 795.398071)
sub16_h1_sg_2_111.jpg: Predicted in 0.156991 seconds.
baseball bat: 45%
(791.275146, 113.505539) (818.099854, 308.545074)
baseball bat: 34%
(784.408142, 160.071930) (826.012390, 387.380768)
person: 79%
(627.079651, 220.691772) (852.979736, 793.793579)
sub16_h1_sg_2_112.jpg: Predicted in 0.156576 seconds.
baseball bat: 48%
(791.373291, 119.024162) (820.426453, 306.078400)
baseball bat: 40%
(783.737244, 158.626633) (825.862793, 386.088623)
person: 79%
(627.732361, 219.415634) (848.811096, 795.020142)
sub16_h1_sg_2_113.jpg: Predicted in 0.163961 seconds.
baseball bat: 43%
(792.674316, 123.715569) (819.012268, 302.968384)
baseball bat: 33%
(784.367554, 162.171799) (824.121216, 380.156921)
person: 79%
(630.713135, 216.116974) (847.635376, 795.491455)
sub16_h1_sg_2_114.jpg: Predicted in 0.157782 seconds.
baseball bat: 41%
(793.991211, 124.511490) (819.073059, 300.246613)
person: 79%
(629.786560, 217.560837) (847.171448, 793.747925)
sub16_h1_sg_2_115.jpg: Predicted in 0.155813 seconds.
baseball bat: 34%
(794.562866, 125.792519) (816.779175, 300.137970)
baseball bat: 34%
(788.807800, 160.927002) (826.977417, 384.942139)
person: 79%
(627.946350, 219.718552) (845.563660, 792.214233)
sub16_h1_sg_2_116.jpg: Predicted in 0.157125 seconds.
baseball bat: 36%
(793.951660, 115.483566) (817.256714, 309.089325)
baseball bat: 34%
(789.096008, 167.948517) (828.024658, 381.209534)
person: 80%
(628.580078, 220.418091) (847.714172, 791.483276)
sub16_h1_sg_2_117.jpg: Predicted in 0.156499 seconds.
baseball bat: 34%
(787.655090, 162.398346) (823.324951, 384.062469)
person: 80%
(629.978271, 222.591644) (852.113525, 793.440002)
sub16_h1_sg_2_118.jpg: Predicted in 0.156312 seconds.
baseball bat: 36%
(788.001587, 153.567154) (823.338623, 391.058838)
person: 81%
(630.558655, 224.441956) (854.712341, 791.771729)
sub16_h1_sg_2_119.jpg: Predicted in 0.156367 seconds.
person: 80%
(624.658264, 219.748138) (848.461853, 799.191284)
sub16_h1_sg_2_120.jpg: Predicted in 0.156553 seconds.
baseball bat: 33%
(788.635071, 145.125717) (824.294312, 399.659912)
person: 79%
(627.424866, 223.121002) (849.299255, 798.232605)
sub16_h1_sg_2_121.jpg: Predicted in 0.155587 seconds.
baseball bat: 34%
(789.666992, 150.368073) (827.419312, 394.895020)
person: 80%
(628.268677, 217.956207) (848.366943, 800.896301)
sub16_h1_sg_2_122.jpg: Predicted in 0.155824 seconds.
baseball bat: 41%
(788.265930, 143.146255) (826.379578, 403.235779)
person: 80%
(631.418701, 212.161758) (847.412292, 803.843445)
sub16_h1_sg_2_123.jpg: Predicted in 0.154988 seconds.
baseball bat: 38%
(787.290710, 143.479126) (826.381470, 403.408417)
person: 80%
(627.004578, 211.337830) (849.667053, 802.711731)
sub16_h1_sg_2_124.jpg: Predicted in 0.156313 seconds.
baseball bat: 32%
(794.797852, 121.675911) (814.785889, 312.936462)
baseball bat: 35%
(787.907715, 149.987564) (826.641724, 394.312500)
person: 80%
(626.461914, 210.648895) (849.322998, 800.177124)
sub16_h1_sg_2_125.jpg: Predicted in 0.157061 seconds.
baseball bat: 34%
(795.652222, 121.400757) (817.705444, 310.354065)
baseball bat: 34%
(788.021423, 163.572998) (827.319641, 382.960449)
person: 79%
(623.657898, 217.888214) (846.964661, 796.849609)
sub16_h1_sg_2_126.jpg: Predicted in 0.165219 seconds.
baseball bat: 31%
(796.563843, 127.628922) (818.835632, 308.281738)
baseball bat: 41%
(790.039490, 155.865448) (827.221741, 390.645050)
person: 80%
(625.252625, 222.577377) (851.619019, 796.486084)
sub16_h1_sg_2_127.jpg: Predicted in 0.156157 seconds.
baseball bat: 35%
(796.082825, 132.839279) (819.559692, 301.901062)
baseball bat: 40%
(787.647278, 165.166229) (827.218140, 380.643127)
person: 79%
(628.124390, 231.065231) (857.251587, 791.208496)
sub16_h1_sg_2_128.jpg: Predicted in 0.155968 seconds.
baseball bat: 33%
(796.348022, 128.317200) (819.238342, 307.344818)
baseball bat: 45%
(788.538330, 153.222473) (826.909973, 391.752808)
person: 80%
(628.520325, 226.277344) (856.265137, 793.179871)
sub16_h1_sg_2_129.jpg: Predicted in 0.157667 seconds.
baseball bat: 33%
(794.976501, 127.386543) (815.898926, 305.559753)
baseball bat: 48%
(787.490540, 150.484390) (826.253174, 393.211060)
person: 79%
(629.796997, 223.389847) (853.693420, 796.780762)
sub16_h1_sg_2_130.jpg: Predicted in 0.166905 seconds.
baseball bat: 47%
(789.473999, 148.696045) (829.769470, 394.248718)
person: 79%
(627.211060, 222.745422) (852.339722, 798.827820)
sub16_h1_sg_2_131.jpg: Predicted in 0.157618 seconds.
baseball bat: 43%
(789.106140, 143.733398) (828.555481, 396.281494)
person: 78%
(624.801147, 219.209793) (851.723511, 800.921021)
sub16_h1_sg_2_132.jpg: Predicted in 0.157479 seconds.
baseball bat: 42%
(787.683716, 142.539032) (826.094666, 396.919373)
person: 79%
(626.972351, 217.414719) (850.265503, 800.852661)
sub16_h1_sg_2_133.jpg: Predicted in 0.156062 seconds.
baseball bat: 37%
(786.783020, 145.393127) (823.417786, 391.258820)
person: 80%
(625.735657, 216.438599) (849.939087, 801.007629)
sub16_h1_sg_2_134.jpg: Predicted in 0.158185 seconds.
baseball bat: 30%
(794.514343, 136.068039) (815.570618, 309.535522)
baseball bat: 42%
(788.215393, 146.632874) (825.124146, 391.183228)
person: 79%
(627.460938, 216.407364) (848.696594, 799.627014)
sub16_h1_sg_2_135.jpg: Predicted in 0.156737 seconds.
baseball bat: 41%
(788.823914, 145.172058) (824.840637, 393.842987)
person: 80%
(628.278198, 215.734863) (850.869873, 798.765564)
sub16_h1_sg_2_136.jpg: Predicted in 0.155061 seconds.
baseball bat: 41%
(789.537170, 153.635040) (826.212830, 388.538208)
person: 79%
(625.448730, 219.570023) (851.177063, 797.192505)
sub16_h1_sg_2_137.jpg: Predicted in 0.157139 seconds.
baseball bat: 33%
(798.134583, 125.825745) (817.807312, 318.200928)
baseball bat: 47%
(791.598816, 161.884583) (828.222168, 376.895721)
person: 80%
(628.914551, 224.879974) (857.938477, 793.065308)
sub16_h1_sg_2_138.jpg: Predicted in 0.160138 seconds.
baseball bat: 33%
(795.776550, 131.742264) (815.266724, 315.475616)
baseball bat: 46%
(792.192688, 157.649170) (828.422974, 380.251099)
person: 80%
(626.615295, 224.494965) (854.428711, 794.518372)
sub16_h1_sg_2_139.jpg: Predicted in 0.164241 seconds.
baseball bat: 50%
(789.879211, 151.457458) (828.259033, 384.930145)
person: 79%
(625.496399, 225.334793) (851.905823, 794.681030)
sub16_h1_sg_2_140.jpg: Predicted in 0.164348 seconds.
baseball bat: 54%
(790.732727, 141.376419) (829.837341, 393.448425)
person: 80%
(627.710632, 220.061920) (849.521118, 798.720886)
sub16_h1_sg_2_141.jpg: Predicted in 0.177491 seconds.
baseball bat: 44%
(792.435669, 143.265503) (829.896667, 390.361725)
person: 80%
(629.601562, 217.485123) (848.242981, 801.528259)
sub16_h1_sg_2_142.jpg: Predicted in 0.157935 seconds.
baseball bat: 43%
(789.559082, 142.045074) (828.876282, 392.247009)
person: 80%
(631.458923, 217.301895) (847.498901, 802.720581)
sub16_h1_sg_2_143.jpg: Predicted in 0.157507 seconds.
baseball bat: 49%
(790.423157, 130.319000) (831.837158, 405.005249)
person: 81%
(632.742859, 218.703629) (848.517334, 802.767883)
sub16_h1_sg_2_144.jpg: Predicted in 0.165863 seconds.
baseball bat: 50%
(791.809509, 137.559631) (836.065552, 399.839294)
person: 81%
(631.462280, 220.310806) (848.997314, 801.985718)
sub16_h1_sg_2_145.jpg: Predicted in 0.156346 seconds.
baseball bat: 58%
(792.028015, 121.664062) (835.476562, 415.893494)
person: 80%
(629.302917, 224.797195) (853.024048, 802.437561)
sub16_h1_sg_2_146.jpg: Predicted in 0.157668 seconds.
baseball bat: 52%
(793.495667, 126.715698) (835.493591, 408.794891)
person: 80%
(627.302612, 220.405655) (857.239441, 802.466980)
sub16_h1_sg_2_147.jpg: Predicted in 0.159846 seconds.
baseball bat: 59%
(791.792419, 128.181442) (833.339111, 406.384186)
person: 81%
(627.848511, 228.522186) (861.719238, 798.602539)
sub16_h1_sg_2_148.jpg: Predicted in 0.155907 seconds.
baseball bat: 66%
(789.248718, 111.819839) (831.860107, 423.414337)
person: 81%
(625.706604, 224.707748) (862.898254, 799.176636)
sub16_h1_sg_2_149.jpg: Predicted in 0.158262 seconds.
baseball bat: 61%
(789.074280, 117.261299) (831.843994, 418.585846)
person: 80%
(623.730591, 222.691055) (862.073669, 801.061707)
sub16_h1_sg_2_150.jpg: Predicted in 0.164651 seconds.
baseball bat: 63%
(789.130798, 122.477432) (837.754761, 411.669403)
person: 80%
(629.857849, 222.651581) (862.179199, 802.098572)
sub16_h1_sg_2_151.jpg: Predicted in 0.165831 seconds.
baseball bat: 55%
(789.691284, 115.671135) (838.487122, 421.915283)
person: 81%
(628.045715, 222.193695) (859.395386, 802.600220)
sub16_h1_sg_2_152.jpg: Predicted in 0.157347 seconds.
baseball bat: 54%
(790.807861, 121.428612) (837.559143, 410.511810)
person: 81%
(625.390869, 224.607208) (863.056213, 806.778503)
sub16_h1_sg_2_153.jpg: Predicted in 0.158522 seconds.
baseball bat: 51%
(791.516663, 120.480553) (838.680176, 411.689636)
person: 81%
(625.354492, 223.133118) (858.241577, 808.556335)
sub16_h1_sg_2_154.jpg: Predicted in 0.157078 seconds.
baseball bat: 56%
(790.188477, 124.860527) (839.882019, 408.937592)
person: 80%
(624.705017, 224.131424) (857.632141, 805.759399)
sub16_h1_sg_2_155.jpg: Predicted in 0.160893 seconds.
baseball bat: 55%
(790.972595, 131.726807) (841.786194, 404.227814)
person: 80%
(618.073853, 226.080154) (851.977722, 808.198608)
sub16_h1_sg_2_156.jpg: Predicted in 0.160218 seconds.
baseball bat: 52%
(793.944092, 133.626495) (841.763489, 403.263641)
person: 80%
(620.110229, 227.158768) (850.784973, 803.753418)
sub16_h1_sg_2_157.jpg: Predicted in 0.156199 seconds.
baseball bat: 56%
(790.581116, 131.493988) (838.327576, 404.030945)
person: 80%
(619.887573, 229.160904) (854.928589, 802.255615)
sub16_h1_sg_2_158.jpg: Predicted in 0.156624 seconds.
baseball bat: 60%
(789.344666, 131.245667) (836.280945, 403.175110)
person: 80%
(620.666504, 230.439377) (858.998291, 800.222046)
sub16_h1_sg_2_159.jpg: Predicted in 0.155975 seconds.
baseball bat: 65%
(790.753052, 119.351601) (842.626343, 417.775238)
person: 80%
(618.400513, 229.434113) (856.019470, 800.758850)
sub16_h1_sg_2_160.jpg: Predicted in 0.158059 seconds.
baseball bat: 62%
(789.635559, 116.221687) (840.860779, 420.377472)
person: 80%
(621.350708, 224.522278) (851.904114, 804.280884)
sub16_h1_sg_2_161.jpg: Predicted in 0.157021 seconds.
baseball bat: 62%
(788.813538, 109.290314) (841.641174, 426.792633)
person: 81%
(621.505249, 227.282379) (852.249939, 806.381470)
sub16_h1_sg_2_162.jpg: Predicted in 0.156812 seconds.
baseball bat: 63%
(786.018982, 125.014603) (841.576538, 407.350159)
person: 80%
(623.785278, 229.543930) (851.633423, 803.265686)
sub16_h1_sg_2_163.jpg: Predicted in 0.155319 seconds.
baseball bat: 61%
(786.136902, 126.357780) (842.863831, 407.454132)
person: 81%
(623.163818, 229.973816) (852.044800, 806.570679)
sub16_h1_sg_2_164.jpg: Predicted in 0.156210 seconds.
baseball bat: 60%
(780.063416, 194.536423) (841.495422, 376.563751)
person: 81%
(624.482971, 233.326721) (851.805176, 805.139893)
sub16_h1_sg_2_165.jpg: Predicted in 0.155299 seconds.
baseball bat: 60%
(787.687439, 133.402130) (843.043335, 397.596527)
person: 81%
(625.190369, 232.898849) (850.073120, 805.309998)
sub16_h1_sg_2_166.jpg: Predicted in 0.155428 seconds.
baseball bat: 61%
(787.875671, 119.041016) (839.523804, 411.560974)
person: 81%
(623.595581, 229.596497) (851.898071, 802.721497)
sub16_h1_sg_2_167.jpg: Predicted in 0.156649 seconds.
baseball bat: 58%
(779.641235, 188.300522) (841.230652, 373.903656)
person: 81%
(623.983765, 232.072098) (853.251831, 798.413147)
sub16_h1_sg_2_168.jpg: Predicted in 0.157017 seconds.
baseball bat: 63%
(786.259094, 125.185013) (840.611633, 405.369324)
person: 81%
(625.096802, 230.659180) (850.055786, 799.165588)
sub16_h1_sg_2_169.jpg: Predicted in 0.155992 seconds.
baseball bat: 65%
(778.670593, 191.965179) (842.370178, 378.249573)
person: 81%
(628.489258, 231.301788) (849.090698, 802.122131)
sub16_h1_sg_2_170.jpg: Predicted in 0.164886 seconds.
baseball bat: 64%
(779.322693, 188.785080) (841.594360, 380.928864)
person: 81%
(626.003174, 230.624649) (846.150452, 802.897766)
sub16_h1_sg_2_171.jpg: Predicted in 0.157369 seconds.
baseball bat: 62%
(780.268616, 191.363312) (842.613281, 377.951202)
person: 81%
(629.998352, 230.170471) (841.419800, 806.862305)
sub16_h1_sg_2_172.jpg: Predicted in 0.161567 seconds.
baseball bat: 65%
(776.308960, 190.803162) (841.203552, 376.918396)
person: 81%
(628.285950, 229.134842) (841.326904, 803.454285)
sub16_h1_sg_2_173.jpg: Predicted in 0.158399 seconds.
baseball bat: 34%
(682.059387, 215.529953) (847.788818, 363.078735)
baseball bat: 67%
(769.456543, 194.518280) (840.137268, 374.414734)
person: 81%
(629.177551, 230.799576) (841.672791, 804.877380)
sub16_h1_sg_2_174.jpg: Predicted in 0.155384 seconds.
baseball bat: 36%
(680.954956, 217.155731) (843.336304, 360.292877)
baseball bat: 65%
(772.553101, 194.940994) (843.119507, 374.460907)
person: 81%
(632.962402, 236.179047) (840.110413, 797.792053)
sub16_h1_sg_2_175.jpg: Predicted in 0.168599 seconds.
baseball bat: 32%
(680.401917, 216.048904) (841.258057, 362.012878)
baseball bat: 61%
(776.140869, 191.810135) (840.155823, 376.572754)
person: 82%
(632.094116, 235.604004) (838.064880, 798.294434)
sub16_h1_sg_2_176.jpg: Predicted in 0.157635 seconds.
baseball bat: 62%
(776.427979, 193.752243) (842.333435, 372.930511)
person: 80%
(628.942932, 236.621887) (834.073120, 799.677246)
sub16_h1_sg_2_177.jpg: Predicted in 0.157877 seconds.
baseball bat: 32%
(680.627075, 216.531219) (845.317261, 360.412415)
baseball bat: 64%
(771.685425, 197.168976) (840.930969, 374.725677)
person: 80%
(630.187622, 235.113602) (835.925659, 796.114746)
sub16_h1_sg_2_178.jpg: Predicted in 0.157762 seconds.
baseball bat: 66%
(771.692688, 199.562119) (842.512146, 370.016144)
person: 79%
(630.727844, 237.283539) (834.471313, 794.688660)
sub16_h1_sg_2_179.jpg: Predicted in 0.165913 seconds.
baseball bat: 66%
(775.239929, 198.021423) (842.753052, 370.707062)
person: 80%
(630.573059, 237.437515) (829.274353, 798.939148)
sub16_h1_sg_2_180.jpg: Predicted in 0.155047 seconds.
baseball bat: 65%
(771.662292, 200.753601) (846.396606, 368.144653)
person: 80%
(629.220886, 238.115280) (829.583130, 801.578064)
sub16_h1_sg_2_181.jpg: Predicted in 0.157922 seconds.
baseball bat: 66%
(771.497864, 203.451721) (851.925293, 368.114227)
person: 81%
(633.049561, 236.650986) (831.184631, 806.402527)
sub16_h1_sg_2_182.jpg: Predicted in 0.164694 seconds.
baseball bat: 66%
(765.086853, 203.036209) (849.908569, 371.487915)
person: 81%
(635.494873, 233.989502) (831.354492, 810.031921)
sub16_h1_sg_2_183.jpg: Predicted in 0.166332 seconds.
baseball bat: 65%
(764.885071, 201.652267) (852.748169, 371.169647)
person: 80%
(635.566711, 235.460526) (829.390381, 810.662964)
sub16_h1_sg_2_184.jpg: Predicted in 0.156127 seconds.
baseball bat: 69%
(766.818604, 203.374603) (847.531982, 372.385468)
person: 81%
(636.203369, 235.458923) (830.324036, 807.690857)
sub16_h1_sg_2_185.jpg: Predicted in 0.157794 seconds.
baseball bat: 68%
(761.193420, 206.640549) (850.710144, 368.966705)
person: 80%
(631.107849, 237.123016) (827.995117, 807.542786)
sub16_h1_sg_2_186.jpg: Predicted in 0.158036 seconds.
baseball bat: 66%
(762.883240, 207.644806) (854.101501, 364.494415)
person: 80%
(632.362610, 235.613419) (831.289246, 805.579956)
sub16_h1_sg_2_187.jpg: Predicted in 0.165488 seconds.
baseball bat: 68%
(767.002625, 209.260422) (858.349365, 360.695221)
person: 79%
(635.832031, 240.371368) (832.644348, 800.976135)
sub16_h1_sg_2_188.jpg: Predicted in 0.158400 seconds.
baseball bat: 70%
(764.554688, 210.024307) (859.487183, 362.467285)
person: 78%
(631.943054, 240.837784) (832.251282, 800.936462)
sub16_h1_sg_2_189.jpg: Predicted in 0.156796 seconds.
baseball bat: 69%
(758.890015, 213.372818) (856.559509, 363.745331)
person: 79%
(635.493286, 240.792465) (829.926514, 801.381775)
sub16_h1_sg_2_190.jpg: Predicted in 0.158157 seconds.
baseball bat: 71%
(757.160217, 215.451736) (853.453064, 369.298431)
person: 79%
(633.495056, 240.164688) (825.488403, 805.977905)
sub16_h1_sg_2_191.jpg: Predicted in 0.156328 seconds.
baseball bat: 72%
(755.366638, 216.713715) (852.802795, 366.965637)
person: 79%
(637.068726, 239.651367) (823.365540, 808.742065)
sub16_h1_sg_2_192.jpg: Predicted in 0.155550 seconds.
baseball bat: 72%
(752.274536, 220.159637) (852.819885, 368.303650)
baseball bat: 33%
(655.467957, 238.049042) (851.053467, 408.461609)
person: 80%
(636.211121, 239.304489) (820.081726, 806.527161)
sub16_h1_sg_2_193.jpg: Predicted in 0.157390 seconds.
baseball bat: 71%
(750.438293, 221.588715) (853.093628, 369.479126)
baseball bat: 38%
(657.461304, 234.887817) (853.690430, 413.376862)
person: 79%
(637.585449, 238.795212) (821.567688, 805.604797)
sub16_h1_sg_2_194.jpg: Predicted in 0.157576 seconds.
baseball bat: 71%
(749.813477, 225.136673) (856.577698, 365.952179)
baseball bat: 39%
(661.926941, 233.934418) (851.599548, 414.306091)
person: 80%
(639.884033, 238.437866) (822.536316, 807.698792)
sub16_h1_sg_2_195.jpg: Predicted in 0.156349 seconds.
baseball bat: 70%
(750.703491, 228.368240) (860.822388, 366.278351)
baseball bat: 38%
(664.730286, 238.416946) (851.135498, 409.553314)
person: 80%
(638.048218, 238.970947) (825.140259, 808.609314)
sub16_h1_sg_2_196.jpg: Predicted in 0.165331 seconds.
baseball bat: 69%
(753.906189, 228.231796) (863.769897, 366.059143)
baseball bat: 35%
(660.071960, 241.147476) (847.017761, 407.532349)
person: 80%
(634.632324, 242.826706) (824.037109, 809.027710)
sub16_h1_sg_2_197.jpg: Predicted in 0.156642 seconds.
baseball bat: 70%
(763.418152, 230.560745) (871.881836, 364.155579)
person: 80%
(629.661682, 244.053604) (832.070068, 802.824951)
sub16_h1_sg_2_198.jpg: Predicted in 0.155183 seconds.
baseball bat: 72%
(761.567017, 232.915665) (870.662598, 366.455048)
baseball bat: 31%
(657.842102, 246.996246) (858.351929, 406.682312)
person: 80%
(631.403564, 244.527847) (829.166626, 806.730835)
sub16_h1_sg_2_199.jpg: Predicted in 0.156319 seconds.
baseball bat: 71%
(759.275635, 233.060120) (867.217712, 367.768768)
baseball bat: 34%
(675.028931, 238.371094) (850.488220, 414.882019)
person: 80%
(632.013550, 242.463470) (825.247192, 807.746521)
sub16_h1_sg_2_200.jpg: Predicted in 0.178131 seconds.
baseball bat: 69%
(755.585327, 233.784653) (869.573181, 368.302185)
baseball bat: 40%
(675.498535, 241.047043) (852.335144, 413.701721)
person: 81%
(633.989319, 240.480927) (821.961609, 805.092407)
sub16_h1_sg_2_201.jpg: Predicted in 0.156703 seconds.
baseball bat: 66%
(749.783569, 233.887970) (872.153564, 368.128967)
baseball bat: 43%
(670.682495, 243.078003) (856.322937, 414.284790)
person: 80%
(632.464050, 242.560120) (822.698730, 807.160339)
sub16_h1_sg_2_202.jpg: Predicted in 0.156230 seconds.
baseball bat: 65%
(749.537415, 236.569595) (873.122009, 366.664307)
baseball bat: 46%
(673.306213, 244.297928) (857.190308, 412.283386)
person: 81%
(631.983215, 237.013885) (822.458618, 806.777527)
sub16_h1_sg_2_203.jpg: Predicted in 0.155999 seconds.
baseball bat: 64%
(748.836792, 236.309509) (875.503235, 367.959076)
baseball bat: 45%
(672.427917, 243.471069) (857.773071, 415.667755)
person: 81%
(634.711792, 238.860184) (821.131104, 804.653992)
sub16_h1_sg_2_204.jpg: Predicted in 0.157212 seconds.
baseball bat: 62%
(747.947449, 236.033707) (877.377686, 368.703339)
baseball bat: 47%
(667.645142, 243.761719) (862.422485, 415.320129)
person: 81%
(638.140869, 239.743942) (823.641846, 807.626465)
sub16_h1_sg_2_205.jpg: Predicted in 0.154422 seconds.
baseball bat: 59%
(747.912231, 236.775482) (878.661987, 367.170288)
baseball bat: 47%
(670.254944, 244.942154) (864.245972, 414.765961)
person: 81%
(636.462952, 238.573196) (829.388794, 805.840271)
sub16_h1_sg_2_206.jpg: Predicted in 0.158935 seconds.
baseball bat: 58%
(747.324524, 235.797623) (881.023987, 368.872192)
baseball bat: 48%
(667.666199, 244.188187) (864.237671, 416.960541)
person: 80%
(632.553589, 237.796967) (826.510742, 807.144653)
sub16_h1_sg_2_207.jpg: Predicted in 0.156619 seconds.
baseball bat: 61%
(750.263245, 238.231628) (885.441833, 366.577850)
baseball bat: 48%
(669.143921, 244.082901) (859.259094, 416.017700)
person: 80%
(632.438843, 242.984894) (831.309937, 806.008484)
sub16_h1_sg_2_208.jpg: Predicted in 0.155700 seconds.
baseball bat: 58%
(746.124268, 238.742233) (888.132446, 367.008606)
baseball bat: 48%
(668.755798, 245.375854) (864.205750, 412.197571)
person: 80%
(630.844116, 245.069305) (830.522156, 803.400024)
sub16_h1_sg_2_209.jpg: Predicted in 0.157736 seconds.
baseball bat: 57%
(724.596802, 246.957886) (888.832947, 398.013763)
person: 79%
(631.258301, 244.237808) (829.858459, 806.342285)
sub16_h1_sg_2_210.jpg: Predicted in 0.165574 seconds.
baseball bat: 57%
(723.699707, 251.856094) (882.193359, 399.707886)
person: 79%
(637.343140, 245.495010) (826.637878, 806.822327)
sub16_h1_sg_2_211.jpg: Predicted in 0.157270 seconds.
baseball bat: 59%
(722.706848, 253.094360) (883.349060, 401.103058)
person: 79%
(637.021729, 244.863373) (825.051453, 809.422363)
sub16_h1_sg_2_212.jpg: Predicted in 0.157942 seconds.
baseball bat: 60%
(724.428284, 257.338959) (878.589905, 400.295380)
person: 80%
(634.937073, 250.625870) (824.466736, 807.411133)
sub16_h1_sg_2_213.jpg: Predicted in 0.155729 seconds.
baseball bat: 59%
(724.262817, 260.900269) (884.291443, 397.323059)
person: 80%
(630.148193, 248.622925) (826.973206, 807.712891)
sub16_h1_sg_2_214.jpg: Predicted in 0.157271 seconds.
baseball bat: 57%
(718.004150, 260.349915) (891.668274, 395.052856)
person: 79%
(630.341919, 249.107880) (825.412659, 813.836121)
sub16_h1_sg_2_215.jpg: Predicted in 0.156909 seconds.
baseball bat: 58%
(718.447327, 263.246155) (890.768677, 398.611847)
person: 79%
(634.022400, 249.225403) (822.291077, 812.739502)
sub16_h1_sg_2_216.jpg: Predicted in 0.156401 seconds.
baseball bat: 57%
(715.485474, 264.797882) (892.272888, 404.162537)
person: 78%
(633.200134, 247.362808) (826.213745, 812.944519)
sub16_h1_sg_2_217.jpg: Predicted in 0.157491 seconds.
baseball bat: 57%
(713.805786, 267.342316) (890.463501, 402.399841)
person: 78%
(635.741394, 244.153427) (825.462219, 810.892822)
sub16_h1_sg_2_218.jpg: Predicted in 0.155098 seconds.
baseball bat: 60%
(714.356201, 269.209381) (890.600586, 403.941833)
person: 79%
(634.776611, 247.652023) (825.622070, 807.600037)
sub16_h1_sg_2_219.jpg: Predicted in 0.155476 seconds.
baseball bat: 57%
(668.467529, 268.315155) (849.017822, 425.560669)
person: 79%
(633.050598, 243.712646) (826.617981, 813.095337)
sub16_h1_sg_2_220.jpg: Predicted in 0.157302 seconds.
baseball bat: 60%
(660.671814, 270.549103) (850.834839, 432.172455)
person: 78%
(632.162537, 243.205719) (823.619019, 812.304688)
sub16_h1_sg_2_221.jpg: Predicted in 0.158943 seconds.
baseball bat: 51%
(662.479919, 269.598419) (852.497192, 437.304840)
person: 79%
(627.666138, 236.655457) (818.797302, 817.119568)
sub16_h1_sg_2_222.jpg: Predicted in 0.156073 seconds.
baseball bat: 56%
(659.479370, 271.702911) (854.838989, 438.244904)
person: 80%
(631.103027, 235.011749) (820.794373, 817.898499)
sub16_h1_sg_2_223.jpg: Predicted in 0.157386 seconds.
baseball bat: 57%
(655.827576, 270.618805) (857.341370, 440.520721)
person: 80%
(630.398560, 233.570602) (819.973267, 815.520813)
sub16_h1_sg_2_224.jpg: Predicted in 0.157741 seconds.
baseball bat: 54%
(653.616760, 270.066589) (856.984253, 446.663116)
tennis racket: 40%
(632.497498, 291.785004) (847.690063, 463.143982)
person: 80%
(634.080566, 230.568954) (820.288330, 817.447388)
sub16_h1_sg_2_225.jpg: Predicted in 0.165081 seconds.
baseball bat: 51%
(651.269897, 271.043182) (856.171204, 444.623749)
tennis racket: 40%
(628.249878, 293.708374) (845.953796, 461.319672)
person: 80%
(629.647278, 236.531967) (822.702454, 811.837219)
sub16_h1_sg_2_226.jpg: Predicted in 0.165355 seconds.
baseball bat: 43%
(648.344299, 272.028748) (852.883728, 447.408142)
tennis racket: 48%
(620.010010, 291.057648) (849.220215, 466.791962)
person: 82%
(630.602539, 229.924423) (826.206055, 817.564453)
sub16_h1_sg_2_227.jpg: Predicted in 0.161337 seconds.
baseball bat: 35%
(649.726868, 273.584351) (850.881470, 447.640015)
tennis racket: 49%
(619.562805, 293.350159) (854.385986, 463.333466)
person: 81%
(630.824524, 230.069397) (830.176270, 810.163757)
sub16_h1_sg_2_228.jpg: Predicted in 0.155905 seconds.
baseball bat: 40%
(643.505859, 274.149261) (849.664612, 443.884521)
tennis racket: 42%
(621.721924, 299.032715) (848.604797, 458.767426)
person: 80%
(629.267456, 233.254791) (834.136658, 805.870178)
sub16_h1_sg_2_229.jpg: Predicted in 0.157326 seconds.
baseball bat: 45%
(647.248840, 274.422058) (848.742249, 442.244415)
tennis racket: 37%
(624.633545, 301.388184) (844.450134, 456.132507)
person: 80%
(627.343323, 236.441116) (829.589050, 808.490234)
sub16_h1_sg_2_230.jpg: Predicted in 0.156972 seconds.
tennis racket: 50%
(622.341858, 300.225159) (849.847961, 457.104095)
person: 81%
(626.673828, 236.027603) (826.021606, 805.123535)
sub16_h1_sg_2_231.jpg: Predicted in 0.157557 seconds.
tennis racket: 31%
(702.143921, 287.273956) (908.960388, 419.375397)
tennis racket: 46%
(618.590454, 305.179901) (846.345581, 454.135925)
person: 80%
(620.595215, 242.238617) (827.294495, 807.855957)
sub16_h1_sg_2_232.jpg: Predicted in 0.156093 seconds.
tennis racket: 50%
(619.769653, 311.730408) (839.297241, 452.176178)
person: 81%
(621.913208, 240.967209) (827.965149, 808.533386)
sub16_h1_sg_2_233.jpg: Predicted in 0.166045 seconds.
tennis racket: 56%
(613.575073, 314.272491) (834.918274, 454.957092)
person: 81%
(618.327271, 241.671539) (829.320862, 808.905029)
sub16_h1_sg_2_234.jpg: Predicted in 0.157637 seconds.
tennis racket: 57%
(610.009216, 313.372040) (835.171143, 453.426453)
person: 82%
(615.439758, 236.249191) (828.948181, 811.302185)
sub16_h1_sg_2_235.jpg: Predicted in 0.155080 seconds.
sports ball: 32%
(231.298965, 405.885651) (257.593384, 423.272461)
tennis racket: 53%
(604.354980, 311.924286) (840.154785, 452.652100)
person: 82%
(606.594482, 238.214752) (845.510498, 813.596863)
sub16_h1_sg_2_236.jpg: Predicted in 0.155427 seconds.
tennis racket: 45%
(602.278442, 318.095367) (841.747437, 447.972565)
person: 79%
(608.340637, 241.077759) (843.492859, 810.798035)
sub16_h1_sg_2_237.jpg: Predicted in 0.157407 seconds.
tennis racket: 54%
(607.838440, 320.166016) (844.344177, 448.039612)
person: 82%
(615.965454, 239.918259) (841.947571, 810.379272)
sub16_h1_sg_2_238.jpg: Predicted in 0.157551 seconds.
tennis racket: 59%
(602.723877, 316.896515) (855.191162, 451.669708)
person: 82%
(611.375061, 237.171677) (841.548828, 814.335388)
sub16_h1_sg_2_239.jpg: Predicted in 0.163252 seconds.
tennis racket: 53%
(598.338989, 329.734192) (859.824890, 444.069977)
person: 81%
(605.365356, 240.436798) (835.369202, 815.547607)
sub16_h1_sg_2_240.jpg: Predicted in 0.158677 seconds.
sports ball: 35%
(254.170471, 410.956238) (281.469543, 430.636444)
tennis racket: 56%
(607.043335, 336.207581) (855.379456, 443.040039)
person: 80%
(600.974487, 237.162735) (831.434753, 813.283325)
sub16_h1_sg_2_241.jpg: Predicted in 0.166842 seconds.
tennis racket: 56%
(607.559143, 345.669495) (855.503784, 440.353027)
person: 82%
(604.211670, 236.509354) (831.915039, 812.960022)
sub16_h1_sg_2_242.jpg: Predicted in 0.156828 seconds.
tennis racket: 50%
(609.497925, 352.918213) (858.600525, 437.978729)
person: 81%
(606.063660, 242.838318) (826.950745, 807.422913)
sub16_h1_sg_2_243.jpg: Predicted in 0.157168 seconds.
tennis racket: 59%
(614.632629, 352.532867) (858.107361, 438.058197)
person: 82%
(604.406311, 239.738770) (827.037659, 810.203735)
sub16_h1_sg_2_244.jpg: Predicted in 0.157774 seconds.
tennis racket: 54%
(613.816650, 355.464264) (858.164062, 435.640594)
person: 82%
(605.682495, 240.839798) (827.514221, 809.781433)
sub16_h1_sg_2_245.jpg: Predicted in 0.157726 seconds.
sports ball: 36%
(257.371887, 415.698151) (283.739899, 435.089020)
tennis racket: 43%
(610.585938, 361.194031) (859.403076, 431.069153)
person: 81%
(603.058105, 243.550751) (829.662354, 807.199768)
sub16_h1_sg_2_246.jpg: Predicted in 0.157061 seconds.
tennis racket: 40%
(609.679199, 366.037323) (856.033691, 428.803345)
person: 81%
(600.340454, 243.658905) (831.565369, 803.765808)
sub16_h1_sg_2_247.jpg: Predicted in 0.157164 seconds.
tennis racket: 48%
(624.313660, 371.702454) (847.564087, 432.023956)
person: 82%
(602.953186, 239.303772) (823.747742, 803.973938)
sub16_h1_sg_2_248.jpg: Predicted in 0.163236 seconds.
tennis racket: 46%
(625.925232, 375.369690) (849.460205, 432.364319)
person: 82%
(605.506714, 237.345367) (828.516541, 805.714294)
sub16_h1_sg_2_249.jpg: Predicted in 0.159641 seconds.
tennis racket: 38%
(623.441284, 376.398285) (851.141541, 433.451843)
person: 82%
(600.343506, 234.826950) (832.183167, 804.725281)
sub16_h1_sg_2_250.jpg: Predicted in 0.156024 seconds.
tennis racket: 33%
(650.795349, 372.333893) (842.453674, 453.986572)
person: 82%
(601.126953, 240.222931) (834.834778, 800.875122)
sub16_h1_sg_2_251.jpg: Predicted in 0.156862 seconds.
tennis racket: 34%
(653.601196, 376.510925) (833.557739, 455.146759)
person: 82%
(602.243103, 236.735611) (825.981079, 805.078796)
sub16_h1_sg_2_252.jpg: Predicted in 0.164914 seconds.
tennis racket: 39%
(639.096375, 377.453644) (847.405396, 452.213837)
person: 82%
(601.986084, 238.504410) (820.325195, 805.211914)
sub16_h1_sg_2_253.jpg: Predicted in 0.155798 seconds.
tennis racket: 39%
(634.220398, 384.670135) (853.724243, 452.733429)
sports ball: 32%
(300.345581, 425.834717) (322.279510, 453.898956)
person: 82%
(600.138184, 234.179016) (822.556824, 805.962952)
sub16_h1_sg_2_254.jpg: Predicted in 0.157172 seconds.
sports ball: 31%
(300.606445, 425.401306) (322.444824, 453.028595)
person: 81%
(594.829895, 238.368134) (824.791077, 803.290527)
sub16_h1_sg_2_255.jpg: Predicted in 0.158834 seconds.
sports ball: 39%
(304.419067, 427.292145) (328.330231, 455.055237)
person: 81%
(595.560730, 237.885025) (827.281494, 807.902893)
sub16_h1_sg_2_256.jpg: Predicted in 0.155950 seconds.
sports ball: 37%
(303.239044, 426.611603) (327.689636, 455.430786)
person: 82%
(597.281494, 232.193207) (827.203552, 808.732849)
sub16_h1_sg_2_257.jpg: Predicted in 0.157236 seconds.
tennis racket: 33%
(625.404602, 393.527496) (833.268372, 451.592255)
sports ball: 40%
(304.724182, 429.258484) (329.813110, 457.027863)
person: 82%
(595.048828, 233.524155) (824.644165, 803.819031)
sub16_h1_sg_2_258.jpg: Predicted in 0.166067 seconds.
tennis racket: 32%
(620.694275, 391.585297) (822.656067, 449.854736)
sports ball: 32%
(304.885895, 428.070282) (329.554810, 455.850952)
person: 82%
(593.389648, 234.350113) (819.959778, 805.018616)
sub16_h1_sg_2_259.jpg: Predicted in 0.166140 seconds.
person: 80%
(593.903442, 233.855148) (820.194458, 806.853699)
sub16_h1_sg_2_260.jpg: Predicted in 0.156194 seconds.
person: 81%
(586.894287, 236.518219) (823.020569, 809.037537)
sub16_h1_sg_2_261.jpg: Predicted in 0.155983 seconds.
person: 80%
(585.956909, 236.213440) (821.989380, 801.829285)
sub16_h1_sg_2_262.jpg: Predicted in 0.155555 seconds.
person: 79%
(580.691895, 232.646515) (825.627991, 801.986633)
sub16_h1_sg_2_263.jpg: Predicted in 0.156411 seconds.
person: 78%
(578.852478, 235.078354) (826.885254, 796.996460)
sub16_h1_sg_2_264.jpg: Predicted in 0.157881 seconds.
person: 79%
(546.632080, 244.266861) (809.533691, 795.007141)
sub16_h1_sg_2_265.jpg: Predicted in 0.156691 seconds.
person: 79%
(545.859131, 248.375198) (811.278320, 793.717957)
sub16_h1_sg_2_266.jpg: Predicted in 0.157367 seconds.
person: 82%
(538.363464, 240.620392) (815.450500, 792.725952)
sub16_h1_sg_2_267.jpg: Predicted in 0.158343 seconds.
person: 83%
(538.767578, 241.224884) (815.352112, 792.798950)
sub16_h1_sg_2_268.jpg: Predicted in 0.156322 seconds.
person: 83%
(537.419922, 236.789963) (817.381104, 792.828369)
sub16_h1_sg_2_269.jpg: Predicted in 0.156273 seconds.
person: 84%
(536.120911, 239.108200) (820.033875, 795.365112)
sub16_h1_sg_2_270.jpg: Predicted in 0.156470 seconds.
person: 81%
(534.640442, 237.916595) (818.728699, 795.258789)
sub16_h1_sg_2_271.jpg: Predicted in 0.158179 seconds.
sports ball: 31%
(362.002350, 459.802643) (385.104492, 486.268127)
person: 82%
(538.341492, 237.003906) (815.656738, 795.025513)
sub16_h1_sg_2_272.jpg: Predicted in 0.158447 seconds.
sports ball: 34%
(362.310211, 463.645508) (384.267395, 489.011902)
person: 80%
(539.514160, 243.718460) (814.445801, 791.344238)
sub16_h1_sg_2_273.jpg: Predicted in 0.156302 seconds.
person: 79%
(573.368835, 233.939072) (830.329773, 798.563599)
sub16_h1_sg_2_274.jpg: Predicted in 0.156278 seconds.
person: 79%
(578.217712, 231.658432) (826.176025, 804.163879)
sub16_h1_sg_2_275.jpg: Predicted in 0.155629 seconds.
person: 80%
(572.299866, 229.042236) (831.179749, 812.115601)
sub16_h1_sg_2_276.jpg: Predicted in 0.157029 seconds.
tennis racket: 34%
(601.542236, 430.448608) (708.740967, 505.789490)
person: 80%
(576.230774, 224.169495) (830.818604, 814.721436)
sub16_h1_sg_2_277.jpg: Predicted in 0.156190 seconds.
tennis racket: 33%
(601.376221, 426.405334) (698.859070, 509.042267)
person: 80%
(573.947144, 223.825958) (834.468384, 817.013428)
sub16_h1_sg_2_278.jpg: Predicted in 0.158013 seconds.
tennis racket: 40%
(598.026794, 426.369537) (697.883423, 518.092834)
person: 81%
(577.452454, 217.316620) (834.758667, 820.806335)
sub16_h1_sg_2_279.jpg: Predicted in 0.157197 seconds.
person: 79%
(568.124878, 228.453186) (837.055054, 813.032898)
sub16_h1_sg_2_280.jpg: Predicted in 0.155122 seconds.
person: 79%
(566.352051, 228.682236) (839.366760, 816.194153)
sub16_h1_sg_2_281.jpg: Predicted in 0.156039 seconds.
person: 80%
(567.411865, 229.316208) (838.008667, 819.585327)
sub16_h1_sg_2_282.jpg: Predicted in 0.155212 seconds.
person: 80%
(575.369873, 228.064987) (831.267090, 824.094604)
sub16_h1_sg_2_283.jpg: Predicted in 0.156189 seconds.
person: 82%
(574.611938, 231.535416) (831.311829, 817.425964)
sub16_h1_sg_2_284.jpg: Predicted in 0.156806 seconds.
person: 84%
(573.845764, 223.029907) (832.761902, 820.496155)
sub16_h1_sg_2_285.jpg: Predicted in 0.155324 seconds.
sports ball: 36%
(409.029205, 487.739685) (439.656616, 514.734741)
person: 82%
(571.602600, 229.881027) (834.806396, 819.996826)
sub16_h1_sg_2_286.jpg: Predicted in 0.156905 seconds.
sports ball: 32%
(406.952606, 488.693634) (439.778961, 515.879639)
person: 83%
(576.839783, 222.307251) (834.183472, 818.209595)
sub16_h1_sg_2_287.jpg: Predicted in 0.156566 seconds.
sports ball: 37%
(412.694214, 489.106110) (444.013489, 514.778076)
person: 83%
(574.632141, 216.711563) (837.748230, 822.484924)
sub16_h1_sg_2_288.jpg: Predicted in 0.158218 seconds.
sports ball: 37%
(424.819519, 489.814819) (453.655579, 514.126404)
person: 83%
(577.207764, 216.418076) (835.323242, 818.576599)
sub16_h1_sg_2_289.jpg: Predicted in 0.157246 seconds.
sports ball: 44%
(440.904999, 489.401642) (470.533142, 514.095215)
person: 84%
(580.426086, 216.592575) (830.803650, 816.843140)
sub16_h1_sg_2_290.jpg: Predicted in 0.155847 seconds.
sports ball: 46%
(449.557434, 488.635773) (480.406555, 517.774353)
tennis racket: 41%
(566.436890, 452.966339) (598.427551, 571.692749)
person: 84%
(587.603088, 217.188782) (824.835876, 821.322571)
sub16_h1_sg_2_291.jpg: Predicted in 0.155855 seconds.
sports ball: 46%
(455.639038, 491.778412) (483.170624, 518.987122)
tennis racket: 45%
(567.239746, 446.060120) (594.742126, 568.499817)
person: 82%
(582.046448, 227.913147) (824.581970, 816.538452)
sub16_h1_sg_2_292.jpg: Predicted in 0.155712 seconds.
sports ball: 37%
(463.281830, 492.815857) (488.004944, 518.699402)
tennis racket: 52%
(559.501709, 436.905273) (600.992981, 580.276428)
person: 81%
(576.423645, 228.227524) (830.583984, 816.447144)
sub16_h1_sg_2_293.jpg: Predicted in 0.155784 seconds.
sports ball: 47%
(460.219147, 494.977478) (487.509338, 520.843506)
tennis racket: 45%
(549.662109, 449.732330) (599.316895, 571.844666)
person: 81%
(573.792725, 231.070038) (833.126526, 818.431396)
sub16_h1_sg_2_294.jpg: Predicted in 0.155067 seconds.
sports ball: 47%
(462.888977, 497.134338) (490.000214, 523.691833)
tennis racket: 50%
(544.431946, 450.810333) (593.665222, 568.891357)
person: 81%
(575.291626, 236.211700) (830.533142, 818.593079)
sub16_h1_sg_2_295.jpg: Predicted in 0.158014 seconds.
sports ball: 49%
(464.575378, 500.144165) (492.423676, 524.658936)
tennis racket: 52%
(532.464600, 459.616211) (589.563232, 576.111084)
person: 80%
(529.300110, 243.329193) (827.245117, 803.927063)
sub16_h1_sg_2_296.jpg: Predicted in 0.155160 seconds.
sports ball: 44%
(467.904968, 501.028992) (491.973328, 522.549744)
tennis racket: 53%
(525.343994, 463.600037) (593.231506, 574.188843)
person: 79%
(527.308716, 241.413330) (830.414673, 803.670776)
sub16_h1_sg_2_297.jpg: Predicted in 0.156774 seconds.
sports ball: 47%
(469.311310, 503.900360) (494.672455, 526.835205)
baseball bat: 41%
(501.006653, 442.825562) (615.773193, 572.649353)
person: 78%
(570.667969, 236.020035) (837.191833, 817.906738)
sub16_h1_sg_2_298.jpg: Predicted in 0.157093 seconds.
sports ball: 36%
(470.965851, 503.400879) (492.557007, 522.159119)
baseball bat: 34%
(494.690277, 435.750519) (615.105408, 572.993652)
person: 78%
(572.191711, 234.575439) (834.110779, 818.050964)
sub16_h1_sg_2_299.jpg: Predicted in 0.166082 seconds.
tennis racket: 41%
(503.575745, 404.864868) (627.182007, 557.229248)
person: 80%
(577.743103, 229.081055) (832.428406, 819.789124)
sub16_h1_sg_2_300.jpg: Predicted in 0.157717 seconds.
tennis racket: 33%
(494.903015, 407.535828) (625.226196, 554.352112)
baseball bat: 37%
(482.452332, 425.024200) (618.934692, 574.126526)
person: 81%
(581.160217, 228.609924) (832.934448, 826.594360)
sub16_h1_sg_2_301.jpg: Predicted in 0.155825 seconds.
tennis racket: 42%
(488.886475, 398.730530) (628.648865, 552.825378)
person: 81%
(584.657471, 230.429031) (833.889771, 829.306580)
sub16_h1_sg_2_302.jpg: Predicted in 0.165470 seconds.
tennis racket: 55%
(484.205048, 398.396362) (627.774658, 555.457153)
person: 81%
(589.331482, 228.689163) (831.323853, 830.211487)
sub16_h1_sg_2_303.jpg: Predicted in 0.155779 seconds.
tennis racket: 53%
(483.169159, 397.130554) (625.861755, 556.465210)
person: 81%
(590.537842, 228.033737) (827.692444, 830.187988)
sub16_h1_sg_2_304.jpg: Predicted in 0.155951 seconds.
tennis racket: 46%
(478.513885, 398.727112) (628.772644, 553.564026)
person: 82%
(588.670410, 228.071259) (831.866699, 829.881531)
sub16_h1_sg_2_305.jpg: Predicted in 0.155325 seconds.
tennis racket: 41%
(474.379883, 399.298706) (628.702454, 552.209717)
person: 81%
(586.397278, 229.285614) (836.216248, 828.127014)
sub16_h1_sg_2_306.jpg: Predicted in 0.155140 seconds.
tennis racket: 36%
(474.621765, 395.761475) (629.294434, 551.861694)
baseball bat: 38%
(460.511902, 426.838501) (606.394409, 575.767517)
person: 80%
(584.093445, 233.022049) (838.067078, 826.805542)
sub16_h1_sg_2_307.jpg: Predicted in 0.156715 seconds.
tennis racket: 56%
(471.734741, 400.294678) (630.844482, 557.188049)
person: 80%
(581.521606, 233.517639) (834.878540, 827.033203)
sub16_h1_sg_2_308.jpg: Predicted in 0.157667 seconds.
tennis racket: 46%
(466.122131, 401.979584) (629.525391, 550.615295)
baseball bat: 40%
(448.057831, 430.889557) (595.164307, 573.560120)
person: 79%
(583.784973, 232.076981) (835.607605, 826.483398)
sub16_h1_sg_2_309.jpg: Predicted in 0.156049 seconds.
tennis racket: 47%
(470.234955, 401.201202) (632.768555, 553.335266)
person: 80%
(587.900146, 231.795532) (830.059631, 827.355957)
sub16_h1_sg_2_310.jpg: Predicted in 0.157401 seconds.
sports ball: 42%
(459.989075, 494.034546) (486.449982, 515.585571)
baseball bat: 54%
(443.423096, 438.878113) (600.295898, 575.272705)
person: 80%
(589.969055, 230.912018) (834.932373, 824.682129)
sub16_h1_sg_2_311.jpg: Predicted in 0.155991 seconds.
sports ball: 38%
(446.212280, 493.389557) (471.498199, 515.849060)
baseball bat: 63%
(444.506561, 436.882935) (591.047119, 578.884644)
person: 81%
(587.866699, 231.300903) (836.673889, 827.321533)
sub16_h1_sg_2_312.jpg: Predicted in 0.155310 seconds.
sports ball: 38%
(423.743591, 494.097839) (452.138885, 520.715271)
baseball bat: 63%
(442.443512, 438.502869) (580.790161, 578.630493)
person: 80%
(590.260132, 230.858109) (838.564514, 821.353821)
sub16_h1_sg_2_313.jpg: Predicted in 0.158670 seconds.
sports ball: 37%
(418.042328, 494.399597) (449.007538, 522.654480)
baseball bat: 59%
(444.209686, 434.140320) (581.760498, 582.752014)
person: 81%
(591.496338, 233.962280) (838.687866, 824.915771)
sub16_h1_sg_2_314.jpg: Predicted in 0.163948 seconds.
sports ball: 40%
(413.231781, 492.637299) (445.633514, 522.128174)
baseball bat: 53%
(444.927155, 432.966827) (581.415466, 583.298218)
person: 80%
(589.214539, 233.442612) (838.044983, 824.822998)
sub16_h1_sg_2_315.jpg: Predicted in 0.155712 seconds.
baseball bat: 47%
(448.348785, 432.600128) (587.192932, 584.781555)
person: 81%
(586.356873, 230.415176) (834.690491, 823.852539)
sub16_h1_sg_2_316.jpg: Predicted in 0.165725 seconds.
baseball bat: 47%
(450.562134, 431.328979) (589.424194, 584.056152)
person: 81%
(583.615051, 230.054504) (833.906006, 827.616577)
sub16_h1_sg_2_317.jpg: Predicted in 0.157072 seconds.
baseball bat: 54%
(452.299896, 428.779694) (594.835754, 584.156067)
person: 80%
(580.225525, 227.834534) (839.598877, 828.672180)
sub16_h1_sg_2_318.jpg: Predicted in 0.158291 seconds.
baseball bat: 48%
(454.572021, 429.194580) (591.669189, 581.494568)
person: 80%
(579.761414, 229.187317) (835.152832, 829.176331)
sub16_h1_sg_2_319.jpg: Predicted in 0.155305 seconds.
baseball bat: 40%
(452.836670, 424.736328) (597.684814, 584.169922)
person: 80%
(592.011597, 230.008011) (833.698853, 829.939880)
sub16_h1_sg_2_320.jpg: Predicted in 0.156038 seconds.
baseball bat: 45%
(448.102142, 424.069275) (599.169067, 585.054932)
person: 81%
(600.336487, 230.538467) (831.376160, 827.634521)
sub16_h1_sg_2_321.jpg: Predicted in 0.156059 seconds.
sports ball: 32%
(358.550568, 466.838898) (384.063324, 495.209442)
baseball bat: 51%
(448.163361, 427.530701) (594.599854, 582.651306)
person: 81%
(600.979431, 228.511780) (835.448364, 827.817078)
