sub11_h2_sg_3_001.jpg: Predicted in 0.155234 seconds.
baseball bat: 84%
(501.653961, 245.544952) (536.532410, 363.868683)
sub11_h2_sg_3_002.jpg: Predicted in 0.156554 seconds.
baseball bat: 84%
(502.025146, 245.563171) (536.202332, 364.007812)
sub11_h2_sg_3_003.jpg: Predicted in 0.155517 seconds.
baseball bat: 84%
(501.785339, 245.697617) (536.047058, 364.229370)
sub11_h2_sg_3_004.jpg: Predicted in 0.154841 seconds.
baseball bat: 84%
(502.174438, 246.578796) (535.964661, 363.620178)
sub11_h2_sg_3_005.jpg: Predicted in 0.156108 seconds.
baseball bat: 83%
(501.931305, 246.369522) (534.787720, 363.525146)
sub11_h2_sg_3_006.jpg: Predicted in 0.155086 seconds.
baseball bat: 83%
(502.212067, 246.417572) (534.173279, 363.381012)
sub11_h2_sg_3_007.jpg: Predicted in 0.156140 seconds.
baseball bat: 83%
(502.387482, 246.868195) (533.029785, 362.745514)
sub11_h2_sg_3_008.jpg: Predicted in 0.155610 seconds.
baseball bat: 83%
(502.299103, 247.167114) (532.695923, 362.604523)
sub11_h2_sg_3_009.jpg: Predicted in 0.155277 seconds.
baseball bat: 83%
(502.610596, 247.682220) (533.621460, 362.556793)
sub11_h2_sg_3_010.jpg: Predicted in 0.156396 seconds.
baseball bat: 82%
(502.346558, 247.636719) (534.037476, 362.766815)
sub11_h2_sg_3_011.jpg: Predicted in 0.156522 seconds.
baseball bat: 82%
(503.060516, 248.060104) (534.702087, 362.657562)
sub11_h2_sg_3_012.jpg: Predicted in 0.165254 seconds.
baseball bat: 82%
(503.301056, 248.004684) (534.448730, 362.816986)
sub11_h2_sg_3_013.jpg: Predicted in 0.156464 seconds.
baseball bat: 82%
(503.476074, 248.558884) (534.813904, 362.317902)
sub11_h2_sg_3_014.jpg: Predicted in 0.158335 seconds.
baseball bat: 81%
(503.949097, 249.012955) (534.917175, 362.034973)
sub11_h2_sg_3_015.jpg: Predicted in 0.155394 seconds.
baseball bat: 80%
(503.612335, 248.888596) (533.701172, 362.158966)
sub11_h2_sg_3_016.jpg: Predicted in 0.155446 seconds.
baseball bat: 79%
(506.726593, 251.727783) (535.601807, 369.708344)
sub11_h2_sg_3_017.jpg: Predicted in 0.156209 seconds.
baseball bat: 78%
(506.569366, 252.111221) (534.463867, 370.173553)
sub11_h2_sg_3_018.jpg: Predicted in 0.157370 seconds.
baseball bat: 78%
(506.669739, 252.480865) (534.163696, 369.948395)
sub11_h2_sg_3_019.jpg: Predicted in 0.155555 seconds.
baseball bat: 78%
(506.507965, 253.120468) (534.574707, 368.990997)
sub11_h2_sg_3_020.jpg: Predicted in 0.155687 seconds.
baseball bat: 79%
(507.000183, 253.473099) (535.703552, 369.358948)
sub11_h2_sg_3_021.jpg: Predicted in 0.154848 seconds.
baseball bat: 80%
(506.346893, 253.554352) (535.475037, 369.013062)
sub11_h2_sg_3_022.jpg: Predicted in 0.165205 seconds.
baseball bat: 80%
(506.557617, 253.769714) (536.116272, 369.603790)
sub11_h2_sg_3_023.jpg: Predicted in 0.157328 seconds.
baseball bat: 80%
(506.580078, 254.315536) (535.965881, 369.087860)
sub11_h2_sg_3_024.jpg: Predicted in 0.157180 seconds.
baseball bat: 80%
(506.574188, 254.962158) (535.653503, 368.687134)
sub11_h2_sg_3_025.jpg: Predicted in 0.156156 seconds.
baseball bat: 80%
(506.535828, 255.838394) (536.256470, 368.589874)
sub11_h2_sg_3_026.jpg: Predicted in 0.157025 seconds.
baseball bat: 80%
(506.243256, 255.448517) (536.146179, 368.978149)
sub11_h2_sg_3_027.jpg: Predicted in 0.155037 seconds.
baseball bat: 79%
(506.067505, 255.669571) (535.645020, 369.196899)
sub11_h2_sg_3_028.jpg: Predicted in 0.156883 seconds.
baseball bat: 79%
(505.952026, 256.099701) (535.600220, 368.671661)
sub11_h2_sg_3_029.jpg: Predicted in 0.154889 seconds.
baseball bat: 80%
(506.312897, 257.726715) (536.330627, 367.875671)
sub11_h2_sg_3_030.jpg: Predicted in 0.155015 seconds.
baseball bat: 81%
(505.782440, 258.082397) (536.972351, 367.523956)
sub11_h2_sg_3_031.jpg: Predicted in 0.156351 seconds.
baseball bat: 81%
(505.902313, 258.798096) (537.834656, 366.774292)
sub11_h2_sg_3_032.jpg: Predicted in 0.156788 seconds.
baseball bat: 81%
(506.309113, 259.412170) (538.005066, 367.627899)
sub11_h2_sg_3_033.jpg: Predicted in 0.155459 seconds.
baseball bat: 81%
(506.944885, 260.245026) (538.001282, 367.089905)
sub11_h2_sg_3_034.jpg: Predicted in 0.156070 seconds.
baseball bat: 81%
(507.353516, 260.404053) (538.439270, 366.833893)
sub11_h2_sg_3_035.jpg: Predicted in 0.155606 seconds.
baseball bat: 80%
(507.281921, 260.790680) (537.939209, 367.309906)
sub11_h2_sg_3_036.jpg: Predicted in 0.155431 seconds.
baseball bat: 80%
(506.771606, 260.617004) (537.744446, 367.073029)
sub11_h2_sg_3_037.jpg: Predicted in 0.157598 seconds.
baseball bat: 80%
(505.725006, 261.507172) (537.343201, 366.527191)
sub11_h2_sg_3_038.jpg: Predicted in 0.156402 seconds.
baseball bat: 80%
(505.559570, 262.200714) (537.071960, 366.254639)
sub11_h2_sg_3_039.jpg: Predicted in 0.155778 seconds.
baseball bat: 80%
(506.401917, 263.259521) (537.327881, 367.051086)
sub11_h2_sg_3_040.jpg: Predicted in 0.160243 seconds.
baseball bat: 81%
(505.728882, 264.616211) (537.426514, 365.479706)
sub11_h2_sg_3_041.jpg: Predicted in 0.156155 seconds.
baseball bat: 82%
(505.145264, 265.467621) (537.447266, 365.460083)
sub11_h2_sg_3_042.jpg: Predicted in 0.157410 seconds.
baseball bat: 82%
(505.229065, 266.267609) (537.866089, 364.752625)
sub11_h2_sg_3_043.jpg: Predicted in 0.155937 seconds.
baseball bat: 82%
(505.315582, 266.762970) (538.372559, 364.924347)
sub11_h2_sg_3_044.jpg: Predicted in 0.156334 seconds.
baseball bat: 82%
(505.758728, 268.048218) (537.838074, 364.462250)
sub11_h2_sg_3_045.jpg: Predicted in 0.156089 seconds.
baseball bat: 82%
(505.662476, 268.342377) (537.308960, 364.972900)
sub11_h2_sg_3_046.jpg: Predicted in 0.165204 seconds.
baseball bat: 81%
(505.937500, 268.429138) (537.241150, 365.232666)
sub11_h2_sg_3_047.jpg: Predicted in 0.156594 seconds.
baseball bat: 80%
(505.613464, 269.268402) (536.453796, 366.597290)
sub11_h2_sg_3_048.jpg: Predicted in 0.154514 seconds.
baseball bat: 81%
(505.793549, 268.919952) (536.621094, 366.131256)
sub11_h2_sg_3_049.jpg: Predicted in 0.158049 seconds.
baseball bat: 80%
(506.559265, 270.564545) (537.008972, 367.058624)
sub11_h2_sg_3_050.jpg: Predicted in 0.156508 seconds.
baseball bat: 82%
(505.446198, 270.660309) (537.093628, 365.370514)
sub11_h2_sg_3_051.jpg: Predicted in 0.163659 seconds.
baseball bat: 82%
(505.137299, 271.253387) (537.562683, 366.095215)
sub11_h2_sg_3_052.jpg: Predicted in 0.160805 seconds.
baseball bat: 82%
(505.393890, 272.169739) (537.407898, 365.997498)
sub11_h2_sg_3_053.jpg: Predicted in 0.164319 seconds.
baseball bat: 82%
(505.417450, 272.023987) (537.290649, 366.286163)
sub11_h2_sg_3_054.jpg: Predicted in 0.156392 seconds.
baseball bat: 82%
(504.990112, 271.749512) (536.682617, 367.106598)
sub11_h2_sg_3_055.jpg: Predicted in 0.156343 seconds.
baseball bat: 82%
(504.367554, 271.644287) (536.538940, 367.653625)
sub11_h2_sg_3_056.jpg: Predicted in 0.155753 seconds.
baseball bat: 82%
(504.715881, 272.509277) (537.033203, 368.633087)
sub11_h2_sg_3_057.jpg: Predicted in 0.155639 seconds.
baseball bat: 81%
(505.249329, 273.053650) (537.716064, 367.785797)
sub11_h2_sg_3_058.jpg: Predicted in 0.154594 seconds.
baseball bat: 82%
(505.147919, 273.152832) (538.074646, 367.304260)
sub11_h2_sg_3_059.jpg: Predicted in 0.158050 seconds.
baseball bat: 82%
(505.669495, 274.296906) (539.080200, 366.764130)
sub11_h2_sg_3_060.jpg: Predicted in 0.156958 seconds.
baseball bat: 82%
(505.528351, 274.610107) (540.117737, 366.758179)
sub11_h2_sg_3_061.jpg: Predicted in 0.155224 seconds.
baseball bat: 83%
(505.234589, 275.150360) (540.331665, 367.342346)
sub11_h2_sg_3_062.jpg: Predicted in 0.157382 seconds.
baseball bat: 83%
(505.224152, 275.452423) (540.800537, 367.123260)
sub11_h2_sg_3_063.jpg: Predicted in 0.155340 seconds.
baseball bat: 83%
(505.123505, 275.042480) (540.444275, 365.713348)
sub11_h2_sg_3_064.jpg: Predicted in 0.160863 seconds.
baseball bat: 84%
(504.581970, 275.883667) (540.057251, 365.414978)
sub11_h2_sg_3_065.jpg: Predicted in 0.157090 seconds.
baseball bat: 84%
(504.081818, 275.693359) (540.049561, 365.600830)
sub11_h2_sg_3_066.jpg: Predicted in 0.155422 seconds.
baseball bat: 84%
(503.386963, 276.678864) (539.547485, 365.128876)
sub11_h2_sg_3_067.jpg: Predicted in 0.157800 seconds.
baseball bat: 83%
(503.248566, 278.325287) (539.625183, 365.407379)
sub11_h2_sg_3_068.jpg: Predicted in 0.156310 seconds.
baseball bat: 83%
(503.330536, 278.579865) (539.318787, 366.167084)
sub11_h2_sg_3_069.jpg: Predicted in 0.158103 seconds.
baseball bat: 83%
(502.841248, 278.992676) (539.882385, 366.461395)
sub11_h2_sg_3_070.jpg: Predicted in 0.155761 seconds.
baseball bat: 84%
(503.651031, 279.489319) (540.803162, 366.917084)
sub11_h2_sg_3_071.jpg: Predicted in 0.165537 seconds.
baseball bat: 84%
(503.909180, 279.630371) (541.009766, 367.615997)
sub11_h2_sg_3_072.jpg: Predicted in 0.164855 seconds.
baseball bat: 83%
(504.081757, 280.183594) (540.762695, 367.877258)
sub11_h2_sg_3_073.jpg: Predicted in 0.157832 seconds.
baseball bat: 84%
(504.016693, 280.120209) (541.030090, 367.345886)
sub11_h2_sg_3_074.jpg: Predicted in 0.157801 seconds.
baseball bat: 84%
(504.585663, 280.178192) (541.920959, 368.065918)
sub11_h2_sg_3_075.jpg: Predicted in 0.157337 seconds.
baseball bat: 83%
(504.246796, 281.115845) (541.771545, 367.653687)
sub11_h2_sg_3_076.jpg: Predicted in 0.160786 seconds.
baseball bat: 83%
(504.216187, 282.210388) (543.211182, 368.297760)
sub11_h2_sg_3_077.jpg: Predicted in 0.165334 seconds.
baseball bat: 83%
(503.908386, 282.465668) (542.947388, 368.716553)
sub11_h2_sg_3_078.jpg: Predicted in 0.156301 seconds.
baseball bat: 83%
(503.408691, 282.842468) (543.317993, 368.584717)
sub11_h2_sg_3_079.jpg: Predicted in 0.165841 seconds.
baseball bat: 84%
(503.372620, 283.311859) (543.014221, 368.342346)
sub11_h2_sg_3_080.jpg: Predicted in 0.156324 seconds.
baseball bat: 84%
(502.793030, 282.991547) (543.559387, 368.335449)
sub11_h2_sg_3_081.jpg: Predicted in 0.154275 seconds.
baseball bat: 85%
(502.877075, 283.751831) (543.689758, 368.177307)
sub11_h2_sg_3_082.jpg: Predicted in 0.156746 seconds.
baseball bat: 85%
(502.135132, 284.480103) (543.227966, 367.788025)
sub11_h2_sg_3_083.jpg: Predicted in 0.162061 seconds.
baseball bat: 85%
(501.723450, 284.552338) (542.145752, 367.782867)
sub11_h2_sg_3_084.jpg: Predicted in 0.155576 seconds.
baseball bat: 85%
(502.045349, 286.202026) (542.698547, 366.998413)
sub11_h2_sg_3_085.jpg: Predicted in 0.156409 seconds.
baseball bat: 85%
(501.899597, 287.188934) (542.668457, 366.518005)
sub11_h2_sg_3_086.jpg: Predicted in 0.157357 seconds.
baseball bat: 85%
(501.510651, 287.227936) (543.125793, 366.495880)
sub11_h2_sg_3_087.jpg: Predicted in 0.155823 seconds.
baseball bat: 85%
(501.753693, 287.992676) (543.569702, 367.277954)
sub11_h2_sg_3_088.jpg: Predicted in 0.156687 seconds.
baseball bat: 85%
(501.523285, 288.249908) (543.593384, 367.104218)
sub11_h2_sg_3_089.jpg: Predicted in 0.156870 seconds.
baseball bat: 85%
(501.482300, 288.057983) (544.686829, 367.907684)
sub11_h2_sg_3_090.jpg: Predicted in 0.155008 seconds.
baseball bat: 85%
(500.782227, 288.503265) (545.467346, 367.522339)
sub11_h2_sg_3_091.jpg: Predicted in 0.157539 seconds.
baseball bat: 86%
(500.481842, 288.421875) (545.637939, 367.736938)
sub11_h2_sg_3_092.jpg: Predicted in 0.157505 seconds.
baseball bat: 86%
(500.616730, 288.652435) (545.264160, 366.971649)
sub11_h2_sg_3_093.jpg: Predicted in 0.155045 seconds.
baseball bat: 86%
(501.001404, 288.923706) (545.219360, 366.769531)
sub11_h2_sg_3_094.jpg: Predicted in 0.155127 seconds.
baseball bat: 86%
(500.084595, 288.268524) (545.452881, 366.726166)
sub11_h2_sg_3_095.jpg: Predicted in 0.154935 seconds.
baseball bat: 86%
(500.133942, 289.041504) (545.232361, 366.600006)
sub11_h2_sg_3_096.jpg: Predicted in 0.165334 seconds.
baseball bat: 86%
(500.256836, 289.153687) (545.913208, 367.657043)
sub11_h2_sg_3_097.jpg: Predicted in 0.161898 seconds.
baseball bat: 86%
(500.802795, 289.851562) (546.311218, 368.913666)
sub11_h2_sg_3_098.jpg: Predicted in 0.157317 seconds.
baseball bat: 86%
(500.610626, 290.118561) (546.139343, 370.030029)
sub11_h2_sg_3_099.jpg: Predicted in 0.155704 seconds.
baseball bat: 86%
(500.107635, 289.917236) (546.064514, 370.064026)
sub11_h2_sg_3_100.jpg: Predicted in 0.155612 seconds.
baseball bat: 86%
(499.070160, 289.631866) (546.451782, 369.927155)
sub11_h2_sg_3_101.jpg: Predicted in 0.154512 seconds.
baseball bat: 86%
(498.850861, 290.328156) (545.759155, 369.484894)
sub11_h2_sg_3_102.jpg: Predicted in 0.156019 seconds.
baseball bat: 87%
(498.273743, 290.551300) (547.066711, 368.582855)
sub11_h2_sg_3_103.jpg: Predicted in 0.180217 seconds.
baseball bat: 87%
(498.085205, 291.176361) (546.902649, 368.753723)
sub11_h2_sg_3_104.jpg: Predicted in 0.159512 seconds.
baseball bat: 87%
(497.470764, 291.329834) (547.284851, 368.909241)
sub11_h2_sg_3_105.jpg: Predicted in 0.163962 seconds.
baseball bat: 87%
(497.389923, 291.618073) (548.093872, 370.112213)
sub11_h2_sg_3_106.jpg: Predicted in 0.164323 seconds.
baseball bat: 86%
(497.462952, 292.566986) (548.512329, 370.967499)
sub11_h2_sg_3_107.jpg: Predicted in 0.155292 seconds.
baseball bat: 86%
(497.083771, 294.336121) (548.451904, 372.312134)
sub11_h2_sg_3_108.jpg: Predicted in 0.157389 seconds.
baseball bat: 87%
(496.443481, 294.253815) (548.088135, 371.839752)
sub11_h2_sg_3_109.jpg: Predicted in 0.156634 seconds.
baseball bat: 87%
(496.360931, 294.336304) (549.582581, 372.321136)
sub11_h2_sg_3_110.jpg: Predicted in 0.155958 seconds.
baseball bat: 87%
(496.223358, 294.225189) (549.667419, 372.438354)
sub11_h2_sg_3_111.jpg: Predicted in 0.155843 seconds.
baseball bat: 87%
(494.493866, 294.912262) (550.357910, 371.485718)
sub11_h2_sg_3_112.jpg: Predicted in 0.156664 seconds.
baseball bat: 87%
(494.935211, 295.632294) (550.220581, 373.136200)
sub11_h2_sg_3_113.jpg: Predicted in 0.155613 seconds.
baseball bat: 87%
(493.895874, 296.121063) (550.581360, 373.108032)
sub11_h2_sg_3_114.jpg: Predicted in 0.157233 seconds.
baseball bat: 88%
(492.829041, 296.250427) (552.281128, 372.500397)
sub11_h2_sg_3_115.jpg: Predicted in 0.160702 seconds.
baseball bat: 88%
(492.474304, 296.960785) (552.824097, 371.924103)
sub11_h2_sg_3_116.jpg: Predicted in 0.156427 seconds.
baseball bat: 88%
(492.070190, 298.569336) (552.126282, 372.860199)
sub11_h2_sg_3_117.jpg: Predicted in 0.157136 seconds.
baseball bat: 88%
(492.003998, 299.327545) (551.840698, 373.984009)
sub11_h2_sg_3_118.jpg: Predicted in 0.164028 seconds.
baseball bat: 88%
(491.659821, 299.995728) (551.951660, 374.751678)
sub11_h2_sg_3_119.jpg: Predicted in 0.166340 seconds.
baseball bat: 89%
(491.685730, 300.456543) (551.789856, 374.397308)
sub11_h2_sg_3_120.jpg: Predicted in 0.158825 seconds.
baseball bat: 89%
(491.734711, 300.604828) (550.154602, 374.601257)
sub11_h2_sg_3_121.jpg: Predicted in 0.155541 seconds.
baseball bat: 89%
(490.279633, 301.107300) (550.360901, 374.296600)
sub11_h2_sg_3_122.jpg: Predicted in 0.155859 seconds.
baseball bat: 89%
(489.657990, 301.737457) (551.102417, 373.983368)
sub11_h2_sg_3_123.jpg: Predicted in 0.155375 seconds.
baseball bat: 89%
(489.007751, 301.860199) (551.930054, 374.838684)
sub11_h2_sg_3_124.jpg: Predicted in 0.156112 seconds.
baseball bat: 89%
(488.562866, 302.971466) (553.103455, 375.612152)
sub11_h2_sg_3_125.jpg: Predicted in 0.157591 seconds.
baseball bat: 89%
(487.855743, 303.991608) (553.366821, 375.866486)
sub11_h2_sg_3_126.jpg: Predicted in 0.157464 seconds.
baseball bat: 89%
(486.259827, 304.697998) (553.847473, 375.758362)
sub11_h2_sg_3_127.jpg: Predicted in 0.155420 seconds.
baseball bat: 89%
(485.735413, 304.691589) (553.183411, 377.647766)
sub11_h2_sg_3_128.jpg: Predicted in 0.156460 seconds.
baseball bat: 89%
(484.180817, 304.504181) (553.188293, 377.686340)
sub11_h2_sg_3_129.jpg: Predicted in 0.163614 seconds.
baseball bat: 89%
(484.068176, 305.753815) (554.625122, 378.354401)
sub11_h2_sg_3_130.jpg: Predicted in 0.154673 seconds.
baseball bat: 89%
(484.221283, 306.919739) (554.707031, 378.950470)
sub11_h2_sg_3_131.jpg: Predicted in 0.165137 seconds.
baseball bat: 90%
(483.058472, 307.221649) (555.587463, 379.229980)
sub11_h2_sg_3_132.jpg: Predicted in 0.155441 seconds.
baseball bat: 90%
(482.232910, 306.736206) (554.937622, 380.807953)
sub11_h2_sg_3_133.jpg: Predicted in 0.156124 seconds.
baseball bat: 90%
(482.229279, 307.291565) (555.167358, 381.128601)
sub11_h2_sg_3_134.jpg: Predicted in 0.156508 seconds.
baseball bat: 90%
(482.426147, 308.837128) (557.106384, 381.906464)
sub11_h2_sg_3_135.jpg: Predicted in 0.156061 seconds.
baseball bat: 90%
(481.615143, 309.105774) (558.184326, 382.477081)
sub11_h2_sg_3_136.jpg: Predicted in 0.160552 seconds.
baseball bat: 90%
(480.656250, 308.718658) (558.906494, 383.839203)
sub11_h2_sg_3_137.jpg: Predicted in 0.158832 seconds.
baseball bat: 90%
(479.499969, 309.666809) (560.151611, 385.390778)
sub11_h2_sg_3_138.jpg: Predicted in 0.162396 seconds.
baseball bat: 90%
(479.459747, 310.960266) (561.801147, 384.441406)
sub11_h2_sg_3_139.jpg: Predicted in 0.160031 seconds.
baseball bat: 91%
(478.203949, 311.386871) (562.857361, 385.394867)
sub11_h2_sg_3_140.jpg: Predicted in 0.156924 seconds.
baseball bat: 91%
(477.620544, 311.950623) (562.399292, 385.844910)
sub11_h2_sg_3_141.jpg: Predicted in 0.161492 seconds.
baseball bat: 91%
(477.024963, 312.750732) (563.450500, 387.381500)
sub11_h2_sg_3_142.jpg: Predicted in 0.165959 seconds.
baseball bat: 91%
(477.527679, 313.493561) (563.739685, 387.875031)
sub11_h2_sg_3_143.jpg: Predicted in 0.157218 seconds.
baseball bat: 91%
(476.528076, 312.543793) (563.758301, 388.495392)
sub11_h2_sg_3_144.jpg: Predicted in 0.155571 seconds.
baseball bat: 91%
(475.457733, 313.029755) (564.636780, 388.711975)
sub11_h2_sg_3_145.jpg: Predicted in 0.156054 seconds.
baseball bat: 91%
(475.253876, 313.755859) (563.645386, 389.457794)
sub11_h2_sg_3_146.jpg: Predicted in 0.156963 seconds.
baseball bat: 91%
(474.242371, 313.968994) (565.534302, 390.208069)
sub11_h2_sg_3_147.jpg: Predicted in 0.167073 seconds.
baseball bat: 91%
(472.929199, 314.652588) (564.422852, 389.701111)
sub11_h2_sg_3_148.jpg: Predicted in 0.161731 seconds.
baseball bat: 91%
(471.426971, 315.707458) (565.831482, 389.507050)
sub11_h2_sg_3_149.jpg: Predicted in 0.154187 seconds.
baseball bat: 91%
(471.152069, 316.162994) (566.201355, 391.025116)
sub11_h2_sg_3_150.jpg: Predicted in 0.155643 seconds.
baseball bat: 91%
(470.512878, 316.937012) (565.315918, 391.403931)
sub11_h2_sg_3_151.jpg: Predicted in 0.156225 seconds.
baseball bat: 91%
(469.577881, 316.738190) (566.473877, 391.776398)
sub11_h2_sg_3_152.jpg: Predicted in 0.157522 seconds.
baseball bat: 91%
(469.402344, 317.102783) (566.703369, 391.677612)
sub11_h2_sg_3_153.jpg: Predicted in 0.156191 seconds.
baseball bat: 91%
(469.752838, 317.584045) (566.751465, 392.228851)
sub11_h2_sg_3_154.jpg: Predicted in 0.155543 seconds.
baseball bat: 91%
(469.576782, 317.761963) (566.709290, 392.537048)
sub11_h2_sg_3_155.jpg: Predicted in 0.156311 seconds.
baseball bat: 91%
(468.369629, 317.884674) (566.827515, 392.894470)
sub11_h2_sg_3_156.jpg: Predicted in 0.154790 seconds.
baseball bat: 91%
(467.381042, 317.581299) (568.258911, 394.068054)
sub11_h2_sg_3_157.jpg: Predicted in 0.157371 seconds.
baseball bat: 90%
(465.102570, 318.247772) (568.035767, 394.470673)
sub11_h2_sg_3_158.jpg: Predicted in 0.157434 seconds.
baseball bat: 91%
(463.240479, 318.080902) (569.716858, 394.662354)
sub11_h2_sg_3_159.jpg: Predicted in 0.155309 seconds.
baseball bat: 91%
(462.925049, 318.166046) (570.561890, 395.067596)
sub11_h2_sg_3_160.jpg: Predicted in 0.155746 seconds.
baseball bat: 91%
(461.130829, 319.017059) (571.910034, 396.114166)
sub11_h2_sg_3_161.jpg: Predicted in 0.154492 seconds.
baseball bat: 91%
(461.043671, 319.284698) (572.758911, 396.765472)
sub11_h2_sg_3_162.jpg: Predicted in 0.156848 seconds.
baseball bat: 91%
(458.974609, 319.209808) (573.523865, 396.937714)
sub11_h2_sg_3_163.jpg: Predicted in 0.156549 seconds.
baseball bat: 91%
(456.744354, 320.247742) (575.810059, 398.496796)
sub11_h2_sg_3_164.jpg: Predicted in 0.155979 seconds.
baseball bat: 91%
(455.585693, 320.813690) (578.907227, 399.303558)
sub11_h2_sg_3_165.jpg: Predicted in 0.158047 seconds.
baseball bat: 92%
(454.294586, 321.062378) (581.323792, 401.029236)
sub11_h2_sg_3_166.jpg: Predicted in 0.155738 seconds.
baseball bat: 91%
(452.624207, 322.974731) (586.788025, 402.902863)
sub11_h2_sg_3_167.jpg: Predicted in 0.157262 seconds.
baseball bat: 91%
(450.834686, 323.890167) (586.494507, 403.313019)
sub11_h2_sg_3_168.jpg: Predicted in 0.155702 seconds.
baseball bat: 91%
(446.820526, 319.298248) (598.602478, 408.919495)
sub11_h2_sg_3_169.jpg: Predicted in 0.155589 seconds.
baseball bat: 91%
(444.039459, 320.195557) (599.891907, 408.456543)
sub11_h2_sg_3_170.jpg: Predicted in 0.157629 seconds.
baseball bat: 92%
(444.246063, 320.604370) (600.441650, 409.405457)
sub11_h2_sg_3_171.jpg: Predicted in 0.157102 seconds.
baseball bat: 91%
(441.983002, 320.875061) (599.008362, 408.748047)
sub11_h2_sg_3_172.jpg: Predicted in 0.155107 seconds.
baseball bat: 92%
(443.678680, 324.304718) (608.881897, 416.803650)
sub11_h2_sg_3_173.jpg: Predicted in 0.158975 seconds.
baseball bat: 93%
(443.326721, 324.361755) (611.841675, 416.699951)
sub11_h2_sg_3_174.jpg: Predicted in 0.164977 seconds.
baseball bat: 93%
(442.304504, 324.958466) (620.903809, 416.995758)
sub11_h2_sg_3_175.jpg: Predicted in 0.156411 seconds.
baseball bat: 93%
(442.593079, 324.908112) (624.467163, 417.619995)
sub11_h2_sg_3_176.jpg: Predicted in 0.155223 seconds.
baseball bat: 93%
(443.555206, 323.897919) (624.570312, 419.292877)
sub11_h2_sg_3_177.jpg: Predicted in 0.156235 seconds.
baseball bat: 92%
(443.483826, 323.417938) (626.103394, 420.741272)
sub11_h2_sg_3_178.jpg: Predicted in 0.165425 seconds.
baseball bat: 93%
(442.583038, 324.756500) (628.468140, 419.603729)
sub11_h2_sg_3_179.jpg: Predicted in 0.156365 seconds.
baseball bat: 93%
(441.900696, 325.358276) (626.654907, 418.717804)
sub11_h2_sg_3_180.jpg: Predicted in 0.156529 seconds.
baseball bat: 93%
(441.609283, 325.898834) (627.869141, 418.412842)
sub11_h2_sg_3_181.jpg: Predicted in 0.159218 seconds.
baseball bat: 92%
(442.321442, 326.114899) (632.065552, 419.877014)
sub11_h2_sg_3_182.jpg: Predicted in 0.157634 seconds.
baseball bat: 93%
(443.169128, 326.774170) (631.027893, 418.875122)
sub11_h2_sg_3_183.jpg: Predicted in 0.158669 seconds.
baseball bat: 92%
(440.256561, 326.987366) (638.157104, 421.436768)
sub11_h2_sg_3_184.jpg: Predicted in 0.156106 seconds.
baseball bat: 92%
(441.253754, 327.903503) (639.533813, 421.547058)
sub11_h2_sg_3_185.jpg: Predicted in 0.157598 seconds.
baseball bat: 92%
(439.867065, 328.338409) (642.927734, 422.760498)
sub11_h2_sg_3_186.jpg: Predicted in 0.157918 seconds.
baseball bat: 92%
(439.729736, 328.347992) (641.902710, 423.056641)
sub11_h2_sg_3_187.jpg: Predicted in 0.157493 seconds.
baseball bat: 92%
(436.976807, 329.899231) (646.024841, 423.020569)
sub11_h2_sg_3_188.jpg: Predicted in 0.155080 seconds.
baseball bat: 92%
(436.076050, 330.587402) (646.666565, 422.774963)
sub11_h2_sg_3_189.jpg: Predicted in 0.158723 seconds.
baseball bat: 92%
(434.399658, 331.037109) (647.289490, 422.635956)
sub11_h2_sg_3_190.jpg: Predicted in 0.157311 seconds.
baseball bat: 92%
(432.559387, 330.992798) (648.582214, 423.467438)
sub11_h2_sg_3_191.jpg: Predicted in 0.155468 seconds.
baseball bat: 92%
(430.672943, 331.443329) (650.421875, 423.220917)
sub11_h2_sg_3_192.jpg: Predicted in 0.157223 seconds.
baseball bat: 92%
(430.279785, 331.168488) (651.896851, 424.800537)
sub11_h2_sg_3_193.jpg: Predicted in 0.157552 seconds.
baseball bat: 92%
(429.383789, 331.585480) (652.718384, 425.959534)
sub11_h2_sg_3_194.jpg: Predicted in 0.156757 seconds.
baseball bat: 92%
(428.214844, 331.702026) (649.961670, 424.755127)
sub11_h2_sg_3_195.jpg: Predicted in 0.155925 seconds.
baseball bat: 92%
(427.306122, 332.147614) (652.756653, 425.334259)
sub11_h2_sg_3_196.jpg: Predicted in 0.155584 seconds.
baseball bat: 92%
(425.594025, 333.106537) (656.536743, 425.844360)
sub11_h2_sg_3_197.jpg: Predicted in 0.158028 seconds.
baseball bat: 92%
(423.937775, 333.499542) (657.647034, 425.982452)
sub11_h2_sg_3_198.jpg: Predicted in 0.155073 seconds.
baseball bat: 92%
(423.829041, 333.942566) (659.396423, 426.273621)
sub11_h2_sg_3_199.jpg: Predicted in 0.157522 seconds.
baseball bat: 92%
(423.058777, 334.891785) (661.122070, 426.070618)
sub11_h2_sg_3_200.jpg: Predicted in 0.157310 seconds.
baseball bat: 92%
(420.659729, 335.924255) (664.473511, 427.331390)
sub11_h2_sg_3_201.jpg: Predicted in 0.166533 seconds.
baseball bat: 92%
(419.885468, 336.759644) (667.202026, 428.176453)
sub11_h2_sg_3_202.jpg: Predicted in 0.156562 seconds.
baseball bat: 92%
(417.608521, 337.383545) (669.338562, 427.840729)
sub11_h2_sg_3_203.jpg: Predicted in 0.157822 seconds.
baseball bat: 92%
(417.504333, 337.784729) (670.508118, 428.770203)
sub11_h2_sg_3_204.jpg: Predicted in 0.156825 seconds.
baseball bat: 92%
(417.143860, 338.826660) (672.726990, 428.936829)
sub11_h2_sg_3_205.jpg: Predicted in 0.156235 seconds.
baseball bat: 92%
(416.628052, 339.321564) (672.629700, 427.860962)
sub11_h2_sg_3_206.jpg: Predicted in 0.154308 seconds.
baseball bat: 92%
(416.626648, 340.382935) (674.440186, 428.929688)
sub11_h2_sg_3_207.jpg: Predicted in 0.160512 seconds.
baseball bat: 92%
(418.311340, 341.233063) (677.029297, 429.833557)
sub11_h2_sg_3_208.jpg: Predicted in 0.163752 seconds.
baseball bat: 92%
(418.996338, 343.349548) (678.616211, 428.507202)
sub11_h2_sg_3_209.jpg: Predicted in 0.164451 seconds.
baseball bat: 92%
(416.654510, 343.965057) (681.945862, 428.924347)
sub11_h2_sg_3_210.jpg: Predicted in 0.155090 seconds.
baseball bat: 92%
(417.048492, 345.011536) (684.669250, 429.048187)
sub11_h2_sg_3_211.jpg: Predicted in 0.157538 seconds.
baseball bat: 92%
(417.074463, 346.521667) (683.827881, 428.332397)
sub11_h2_sg_3_212.jpg: Predicted in 0.154650 seconds.
baseball bat: 92%
(419.153503, 347.765167) (689.038818, 428.509033)
sub11_h2_sg_3_213.jpg: Predicted in 0.158215 seconds.
baseball bat: 92%
(419.018494, 348.464294) (690.702759, 428.325378)
sub11_h2_sg_3_214.jpg: Predicted in 0.160343 seconds.
baseball bat: 92%
(420.926056, 349.250244) (693.433228, 427.495056)
sub11_h2_sg_3_215.jpg: Predicted in 0.159067 seconds.
baseball bat: 92%
(421.391479, 350.266449) (692.983887, 426.411407)
sub11_h2_sg_3_216.jpg: Predicted in 0.165393 seconds.
baseball bat: 92%
(421.720978, 351.454102) (696.470154, 425.538055)
sub11_h2_sg_3_217.jpg: Predicted in 0.161580 seconds.
baseball bat: 92%
(421.571747, 352.670441) (699.723083, 424.875671)
sub11_h2_sg_3_218.jpg: Predicted in 0.165848 seconds.
baseball bat: 92%
(421.483246, 354.496338) (703.356323, 424.123535)
sub11_h2_sg_3_219.jpg: Predicted in 0.159778 seconds.
baseball bat: 92%
(423.351349, 355.910095) (706.545105, 424.503632)
sub11_h2_sg_3_220.jpg: Predicted in 0.156132 seconds.
baseball bat: 91%
(419.622406, 356.748505) (710.324280, 423.806366)
sub11_h2_sg_3_221.jpg: Predicted in 0.156190 seconds.
baseball bat: 91%
(421.636108, 358.336639) (710.078918, 422.505463)
sub11_h2_sg_3_222.jpg: Predicted in 0.165541 seconds.
baseball bat: 91%
(423.742218, 359.594818) (713.809326, 422.696014)
sub11_h2_sg_3_223.jpg: Predicted in 0.212537 seconds.
baseball bat: 91%
(425.203308, 360.909332) (715.616882, 420.761169)
sub11_h2_sg_3_224.jpg: Predicted in 0.157248 seconds.
baseball bat: 91%
(426.351135, 361.854309) (716.145325, 419.126282)
sub11_h2_sg_3_225.jpg: Predicted in 0.155386 seconds.
baseball bat: 91%
(428.745667, 362.884857) (716.209595, 419.524109)
sub11_h2_sg_3_226.jpg: Predicted in 0.158394 seconds.
baseball bat: 91%
(429.003632, 364.229218) (715.780396, 416.997559)
sub11_h2_sg_3_227.jpg: Predicted in 0.154977 seconds.
baseball bat: 91%
(429.522949, 366.576508) (717.337341, 415.905823)
sub11_h2_sg_3_228.jpg: Predicted in 0.195985 seconds.
baseball bat: 91%
(430.470917, 368.624390) (722.409119, 416.036011)
sub11_h2_sg_3_229.jpg: Predicted in 0.158073 seconds.
baseball bat: 91%
(434.322815, 370.236237) (724.137939, 414.968689)
sub11_h2_sg_3_230.jpg: Predicted in 0.158010 seconds.
baseball bat: 90%
(437.709320, 372.472656) (726.007812, 416.155945)
sub11_h2_sg_3_231.jpg: Predicted in 0.157888 seconds.
baseball bat: 89%
(441.228333, 373.364014) (725.841370, 416.171082)
sub11_h2_sg_3_232.jpg: Predicted in 0.155323 seconds.
baseball bat: 88%
(441.013245, 374.552002) (728.069031, 416.066589)
sub11_h2_sg_3_233.jpg: Predicted in 0.155995 seconds.
baseball bat: 88%
(443.293091, 375.947449) (727.573669, 411.772644)
sub11_h2_sg_3_234.jpg: Predicted in 0.160277 seconds.
baseball bat: 88%
(444.819153, 378.839844) (727.054565, 411.860565)
sub11_h2_sg_3_235.jpg: Predicted in 0.155647 seconds.
baseball bat: 88%
(450.504700, 380.646484) (723.007812, 411.493134)
sub11_h2_sg_3_236.jpg: Predicted in 0.156944 seconds.
baseball bat: 87%
(452.556488, 382.705994) (721.898560, 410.937103)
sub11_h2_sg_3_237.jpg: Predicted in 0.156235 seconds.
baseball bat: 84%
(453.843140, 382.947998) (739.973022, 410.294586)
sub11_h2_sg_3_238.jpg: Predicted in 0.157400 seconds.
baseball bat: 83%
(462.547821, 385.348999) (732.058350, 409.376923)
sub11_h2_sg_3_239.jpg: Predicted in 0.156799 seconds.
baseball bat: 83%
(461.726105, 385.664215) (737.336670, 408.316101)
sub11_h2_sg_3_240.jpg: Predicted in 0.156311 seconds.
baseball bat: 82%
(465.797516, 386.585358) (735.995483, 407.693024)
sub11_h2_sg_3_241.jpg: Predicted in 0.158521 seconds.
baseball bat: 81%
(468.298889, 387.984467) (738.228943, 406.795685)
sub11_h2_sg_3_242.jpg: Predicted in 0.156266 seconds.
baseball bat: 78%
(471.620880, 389.651581) (737.995911, 405.558228)
sub11_h2_sg_3_243.jpg: Predicted in 0.158860 seconds.
baseball bat: 74%
(475.638519, 391.962799) (738.142090, 404.801025)
sub11_h2_sg_3_244.jpg: Predicted in 0.155604 seconds.
baseball bat: 67%
(478.743958, 394.221039) (734.655518, 404.228027)
sub11_h2_sg_3_245.jpg: Predicted in 0.156835 seconds.
baseball bat: 54%
(479.603119, 396.278351) (742.590820, 403.259796)
sub11_h2_sg_3_246.jpg: Predicted in 0.157205 seconds.
baseball bat: 45%
(487.559052, 398.169861) (742.307983, 403.916504)
sub11_h2_sg_3_247.jpg: Predicted in 0.162032 seconds.
baseball bat: 39%
(500.216644, 399.718414) (738.498718, 404.818573)
sub11_h2_sg_3_248.jpg: Predicted in 0.158883 seconds.
baseball bat: 39%
(501.725037, 400.368500) (738.354492, 405.634583)
sub11_h2_sg_3_249.jpg: Predicted in 0.157046 seconds.
baseball bat: 46%
(507.158875, 400.635529) (738.264526, 406.696045)
sub11_h2_sg_3_250.jpg: Predicted in 0.156319 seconds.
baseball bat: 52%
(514.093201, 400.132568) (735.651367, 407.241455)
sub11_h2_sg_3_251.jpg: Predicted in 0.165576 seconds.
baseball bat: 59%
(525.940552, 400.285797) (735.634216, 408.890259)
sub11_h2_sg_3_252.jpg: Predicted in 0.160690 seconds.
baseball bat: 67%
(533.780640, 399.154785) (734.974670, 410.548096)
sub11_h2_sg_3_253.jpg: Predicted in 0.161743 seconds.
baseball bat: 73%
(538.589722, 396.518799) (737.483826, 411.360260)
sub11_h2_sg_3_254.jpg: Predicted in 0.157104 seconds.
baseball bat: 74%
(547.931152, 395.152771) (739.842896, 412.110321)
sub11_h2_sg_3_255.jpg: Predicted in 0.156118 seconds.
baseball bat: 76%
(554.739990, 393.100647) (738.580933, 413.504883)
sub11_h2_sg_3_256.jpg: Predicted in 0.156636 seconds.
baseball bat: 77%
(557.162659, 392.737152) (736.235474, 416.970306)
sub11_h2_sg_3_257.jpg: Predicted in 0.158534 seconds.
baseball bat: 76%
(566.706299, 391.456696) (731.710938, 417.636597)
sub11_h2_sg_3_258.jpg: Predicted in 0.158787 seconds.
baseball bat: 76%
(570.395569, 390.461487) (730.191895, 417.855408)
sub11_h2_sg_3_259.jpg: Predicted in 0.165387 seconds.
baseball bat: 76%
(575.865173, 388.924255) (732.351990, 419.004883)
sub11_h2_sg_3_260.jpg: Predicted in 0.158105 seconds.
baseball bat: 77%
(583.812561, 389.221619) (730.864563, 423.931549)
sub11_h2_sg_3_261.jpg: Predicted in 0.166263 seconds.
baseball bat: 79%
(582.801025, 389.224854) (731.054871, 427.427338)
sub11_h2_sg_3_262.jpg: Predicted in 0.165095 seconds.
baseball bat: 79%
(591.429871, 388.977905) (730.927917, 427.659790)
sub11_h2_sg_3_263.jpg: Predicted in 0.156814 seconds.
baseball bat: 77%
(597.210815, 389.396118) (728.213074, 427.794342)
sub11_h2_sg_3_264.jpg: Predicted in 0.156574 seconds.
baseball bat: 74%
(618.300293, 389.923218) (719.952576, 430.859070)
sub11_h2_sg_3_265.jpg: Predicted in 0.156797 seconds.
baseball bat: 68%
(635.272888, 391.567230) (717.091797, 429.070862)
sub11_h2_sg_3_266.jpg: Predicted in 0.157247 seconds.
baseball bat: 56%
(652.903320, 394.613770) (708.255127, 428.408997)
baseball bat: 36%
(681.797546, 382.153381) (713.709656, 422.093018)
sub11_h2_sg_3_267.jpg: Predicted in 0.155054 seconds.
baseball bat: 38%
(663.373352, 395.715698) (701.737244, 429.670166)
baseball bat: 36%
(689.196411, 383.413330) (718.029236, 425.236481)
sub11_h2_sg_3_268.jpg: Predicted in 0.155746 seconds.
baseball bat: 37%
(693.744812, 385.210510) (715.779724, 428.820251)
sub11_h2_sg_3_269.jpg: Predicted in 0.156618 seconds.
baseball bat: 43%
(693.373413, 385.479706) (714.077148, 434.372437)
sub11_h2_sg_3_270.jpg: Predicted in 0.161552 seconds.
baseball bat: 39%
(696.369812, 383.266846) (714.577026, 428.236389)
sub11_h2_sg_3_271.jpg: Predicted in 0.155728 seconds.
baseball bat: 31%
(699.885986, 382.000946) (716.680359, 422.354401)
sub11_h2_sg_3_272.jpg: Predicted in 0.156082 seconds.
sub11_h2_sg_3_273.jpg: Predicted in 0.158486 seconds.
sub11_h2_sg_3_274.jpg: Predicted in 0.155061 seconds.
sub11_h2_sg_3_275.jpg: Predicted in 0.156832 seconds.
sub11_h2_sg_3_276.jpg: Predicted in 0.156038 seconds.
sub11_h2_sg_3_277.jpg: Predicted in 0.155924 seconds.
sub11_h2_sg_3_278.jpg: Predicted in 0.157620 seconds.
baseball bat: 37%
(707.222351, 367.076233) (729.849915, 432.009552)
sub11_h2_sg_3_279.jpg: Predicted in 0.157857 seconds.
baseball bat: 40%
(708.856140, 368.905396) (732.755188, 431.097290)
sub11_h2_sg_3_280.jpg: Predicted in 0.162288 seconds.
baseball bat: 46%
(708.718811, 369.906281) (739.301331, 435.768646)
sub11_h2_sg_3_281.jpg: Predicted in 0.156444 seconds.
baseball bat: 58%
(706.365356, 373.385132) (754.094543, 437.408722)
sub11_h2_sg_3_282.jpg: Predicted in 0.157396 seconds.
baseball bat: 52%
(705.611450, 372.672668) (757.420166, 434.214386)
sub11_h2_sg_3_283.jpg: Predicted in 0.154536 seconds.
baseball bat: 56%
(703.033508, 373.764984) (775.792664, 435.961731)
sub11_h2_sg_3_284.jpg: Predicted in 0.156041 seconds.
baseball bat: 48%
(698.798096, 372.942688) (792.312744, 434.426819)
sub11_h2_sg_3_285.jpg: Predicted in 0.159003 seconds.
baseball bat: 33%
(698.240417, 374.354004) (802.228760, 431.365356)
sub11_h2_sg_3_286.jpg: Predicted in 0.157053 seconds.
baseball bat: 41%
(693.594055, 373.466339) (812.192810, 432.096069)
sub11_h2_sg_3_287.jpg: Predicted in 0.163196 seconds.
baseball bat: 54%
(692.066589, 375.126434) (831.453613, 433.216980)
sub11_h2_sg_3_288.jpg: Predicted in 0.163059 seconds.
baseball bat: 36%
(689.895386, 375.768402) (831.147583, 429.312225)
sub11_h2_sg_3_289.jpg: Predicted in 0.156046 seconds.
baseball bat: 38%
(677.736694, 372.966431) (845.755310, 431.954987)
sub11_h2_sg_3_290.jpg: Predicted in 0.156213 seconds.
baseball bat: 33%
(677.182922, 372.797424) (851.453552, 430.918945)
sub11_h2_sg_3_291.jpg: Predicted in 0.165649 seconds.
baseball bat: 40%
(671.754333, 368.390625) (861.615417, 433.582520)
sub11_h2_sg_3_292.jpg: Predicted in 0.157766 seconds.
baseball bat: 49%
(671.267700, 368.623627) (869.125671, 435.068726)
sub11_h2_sg_3_293.jpg: Predicted in 0.162151 seconds.
baseball bat: 37%
(666.811157, 368.600708) (876.040710, 433.846252)
sub11_h2_sg_3_294.jpg: Predicted in 0.157180 seconds.
baseball bat: 30%
(665.575378, 367.469330) (880.881958, 432.477203)
sub11_h2_sg_3_295.jpg: Predicted in 0.157188 seconds.
sub11_h2_sg_3_296.jpg: Predicted in 0.157028 seconds.
sub11_h2_sg_3_297.jpg: Predicted in 0.155933 seconds.
sub11_h2_sg_3_298.jpg: Predicted in 0.155010 seconds.
sub11_h2_sg_3_299.jpg: Predicted in 0.155559 seconds.
sub11_h2_sg_3_300.jpg: Predicted in 0.157603 seconds.
sub11_h2_sg_3_301.jpg: Predicted in 0.158190 seconds.
sub11_h2_sg_3_302.jpg: Predicted in 0.154618 seconds.
sub11_h2_sg_3_303.jpg: Predicted in 0.155605 seconds.
sub11_h2_sg_3_304.jpg: Predicted in 0.157726 seconds.
sub11_h2_sg_3_305.jpg: Predicted in 0.161015 seconds.
sub11_h2_sg_3_306.jpg: Predicted in 0.156979 seconds.
sub11_h2_sg_3_307.jpg: Predicted in 0.155268 seconds.
sub11_h2_sg_3_308.jpg: Predicted in 0.157109 seconds.
sub11_h2_sg_3_309.jpg: Predicted in 0.157552 seconds.
sub11_h2_sg_3_310.jpg: Predicted in 0.157217 seconds.
sub11_h2_sg_3_311.jpg: Predicted in 0.155476 seconds.
sub11_h2_sg_3_312.jpg: Predicted in 0.157838 seconds.
sub11_h2_sg_3_313.jpg: Predicted in 0.159102 seconds.
sub11_h2_sg_3_314.jpg: Predicted in 0.155371 seconds.
sub11_h2_sg_3_315.jpg: Predicted in 0.156316 seconds.
sub11_h2_sg_3_316.jpg: Predicted in 0.154734 seconds.
sub11_h2_sg_3_317.jpg: Predicted in 0.156245 seconds.
sub11_h2_sg_3_318.jpg: Predicted in 0.155778 seconds.
sub11_h2_sg_3_319.jpg: Predicted in 0.157992 seconds.
sub11_h2_sg_3_320.jpg: Predicted in 0.156614 seconds.
sub11_h2_sg_3_321.jpg: Predicted in 0.156274 seconds.
