sub16_l2_sg_3_001.jpg: Predicted in 0.156886 seconds.
baseball bat: 77%
(833.894470, 203.209274) (848.587708, 327.888367)
sub16_l2_sg_3_002.jpg: Predicted in 0.155354 seconds.
baseball bat: 76%
(834.291138, 203.362122) (848.793579, 327.452332)
sub16_l2_sg_3_003.jpg: Predicted in 0.159048 seconds.
baseball bat: 76%
(833.871582, 203.865234) (848.575134, 327.035950)
sub16_l2_sg_3_004.jpg: Predicted in 0.155901 seconds.
baseball bat: 75%
(834.289368, 203.495117) (848.346313, 327.630280)
sub16_l2_sg_3_005.jpg: Predicted in 0.156795 seconds.
baseball bat: 75%
(834.620728, 203.795914) (848.102051, 328.192078)
sub16_l2_sg_3_006.jpg: Predicted in 0.157023 seconds.
baseball bat: 74%
(835.058960, 203.411514) (847.955078, 328.088623)
sub16_l2_sg_3_007.jpg: Predicted in 0.160158 seconds.
baseball bat: 73%
(835.588013, 202.663559) (847.880432, 328.514862)
sub16_l2_sg_3_008.jpg: Predicted in 0.159202 seconds.
baseball bat: 72%
(835.976562, 202.386047) (847.866821, 329.327972)
sub16_l2_sg_3_009.jpg: Predicted in 0.155622 seconds.
baseball bat: 71%
(836.106140, 201.997406) (847.975098, 328.521301)
sub16_l2_sg_3_010.jpg: Predicted in 0.158140 seconds.
baseball bat: 71%
(835.950928, 201.909393) (847.813293, 328.864288)
sub16_l2_sg_3_011.jpg: Predicted in 0.157177 seconds.
baseball bat: 71%
(836.133240, 202.138168) (847.805969, 329.574951)
sub16_l2_sg_3_012.jpg: Predicted in 0.156541 seconds.
baseball bat: 72%
(835.849243, 202.285660) (847.649292, 329.447937)
sub16_l2_sg_3_013.jpg: Predicted in 0.156067 seconds.
baseball bat: 70%
(836.167725, 201.624084) (847.516663, 329.633698)
sub16_l2_sg_3_014.jpg: Predicted in 0.156103 seconds.
baseball bat: 71%
(836.182678, 202.412659) (847.648499, 329.523743)
sub16_l2_sg_3_015.jpg: Predicted in 0.155699 seconds.
baseball bat: 68%
(836.645752, 202.329330) (847.332703, 329.808167)
sub16_l2_sg_3_016.jpg: Predicted in 0.156518 seconds.
baseball bat: 67%
(836.998047, 201.634781) (847.535339, 329.781403)
sub16_l2_sg_3_017.jpg: Predicted in 0.154968 seconds.
baseball bat: 65%
(837.190002, 200.745026) (847.197815, 330.395111)
sub16_l2_sg_3_018.jpg: Predicted in 0.157563 seconds.
baseball bat: 67%
(837.028320, 200.280426) (847.402832, 330.424255)
sub16_l2_sg_3_019.jpg: Predicted in 0.156027 seconds.
baseball bat: 64%
(837.727234, 200.394516) (847.560852, 330.345276)
sub16_l2_sg_3_020.jpg: Predicted in 0.155208 seconds.
baseball bat: 65%
(837.111450, 200.709183) (847.293152, 330.069733)
sub16_l2_sg_3_021.jpg: Predicted in 0.154797 seconds.
baseball bat: 66%
(837.088440, 201.084808) (847.327942, 330.093079)
sub16_l2_sg_3_022.jpg: Predicted in 0.157603 seconds.
baseball bat: 65%
(837.446594, 200.443558) (847.252319, 330.730560)
sub16_l2_sg_3_023.jpg: Predicted in 0.155640 seconds.
baseball bat: 62%
(837.664856, 200.726944) (846.812195, 332.147064)
sub16_l2_sg_3_024.jpg: Predicted in 0.156939 seconds.
baseball bat: 58%
(838.066528, 200.240646) (846.666321, 332.438202)
sub16_l2_sg_3_025.jpg: Predicted in 0.155966 seconds.
baseball bat: 55%
(838.743286, 199.539246) (846.862671, 333.034851)
sub16_l2_sg_3_026.jpg: Predicted in 0.156012 seconds.
baseball bat: 52%
(839.035950, 199.291260) (846.794922, 333.991608)
sub16_l2_sg_3_027.jpg: Predicted in 0.155696 seconds.
baseball bat: 52%
(839.074097, 199.050583) (846.950378, 334.004913)
sub16_l2_sg_3_028.jpg: Predicted in 0.156151 seconds.
baseball bat: 49%
(840.235046, 198.028397) (847.675110, 334.268219)
sub16_l2_sg_3_029.jpg: Predicted in 0.155202 seconds.
baseball bat: 49%
(840.076904, 197.578323) (847.662170, 334.239258)
sub16_l2_sg_3_030.jpg: Predicted in 0.155071 seconds.
baseball bat: 48%
(839.993530, 197.133362) (847.551453, 334.148376)
sub16_l2_sg_3_031.jpg: Predicted in 0.154429 seconds.
baseball bat: 49%
(839.143738, 196.796906) (846.768127, 333.838531)
sub16_l2_sg_3_032.jpg: Predicted in 0.154760 seconds.
baseball bat: 49%
(839.469177, 197.803879) (847.027710, 333.880768)
sub16_l2_sg_3_033.jpg: Predicted in 0.157366 seconds.
baseball bat: 47%
(839.722107, 198.653763) (847.085876, 333.018524)
sub16_l2_sg_3_034.jpg: Predicted in 0.154781 seconds.
baseball bat: 45%
(839.741577, 199.346771) (847.001892, 333.108337)
sub16_l2_sg_3_035.jpg: Predicted in 0.155558 seconds.
baseball bat: 42%
(839.945557, 200.097137) (847.004211, 332.806396)
sub16_l2_sg_3_036.jpg: Predicted in 0.158196 seconds.
baseball bat: 43%
(839.827087, 199.936890) (846.989136, 333.658234)
sub16_l2_sg_3_037.jpg: Predicted in 0.156050 seconds.
baseball bat: 44%
(839.593384, 198.769775) (846.772583, 333.939636)
sub16_l2_sg_3_038.jpg: Predicted in 0.155759 seconds.
baseball bat: 42%
(839.405518, 198.315689) (846.428711, 334.465424)
sub16_l2_sg_3_039.jpg: Predicted in 0.168274 seconds.
baseball bat: 45%
(839.117249, 198.301147) (846.396240, 334.478149)
sub16_l2_sg_3_040.jpg: Predicted in 0.162279 seconds.
baseball bat: 46%
(838.540833, 198.158386) (845.992554, 334.885651)
sub16_l2_sg_3_041.jpg: Predicted in 0.163303 seconds.
baseball bat: 48%
(838.517273, 198.035782) (846.163635, 335.387451)
sub16_l2_sg_3_042.jpg: Predicted in 0.161191 seconds.
baseball bat: 49%
(838.785217, 197.986069) (846.381104, 335.260437)
sub16_l2_sg_3_043.jpg: Predicted in 0.159990 seconds.
baseball bat: 48%
(839.501587, 199.272995) (847.020142, 336.134155)
sub16_l2_sg_3_044.jpg: Predicted in 0.158435 seconds.
baseball bat: 47%
(839.833435, 200.624115) (847.286194, 336.472717)
sub16_l2_sg_3_045.jpg: Predicted in 0.155728 seconds.
baseball bat: 46%
(839.884766, 201.361786) (847.220337, 336.791656)
sub16_l2_sg_3_046.jpg: Predicted in 0.157252 seconds.
baseball bat: 45%
(840.071533, 200.579514) (847.222473, 337.272888)
sub16_l2_sg_3_047.jpg: Predicted in 0.157313 seconds.
baseball bat: 45%
(840.228699, 199.788376) (847.384827, 338.434326)
sub16_l2_sg_3_048.jpg: Predicted in 0.158363 seconds.
baseball bat: 43%
(840.616760, 199.262543) (847.693787, 337.816223)
sub16_l2_sg_3_049.jpg: Predicted in 0.157771 seconds.
baseball bat: 42%
(840.603027, 199.220505) (847.699463, 338.045380)
sub16_l2_sg_3_050.jpg: Predicted in 0.156330 seconds.
baseball bat: 41%
(841.193420, 198.868820) (848.198364, 337.201843)
sub16_l2_sg_3_051.jpg: Predicted in 0.156262 seconds.
baseball bat: 45%
(840.766479, 198.871902) (848.048950, 337.979218)
sub16_l2_sg_3_052.jpg: Predicted in 0.158058 seconds.
baseball bat: 46%
(840.450134, 199.809586) (847.832642, 338.767334)
sub16_l2_sg_3_053.jpg: Predicted in 0.156770 seconds.
baseball bat: 49%
(840.279236, 200.712036) (847.923401, 338.859680)
sub16_l2_sg_3_054.jpg: Predicted in 0.155860 seconds.
baseball bat: 52%
(838.997986, 201.372849) (847.173157, 339.310608)
sub16_l2_sg_3_055.jpg: Predicted in 0.158319 seconds.
baseball bat: 53%
(838.637695, 201.637939) (846.937378, 339.237396)
sub16_l2_sg_3_056.jpg: Predicted in 0.156997 seconds.
baseball bat: 51%
(838.828918, 201.411438) (846.857117, 339.822632)
sub16_l2_sg_3_057.jpg: Predicted in 0.157628 seconds.
baseball bat: 53%
(838.343933, 201.525848) (846.832275, 338.494293)
sub16_l2_sg_3_058.jpg: Predicted in 0.157342 seconds.
baseball bat: 52%
(838.204651, 200.283752) (846.481506, 339.825409)
sub16_l2_sg_3_059.jpg: Predicted in 0.155768 seconds.
baseball bat: 52%
(838.004822, 200.052902) (846.346375, 341.164856)
sub16_l2_sg_3_060.jpg: Predicted in 0.157033 seconds.
baseball bat: 53%
(837.834839, 200.087112) (846.303040, 341.330475)
sub16_l2_sg_3_061.jpg: Predicted in 0.156651 seconds.
baseball bat: 54%
(837.872253, 201.198944) (846.492981, 340.562561)
sub16_l2_sg_3_062.jpg: Predicted in 0.156818 seconds.
baseball bat: 57%
(837.959839, 202.107971) (846.848816, 340.675476)
sub16_l2_sg_3_063.jpg: Predicted in 0.154916 seconds.
baseball bat: 55%
(837.820740, 203.122162) (846.476440, 340.941223)
sub16_l2_sg_3_064.jpg: Predicted in 0.162628 seconds.
baseball bat: 55%
(837.521729, 203.973190) (846.192993, 341.899658)
sub16_l2_sg_3_065.jpg: Predicted in 0.154687 seconds.
baseball bat: 56%
(837.242493, 204.227829) (846.159790, 341.356842)
sub16_l2_sg_3_066.jpg: Predicted in 0.158826 seconds.
baseball bat: 55%
(837.708130, 203.893890) (846.526794, 341.115967)
sub16_l2_sg_3_067.jpg: Predicted in 0.157589 seconds.
baseball bat: 55%
(837.683289, 203.840652) (846.580933, 340.790161)
sub16_l2_sg_3_068.jpg: Predicted in 0.157143 seconds.
baseball bat: 54%
(837.825134, 202.960907) (846.644287, 341.158173)
sub16_l2_sg_3_069.jpg: Predicted in 0.155363 seconds.
baseball bat: 58%
(837.029846, 202.607880) (846.474792, 343.643433)
sub16_l2_sg_3_070.jpg: Predicted in 0.156532 seconds.
baseball bat: 60%
(836.754822, 203.004913) (846.521545, 344.414551)
sub16_l2_sg_3_071.jpg: Predicted in 0.158165 seconds.
baseball bat: 59%
(836.854980, 203.512451) (846.432495, 344.616913)
sub16_l2_sg_3_072.jpg: Predicted in 0.157108 seconds.
baseball bat: 63%
(836.188660, 204.187012) (846.381348, 345.752380)
sub16_l2_sg_3_073.jpg: Predicted in 0.156900 seconds.
baseball bat: 65%
(835.557373, 204.767609) (846.088135, 347.229370)
sub16_l2_sg_3_074.jpg: Predicted in 0.157492 seconds.
baseball bat: 68%
(835.236816, 205.852234) (846.542542, 346.714203)
sub16_l2_sg_3_075.jpg: Predicted in 0.156453 seconds.
baseball bat: 70%
(834.878113, 205.841751) (846.749390, 346.788300)
sub16_l2_sg_3_076.jpg: Predicted in 0.157886 seconds.
baseball bat: 69%
(835.196411, 204.626602) (846.734436, 347.730316)
sub16_l2_sg_3_077.jpg: Predicted in 0.158291 seconds.
baseball bat: 69%
(835.132935, 204.104660) (846.706970, 348.646606)
sub16_l2_sg_3_078.jpg: Predicted in 0.157483 seconds.
baseball bat: 72%
(834.680664, 204.065460) (847.208069, 348.932526)
sub16_l2_sg_3_079.jpg: Predicted in 0.156196 seconds.
baseball bat: 70%
(834.999573, 204.168640) (846.708313, 350.635406)
sub16_l2_sg_3_080.jpg: Predicted in 0.157344 seconds.
baseball bat: 73%
(834.334595, 204.646545) (847.220581, 350.716156)
sub16_l2_sg_3_081.jpg: Predicted in 0.165823 seconds.
baseball bat: 77%
(832.731934, 205.828278) (847.630005, 352.008362)
sub16_l2_sg_3_082.jpg: Predicted in 0.163819 seconds.
baseball bat: 78%
(832.277710, 206.950485) (847.809875, 351.553345)
sub16_l2_sg_3_083.jpg: Predicted in 0.158071 seconds.
baseball bat: 79%
(831.637756, 207.923340) (847.891357, 351.004944)
sub16_l2_sg_3_084.jpg: Predicted in 0.163766 seconds.
baseball bat: 79%
(831.550415, 207.549698) (848.012573, 351.821442)
sub16_l2_sg_3_085.jpg: Predicted in 0.160712 seconds.
baseball bat: 79%
(831.809448, 207.353348) (848.126770, 352.466064)
sub16_l2_sg_3_086.jpg: Predicted in 0.156481 seconds.
baseball bat: 78%
(832.363220, 207.088364) (847.993530, 353.792633)
sub16_l2_sg_3_087.jpg: Predicted in 0.158745 seconds.
baseball bat: 79%
(831.765381, 207.245041) (848.232788, 355.204468)
sub16_l2_sg_3_088.jpg: Predicted in 0.159996 seconds.
baseball bat: 81%
(830.710449, 207.101044) (848.578613, 355.686981)
sub16_l2_sg_3_089.jpg: Predicted in 0.166262 seconds.
baseball bat: 81%
(830.238770, 207.310516) (849.064697, 357.108459)
sub16_l2_sg_3_090.jpg: Predicted in 0.156734 seconds.
baseball bat: 82%
(830.291321, 207.381516) (849.109741, 357.324249)
sub16_l2_sg_3_091.jpg: Predicted in 0.155199 seconds.
baseball bat: 82%
(829.848633, 207.419235) (849.056885, 358.238800)
sub16_l2_sg_3_092.jpg: Predicted in 0.155755 seconds.
baseball bat: 83%
(829.218262, 208.105820) (849.589294, 359.800812)
sub16_l2_sg_3_093.jpg: Predicted in 0.156899 seconds.
baseball bat: 84%
(828.290100, 208.090805) (849.920166, 362.237701)
sub16_l2_sg_3_094.jpg: Predicted in 0.154969 seconds.
baseball bat: 83%
(828.306580, 208.368713) (849.693787, 362.487000)
sub16_l2_sg_3_095.jpg: Predicted in 0.157134 seconds.
baseball bat: 83%
(828.576294, 208.612244) (849.966187, 364.065826)
sub16_l2_sg_3_096.jpg: Predicted in 0.165755 seconds.
baseball bat: 84%
(828.405762, 208.584824) (849.864807, 364.862488)
sub16_l2_sg_3_097.jpg: Predicted in 0.166505 seconds.
baseball bat: 84%
(828.070068, 208.064926) (850.206177, 364.706909)
sub16_l2_sg_3_098.jpg: Predicted in 0.156643 seconds.
baseball bat: 84%
(828.331482, 207.245392) (850.664368, 363.820709)
sub16_l2_sg_3_099.jpg: Predicted in 0.154840 seconds.
baseball bat: 84%
(828.039551, 205.675827) (850.932617, 363.807983)
sub16_l2_sg_3_100.jpg: Predicted in 0.166437 seconds.
baseball bat: 85%
(827.329773, 205.945465) (851.265930, 363.644775)
sub16_l2_sg_3_101.jpg: Predicted in 0.157263 seconds.
baseball bat: 85%
(825.915344, 205.204742) (852.101135, 364.780823)
sub16_l2_sg_3_102.jpg: Predicted in 0.158919 seconds.
baseball bat: 86%
(824.715881, 205.860214) (852.306702, 365.992371)
sub16_l2_sg_3_103.jpg: Predicted in 0.165478 seconds.
baseball bat: 86%
(825.255676, 206.669952) (852.414001, 366.043427)
sub16_l2_sg_3_104.jpg: Predicted in 0.157457 seconds.
baseball bat: 86%
(824.481689, 206.642990) (851.955078, 367.513306)
sub16_l2_sg_3_105.jpg: Predicted in 0.156320 seconds.
baseball bat: 86%
(824.325439, 206.393158) (851.817627, 369.858673)
sub16_l2_sg_3_106.jpg: Predicted in 0.156790 seconds.
baseball bat: 86%
(824.707703, 206.282394) (851.452576, 371.198242)
sub16_l2_sg_3_107.jpg: Predicted in 0.158297 seconds.
baseball bat: 86%
(824.753357, 206.909439) (851.550049, 371.092865)
sub16_l2_sg_3_108.jpg: Predicted in 0.164663 seconds.
baseball bat: 86%
(824.399048, 205.867065) (851.986267, 371.438477)
sub16_l2_sg_3_109.jpg: Predicted in 0.165376 seconds.
baseball bat: 87%
(823.511780, 204.928604) (852.717346, 372.785553)
sub16_l2_sg_3_110.jpg: Predicted in 0.164619 seconds.
baseball bat: 87%
(823.141907, 204.783600) (852.758667, 373.657959)
sub16_l2_sg_3_111.jpg: Predicted in 0.165531 seconds.
baseball bat: 87%
(823.216614, 205.005600) (852.626099, 374.567413)
sub16_l2_sg_3_112.jpg: Predicted in 0.157800 seconds.
baseball bat: 87%
(822.954651, 205.211288) (852.819885, 376.091309)
sub16_l2_sg_3_113.jpg: Predicted in 0.157751 seconds.
baseball bat: 87%
(822.654236, 205.351807) (852.808899, 377.300293)
sub16_l2_sg_3_114.jpg: Predicted in 0.157720 seconds.
baseball bat: 87%
(822.295593, 206.456512) (852.367188, 375.719360)
sub16_l2_sg_3_115.jpg: Predicted in 0.155346 seconds.
baseball bat: 87%
(821.908203, 206.793182) (852.340149, 376.232788)
sub16_l2_sg_3_116.jpg: Predicted in 0.158430 seconds.
baseball bat: 88%
(821.470886, 206.322601) (852.094604, 378.121216)
sub16_l2_sg_3_117.jpg: Predicted in 0.157312 seconds.
baseball bat: 88%
(821.132019, 205.757889) (852.454224, 380.648529)
sub16_l2_sg_3_118.jpg: Predicted in 0.157620 seconds.
baseball bat: 88%
(820.864380, 205.152405) (852.978088, 381.511810)
sub16_l2_sg_3_119.jpg: Predicted in 0.155941 seconds.
baseball bat: 88%
(820.007935, 205.474274) (853.157349, 381.309662)
sub16_l2_sg_3_120.jpg: Predicted in 0.155964 seconds.
baseball bat: 88%
(819.641052, 205.099930) (853.444580, 382.018036)
sub16_l2_sg_3_121.jpg: Predicted in 0.155791 seconds.
baseball bat: 88%
(818.480469, 205.682220) (853.801208, 381.584656)
sub16_l2_sg_3_122.jpg: Predicted in 0.156137 seconds.
baseball bat: 88%
(818.276733, 205.543106) (853.466125, 382.866333)
sub16_l2_sg_3_123.jpg: Predicted in 0.157423 seconds.
baseball bat: 88%
(817.648438, 205.757370) (853.257019, 381.992737)
sub16_l2_sg_3_124.jpg: Predicted in 0.155513 seconds.
baseball bat: 89%
(816.392456, 206.419434) (853.856384, 381.734589)
sub16_l2_sg_3_125.jpg: Predicted in 0.157154 seconds.
baseball bat: 89%
(815.778259, 206.965393) (854.007507, 380.886810)
sub16_l2_sg_3_126.jpg: Predicted in 0.157294 seconds.
baseball bat: 89%
(815.329834, 206.756165) (854.738953, 381.090149)
sub16_l2_sg_3_127.jpg: Predicted in 0.160932 seconds.
baseball bat: 89%
(814.740723, 206.578003) (855.406372, 382.583282)
sub16_l2_sg_3_128.jpg: Predicted in 0.156406 seconds.
baseball bat: 89%
(814.278320, 206.723999) (855.618225, 385.638031)
sub16_l2_sg_3_129.jpg: Predicted in 0.156913 seconds.
baseball bat: 89%
(814.719849, 207.082199) (855.906555, 387.434875)
sub16_l2_sg_3_130.jpg: Predicted in 0.156559 seconds.
baseball bat: 89%
(814.427002, 207.251663) (856.455750, 388.901611)
sub16_l2_sg_3_131.jpg: Predicted in 0.156621 seconds.
baseball bat: 90%
(812.399292, 208.699265) (858.693970, 389.428619)
sub16_l2_sg_3_132.jpg: Predicted in 0.155522 seconds.
baseball bat: 90%
(811.567383, 209.376419) (859.822998, 390.800995)
sub16_l2_sg_3_133.jpg: Predicted in 0.161289 seconds.
baseball bat: 90%
(811.746155, 209.636139) (860.163635, 390.475494)
sub16_l2_sg_3_134.jpg: Predicted in 0.155740 seconds.
baseball bat: 90%
(811.220093, 210.544144) (861.006348, 390.696838)
sub16_l2_sg_3_135.jpg: Predicted in 0.155029 seconds.
baseball bat: 91%
(810.683411, 210.725861) (861.418640, 391.234558)
sub16_l2_sg_3_136.jpg: Predicted in 0.154811 seconds.
baseball bat: 91%
(810.125305, 211.877151) (861.564758, 392.050842)
sub16_l2_sg_3_137.jpg: Predicted in 0.154455 seconds.
baseball bat: 91%
(809.010925, 213.118210) (862.262451, 392.392700)
sub16_l2_sg_3_138.jpg: Predicted in 0.155093 seconds.
baseball bat: 91%
(807.992981, 214.167618) (863.771729, 393.150299)
sub16_l2_sg_3_139.jpg: Predicted in 0.155566 seconds.
baseball bat: 92%
(807.806519, 212.986374) (865.447449, 395.811951)
sub16_l2_sg_3_140.jpg: Predicted in 0.157075 seconds.
baseball bat: 92%
(807.691406, 212.947998) (866.019836, 395.989075)
sub16_l2_sg_3_141.jpg: Predicted in 0.167947 seconds.
baseball bat: 92%
(806.871460, 213.121719) (865.536987, 395.894287)
sub16_l2_sg_3_142.jpg: Predicted in 0.156263 seconds.
baseball bat: 92%
(807.553162, 214.173721) (865.927979, 395.130219)
sub16_l2_sg_3_143.jpg: Predicted in 0.155798 seconds.
baseball bat: 92%
(806.781311, 214.411880) (865.992004, 395.320068)
sub16_l2_sg_3_144.jpg: Predicted in 0.156554 seconds.
baseball bat: 92%
(804.954712, 215.471176) (866.542480, 395.336823)
sub16_l2_sg_3_145.jpg: Predicted in 0.156083 seconds.
baseball bat: 92%
(803.890137, 216.829102) (866.844421, 394.086761)
sub16_l2_sg_3_146.jpg: Predicted in 0.158896 seconds.
baseball bat: 91%
(801.956360, 217.816559) (867.222839, 393.842499)
sub16_l2_sg_3_147.jpg: Predicted in 0.158472 seconds.
baseball bat: 90%
(800.211853, 218.058441) (867.461914, 394.281921)
sub16_l2_sg_3_148.jpg: Predicted in 0.156014 seconds.
baseball bat: 89%
(801.085754, 213.497009) (864.710022, 407.607239)
sub16_l2_sg_3_149.jpg: Predicted in 0.164448 seconds.
baseball bat: 89%
(798.934814, 217.105377) (866.694336, 407.628784)
sub16_l2_sg_3_150.jpg: Predicted in 0.156399 seconds.
baseball bat: 90%
(798.445984, 218.134262) (867.565552, 407.455383)
sub16_l2_sg_3_151.jpg: Predicted in 0.158432 seconds.
baseball bat: 91%
(798.188049, 219.403824) (868.945618, 406.881165)
sub16_l2_sg_3_152.jpg: Predicted in 0.156588 seconds.
baseball bat: 91%
(797.886841, 219.506180) (868.880615, 407.001038)
sub16_l2_sg_3_153.jpg: Predicted in 0.157362 seconds.
baseball bat: 91%
(797.945618, 219.185547) (868.963867, 408.755829)
sub16_l2_sg_3_154.jpg: Predicted in 0.156835 seconds.
baseball bat: 91%
(796.987061, 219.666458) (869.250244, 410.948975)
sub16_l2_sg_3_155.jpg: Predicted in 0.156063 seconds.
baseball bat: 92%
(795.856628, 221.258621) (869.450500, 411.590302)
sub16_l2_sg_3_156.jpg: Predicted in 0.162915 seconds.
baseball bat: 91%
(794.516663, 222.881607) (869.003357, 413.589966)
sub16_l2_sg_3_157.jpg: Predicted in 0.157865 seconds.
baseball bat: 92%
(793.687073, 223.424667) (870.523254, 413.419403)
sub16_l2_sg_3_158.jpg: Predicted in 0.154840 seconds.
baseball bat: 92%
(792.794250, 222.811050) (872.233826, 416.115540)
sub16_l2_sg_3_159.jpg: Predicted in 0.164473 seconds.
baseball bat: 92%
(792.002258, 223.221954) (875.088318, 416.772705)
sub16_l2_sg_3_160.jpg: Predicted in 0.157743 seconds.
baseball bat: 92%
(791.428833, 224.401810) (875.357971, 417.956207)
sub16_l2_sg_3_161.jpg: Predicted in 0.162253 seconds.
baseball bat: 92%
(790.241760, 225.224762) (875.924194, 418.126892)
sub16_l2_sg_3_162.jpg: Predicted in 0.156512 seconds.
baseball bat: 92%
(790.369690, 226.535263) (875.714294, 416.794067)
sub16_l2_sg_3_163.jpg: Predicted in 0.155976 seconds.
baseball bat: 92%
(789.149719, 227.230301) (876.915771, 417.525391)
sub16_l2_sg_3_164.jpg: Predicted in 0.155416 seconds.
baseball bat: 92%
(786.614319, 227.640747) (877.817627, 419.211975)
sub16_l2_sg_3_165.jpg: Predicted in 0.156423 seconds.
baseball bat: 92%
(785.432190, 228.891174) (876.483093, 419.939819)
sub16_l2_sg_3_166.jpg: Predicted in 0.155227 seconds.
baseball bat: 92%
(784.547424, 230.400558) (875.690613, 421.483337)
sub16_l2_sg_3_167.jpg: Predicted in 0.165704 seconds.
baseball bat: 91%
(782.842468, 230.445190) (876.545471, 423.001953)
sub16_l2_sg_3_168.jpg: Predicted in 0.157454 seconds.
baseball bat: 91%
(781.048828, 231.112701) (877.974304, 423.149017)
sub16_l2_sg_3_169.jpg: Predicted in 0.157918 seconds.
baseball bat: 91%
(780.006836, 231.258041) (880.374756, 423.372620)
sub16_l2_sg_3_170.jpg: Predicted in 0.156772 seconds.
baseball bat: 91%
(778.338379, 232.251236) (880.054443, 424.293396)
sub16_l2_sg_3_171.jpg: Predicted in 0.154866 seconds.
baseball bat: 91%
(775.765747, 234.141464) (880.845581, 426.981476)
sub16_l2_sg_3_172.jpg: Predicted in 0.157841 seconds.
baseball bat: 91%
(772.821533, 237.045578) (881.742859, 427.135742)
sub16_l2_sg_3_173.jpg: Predicted in 0.155080 seconds.
baseball bat: 91%
(771.026672, 238.194290) (883.644836, 428.139679)
sub16_l2_sg_3_174.jpg: Predicted in 0.155089 seconds.
baseball bat: 92%
(769.113525, 240.297668) (884.010254, 428.464722)
sub16_l2_sg_3_175.jpg: Predicted in 0.155386 seconds.
baseball bat: 92%
(768.793457, 241.290375) (884.043335, 429.384186)
sub16_l2_sg_3_176.jpg: Predicted in 0.157305 seconds.
baseball bat: 92%
(766.007385, 243.419708) (883.080750, 431.599030)
sub16_l2_sg_3_177.jpg: Predicted in 0.157070 seconds.
baseball bat: 92%
(764.227661, 245.063950) (883.368958, 433.156891)
sub16_l2_sg_3_178.jpg: Predicted in 0.156573 seconds.
baseball bat: 92%
(762.233337, 246.779938) (884.213013, 434.429443)
sub16_l2_sg_3_179.jpg: Predicted in 0.154559 seconds.
baseball bat: 92%
(760.053528, 248.238541) (885.875427, 435.327301)
sub16_l2_sg_3_180.jpg: Predicted in 0.157514 seconds.
baseball bat: 92%
(757.120544, 250.260437) (887.064331, 436.172302)
sub16_l2_sg_3_181.jpg: Predicted in 0.158658 seconds.
baseball bat: 92%
(755.254028, 251.714920) (886.345398, 437.529633)
sub16_l2_sg_3_182.jpg: Predicted in 0.155370 seconds.
baseball bat: 92%
(753.366638, 254.475052) (887.124390, 436.723053)
sub16_l2_sg_3_183.jpg: Predicted in 0.155670 seconds.
baseball bat: 92%
(752.083740, 255.279480) (887.982056, 438.680054)
sub16_l2_sg_3_184.jpg: Predicted in 0.155864 seconds.
baseball bat: 92%
(749.918701, 256.468231) (889.105164, 439.684753)
sub16_l2_sg_3_185.jpg: Predicted in 0.155192 seconds.
baseball bat: 91%
(748.283630, 258.013519) (890.401184, 439.178589)
sub16_l2_sg_3_186.jpg: Predicted in 0.156577 seconds.
baseball bat: 91%
(746.674500, 259.157196) (890.874023, 439.700714)
sub16_l2_sg_3_187.jpg: Predicted in 0.154962 seconds.
baseball bat: 91%
(743.976440, 261.632629) (891.316528, 442.610474)
sub16_l2_sg_3_188.jpg: Predicted in 0.155453 seconds.
baseball bat: 92%
(741.495361, 263.013184) (890.655029, 446.102234)
sub16_l2_sg_3_189.jpg: Predicted in 0.155841 seconds.
baseball bat: 92%
(740.242920, 263.884827) (891.545837, 447.386688)
sub16_l2_sg_3_190.jpg: Predicted in 0.155636 seconds.
baseball bat: 92%
(738.429993, 265.982269) (891.938232, 447.390900)
sub16_l2_sg_3_191.jpg: Predicted in 0.155838 seconds.
baseball bat: 92%
(736.420105, 269.435333) (891.131042, 447.108185)
sub16_l2_sg_3_192.jpg: Predicted in 0.155699 seconds.
baseball bat: 92%
(734.460815, 270.622681) (891.959167, 446.107300)
sub16_l2_sg_3_193.jpg: Predicted in 0.157054 seconds.
baseball bat: 92%
(731.742310, 272.988068) (892.736328, 446.392029)
sub16_l2_sg_3_194.jpg: Predicted in 0.155249 seconds.
baseball bat: 92%
(730.732300, 275.509888) (892.589417, 447.927277)
sub16_l2_sg_3_195.jpg: Predicted in 0.165205 seconds.
baseball bat: 92%
(727.988403, 278.600433) (893.972351, 448.619324)
sub16_l2_sg_3_196.jpg: Predicted in 0.157402 seconds.
baseball bat: 92%
(725.697327, 280.714752) (895.448303, 448.061432)
sub16_l2_sg_3_197.jpg: Predicted in 0.155954 seconds.
baseball bat: 92%
(716.025940, 283.315491) (896.217529, 463.035522)
sub16_l2_sg_3_198.jpg: Predicted in 0.155187 seconds.
baseball bat: 92%
(713.104858, 284.068634) (896.672852, 463.786896)
sub16_l2_sg_3_199.jpg: Predicted in 0.155984 seconds.
baseball bat: 92%
(712.411255, 284.166382) (899.048523, 464.564789)
sub16_l2_sg_3_200.jpg: Predicted in 0.157170 seconds.
baseball bat: 92%
(707.826538, 284.842712) (900.595093, 464.799042)
sub16_l2_sg_3_201.jpg: Predicted in 0.156940 seconds.
baseball bat: 92%
(705.872742, 286.565460) (900.177490, 464.622711)
sub16_l2_sg_3_202.jpg: Predicted in 0.158132 seconds.
baseball bat: 93%
(704.536255, 287.997162) (899.537537, 464.745636)
sub16_l2_sg_3_203.jpg: Predicted in 0.157344 seconds.
baseball bat: 92%
(702.726379, 290.777771) (898.961243, 465.738159)
sub16_l2_sg_3_204.jpg: Predicted in 0.157100 seconds.
baseball bat: 93%
(702.132568, 291.269501) (899.875793, 463.097931)
sub16_l2_sg_3_205.jpg: Predicted in 0.160239 seconds.
baseball bat: 93%
(701.364136, 294.809906) (899.366455, 458.871429)
sub16_l2_sg_3_206.jpg: Predicted in 0.156005 seconds.
baseball bat: 93%
(698.816406, 297.618011) (899.170654, 456.733582)
sub16_l2_sg_3_207.jpg: Predicted in 0.155569 seconds.
baseball bat: 93%
(699.670410, 299.518616) (897.370911, 455.367188)
sub16_l2_sg_3_208.jpg: Predicted in 0.157254 seconds.
baseball bat: 93%
(697.588684, 300.521698) (897.968567, 456.029388)
sub16_l2_sg_3_209.jpg: Predicted in 0.156156 seconds.
baseball bat: 93%
(697.860962, 303.893982) (897.807983, 456.136688)
sub16_l2_sg_3_210.jpg: Predicted in 0.155657 seconds.
baseball bat: 93%
(691.831238, 306.885742) (898.478516, 458.678192)
sub16_l2_sg_3_211.jpg: Predicted in 0.157649 seconds.
baseball bat: 93%
(691.591492, 310.832947) (897.326172, 459.002289)
sub16_l2_sg_3_212.jpg: Predicted in 0.155829 seconds.
baseball bat: 93%
(690.687805, 315.201324) (896.813599, 458.986328)
sub16_l2_sg_3_213.jpg: Predicted in 0.164099 seconds.
baseball bat: 93%
(689.648926, 318.018646) (898.001587, 458.838928)
sub16_l2_sg_3_214.jpg: Predicted in 0.157433 seconds.
baseball bat: 93%
(687.515259, 320.836884) (898.516968, 458.789886)
sub16_l2_sg_3_215.jpg: Predicted in 0.153868 seconds.
baseball bat: 93%
(686.629517, 323.238098) (900.049744, 457.787903)
sub16_l2_sg_3_216.jpg: Predicted in 0.167021 seconds.
baseball bat: 93%
(685.263550, 326.060577) (900.713623, 457.754333)
sub16_l2_sg_3_217.jpg: Predicted in 0.157820 seconds.
baseball bat: 93%
(682.853333, 327.636292) (901.303345, 458.860138)
sub16_l2_sg_3_218.jpg: Predicted in 0.157527 seconds.
baseball bat: 93%
(681.047119, 330.339691) (902.161194, 460.807312)
sub16_l2_sg_3_219.jpg: Predicted in 0.157155 seconds.
baseball bat: 93%
(661.791626, 336.298431) (906.441223, 471.251923)
sub16_l2_sg_3_220.jpg: Predicted in 0.155143 seconds.
baseball bat: 93%
(660.522644, 338.351349) (907.106750, 471.845154)
sub16_l2_sg_3_221.jpg: Predicted in 0.155752 seconds.
baseball bat: 93%
(659.934998, 342.463867) (905.349121, 472.909363)
sub16_l2_sg_3_222.jpg: Predicted in 0.174143 seconds.
baseball bat: 93%
(656.242676, 346.312988) (906.978149, 473.202545)
sub16_l2_sg_3_223.jpg: Predicted in 0.157679 seconds.
baseball bat: 93%
(653.464966, 348.838684) (907.708008, 472.354797)
sub16_l2_sg_3_224.jpg: Predicted in 0.156437 seconds.
baseball bat: 93%
(652.132019, 353.079559) (908.900696, 470.940826)
sub16_l2_sg_3_225.jpg: Predicted in 0.155662 seconds.
baseball bat: 93%
(648.273132, 354.582245) (909.983215, 471.460510)
sub16_l2_sg_3_226.jpg: Predicted in 0.157036 seconds.
baseball bat: 93%
(648.711243, 358.291840) (906.951416, 471.300781)
sub16_l2_sg_3_227.jpg: Predicted in 0.156604 seconds.
baseball bat: 93%
(644.672668, 360.615692) (907.906799, 472.901672)
sub16_l2_sg_3_228.jpg: Predicted in 0.165675 seconds.
baseball bat: 92%
(643.747498, 364.792511) (905.723938, 471.714417)
sub16_l2_sg_3_229.jpg: Predicted in 0.156653 seconds.
baseball bat: 92%
(638.794983, 369.193756) (903.440735, 470.590302)
sub16_l2_sg_3_230.jpg: Predicted in 0.165338 seconds.
baseball bat: 91%
(632.238464, 373.037842) (899.358643, 470.384094)
sub16_l2_sg_3_231.jpg: Predicted in 0.165639 seconds.
baseball bat: 91%
(627.418640, 376.945374) (897.439331, 469.939728)
sub16_l2_sg_3_232.jpg: Predicted in 0.155216 seconds.
baseball bat: 91%
(621.917786, 380.261139) (898.272339, 468.272491)
sub16_l2_sg_3_233.jpg: Predicted in 0.158908 seconds.
baseball bat: 90%
(620.245667, 385.766144) (897.666016, 465.731506)
sub16_l2_sg_3_234.jpg: Predicted in 0.159836 seconds.
baseball bat: 90%
(617.626831, 389.614502) (898.169067, 463.722290)
sub16_l2_sg_3_235.jpg: Predicted in 0.158936 seconds.
baseball bat: 91%
(616.789856, 394.001404) (887.389648, 472.295197)
sub16_l2_sg_3_236.jpg: Predicted in 0.165979 seconds.
baseball bat: 91%
(610.782410, 397.683014) (883.107849, 470.992889)
sub16_l2_sg_3_237.jpg: Predicted in 0.155702 seconds.
baseball bat: 91%
(605.164001, 403.119934) (879.397278, 468.819153)
sub16_l2_sg_3_238.jpg: Predicted in 0.157976 seconds.
baseball bat: 90%
(601.822327, 407.871490) (877.076782, 467.903168)
sub16_l2_sg_3_239.jpg: Predicted in 0.155064 seconds.
baseball bat: 90%
(599.264954, 412.662140) (876.276245, 467.149994)
sub16_l2_sg_3_240.jpg: Predicted in 0.157021 seconds.
baseball bat: 90%
(598.275696, 417.306458) (878.498108, 465.543243)
sub16_l2_sg_3_241.jpg: Predicted in 0.157001 seconds.
baseball bat: 89%
(598.323608, 423.008728) (873.418640, 465.836426)
sub16_l2_sg_3_242.jpg: Predicted in 0.156221 seconds.
baseball bat: 89%
(600.092346, 426.282867) (872.884033, 463.558502)
sub16_l2_sg_3_243.jpg: Predicted in 0.164792 seconds.
baseball bat: 88%
(600.377563, 429.631531) (869.989868, 462.564545)
sub16_l2_sg_3_244.jpg: Predicted in 0.155151 seconds.
baseball bat: 84%
(601.955444, 435.667633) (867.536743, 460.476379)
sub16_l2_sg_3_245.jpg: Predicted in 0.159943 seconds.
baseball bat: 80%
(599.805481, 440.320831) (862.422729, 459.831390)
sub16_l2_sg_3_246.jpg: Predicted in 0.155232 seconds.
baseball bat: 76%
(599.384094, 442.728485) (858.916992, 457.939178)
sub16_l2_sg_3_247.jpg: Predicted in 0.158188 seconds.
baseball bat: 70%
(595.293213, 445.533417) (854.549927, 457.278015)
sub16_l2_sg_3_248.jpg: Predicted in 0.156692 seconds.
baseball bat: 56%
(584.706909, 450.372253) (852.524536, 457.996643)
sub16_l2_sg_3_249.jpg: Predicted in 0.158949 seconds.
baseball bat: 40%
(585.741272, 454.294708) (849.893677, 459.803558)
sub16_l2_sg_3_250.jpg: Predicted in 0.157918 seconds.
baseball bat: 51%
(578.816101, 455.834503) (847.066467, 462.942017)
sub16_l2_sg_3_251.jpg: Predicted in 0.156105 seconds.
baseball bat: 71%
(585.347656, 454.701630) (840.027100, 467.531952)
sub16_l2_sg_3_252.jpg: Predicted in 0.165509 seconds.
baseball bat: 81%
(581.352600, 452.762848) (833.789734, 475.396790)
sub16_l2_sg_3_253.jpg: Predicted in 0.154244 seconds.
baseball bat: 85%
(579.198364, 451.968628) (827.599304, 481.681305)
sub16_l2_sg_3_254.jpg: Predicted in 0.157321 seconds.
baseball bat: 87%
(576.318787, 450.073669) (822.622559, 487.206970)
sub16_l2_sg_3_255.jpg: Predicted in 0.158815 seconds.
baseball bat: 89%
(574.787476, 448.944824) (816.094788, 492.927490)
sub16_l2_sg_3_256.jpg: Predicted in 0.156213 seconds.
baseball bat: 89%
(573.461060, 449.687988) (796.983765, 503.378082)
sub16_l2_sg_3_257.jpg: Predicted in 0.156351 seconds.
baseball bat: 91%
(576.362305, 448.864502) (792.615540, 507.694672)
sub16_l2_sg_3_258.jpg: Predicted in 0.156443 seconds.
baseball bat: 92%
(574.665527, 445.853485) (791.504211, 512.302551)
sub16_l2_sg_3_259.jpg: Predicted in 0.198446 seconds.
baseball bat: 92%
(574.734497, 443.473114) (785.786255, 515.958923)
sub16_l2_sg_3_260.jpg: Predicted in 0.164249 seconds.
baseball bat: 91%
(571.007446, 441.015015) (780.441833, 519.261780)
sub16_l2_sg_3_261.jpg: Predicted in 0.155950 seconds.
baseball bat: 90%
(572.286072, 438.194580) (775.156555, 524.816589)
sub16_l2_sg_3_262.jpg: Predicted in 0.157791 seconds.
baseball bat: 90%
(572.845520, 435.517181) (764.244019, 528.805359)
sub16_l2_sg_3_263.jpg: Predicted in 0.155804 seconds.
baseball bat: 90%
(573.351135, 432.909515) (755.376404, 534.040894)
sub16_l2_sg_3_264.jpg: Predicted in 0.155727 seconds.
baseball bat: 90%
(572.033630, 428.759125) (748.277954, 539.889771)
sub16_l2_sg_3_265.jpg: Predicted in 0.155326 seconds.
baseball bat: 90%
(570.212769, 427.322083) (743.199524, 545.531494)
sub16_l2_sg_3_266.jpg: Predicted in 0.155373 seconds.
baseball bat: 91%
(570.096069, 432.964539) (737.846313, 554.729980)
sub16_l2_sg_3_267.jpg: Predicted in 0.155908 seconds.
baseball bat: 91%
(573.169495, 430.790558) (729.862732, 557.366028)
sub16_l2_sg_3_268.jpg: Predicted in 0.156918 seconds.
baseball bat: 92%
(574.858459, 429.903717) (722.342896, 561.254028)
sub16_l2_sg_3_269.jpg: Predicted in 0.162921 seconds.
baseball bat: 91%
(574.741028, 428.512634) (712.014038, 562.011169)
sub16_l2_sg_3_270.jpg: Predicted in 0.154779 seconds.
baseball bat: 91%
(573.869873, 426.794159) (702.972656, 563.583069)
sub16_l2_sg_3_271.jpg: Predicted in 0.157166 seconds.
baseball bat: 92%
(572.029297, 425.891724) (692.401123, 565.494507)
sub16_l2_sg_3_272.jpg: Predicted in 0.157349 seconds.
baseball bat: 91%
(572.558411, 422.758820) (682.874756, 570.903442)
sub16_l2_sg_3_273.jpg: Predicted in 0.199508 seconds.
baseball bat: 92%
(571.804077, 421.913757) (673.864807, 574.920227)
sub16_l2_sg_3_274.jpg: Predicted in 0.164644 seconds.
baseball bat: 92%
(570.708069, 420.929504) (664.361267, 580.748413)
sub16_l2_sg_3_275.jpg: Predicted in 0.156001 seconds.
baseball bat: 91%
(572.437317, 419.082123) (659.070435, 583.347107)
sub16_l2_sg_3_276.jpg: Predicted in 0.154326 seconds.
baseball bat: 90%
(582.362427, 423.429413) (653.804688, 580.685303)
sub16_l2_sg_3_277.jpg: Predicted in 0.155709 seconds.
baseball bat: 89%
(583.347168, 420.721497) (642.872192, 584.445923)
sub16_l2_sg_3_278.jpg: Predicted in 0.154794 seconds.
baseball bat: 87%
(580.983459, 421.494507) (630.693909, 588.539612)
sub16_l2_sg_3_279.jpg: Predicted in 0.156987 seconds.
baseball bat: 85%
(582.375671, 417.840607) (619.808899, 591.594971)
sub16_l2_sg_3_280.jpg: Predicted in 0.163536 seconds.
baseball bat: 83%
(582.162415, 419.632111) (611.278015, 596.829712)
sub16_l2_sg_3_281.jpg: Predicted in 0.161686 seconds.
baseball bat: 79%
(579.115356, 423.612518) (600.738831, 599.883789)
sub16_l2_sg_3_282.jpg: Predicted in 0.158951 seconds.
baseball bat: 67%
(577.169556, 427.246979) (590.202942, 602.981140)
sub16_l2_sg_3_283.jpg: Predicted in 0.154767 seconds.
sub16_l2_sg_3_284.jpg: Predicted in 0.162407 seconds.
baseball bat: 51%
(568.351135, 429.559296) (578.916077, 605.130432)
sub16_l2_sg_3_285.jpg: Predicted in 0.157515 seconds.
baseball bat: 74%
(561.116089, 430.296600) (581.034241, 602.809326)
sub16_l2_sg_3_286.jpg: Predicted in 0.156679 seconds.
baseball bat: 80%
(552.187378, 426.943878) (583.142883, 604.882812)
sub16_l2_sg_3_287.jpg: Predicted in 0.199062 seconds.
baseball bat: 83%
(543.971375, 428.042664) (584.402039, 605.831177)
sub16_l2_sg_3_288.jpg: Predicted in 0.196687 seconds.
baseball bat: 85%
(535.270020, 434.430878) (582.371704, 608.054565)
sub16_l2_sg_3_289.jpg: Predicted in 0.155795 seconds.
baseball bat: 87%
(524.529602, 433.477814) (582.054199, 606.184265)
sub16_l2_sg_3_290.jpg: Predicted in 0.157374 seconds.
baseball bat: 87%
(516.531189, 432.790314) (582.166382, 602.288147)
sub16_l2_sg_3_291.jpg: Predicted in 0.165097 seconds.
baseball bat: 88%
(507.509613, 431.217133) (586.386963, 601.997131)
sub16_l2_sg_3_292.jpg: Predicted in 0.161045 seconds.
baseball bat: 89%
(498.172943, 427.493073) (584.250305, 601.871765)
sub16_l2_sg_3_293.jpg: Predicted in 0.155292 seconds.
baseball bat: 89%
(490.440186, 429.005676) (583.156311, 600.253540)
sub16_l2_sg_3_294.jpg: Predicted in 0.156852 seconds.
baseball bat: 89%
(482.246368, 430.306793) (582.645386, 598.121277)
sub16_l2_sg_3_295.jpg: Predicted in 0.155217 seconds.
baseball bat: 88%
(474.586304, 427.757416) (584.192078, 597.796631)
sub16_l2_sg_3_296.jpg: Predicted in 0.157814 seconds.
baseball bat: 87%
(468.931427, 428.363098) (583.425964, 599.030151)
sub16_l2_sg_3_297.jpg: Predicted in 0.156913 seconds.
baseball bat: 87%
(461.042358, 427.385925) (585.487793, 598.788208)
sub16_l2_sg_3_298.jpg: Predicted in 0.156339 seconds.
baseball bat: 85%
(453.106628, 426.051056) (586.707886, 596.544556)
sub16_l2_sg_3_299.jpg: Predicted in 0.161878 seconds.
baseball bat: 82%
(444.478546, 424.838226) (588.205078, 595.316467)
sub16_l2_sg_3_300.jpg: Predicted in 0.164033 seconds.
baseball bat: 79%
(437.711823, 427.119080) (587.931396, 594.820312)
sub16_l2_sg_3_301.jpg: Predicted in 0.159087 seconds.
baseball bat: 61%
(433.818970, 427.225586) (589.086609, 589.757263)
sub16_l2_sg_3_302.jpg: Predicted in 0.155707 seconds.
baseball bat: 44%
(430.653870, 428.377991) (590.265869, 586.945251)
sub16_l2_sg_3_303.jpg: Predicted in 0.158317 seconds.
baseball bat: 33%
(426.921631, 428.183868) (590.427673, 588.838867)
sub16_l2_sg_3_304.jpg: Predicted in 0.155168 seconds.
sub16_l2_sg_3_305.jpg: Predicted in 0.159421 seconds.
baseball bat: 35%
(424.224854, 429.343719) (589.608765, 585.526184)
sub16_l2_sg_3_306.jpg: Predicted in 0.155724 seconds.
baseball bat: 44%
(419.178497, 428.378479) (588.971619, 587.438477)
sub16_l2_sg_3_307.jpg: Predicted in 0.155319 seconds.
baseball bat: 49%
(416.702942, 428.342773) (587.505920, 589.435425)
sub16_l2_sg_3_308.jpg: Predicted in 0.155399 seconds.
baseball bat: 43%
(413.668549, 427.340576) (590.771362, 589.377319)
sub16_l2_sg_3_309.jpg: Predicted in 0.155749 seconds.
baseball bat: 43%
(411.734528, 428.729309) (591.663940, 588.998657)
sub16_l2_sg_3_310.jpg: Predicted in 0.155864 seconds.
baseball bat: 31%
(410.352539, 428.887085) (593.548584, 588.552002)
sub16_l2_sg_3_311.jpg: Predicted in 0.158369 seconds.
baseball bat: 34%
(408.159302, 429.712891) (593.781067, 588.300598)
sub16_l2_sg_3_312.jpg: Predicted in 0.155047 seconds.
sub16_l2_sg_3_313.jpg: Predicted in 0.156451 seconds.
sub16_l2_sg_3_314.jpg: Predicted in 0.156020 seconds.
sub16_l2_sg_3_315.jpg: Predicted in 0.158164 seconds.
sub16_l2_sg_3_316.jpg: Predicted in 0.157973 seconds.
sub16_l2_sg_3_317.jpg: Predicted in 0.157557 seconds.
sub16_l2_sg_3_318.jpg: Predicted in 0.158394 seconds.
sub16_l2_sg_3_319.jpg: Predicted in 0.163173 seconds.
sub16_l2_sg_3_320.jpg: Predicted in 0.156526 seconds.
sub16_l2_sg_3_321.jpg: Predicted in 0.155927 seconds.
