sub12_h3_sg_3_001.jpg: Predicted in 0.157518 seconds.
baseball bat: 50%
(384.949432, 187.332779) (392.229279, 395.854950)
sub12_h3_sg_3_002.jpg: Predicted in 0.155412 seconds.
baseball bat: 53%
(384.629059, 187.207733) (392.281555, 395.614105)
sub12_h3_sg_3_003.jpg: Predicted in 0.155564 seconds.
baseball bat: 53%
(384.556641, 188.041061) (392.179138, 395.974945)
sub12_h3_sg_3_004.jpg: Predicted in 0.156768 seconds.
baseball bat: 45%
(383.676575, 189.385864) (390.669220, 393.861511)
sub12_h3_sg_3_005.jpg: Predicted in 0.163479 seconds.
baseball bat: 33%
(383.282013, 188.961823) (389.348145, 391.520508)
sub12_h3_sg_3_006.jpg: Predicted in 0.157241 seconds.
baseball bat: 34%
(383.022736, 187.874832) (389.139984, 391.496399)
sub12_h3_sg_3_007.jpg: Predicted in 0.156713 seconds.
baseball bat: 32%
(383.089020, 187.233643) (389.074158, 390.843964)
sub12_h3_sg_3_008.jpg: Predicted in 0.155294 seconds.
baseball bat: 32%
(383.145630, 187.685593) (389.147156, 391.199921)
sub12_h3_sg_3_009.jpg: Predicted in 0.157636 seconds.
sub12_h3_sg_3_010.jpg: Predicted in 0.157930 seconds.
sub12_h3_sg_3_011.jpg: Predicted in 0.156042 seconds.
baseball bat: 31%
(382.604584, 186.736679) (388.628876, 390.290649)
sub12_h3_sg_3_012.jpg: Predicted in 0.154984 seconds.
baseball bat: 33%
(382.740326, 186.500488) (388.919983, 390.364288)
sub12_h3_sg_3_013.jpg: Predicted in 0.156325 seconds.
sub12_h3_sg_3_014.jpg: Predicted in 0.155679 seconds.
baseball bat: 32%
(381.994507, 186.555634) (388.163422, 390.928925)
sub12_h3_sg_3_015.jpg: Predicted in 0.158163 seconds.
baseball bat: 38%
(381.567413, 186.115952) (388.296417, 392.372467)
sub12_h3_sg_3_016.jpg: Predicted in 0.164510 seconds.
baseball bat: 40%
(381.553192, 186.069626) (388.377533, 392.800018)
sub12_h3_sg_3_017.jpg: Predicted in 0.157039 seconds.
baseball bat: 39%
(381.685883, 186.090286) (388.346680, 393.101379)
sub12_h3_sg_3_018.jpg: Predicted in 0.157385 seconds.
baseball bat: 41%
(382.112732, 187.086945) (388.805237, 393.517944)
sub12_h3_sg_3_019.jpg: Predicted in 0.156343 seconds.
baseball bat: 46%
(381.734467, 185.420822) (388.919983, 394.559875)
sub12_h3_sg_3_020.jpg: Predicted in 0.160025 seconds.
baseball bat: 56%
(381.680969, 184.720963) (389.905029, 396.149963)
sub12_h3_sg_3_021.jpg: Predicted in 0.156250 seconds.
baseball bat: 61%
(381.470703, 185.367599) (390.279938, 395.667877)
sub12_h3_sg_3_022.jpg: Predicted in 0.157377 seconds.
baseball bat: 62%
(381.147675, 185.056091) (390.315735, 396.222900)
sub12_h3_sg_3_023.jpg: Predicted in 0.157670 seconds.
baseball bat: 57%
(381.177399, 186.034531) (389.569366, 394.768494)
sub12_h3_sg_3_024.jpg: Predicted in 0.155940 seconds.
baseball bat: 57%
(381.212219, 187.282623) (389.687805, 395.111115)
sub12_h3_sg_3_025.jpg: Predicted in 0.155846 seconds.
baseball bat: 62%
(381.133545, 186.016983) (390.546906, 397.142731)
sub12_h3_sg_3_026.jpg: Predicted in 0.162473 seconds.
baseball bat: 64%
(381.511780, 186.417740) (391.234039, 396.624207)
sub12_h3_sg_3_027.jpg: Predicted in 0.156402 seconds.
baseball bat: 67%
(381.333588, 184.997864) (391.774994, 397.606262)
sub12_h3_sg_3_028.jpg: Predicted in 0.155554 seconds.
baseball bat: 68%
(381.555603, 185.097427) (392.178162, 397.593109)
sub12_h3_sg_3_029.jpg: Predicted in 0.154803 seconds.
baseball bat: 72%
(380.941345, 184.306656) (392.673920, 397.392853)
sub12_h3_sg_3_030.jpg: Predicted in 0.156316 seconds.
baseball bat: 75%
(380.099213, 183.676392) (393.168396, 397.089813)
sub12_h3_sg_3_031.jpg: Predicted in 0.155690 seconds.
baseball bat: 78%
(379.244141, 183.690170) (393.976227, 396.841370)
sub12_h3_sg_3_032.jpg: Predicted in 0.157846 seconds.
baseball bat: 79%
(378.492126, 184.529785) (394.400940, 397.191956)
sub12_h3_sg_3_033.jpg: Predicted in 0.154192 seconds.
baseball bat: 79%
(378.861969, 185.666077) (394.235870, 397.919373)
sub12_h3_sg_3_034.jpg: Predicted in 0.156392 seconds.
baseball bat: 79%
(378.288330, 185.574432) (394.562561, 399.552246)
sub12_h3_sg_3_035.jpg: Predicted in 0.155272 seconds.
baseball bat: 80%
(377.751007, 184.738098) (394.671234, 398.177307)
sub12_h3_sg_3_036.jpg: Predicted in 0.158089 seconds.
baseball bat: 81%
(377.739868, 184.547852) (395.614166, 399.006653)
sub12_h3_sg_3_037.jpg: Predicted in 0.155963 seconds.
baseball bat: 81%
(377.625946, 184.371033) (396.130157, 398.744965)
sub12_h3_sg_3_038.jpg: Predicted in 0.156479 seconds.
baseball bat: 83%
(376.935638, 184.705383) (396.822144, 398.131683)
sub12_h3_sg_3_039.jpg: Predicted in 0.155159 seconds.
baseball bat: 84%
(376.197296, 186.342392) (397.371521, 398.028412)
sub12_h3_sg_3_040.jpg: Predicted in 0.158562 seconds.
baseball bat: 84%
(375.642609, 187.505966) (397.340729, 397.890503)
sub12_h3_sg_3_041.jpg: Predicted in 0.157462 seconds.
baseball bat: 84%
(374.713226, 186.403503) (397.643097, 398.072937)
sub12_h3_sg_3_042.jpg: Predicted in 0.157976 seconds.
baseball bat: 85%
(374.333893, 186.273605) (398.535767, 399.502991)
sub12_h3_sg_3_043.jpg: Predicted in 0.156783 seconds.
baseball bat: 86%
(373.136932, 187.025269) (399.683044, 399.050964)
sub12_h3_sg_3_044.jpg: Predicted in 0.156628 seconds.
baseball bat: 86%
(372.953217, 184.671616) (399.970520, 399.423004)
sub12_h3_sg_3_045.jpg: Predicted in 0.155414 seconds.
baseball bat: 86%
(372.941650, 184.872726) (399.467804, 399.938873)
sub12_h3_sg_3_046.jpg: Predicted in 0.161286 seconds.
baseball bat: 86%
(372.216248, 188.024658) (400.254517, 398.417725)
sub12_h3_sg_3_047.jpg: Predicted in 0.156312 seconds.
baseball bat: 86%
(371.942078, 187.265457) (400.359802, 398.045380)
sub12_h3_sg_3_048.jpg: Predicted in 0.156462 seconds.
baseball bat: 87%
(371.614532, 186.367401) (400.546478, 398.673645)
sub12_h3_sg_3_049.jpg: Predicted in 0.156312 seconds.
baseball bat: 87%
(371.078552, 186.364990) (400.812622, 399.567505)
sub12_h3_sg_3_050.jpg: Predicted in 0.156172 seconds.
baseball bat: 87%
(370.825714, 185.951538) (401.253235, 401.135956)
sub12_h3_sg_3_051.jpg: Predicted in 0.159047 seconds.
baseball bat: 87%
(371.293060, 185.313416) (401.011627, 400.917297)
sub12_h3_sg_3_052.jpg: Predicted in 0.156493 seconds.
baseball bat: 87%
(370.141144, 184.382919) (401.495361, 402.079071)
sub12_h3_sg_3_053.jpg: Predicted in 0.156559 seconds.
baseball bat: 88%
(369.253052, 184.864609) (402.259460, 400.774933)
sub12_h3_sg_3_054.jpg: Predicted in 0.156115 seconds.
baseball bat: 88%
(368.454468, 186.954636) (402.236359, 399.288452)
sub12_h3_sg_3_055.jpg: Predicted in 0.155793 seconds.
baseball bat: 88%
(368.383087, 187.765182) (402.104431, 399.388580)
sub12_h3_sg_3_056.jpg: Predicted in 0.155657 seconds.
baseball bat: 88%
(368.113098, 186.575607) (402.280182, 399.971619)
sub12_h3_sg_3_057.jpg: Predicted in 0.156467 seconds.
baseball bat: 88%
(366.852386, 183.709793) (402.606384, 402.063629)
sub12_h3_sg_3_058.jpg: Predicted in 0.157913 seconds.
baseball bat: 89%
(365.810608, 183.228333) (403.609314, 403.927765)
sub12_h3_sg_3_059.jpg: Predicted in 0.156228 seconds.
baseball bat: 89%
(365.619415, 184.140076) (403.917633, 403.501770)
sub12_h3_sg_3_060.jpg: Predicted in 0.157493 seconds.
baseball bat: 89%
(364.362335, 184.141220) (404.814758, 404.856293)
sub12_h3_sg_3_061.jpg: Predicted in 0.155280 seconds.
baseball bat: 90%
(364.508240, 184.782425) (405.756897, 404.166962)
sub12_h3_sg_3_062.jpg: Predicted in 0.161333 seconds.
baseball bat: 90%
(363.688843, 183.953568) (405.576447, 403.610168)
sub12_h3_sg_3_063.jpg: Predicted in 0.165340 seconds.
baseball bat: 90%
(362.719757, 184.851883) (407.076599, 402.723846)
sub12_h3_sg_3_064.jpg: Predicted in 0.156837 seconds.
baseball bat: 90%
(362.513214, 186.077774) (407.487915, 403.230865)
sub12_h3_sg_3_065.jpg: Predicted in 0.156241 seconds.
baseball bat: 90%
(361.670074, 186.230316) (407.811066, 403.847473)
sub12_h3_sg_3_066.jpg: Predicted in 0.157028 seconds.
baseball bat: 90%
(361.737793, 186.438110) (407.790649, 404.736053)
sub12_h3_sg_3_067.jpg: Predicted in 0.155190 seconds.
baseball bat: 91%
(360.584839, 185.933731) (407.954437, 404.275452)
sub12_h3_sg_3_068.jpg: Predicted in 0.155125 seconds.
baseball bat: 91%
(360.476227, 185.117615) (409.127502, 403.370026)
sub12_h3_sg_3_069.jpg: Predicted in 0.155007 seconds.
baseball bat: 91%
(359.979523, 185.872620) (409.955994, 402.963623)
sub12_h3_sg_3_070.jpg: Predicted in 0.157311 seconds.
baseball bat: 91%
(358.827026, 187.202759) (411.219666, 404.730621)
sub12_h3_sg_3_071.jpg: Predicted in 0.156082 seconds.
baseball bat: 91%
(357.854462, 187.370895) (410.949860, 403.546265)
sub12_h3_sg_3_072.jpg: Predicted in 0.155148 seconds.
baseball bat: 91%
(356.476501, 187.141876) (411.333496, 402.633667)
sub12_h3_sg_3_073.jpg: Predicted in 0.157649 seconds.
baseball bat: 91%
(355.451263, 189.058472) (412.262970, 401.552124)
sub12_h3_sg_3_074.jpg: Predicted in 0.156765 seconds.
baseball bat: 91%
(355.131897, 189.809158) (412.803497, 400.417023)
sub12_h3_sg_3_075.jpg: Predicted in 0.161245 seconds.
baseball bat: 91%
(354.983917, 189.731720) (412.979950, 400.788605)
sub12_h3_sg_3_076.jpg: Predicted in 0.158022 seconds.
baseball bat: 91%
(354.609772, 190.695068) (413.823761, 400.821289)
sub12_h3_sg_3_077.jpg: Predicted in 0.156376 seconds.
baseball bat: 91%
(354.461731, 191.510910) (413.841858, 402.325500)
sub12_h3_sg_3_078.jpg: Predicted in 0.156261 seconds.
baseball bat: 91%
(353.961823, 191.789276) (413.692535, 400.097015)
sub12_h3_sg_3_079.jpg: Predicted in 0.156884 seconds.
baseball bat: 90%
(353.995148, 190.648376) (413.925995, 397.673889)
sub12_h3_sg_3_080.jpg: Predicted in 0.157025 seconds.
baseball bat: 91%
(351.007538, 187.605606) (415.419373, 404.016022)
sub12_h3_sg_3_081.jpg: Predicted in 0.156331 seconds.
baseball bat: 91%
(350.306641, 189.665344) (415.848541, 403.874481)
sub12_h3_sg_3_082.jpg: Predicted in 0.155497 seconds.
baseball bat: 91%
(350.022888, 190.605484) (416.627899, 402.232788)
sub12_h3_sg_3_083.jpg: Predicted in 0.158041 seconds.
baseball bat: 91%
(349.658295, 190.675201) (416.555542, 401.982849)
sub12_h3_sg_3_084.jpg: Predicted in 0.155374 seconds.
baseball bat: 91%
(349.678345, 189.948669) (416.472839, 400.648071)
sub12_h3_sg_3_085.jpg: Predicted in 0.156865 seconds.
baseball bat: 92%
(349.714569, 191.153549) (417.004181, 402.396942)
sub12_h3_sg_3_086.jpg: Predicted in 0.156960 seconds.
baseball bat: 92%
(349.829468, 192.988068) (418.021881, 403.856598)
sub12_h3_sg_3_087.jpg: Predicted in 0.155944 seconds.
baseball bat: 92%
(349.262421, 194.318069) (418.892181, 403.396362)
sub12_h3_sg_3_088.jpg: Predicted in 0.157243 seconds.
baseball bat: 92%
(348.296661, 194.840103) (419.198242, 403.364716)
sub12_h3_sg_3_089.jpg: Predicted in 0.155755 seconds.
baseball bat: 92%
(347.759796, 195.139374) (419.531067, 404.041565)
sub12_h3_sg_3_090.jpg: Predicted in 0.158307 seconds.
baseball bat: 92%
(347.509338, 196.487961) (419.676392, 404.747559)
sub12_h3_sg_3_091.jpg: Predicted in 0.157478 seconds.
baseball bat: 92%
(346.350891, 197.242584) (421.105377, 406.582611)
sub12_h3_sg_3_092.jpg: Predicted in 0.155488 seconds.
baseball bat: 92%
(345.147491, 198.334869) (422.029541, 405.835846)
sub12_h3_sg_3_093.jpg: Predicted in 0.163177 seconds.
baseball bat: 92%
(344.653900, 198.340866) (422.178833, 406.154022)
sub12_h3_sg_3_094.jpg: Predicted in 0.165431 seconds.
baseball bat: 92%
(345.249084, 199.202271) (422.846771, 407.946045)
sub12_h3_sg_3_095.jpg: Predicted in 0.157680 seconds.
baseball bat: 92%
(340.991760, 207.028992) (427.792633, 412.130432)
sub12_h3_sg_3_096.jpg: Predicted in 0.164234 seconds.
baseball bat: 93%
(339.969849, 207.863693) (428.372345, 411.492310)
sub12_h3_sg_3_097.jpg: Predicted in 0.155740 seconds.
baseball bat: 92%
(339.963043, 208.094177) (428.561340, 411.042297)
sub12_h3_sg_3_098.jpg: Predicted in 0.156675 seconds.
baseball bat: 93%
(339.942596, 209.530167) (428.856598, 409.701172)
sub12_h3_sg_3_099.jpg: Predicted in 0.156670 seconds.
baseball bat: 93%
(339.082397, 208.778839) (431.351471, 410.612640)
sub12_h3_sg_3_100.jpg: Predicted in 0.155154 seconds.
baseball bat: 93%
(337.459961, 209.198502) (432.459320, 410.554016)
sub12_h3_sg_3_101.jpg: Predicted in 0.157227 seconds.
baseball bat: 93%
(337.228912, 208.253815) (432.876068, 412.217041)
sub12_h3_sg_3_102.jpg: Predicted in 0.199670 seconds.
baseball bat: 93%
(336.210022, 210.509689) (432.690948, 409.705170)
sub12_h3_sg_3_103.jpg: Predicted in 0.157464 seconds.
baseball bat: 93%
(336.324432, 209.293137) (434.300262, 411.947296)
sub12_h3_sg_3_104.jpg: Predicted in 0.157483 seconds.
baseball bat: 93%
(335.335999, 209.470825) (435.060883, 411.329193)
sub12_h3_sg_3_105.jpg: Predicted in 0.154971 seconds.
baseball bat: 93%
(334.870117, 209.907715) (435.735138, 411.004181)
sub12_h3_sg_3_106.jpg: Predicted in 0.156957 seconds.
baseball bat: 93%
(334.740112, 208.552872) (436.847565, 413.965759)
sub12_h3_sg_3_107.jpg: Predicted in 0.155856 seconds.
baseball bat: 93%
(334.218842, 210.019058) (438.019318, 412.987518)
sub12_h3_sg_3_108.jpg: Predicted in 0.156060 seconds.
baseball bat: 93%
(334.142548, 211.436859) (438.836121, 411.360199)
sub12_h3_sg_3_109.jpg: Predicted in 0.158044 seconds.
baseball bat: 93%
(333.938141, 211.692490) (438.538666, 411.574585)
sub12_h3_sg_3_110.jpg: Predicted in 0.156358 seconds.
baseball bat: 93%
(332.034271, 212.034744) (440.059143, 411.796234)
sub12_h3_sg_3_111.jpg: Predicted in 0.158548 seconds.
baseball bat: 93%
(331.414398, 213.014618) (441.117706, 411.639771)
sub12_h3_sg_3_112.jpg: Predicted in 0.157173 seconds.
baseball bat: 93%
(330.357849, 213.181686) (441.522034, 412.383789)
sub12_h3_sg_3_113.jpg: Predicted in 0.157126 seconds.
baseball bat: 93%
(329.249573, 213.743103) (442.773285, 411.801453)
sub12_h3_sg_3_114.jpg: Predicted in 0.155571 seconds.
baseball bat: 93%
(327.345428, 212.204971) (443.509827, 413.092194)
sub12_h3_sg_3_115.jpg: Predicted in 0.158313 seconds.
baseball bat: 93%
(327.702972, 212.441101) (444.036224, 414.172699)
sub12_h3_sg_3_116.jpg: Predicted in 0.154906 seconds.
baseball bat: 93%
(326.716400, 212.960571) (446.664581, 415.229614)
sub12_h3_sg_3_117.jpg: Predicted in 0.154917 seconds.
baseball bat: 93%
(327.166382, 213.434265) (446.230896, 415.272278)
sub12_h3_sg_3_118.jpg: Predicted in 0.156098 seconds.
baseball bat: 93%
(326.055145, 213.651260) (447.746582, 417.606781)
sub12_h3_sg_3_119.jpg: Predicted in 0.157533 seconds.
baseball bat: 93%
(325.431366, 215.744537) (448.295990, 416.502319)
sub12_h3_sg_3_120.jpg: Predicted in 0.154497 seconds.
baseball bat: 93%
(324.224976, 216.974533) (449.488007, 417.348541)
sub12_h3_sg_3_121.jpg: Predicted in 0.167840 seconds.
baseball bat: 92%
(321.932343, 218.806824) (451.717560, 419.165619)
sub12_h3_sg_3_122.jpg: Predicted in 0.155258 seconds.
baseball bat: 92%
(322.410309, 218.883698) (450.344757, 418.830688)
sub12_h3_sg_3_123.jpg: Predicted in 0.155842 seconds.
baseball bat: 92%
(321.022675, 220.228699) (452.206787, 419.912781)
sub12_h3_sg_3_124.jpg: Predicted in 0.157818 seconds.
baseball bat: 92%
(320.595032, 220.767593) (452.154388, 419.319153)
sub12_h3_sg_3_125.jpg: Predicted in 0.157064 seconds.
baseball bat: 92%
(318.569946, 220.701645) (453.945007, 420.975159)
sub12_h3_sg_3_126.jpg: Predicted in 0.161062 seconds.
baseball bat: 92%
(318.890839, 222.354584) (454.647217, 422.399384)
sub12_h3_sg_3_127.jpg: Predicted in 0.154610 seconds.
baseball bat: 92%
(318.641724, 224.874435) (455.509186, 422.093872)
sub12_h3_sg_3_128.jpg: Predicted in 0.157937 seconds.
baseball bat: 92%
(317.522644, 225.730560) (456.171753, 423.527924)
sub12_h3_sg_3_129.jpg: Predicted in 0.155230 seconds.
baseball bat: 92%
(316.134949, 228.214279) (458.858582, 426.039917)
sub12_h3_sg_3_130.jpg: Predicted in 0.157192 seconds.
baseball bat: 92%
(314.825165, 230.359451) (460.287079, 426.524261)
sub12_h3_sg_3_131.jpg: Predicted in 0.156258 seconds.
baseball bat: 92%
(313.689087, 232.151001) (460.993530, 424.882355)
sub12_h3_sg_3_132.jpg: Predicted in 0.165524 seconds.
baseball bat: 92%
(312.790009, 234.343109) (462.367371, 425.958252)
sub12_h3_sg_3_133.jpg: Predicted in 0.156517 seconds.
baseball bat: 93%
(311.284424, 234.920319) (465.738068, 429.010864)
sub12_h3_sg_3_134.jpg: Predicted in 0.199576 seconds.
baseball bat: 93%
(310.970306, 236.321152) (465.863556, 428.148254)
sub12_h3_sg_3_135.jpg: Predicted in 0.156305 seconds.
baseball bat: 93%
(310.908783, 237.926392) (466.655457, 429.158539)
sub12_h3_sg_3_136.jpg: Predicted in 0.156303 seconds.
baseball bat: 93%
(310.861969, 239.178940) (468.460938, 431.575165)
sub12_h3_sg_3_137.jpg: Predicted in 0.155367 seconds.
baseball bat: 93%
(310.832336, 240.801956) (469.424469, 432.704620)
sub12_h3_sg_3_138.jpg: Predicted in 0.156813 seconds.
baseball bat: 93%
(309.851868, 243.244446) (470.759247, 432.711700)
sub12_h3_sg_3_139.jpg: Predicted in 0.155652 seconds.
baseball bat: 93%
(309.275238, 245.373184) (471.554779, 432.860291)
sub12_h3_sg_3_140.jpg: Predicted in 0.156561 seconds.
baseball bat: 93%
(308.286713, 247.097931) (473.113953, 433.718384)
sub12_h3_sg_3_141.jpg: Predicted in 0.157762 seconds.
baseball bat: 93%
(307.115845, 249.276718) (473.758942, 432.753571)
sub12_h3_sg_3_142.jpg: Predicted in 0.165406 seconds.
baseball bat: 93%
(305.758240, 250.172989) (475.340088, 433.691650)
sub12_h3_sg_3_143.jpg: Predicted in 0.157531 seconds.
baseball bat: 93%
(305.131866, 251.420471) (476.012939, 433.776459)
sub12_h3_sg_3_144.jpg: Predicted in 0.156032 seconds.
baseball bat: 93%
(303.797241, 252.841431) (478.072723, 436.106689)
sub12_h3_sg_3_145.jpg: Predicted in 0.156243 seconds.
baseball bat: 93%
(301.559692, 254.632202) (480.659943, 437.848755)
sub12_h3_sg_3_146.jpg: Predicted in 0.156237 seconds.
baseball bat: 93%
(301.836090, 256.382385) (480.721130, 438.927185)
sub12_h3_sg_3_147.jpg: Predicted in 0.155749 seconds.
baseball bat: 92%
(300.937286, 259.336456) (482.471069, 439.878387)
sub12_h3_sg_3_148.jpg: Predicted in 0.154604 seconds.
baseball bat: 92%
(300.913483, 262.259735) (482.140259, 438.872375)
sub12_h3_sg_3_149.jpg: Predicted in 0.157427 seconds.
baseball bat: 92%
(305.137543, 266.183624) (496.085388, 445.166870)
sub12_h3_sg_3_150.jpg: Predicted in 0.155732 seconds.
baseball bat: 92%
(303.660278, 266.309143) (498.431152, 447.286072)
sub12_h3_sg_3_151.jpg: Predicted in 0.157209 seconds.
baseball bat: 92%
(304.419495, 268.906189) (497.820343, 450.653381)
sub12_h3_sg_3_152.jpg: Predicted in 0.157079 seconds.
baseball bat: 92%
(303.748230, 270.484497) (502.296631, 453.097809)
sub12_h3_sg_3_153.jpg: Predicted in 0.157720 seconds.
baseball bat: 92%
(302.500946, 273.126190) (506.914124, 451.143280)
sub12_h3_sg_3_154.jpg: Predicted in 0.156981 seconds.
baseball bat: 92%
(301.467346, 274.775421) (511.570831, 450.780396)
sub12_h3_sg_3_155.jpg: Predicted in 0.155436 seconds.
baseball bat: 92%
(300.068787, 276.851105) (514.463440, 452.535400)
sub12_h3_sg_3_156.jpg: Predicted in 0.156714 seconds.
baseball bat: 93%
(298.233124, 278.749390) (517.076843, 451.333984)
sub12_h3_sg_3_157.jpg: Predicted in 0.156097 seconds.
baseball bat: 93%
(298.156342, 281.653534) (517.874268, 450.049896)
sub12_h3_sg_3_158.jpg: Predicted in 0.165747 seconds.
baseball bat: 93%
(299.533020, 282.678345) (521.198364, 449.931793)
sub12_h3_sg_3_159.jpg: Predicted in 0.161234 seconds.
baseball bat: 93%
(298.712616, 282.974915) (520.470886, 450.211914)
sub12_h3_sg_3_160.jpg: Predicted in 0.156071 seconds.
baseball bat: 93%
(297.573181, 284.326508) (521.567078, 449.402954)
sub12_h3_sg_3_161.jpg: Predicted in 0.155649 seconds.
baseball bat: 92%
(310.996277, 292.345184) (521.594421, 457.356140)
sub12_h3_sg_3_162.jpg: Predicted in 0.156132 seconds.
baseball bat: 92%
(313.608490, 294.328308) (522.339478, 457.541748)
sub12_h3_sg_3_163.jpg: Predicted in 0.157129 seconds.
baseball bat: 92%
(312.809784, 295.614166) (523.452637, 459.122864)
sub12_h3_sg_3_164.jpg: Predicted in 0.157728 seconds.
baseball bat: 92%
(314.259583, 296.517670) (525.944275, 460.867249)
sub12_h3_sg_3_165.jpg: Predicted in 0.155219 seconds.
baseball bat: 92%
(309.162903, 296.176544) (532.217712, 464.226013)
sub12_h3_sg_3_166.jpg: Predicted in 0.158003 seconds.
baseball bat: 92%
(309.615845, 297.982330) (536.026855, 465.750519)
sub12_h3_sg_3_167.jpg: Predicted in 0.156318 seconds.
baseball bat: 92%
(302.587189, 300.082764) (544.746094, 466.669952)
sub12_h3_sg_3_168.jpg: Predicted in 0.157762 seconds.
baseball bat: 92%
(302.855316, 301.452637) (548.400085, 468.550385)
sub12_h3_sg_3_169.jpg: Predicted in 0.155949 seconds.
baseball bat: 92%
(302.693695, 304.579926) (550.426697, 466.587219)
sub12_h3_sg_3_170.jpg: Predicted in 0.156252 seconds.
baseball bat: 93%
(305.164276, 307.602417) (548.759583, 464.385864)
sub12_h3_sg_3_171.jpg: Predicted in 0.154793 seconds.
baseball bat: 93%
(304.610229, 309.265350) (551.137695, 465.673767)
sub12_h3_sg_3_172.jpg: Predicted in 0.157488 seconds.
baseball bat: 93%
(301.583618, 312.025085) (556.148987, 466.101410)
sub12_h3_sg_3_173.jpg: Predicted in 0.156213 seconds.
baseball bat: 93%
(299.518372, 316.514465) (562.931519, 464.786346)
sub12_h3_sg_3_174.jpg: Predicted in 0.156992 seconds.
baseball bat: 93%
(302.330109, 320.290649) (563.073914, 463.777252)
sub12_h3_sg_3_175.jpg: Predicted in 0.156909 seconds.
baseball bat: 93%
(301.182220, 322.821655) (568.206177, 464.550873)
sub12_h3_sg_3_176.jpg: Predicted in 0.157473 seconds.
baseball bat: 93%
(298.294159, 325.778931) (573.210144, 465.132812)
sub12_h3_sg_3_177.jpg: Predicted in 0.157799 seconds.
baseball bat: 93%
(298.620392, 329.099213) (582.344666, 468.130615)
sub12_h3_sg_3_178.jpg: Predicted in 0.156576 seconds.
baseball bat: 93%
(298.749603, 330.687195) (584.125305, 469.108459)
sub12_h3_sg_3_179.jpg: Predicted in 0.155695 seconds.
baseball bat: 93%
(299.883057, 334.342133) (590.040222, 470.267548)
sub12_h3_sg_3_180.jpg: Predicted in 0.155158 seconds.
baseball bat: 93%
(298.726318, 339.692322) (587.475525, 465.753265)
sub12_h3_sg_3_181.jpg: Predicted in 0.164001 seconds.
baseball bat: 93%
(298.784515, 342.525757) (593.393616, 466.969879)
sub12_h3_sg_3_182.jpg: Predicted in 0.157353 seconds.
baseball bat: 93%
(300.408966, 345.849762) (594.586487, 466.505005)
sub12_h3_sg_3_183.jpg: Predicted in 0.158134 seconds.
baseball bat: 93%
(302.221436, 348.750580) (594.577271, 466.428864)
sub12_h3_sg_3_184.jpg: Predicted in 0.156973 seconds.
baseball bat: 93%
(304.670349, 351.882599) (598.557312, 465.816528)
sub12_h3_sg_3_185.jpg: Predicted in 0.156170 seconds.
baseball bat: 92%
(309.477020, 356.733643) (598.724060, 462.425568)
sub12_h3_sg_3_186.jpg: Predicted in 0.162721 seconds.
baseball bat: 92%
(309.847504, 360.292328) (602.645874, 461.992249)
sub12_h3_sg_3_187.jpg: Predicted in 0.157803 seconds.
baseball bat: 92%
(311.517731, 364.732880) (607.536926, 461.242920)
sub12_h3_sg_3_188.jpg: Predicted in 0.157406 seconds.
baseball bat: 92%
(312.405975, 367.665802) (608.988464, 459.533661)
sub12_h3_sg_3_189.jpg: Predicted in 0.156688 seconds.
baseball bat: 92%
(311.751862, 370.712036) (616.576294, 460.501831)
sub12_h3_sg_3_190.jpg: Predicted in 0.155878 seconds.
baseball bat: 92%
(309.969086, 374.653534) (614.738159, 457.730835)
sub12_h3_sg_3_191.jpg: Predicted in 0.156419 seconds.
baseball bat: 92%
(312.979248, 379.085083) (619.810974, 457.374847)
sub12_h3_sg_3_192.jpg: Predicted in 0.156101 seconds.
baseball bat: 91%
(315.345337, 382.674957) (619.208130, 455.826782)
sub12_h3_sg_3_193.jpg: Predicted in 0.156401 seconds.
baseball bat: 91%
(318.520477, 386.383057) (621.697937, 453.996552)
sub12_h3_sg_3_194.jpg: Predicted in 0.157403 seconds.
baseball bat: 91%
(323.718597, 391.200348) (623.806580, 452.428345)
sub12_h3_sg_3_195.jpg: Predicted in 0.157344 seconds.
baseball bat: 91%
(328.457123, 397.728394) (624.671936, 452.160034)
sub12_h3_sg_3_196.jpg: Predicted in 0.157058 seconds.
baseball bat: 92%
(328.557587, 402.883667) (624.451721, 451.721802)
sub12_h3_sg_3_197.jpg: Predicted in 0.157519 seconds.
baseball bat: 91%
(331.576660, 406.609711) (623.209839, 451.413452)
sub12_h3_sg_3_198.jpg: Predicted in 0.155266 seconds.
baseball bat: 90%
(340.903015, 410.872742) (615.356995, 448.997986)
sub12_h3_sg_3_199.jpg: Predicted in 0.156641 seconds.
baseball bat: 90%
(344.039398, 415.822296) (623.088074, 449.107300)
sub12_h3_sg_3_200.jpg: Predicted in 0.157816 seconds.
baseball bat: 90%
(343.006927, 418.471344) (626.786499, 448.226532)
sub12_h3_sg_3_201.jpg: Predicted in 0.157863 seconds.
baseball bat: 88%
(341.195709, 421.917572) (634.150330, 447.240601)
sub12_h3_sg_3_202.jpg: Predicted in 0.157102 seconds.
baseball bat: 86%
(342.415314, 425.751953) (635.971130, 446.269318)
sub12_h3_sg_3_203.jpg: Predicted in 0.154687 seconds.
baseball bat: 83%
(344.635620, 428.667603) (634.077087, 445.478394)
sub12_h3_sg_3_204.jpg: Predicted in 0.156609 seconds.
baseball bat: 76%
(348.745056, 432.181610) (627.932434, 444.712769)
sub12_h3_sg_3_205.jpg: Predicted in 0.161371 seconds.
baseball bat: 52%
(354.239441, 436.368256) (620.259766, 443.872955)
sub12_h3_sg_3_206.jpg: Predicted in 0.155795 seconds.
baseball bat: 34%
(356.948151, 439.030579) (645.169189, 444.570801)
sub12_h3_sg_3_207.jpg: Predicted in 0.155829 seconds.
sub12_h3_sg_3_208.jpg: Predicted in 0.158259 seconds.
baseball bat: 35%
(366.292603, 441.393616) (639.100647, 446.898041)
sub12_h3_sg_3_209.jpg: Predicted in 0.156388 seconds.
baseball bat: 56%
(367.074585, 441.319031) (639.313293, 450.188385)
sub12_h3_sg_3_210.jpg: Predicted in 0.155824 seconds.
baseball bat: 74%
(363.558838, 439.909637) (645.110046, 456.339081)
sub12_h3_sg_3_211.jpg: Predicted in 0.155183 seconds.
baseball bat: 79%
(368.041718, 438.250580) (648.404114, 460.159271)
sub12_h3_sg_3_212.jpg: Predicted in 0.155039 seconds.
baseball bat: 83%
(375.620544, 436.605560) (646.101440, 465.503204)
sub12_h3_sg_3_213.jpg: Predicted in 0.155980 seconds.
baseball bat: 85%
(378.337341, 434.517731) (652.251221, 469.441833)
sub12_h3_sg_3_214.jpg: Predicted in 0.156160 seconds.
baseball bat: 88%
(382.603729, 430.747559) (659.966125, 475.366638)
sub12_h3_sg_3_215.jpg: Predicted in 0.156933 seconds.
baseball bat: 90%
(393.897583, 431.042236) (657.661560, 479.800262)
sub12_h3_sg_3_216.jpg: Predicted in 0.155425 seconds.
baseball bat: 91%
(405.254608, 431.097137) (655.906494, 483.788483)
sub12_h3_sg_3_217.jpg: Predicted in 0.155592 seconds.
baseball bat: 91%
(406.218658, 429.580536) (654.930786, 490.055725)
sub12_h3_sg_3_218.jpg: Predicted in 0.165793 seconds.
baseball bat: 92%
(409.850037, 429.709503) (655.847961, 494.532990)
sub12_h3_sg_3_219.jpg: Predicted in 0.155228 seconds.
baseball bat: 92%
(414.525543, 428.303528) (658.241699, 499.421783)
sub12_h3_sg_3_220.jpg: Predicted in 0.158619 seconds.
baseball bat: 92%
(429.854126, 426.394073) (657.417297, 504.214478)
sub12_h3_sg_3_221.jpg: Predicted in 0.156673 seconds.
baseball bat: 92%
(437.425018, 424.567596) (655.407593, 510.351562)
sub12_h3_sg_3_222.jpg: Predicted in 0.156491 seconds.
baseball bat: 92%
(441.766846, 422.355469) (656.758728, 514.990601)
sub12_h3_sg_3_223.jpg: Predicted in 0.157892 seconds.
baseball bat: 92%
(447.796875, 420.915558) (657.403137, 518.340454)
sub12_h3_sg_3_224.jpg: Predicted in 0.156838 seconds.
baseball bat: 92%
(454.485535, 419.282684) (657.527954, 522.465088)
sub12_h3_sg_3_225.jpg: Predicted in 0.157874 seconds.
baseball bat: 92%
(458.115234, 417.992035) (656.678406, 528.310181)
sub12_h3_sg_3_226.jpg: Predicted in 0.166143 seconds.
baseball bat: 92%
(462.346436, 414.807281) (657.990845, 532.287537)
sub12_h3_sg_3_227.jpg: Predicted in 0.159343 seconds.
baseball bat: 91%
(470.041992, 411.641693) (655.964172, 535.316956)
sub12_h3_sg_3_228.jpg: Predicted in 0.155092 seconds.
baseball bat: 91%
(476.546265, 410.139893) (654.507507, 537.945618)
sub12_h3_sg_3_229.jpg: Predicted in 0.158710 seconds.
baseball bat: 91%
(481.535736, 409.002563) (653.260254, 541.864807)
sub12_h3_sg_3_230.jpg: Predicted in 0.155827 seconds.
baseball bat: 91%
(486.129639, 408.723328) (653.276550, 547.193237)
sub12_h3_sg_3_231.jpg: Predicted in 0.154784 seconds.
baseball bat: 92%
(493.911194, 408.840576) (653.704529, 551.098938)
sub12_h3_sg_3_232.jpg: Predicted in 0.157635 seconds.
baseball bat: 92%
(502.475952, 407.789062) (657.742676, 554.907288)
sub12_h3_sg_3_233.jpg: Predicted in 0.155753 seconds.
baseball bat: 93%
(512.745544, 409.414032) (655.043274, 555.156006)
sub12_h3_sg_3_234.jpg: Predicted in 0.156393 seconds.
baseball bat: 93%
(519.285583, 407.277008) (652.979431, 556.226257)
sub12_h3_sg_3_235.jpg: Predicted in 0.155073 seconds.
baseball bat: 93%
(524.759033, 407.957520) (649.813965, 556.612793)
sub12_h3_sg_3_236.jpg: Predicted in 0.157350 seconds.
baseball bat: 93%
(531.651367, 409.238373) (645.335449, 559.379639)
sub12_h3_sg_3_237.jpg: Predicted in 0.155375 seconds.
baseball bat: 92%
(550.793030, 405.912933) (641.776367, 565.005310)
sub12_h3_sg_3_238.jpg: Predicted in 0.156786 seconds.
baseball bat: 92%
(558.736389, 403.639008) (641.203857, 569.016968)
sub12_h3_sg_3_239.jpg: Predicted in 0.155347 seconds.
baseball bat: 92%
(561.469604, 414.388763) (634.597168, 572.369629)
sub12_h3_sg_3_240.jpg: Predicted in 0.157855 seconds.
baseball bat: 92%
(570.096558, 410.029846) (633.906860, 577.223816)
sub12_h3_sg_3_241.jpg: Predicted in 0.155294 seconds.
baseball bat: 90%
(580.434143, 408.194855) (631.205872, 579.641235)
sub12_h3_sg_3_242.jpg: Predicted in 0.157509 seconds.
baseball bat: 87%
(589.437683, 402.033966) (632.394836, 576.185364)
sub12_h3_sg_3_243.jpg: Predicted in 0.155882 seconds.
baseball bat: 85%
(601.221130, 406.215149) (628.156250, 586.012207)
sub12_h3_sg_3_244.jpg: Predicted in 0.166784 seconds.
baseball bat: 81%
(607.874817, 407.633942) (628.682068, 585.299133)
sub12_h3_sg_3_245.jpg: Predicted in 0.155520 seconds.
baseball bat: 70%
(616.590942, 406.476440) (629.138916, 587.904114)
sub12_h3_sg_3_246.jpg: Predicted in 0.158441 seconds.
sub12_h3_sg_3_247.jpg: Predicted in 0.157871 seconds.
sub12_h3_sg_3_248.jpg: Predicted in 0.158685 seconds.
baseball bat: 69%
(632.540039, 394.972046) (644.641785, 598.608582)
sub12_h3_sg_3_249.jpg: Predicted in 0.164994 seconds.
baseball bat: 83%
(627.597290, 390.268250) (659.342102, 588.146118)
sub12_h3_sg_3_250.jpg: Predicted in 0.157112 seconds.
baseball bat: 86%
(625.823975, 385.771545) (666.826172, 590.680054)
sub12_h3_sg_3_251.jpg: Predicted in 0.170470 seconds.
baseball bat: 88%
(624.134460, 382.875427) (677.673828, 593.099060)
sub12_h3_sg_3_252.jpg: Predicted in 0.158212 seconds.
baseball bat: 88%
(622.631348, 384.743591) (685.836670, 590.843079)
sub12_h3_sg_3_253.jpg: Predicted in 0.156259 seconds.
baseball bat: 90%
(619.251160, 385.331512) (690.615356, 588.563599)
sub12_h3_sg_3_254.jpg: Predicted in 0.155562 seconds.
baseball bat: 91%
(619.414917, 385.415222) (698.369934, 589.866333)
sub12_h3_sg_3_255.jpg: Predicted in 0.166351 seconds.
baseball bat: 91%
(616.501770, 385.889557) (706.044312, 589.679138)
sub12_h3_sg_3_256.jpg: Predicted in 0.162599 seconds.
baseball bat: 91%
(614.410583, 387.219360) (713.192261, 586.769470)
sub12_h3_sg_3_257.jpg: Predicted in 0.157607 seconds.
baseball bat: 91%
(611.190002, 387.800507) (720.314209, 585.833557)
sub12_h3_sg_3_258.jpg: Predicted in 0.234863 seconds.
baseball bat: 91%
(608.006653, 390.900757) (730.189636, 582.287415)
sub12_h3_sg_3_259.jpg: Predicted in 0.155173 seconds.
baseball bat: 91%
(604.122681, 391.631531) (737.022949, 579.585632)
sub12_h3_sg_3_260.jpg: Predicted in 0.158591 seconds.
baseball bat: 91%
(602.027344, 394.562958) (744.782654, 574.518311)
sub12_h3_sg_3_261.jpg: Predicted in 0.155013 seconds.
baseball bat: 90%
(598.544250, 393.165833) (753.032776, 575.012451)
sub12_h3_sg_3_262.jpg: Predicted in 0.157981 seconds.
baseball bat: 87%
(595.136292, 390.112946) (760.895691, 576.181641)
sub12_h3_sg_3_263.jpg: Predicted in 0.158041 seconds.
baseball bat: 85%
(592.863586, 388.106171) (764.903137, 575.999451)
sub12_h3_sg_3_264.jpg: Predicted in 0.156195 seconds.
baseball bat: 82%
(592.050049, 389.246643) (768.161926, 573.900269)
sub12_h3_sg_3_265.jpg: Predicted in 0.157982 seconds.
baseball bat: 71%
(591.957275, 388.709747) (771.326843, 572.808533)
sub12_h3_sg_3_266.jpg: Predicted in 0.155487 seconds.
baseball bat: 64%
(591.431763, 388.625366) (773.883667, 571.802612)
sub12_h3_sg_3_267.jpg: Predicted in 0.165270 seconds.
baseball bat: 66%
(605.823792, 395.313751) (789.994873, 568.460327)
sub12_h3_sg_3_268.jpg: Predicted in 0.156594 seconds.
baseball bat: 54%
(603.285583, 395.152893) (798.865784, 566.930542)
sub12_h3_sg_3_269.jpg: Predicted in 0.156829 seconds.
baseball bat: 46%
(602.194336, 396.123505) (804.294495, 560.858154)
sub12_h3_sg_3_270.jpg: Predicted in 0.158068 seconds.
sub12_h3_sg_3_271.jpg: Predicted in 0.154533 seconds.
sub12_h3_sg_3_272.jpg: Predicted in 0.157018 seconds.
sub12_h3_sg_3_273.jpg: Predicted in 0.155361 seconds.
sub12_h3_sg_3_274.jpg: Predicted in 0.156023 seconds.
sub12_h3_sg_3_275.jpg: Predicted in 0.177987 seconds.
sub12_h3_sg_3_276.jpg: Predicted in 0.156672 seconds.
sub12_h3_sg_3_277.jpg: Predicted in 0.163373 seconds.
sub12_h3_sg_3_278.jpg: Predicted in 0.158914 seconds.
sub12_h3_sg_3_279.jpg: Predicted in 0.157389 seconds.
sub12_h3_sg_3_280.jpg: Predicted in 0.155460 seconds.
sub12_h3_sg_3_281.jpg: Predicted in 0.155468 seconds.
sub12_h3_sg_3_282.jpg: Predicted in 0.157948 seconds.
sub12_h3_sg_3_283.jpg: Predicted in 0.158247 seconds.
sub12_h3_sg_3_284.jpg: Predicted in 0.157364 seconds.
sub12_h3_sg_3_285.jpg: Predicted in 0.158054 seconds.
sub12_h3_sg_3_286.jpg: Predicted in 0.157175 seconds.
sub12_h3_sg_3_287.jpg: Predicted in 0.155010 seconds.
sub12_h3_sg_3_288.jpg: Predicted in 0.155699 seconds.
sub12_h3_sg_3_289.jpg: Predicted in 0.167899 seconds.
sub12_h3_sg_3_290.jpg: Predicted in 0.155046 seconds.
