sub17_h1_sg_2_001.jpg: Predicted in 0.157717 seconds.
baseball bat: 54%
(800.323547, 238.190216) (809.883789, 368.033173)
sub17_h1_sg_2_002.jpg: Predicted in 0.155102 seconds.
baseball bat: 54%
(799.868042, 238.040741) (809.312256, 368.053528)
sub17_h1_sg_2_003.jpg: Predicted in 0.156410 seconds.
baseball bat: 52%
(799.462097, 237.595871) (808.573608, 368.572876)
sub17_h1_sg_2_004.jpg: Predicted in 0.198981 seconds.
baseball bat: 47%
(799.404724, 238.642929) (807.983459, 367.670776)
sub17_h1_sg_2_005.jpg: Predicted in 0.154564 seconds.
baseball bat: 47%
(799.360657, 238.970963) (808.009033, 367.648010)
sub17_h1_sg_2_006.jpg: Predicted in 0.156500 seconds.
baseball bat: 45%
(799.515747, 239.428146) (808.056396, 367.231873)
sub17_h1_sg_2_007.jpg: Predicted in 0.155781 seconds.
baseball bat: 42%
(798.094849, 241.871170) (806.883606, 377.978333)
sub17_h1_sg_2_008.jpg: Predicted in 0.156201 seconds.
baseball bat: 41%
(798.432068, 241.793335) (807.078674, 378.247498)
sub17_h1_sg_2_009.jpg: Predicted in 0.157653 seconds.
baseball bat: 35%
(799.360229, 243.375946) (807.369812, 377.358459)
sub17_h1_sg_2_010.jpg: Predicted in 0.156358 seconds.
baseball bat: 34%
(799.981384, 243.823135) (807.781067, 377.914337)
sub17_h1_sg_2_011.jpg: Predicted in 0.158081 seconds.
baseball bat: 34%
(799.543945, 245.088699) (807.206848, 377.469360)
sub17_h1_sg_2_012.jpg: Predicted in 0.155941 seconds.
baseball bat: 34%
(798.368164, 246.379913) (805.912048, 376.246399)
sub17_h1_sg_2_013.jpg: Predicted in 0.154947 seconds.
baseball bat: 34%
(797.782166, 246.492279) (805.275085, 375.788422)
sub17_h1_sg_2_014.jpg: Predicted in 0.155921 seconds.
baseball bat: 36%
(797.687439, 247.588455) (805.252014, 374.796814)
sub17_h1_sg_2_015.jpg: Predicted in 0.158254 seconds.
baseball bat: 39%
(797.379822, 247.346985) (805.142944, 374.725281)
sub17_h1_sg_2_016.jpg: Predicted in 0.158041 seconds.
baseball bat: 41%
(797.364380, 247.450256) (805.047729, 375.070862)
sub17_h1_sg_2_017.jpg: Predicted in 0.157192 seconds.
baseball bat: 43%
(797.279297, 247.843811) (805.056335, 375.221863)
sub17_h1_sg_2_018.jpg: Predicted in 0.156395 seconds.
baseball bat: 48%
(797.132202, 247.470245) (805.222839, 376.491577)
sub17_h1_sg_2_019.jpg: Predicted in 0.156571 seconds.
baseball bat: 53%
(797.178650, 246.479706) (805.762817, 378.082947)
sub17_h1_sg_2_020.jpg: Predicted in 0.155676 seconds.
baseball bat: 56%
(796.970886, 245.336319) (805.898376, 378.067413)
sub17_h1_sg_2_021.jpg: Predicted in 0.162077 seconds.
baseball bat: 60%
(796.574524, 245.936462) (806.046814, 377.938293)
sub17_h1_sg_2_022.jpg: Predicted in 0.157880 seconds.
baseball bat: 61%
(796.675110, 247.446640) (806.179199, 378.236938)
sub17_h1_sg_2_023.jpg: Predicted in 0.158669 seconds.
baseball bat: 62%
(796.555664, 248.197510) (806.168945, 377.816864)
sub17_h1_sg_2_024.jpg: Predicted in 0.165669 seconds.
baseball bat: 63%
(796.751160, 249.148010) (806.596497, 378.811523)
sub17_h1_sg_2_025.jpg: Predicted in 0.165922 seconds.
baseball bat: 66%
(796.156128, 249.034882) (806.630127, 379.679443)
sub17_h1_sg_2_026.jpg: Predicted in 0.158739 seconds.
baseball bat: 67%
(796.317749, 249.480515) (807.391235, 379.816254)
sub17_h1_sg_2_027.jpg: Predicted in 0.163556 seconds.
baseball bat: 69%
(796.159058, 249.720078) (807.786560, 380.564789)
sub17_h1_sg_2_028.jpg: Predicted in 0.158663 seconds.
baseball bat: 72%
(795.567688, 250.116501) (808.677795, 381.430725)
sub17_h1_sg_2_029.jpg: Predicted in 0.156258 seconds.
baseball bat: 75%
(794.633667, 250.497116) (809.709290, 381.418793)
sub17_h1_sg_2_030.jpg: Predicted in 0.156823 seconds.
baseball bat: 78%
(793.659607, 250.308411) (811.258911, 381.455414)
sub17_h1_sg_2_031.jpg: Predicted in 0.158340 seconds.
baseball bat: 79%
(793.291931, 250.263260) (812.077515, 383.533051)
sub17_h1_sg_2_032.jpg: Predicted in 0.159346 seconds.
baseball bat: 80%
(792.717163, 249.973618) (812.240540, 385.157593)
sub17_h1_sg_2_033.jpg: Predicted in 0.156862 seconds.
baseball bat: 81%
(792.268372, 249.161453) (811.988220, 385.854675)
sub17_h1_sg_2_034.jpg: Predicted in 0.158437 seconds.
baseball bat: 82%
(790.662354, 248.951706) (811.752075, 386.498138)
sub17_h1_sg_2_035.jpg: Predicted in 0.157052 seconds.
baseball bat: 82%
(789.543274, 249.971207) (811.883118, 386.938171)
sub17_h1_sg_2_036.jpg: Predicted in 0.157599 seconds.
baseball bat: 83%
(789.317566, 250.789566) (812.836182, 387.652802)
sub17_h1_sg_2_037.jpg: Predicted in 0.157094 seconds.
baseball bat: 83%
(788.265503, 249.845383) (813.195679, 389.462982)
sub17_h1_sg_2_038.jpg: Predicted in 0.156987 seconds.
baseball bat: 84%
(788.075500, 248.189377) (814.204773, 390.306152)
sub17_h1_sg_2_039.jpg: Predicted in 0.158150 seconds.
baseball bat: 85%
(786.663757, 246.734344) (815.685364, 391.154572)
sub17_h1_sg_2_040.jpg: Predicted in 0.156863 seconds.
baseball bat: 86%
(785.901489, 247.591721) (818.450439, 392.084839)
sub17_h1_sg_2_041.jpg: Predicted in 0.155193 seconds.
baseball bat: 86%
(784.844788, 248.895645) (818.849670, 393.280029)
sub17_h1_sg_2_042.jpg: Predicted in 0.165696 seconds.
baseball bat: 86%
(784.139465, 249.131516) (819.431580, 396.271149)
sub17_h1_sg_2_043.jpg: Predicted in 0.157046 seconds.
baseball bat: 87%
(783.150452, 248.315659) (819.808044, 397.100403)
sub17_h1_sg_2_044.jpg: Predicted in 0.155414 seconds.
baseball bat: 87%
(781.755676, 248.145874) (821.078369, 398.221039)
sub17_h1_sg_2_045.jpg: Predicted in 0.156390 seconds.
baseball bat: 88%
(780.240112, 248.246277) (823.547119, 397.800812)
sub17_h1_sg_2_046.jpg: Predicted in 0.156051 seconds.
baseball bat: 88%
(778.854431, 248.197678) (824.828735, 398.561554)
sub17_h1_sg_2_047.jpg: Predicted in 0.159841 seconds.
baseball bat: 88%
(777.889771, 249.113113) (824.736877, 398.325653)
sub17_h1_sg_2_048.jpg: Predicted in 0.163883 seconds.
baseball bat: 89%
(776.121460, 249.373230) (824.773315, 398.679169)
sub17_h1_sg_2_049.jpg: Predicted in 0.164147 seconds.
baseball bat: 89%
(774.635315, 249.810562) (825.015259, 399.104767)
sub17_h1_sg_2_050.jpg: Predicted in 0.155871 seconds.
baseball bat: 89%
(773.701782, 247.975189) (825.991333, 397.594330)
sub17_h1_sg_2_051.jpg: Predicted in 0.164770 seconds.
baseball bat: 89%
(772.650696, 249.085831) (825.707764, 400.089111)
sub17_h1_sg_2_052.jpg: Predicted in 0.157687 seconds.
baseball bat: 89%
(772.226013, 251.306183) (826.153320, 399.892792)
sub17_h1_sg_2_053.jpg: Predicted in 0.161816 seconds.
baseball bat: 89%
(770.409180, 252.054535) (826.377014, 402.014465)
sub17_h1_sg_2_054.jpg: Predicted in 0.163055 seconds.
baseball bat: 89%
(770.045227, 252.696808) (828.163269, 402.956299)
sub17_h1_sg_2_055.jpg: Predicted in 0.158167 seconds.
baseball bat: 90%
(768.057983, 254.926147) (826.627075, 403.811615)
sub17_h1_sg_2_056.jpg: Predicted in 0.156904 seconds.
baseball bat: 90%
(766.543152, 255.366547) (826.294189, 404.571686)
sub17_h1_sg_2_057.jpg: Predicted in 0.161838 seconds.
baseball bat: 90%
(764.926086, 254.924484) (826.445190, 406.536255)
sub17_h1_sg_2_058.jpg: Predicted in 0.166143 seconds.
baseball bat: 90%
(763.113159, 255.407867) (826.897644, 407.569031)
sub17_h1_sg_2_059.jpg: Predicted in 0.156746 seconds.
baseball bat: 91%
(761.429199, 255.456375) (828.170715, 407.889038)
sub17_h1_sg_2_060.jpg: Predicted in 0.164419 seconds.
baseball bat: 91%
(759.785889, 253.358719) (830.690063, 408.021667)
sub17_h1_sg_2_061.jpg: Predicted in 0.154813 seconds.
baseball bat: 91%
(758.411987, 252.484406) (831.357300, 408.660461)
sub17_h1_sg_2_062.jpg: Predicted in 0.157796 seconds.
baseball bat: 91%
(756.149597, 252.513641) (831.648071, 408.757080)
sub17_h1_sg_2_063.jpg: Predicted in 0.183177 seconds.
baseball bat: 91%
(755.675659, 252.536591) (832.155151, 408.584473)
sub17_h1_sg_2_064.jpg: Predicted in 0.165061 seconds.
baseball bat: 91%
(753.216248, 251.125824) (837.472961, 415.406555)
sub17_h1_sg_2_065.jpg: Predicted in 0.155405 seconds.
baseball bat: 92%
(751.443726, 252.303513) (837.567322, 415.511749)
sub17_h1_sg_2_066.jpg: Predicted in 0.156615 seconds.
baseball bat: 92%
(750.701416, 252.580536) (837.267822, 415.589783)
sub17_h1_sg_2_067.jpg: Predicted in 0.155655 seconds.
baseball bat: 92%
(750.401245, 254.145187) (837.442078, 415.483002)
sub17_h1_sg_2_068.jpg: Predicted in 0.154849 seconds.
baseball bat: 92%
(749.479980, 257.627289) (837.095154, 414.463562)
sub17_h1_sg_2_069.jpg: Predicted in 0.156554 seconds.
baseball bat: 92%
(747.955078, 257.923187) (836.985840, 416.292084)
sub17_h1_sg_2_070.jpg: Predicted in 0.157365 seconds.
baseball bat: 93%
(747.267090, 258.118530) (838.120789, 415.783386)
sub17_h1_sg_2_071.jpg: Predicted in 0.156423 seconds.
baseball bat: 93%
(745.473145, 257.550171) (838.869385, 414.871948)
sub17_h1_sg_2_072.jpg: Predicted in 0.155473 seconds.
baseball bat: 93%
(744.025391, 256.873108) (841.127930, 415.510345)
sub17_h1_sg_2_073.jpg: Predicted in 0.157504 seconds.
baseball bat: 92%
(741.879150, 254.529343) (843.458252, 417.685638)
sub17_h1_sg_2_074.jpg: Predicted in 0.156606 seconds.
baseball bat: 92%
(741.794922, 256.974548) (842.847717, 418.334656)
sub17_h1_sg_2_075.jpg: Predicted in 0.155059 seconds.
baseball bat: 92%
(741.035828, 259.110352) (842.771729, 418.351898)
sub17_h1_sg_2_076.jpg: Predicted in 0.155718 seconds.
baseball bat: 92%
(739.545715, 260.033417) (843.579712, 419.518463)
sub17_h1_sg_2_077.jpg: Predicted in 0.155388 seconds.
baseball bat: 92%
(738.544983, 261.016266) (844.373718, 420.739777)
sub17_h1_sg_2_078.jpg: Predicted in 0.156036 seconds.
baseball bat: 92%
(736.239502, 260.927826) (846.342285, 421.746460)
sub17_h1_sg_2_079.jpg: Predicted in 0.155232 seconds.
baseball bat: 93%
(732.987671, 261.168121) (849.805786, 423.538086)
sub17_h1_sg_2_080.jpg: Predicted in 0.157969 seconds.
baseball bat: 93%
(732.058228, 260.571167) (851.871033, 421.642975)
sub17_h1_sg_2_081.jpg: Predicted in 0.156257 seconds.
baseball bat: 92%
(730.763184, 262.166931) (851.875671, 421.548523)
sub17_h1_sg_2_082.jpg: Predicted in 0.155052 seconds.
baseball bat: 92%
(728.731873, 264.804138) (852.457397, 422.616241)
sub17_h1_sg_2_083.jpg: Predicted in 0.155978 seconds.
baseball bat: 92%
(728.449768, 266.044281) (852.338379, 422.967926)
sub17_h1_sg_2_084.jpg: Predicted in 0.157943 seconds.
baseball bat: 92%
(725.012756, 267.325073) (855.349792, 424.297180)
sub17_h1_sg_2_085.jpg: Predicted in 0.160257 seconds.
baseball bat: 92%
(722.565063, 269.309265) (857.356506, 425.503845)
sub17_h1_sg_2_086.jpg: Predicted in 0.155496 seconds.
baseball bat: 92%
(719.758423, 270.050171) (860.103027, 427.664185)
sub17_h1_sg_2_087.jpg: Predicted in 0.156615 seconds.
baseball bat: 92%
(718.844543, 269.500580) (860.867676, 427.271667)
sub17_h1_sg_2_088.jpg: Predicted in 0.158073 seconds.
baseball bat: 93%
(717.803162, 270.513885) (861.804810, 426.481628)
sub17_h1_sg_2_089.jpg: Predicted in 0.155754 seconds.
baseball bat: 93%
(715.956177, 272.711182) (863.441284, 426.458893)
sub17_h1_sg_2_090.jpg: Predicted in 0.157680 seconds.
baseball bat: 93%
(713.638794, 273.235809) (865.989197, 427.492065)
sub17_h1_sg_2_091.jpg: Predicted in 0.156260 seconds.
baseball bat: 93%
(712.476257, 273.627594) (867.841125, 425.829346)
sub17_h1_sg_2_092.jpg: Predicted in 0.155963 seconds.
baseball bat: 92%
(709.912354, 276.699463) (869.851135, 426.263977)
sub17_h1_sg_2_093.jpg: Predicted in 0.154990 seconds.
baseball bat: 92%
(694.824829, 281.831146) (865.398560, 432.462860)
sub17_h1_sg_2_094.jpg: Predicted in 0.155877 seconds.
baseball bat: 92%
(689.554810, 283.412903) (866.650757, 433.850372)
sub17_h1_sg_2_095.jpg: Predicted in 0.154290 seconds.
baseball bat: 92%
(685.161133, 284.755402) (869.217834, 434.975067)
sub17_h1_sg_2_096.jpg: Predicted in 0.157799 seconds.
baseball bat: 92%
(686.330566, 284.959259) (870.979614, 435.157745)
sub17_h1_sg_2_097.jpg: Predicted in 0.156199 seconds.
baseball bat: 93%
(684.139709, 286.313293) (872.711182, 435.476868)
sub17_h1_sg_2_098.jpg: Predicted in 0.154966 seconds.
baseball bat: 93%
(678.161011, 288.413116) (877.749512, 435.801941)
sub17_h1_sg_2_099.jpg: Predicted in 0.156729 seconds.
baseball bat: 92%
(677.969299, 290.008545) (879.455811, 434.760620)
sub17_h1_sg_2_100.jpg: Predicted in 0.154913 seconds.
baseball bat: 92%
(674.823364, 290.162079) (879.838989, 435.570770)
sub17_h1_sg_2_101.jpg: Predicted in 0.165785 seconds.
baseball bat: 92%
(672.468689, 292.652588) (880.425415, 434.000031)
sub17_h1_sg_2_102.jpg: Predicted in 0.157363 seconds.
baseball bat: 92%
(670.385864, 293.819031) (878.047974, 434.302612)
sub17_h1_sg_2_103.jpg: Predicted in 0.156004 seconds.
baseball bat: 92%
(667.140808, 299.521820) (874.453430, 442.721558)
sub17_h1_sg_2_104.jpg: Predicted in 0.157123 seconds.
baseball bat: 92%
(662.880188, 299.614471) (873.707458, 443.476532)
sub17_h1_sg_2_105.jpg: Predicted in 0.154692 seconds.
baseball bat: 92%
(662.114136, 300.118530) (877.187439, 442.818604)
sub17_h1_sg_2_106.jpg: Predicted in 0.156504 seconds.
baseball bat: 93%
(660.423340, 301.565582) (874.783752, 441.391144)
sub17_h1_sg_2_107.jpg: Predicted in 0.165007 seconds.
baseball bat: 93%
(659.238403, 302.296722) (874.702271, 440.710205)
sub17_h1_sg_2_108.jpg: Predicted in 0.153910 seconds.
baseball bat: 93%
(655.894287, 303.064117) (876.421204, 440.289001)
sub17_h1_sg_2_109.jpg: Predicted in 0.165041 seconds.
baseball bat: 92%
(656.142151, 303.891663) (877.656189, 439.786652)
sub17_h1_sg_2_110.jpg: Predicted in 0.155704 seconds.
baseball bat: 92%
(652.954529, 306.560181) (876.170959, 438.375153)
sub17_h1_sg_2_111.jpg: Predicted in 0.156995 seconds.
baseball bat: 92%
(648.774841, 307.017578) (876.461548, 439.944031)
sub17_h1_sg_2_112.jpg: Predicted in 0.156577 seconds.
baseball bat: 92%
(647.762695, 310.517639) (877.199951, 439.263794)
sub17_h1_sg_2_113.jpg: Predicted in 0.156637 seconds.
baseball bat: 92%
(648.056885, 312.964874) (871.654907, 438.594116)
sub17_h1_sg_2_114.jpg: Predicted in 0.155469 seconds.
baseball bat: 92%
(646.280579, 315.096741) (869.673584, 438.371857)
sub17_h1_sg_2_115.jpg: Predicted in 0.158567 seconds.
baseball bat: 92%
(644.654785, 317.023315) (871.736511, 438.973114)
sub17_h1_sg_2_116.jpg: Predicted in 0.157810 seconds.
baseball bat: 92%
(641.498169, 320.225769) (872.436768, 440.308350)
sub17_h1_sg_2_117.jpg: Predicted in 0.155268 seconds.
baseball bat: 92%
(639.923096, 321.093414) (872.326660, 439.958954)
sub17_h1_sg_2_118.jpg: Predicted in 0.157816 seconds.
baseball bat: 92%
(636.716003, 322.169128) (873.750610, 440.812134)
sub17_h1_sg_2_119.jpg: Predicted in 0.156721 seconds.
baseball bat: 92%
(634.400696, 324.295441) (873.759521, 440.996979)
sub17_h1_sg_2_120.jpg: Predicted in 0.156487 seconds.
baseball bat: 92%
(632.163147, 326.437317) (873.223816, 439.868347)
sub17_h1_sg_2_121.jpg: Predicted in 0.155879 seconds.
baseball bat: 92%
(628.818970, 328.339233) (874.706116, 439.604614)
sub17_h1_sg_2_122.jpg: Predicted in 0.158474 seconds.
baseball bat: 92%
(627.060364, 331.053162) (875.290710, 438.863953)
sub17_h1_sg_2_123.jpg: Predicted in 0.157925 seconds.
baseball bat: 92%
(626.202881, 334.160492) (874.042053, 438.840424)
sub17_h1_sg_2_124.jpg: Predicted in 0.158098 seconds.
baseball bat: 92%
(622.529724, 337.424438) (872.377991, 438.539429)
sub17_h1_sg_2_125.jpg: Predicted in 0.156561 seconds.
baseball bat: 92%
(616.520142, 339.788055) (872.709412, 439.477875)
sub17_h1_sg_2_126.jpg: Predicted in 0.157620 seconds.
baseball bat: 93%
(614.664551, 343.044739) (872.926697, 439.176544)
sub17_h1_sg_2_127.jpg: Predicted in 0.155562 seconds.
baseball bat: 92%
(614.438965, 345.686005) (873.609131, 438.806885)
sub17_h1_sg_2_128.jpg: Predicted in 0.154506 seconds.
baseball bat: 92%
(606.597412, 349.121277) (873.433899, 441.106781)
sub17_h1_sg_2_129.jpg: Predicted in 0.154573 seconds.
baseball bat: 92%
(602.776550, 351.336426) (873.390625, 440.611084)
sub17_h1_sg_2_130.jpg: Predicted in 0.156377 seconds.
baseball bat: 93%
(598.980347, 353.382996) (872.040894, 441.385101)
sub17_h1_sg_2_131.jpg: Predicted in 0.157241 seconds.
baseball bat: 93%
(599.349548, 355.270538) (869.567261, 440.877838)
sub17_h1_sg_2_132.jpg: Predicted in 0.154671 seconds.
baseball bat: 93%
(597.056458, 358.239594) (871.286133, 439.854675)
sub17_h1_sg_2_133.jpg: Predicted in 0.155427 seconds.
baseball bat: 92%
(589.962463, 362.943604) (871.542236, 439.965302)
sub17_h1_sg_2_134.jpg: Predicted in 0.157423 seconds.
baseball bat: 92%
(586.211670, 367.627747) (867.691833, 439.548859)
sub17_h1_sg_2_135.jpg: Predicted in 0.158368 seconds.
baseball bat: 91%
(581.534241, 371.006378) (868.707336, 437.689301)
sub17_h1_sg_2_136.jpg: Predicted in 0.158467 seconds.
baseball bat: 91%
(576.610840, 376.136505) (865.337891, 436.084747)
sub17_h1_sg_2_137.jpg: Predicted in 0.156398 seconds.
baseball bat: 91%
(574.595398, 380.343292) (862.714783, 435.527863)
sub17_h1_sg_2_138.jpg: Predicted in 0.157197 seconds.
baseball bat: 91%
(572.178955, 384.084137) (856.325684, 434.543976)
sub17_h1_sg_2_139.jpg: Predicted in 0.162153 seconds.
baseball bat: 91%
(573.048645, 385.973145) (852.534058, 433.214203)
sub17_h1_sg_2_140.jpg: Predicted in 0.155371 seconds.
baseball bat: 91%
(568.473389, 387.653564) (852.676514, 431.500214)
sub17_h1_sg_2_141.jpg: Predicted in 0.158041 seconds.
baseball bat: 89%
(564.215332, 391.431305) (849.264404, 428.933838)
sub17_h1_sg_2_142.jpg: Predicted in 0.157079 seconds.
baseball bat: 88%
(556.124268, 394.170197) (850.456848, 428.566742)
sub17_h1_sg_2_143.jpg: Predicted in 0.156543 seconds.
baseball bat: 87%
(554.373291, 399.209259) (850.068665, 427.517273)
sub17_h1_sg_2_144.jpg: Predicted in 0.159579 seconds.
baseball bat: 85%
(554.923889, 402.740967) (847.519653, 426.831818)
sub17_h1_sg_2_145.jpg: Predicted in 0.154278 seconds.
baseball bat: 83%
(554.210388, 407.023773) (843.992737, 426.969543)
sub17_h1_sg_2_146.jpg: Predicted in 0.165436 seconds.
baseball bat: 81%
(554.577820, 408.991852) (844.076660, 427.088776)
sub17_h1_sg_2_147.jpg: Predicted in 0.154498 seconds.
baseball bat: 74%
(561.313232, 413.306030) (844.671570, 425.941589)
sub17_h1_sg_2_148.jpg: Predicted in 0.164617 seconds.
baseball bat: 67%
(563.730042, 416.549561) (839.127625, 426.766815)
sub17_h1_sg_2_149.jpg: Predicted in 0.159585 seconds.
baseball bat: 45%
(570.158020, 419.006561) (831.734680, 425.878418)
sub17_h1_sg_2_150.jpg: Predicted in 0.161131 seconds.
baseball bat: 37%
(574.607300, 420.262756) (824.803528, 426.498566)
sub17_h1_sg_2_151.jpg: Predicted in 0.156059 seconds.
baseball bat: 66%
(560.380371, 420.863129) (801.277039, 431.772461)
sub17_h1_sg_2_152.jpg: Predicted in 0.156066 seconds.
baseball bat: 81%
(561.213623, 419.552460) (786.735901, 438.885376)
sub17_h1_sg_2_153.jpg: Predicted in 0.155023 seconds.
baseball bat: 85%
(557.299927, 417.855164) (784.984924, 441.422180)
sub17_h1_sg_2_154.jpg: Predicted in 0.155788 seconds.
baseball bat: 86%
(554.711792, 418.698822) (785.317200, 445.630432)
sub17_h1_sg_2_155.jpg: Predicted in 0.156609 seconds.
baseball bat: 87%
(552.601501, 418.393768) (785.195618, 449.400848)
sub17_h1_sg_2_156.jpg: Predicted in 0.156120 seconds.
baseball bat: 88%
(550.977234, 418.054840) (782.582947, 454.698212)
sub17_h1_sg_2_157.jpg: Predicted in 0.156176 seconds.
baseball bat: 88%
(552.036255, 417.215942) (778.202209, 456.074127)
sub17_h1_sg_2_158.jpg: Predicted in 0.155235 seconds.
baseball bat: 88%
(544.374939, 417.798889) (770.881226, 460.107910)
sub17_h1_sg_2_159.jpg: Predicted in 0.156541 seconds.
baseball bat: 89%
(540.976501, 417.409424) (764.567017, 465.307526)
sub17_h1_sg_2_160.jpg: Predicted in 0.158643 seconds.
baseball bat: 89%
(541.845642, 416.273895) (751.394531, 470.156952)
sub17_h1_sg_2_161.jpg: Predicted in 0.156814 seconds.
baseball bat: 90%
(540.130920, 414.014923) (744.947693, 478.335846)
sub17_h1_sg_2_162.jpg: Predicted in 0.157625 seconds.
baseball bat: 89%
(538.544312, 412.899017) (734.182434, 481.310669)
sub17_h1_sg_2_163.jpg: Predicted in 0.158036 seconds.
baseball bat: 90%
(538.719360, 411.601288) (728.663940, 482.846619)
sub17_h1_sg_2_164.jpg: Predicted in 0.155033 seconds.
baseball bat: 91%
(538.657227, 411.480774) (721.215942, 488.746857)
sub17_h1_sg_2_165.jpg: Predicted in 0.156154 seconds.
baseball bat: 90%
(537.332458, 410.587280) (712.947266, 489.617767)
sub17_h1_sg_2_166.jpg: Predicted in 0.156405 seconds.
baseball bat: 91%
(539.609375, 408.950592) (707.000061, 494.279999)
sub17_h1_sg_2_167.jpg: Predicted in 0.155119 seconds.
baseball bat: 91%
(540.887451, 407.776184) (698.803589, 497.232056)
sub17_h1_sg_2_168.jpg: Predicted in 0.164372 seconds.
baseball bat: 90%
(537.981812, 406.422760) (683.613403, 500.869873)
sub17_h1_sg_2_169.jpg: Predicted in 0.163883 seconds.
baseball bat: 90%
(538.225525, 405.262451) (676.635376, 504.497650)
sub17_h1_sg_2_170.jpg: Predicted in 0.155865 seconds.
baseball bat: 90%
(538.071960, 405.650146) (658.920959, 500.012299)
sub17_h1_sg_2_171.jpg: Predicted in 0.156326 seconds.
baseball bat: 90%
(541.041748, 403.206329) (651.672119, 502.960327)
sub17_h1_sg_2_172.jpg: Predicted in 0.156359 seconds.
baseball bat: 91%
(547.223755, 403.760315) (642.036560, 506.510468)
sub17_h1_sg_2_173.jpg: Predicted in 0.156380 seconds.
baseball bat: 90%
(552.863464, 405.081116) (633.348206, 506.826660)
sub17_h1_sg_2_174.jpg: Predicted in 0.155914 seconds.
baseball bat: 89%
(552.498474, 401.235657) (625.731384, 512.010010)
sub17_h1_sg_2_175.jpg: Predicted in 0.155612 seconds.
baseball bat: 89%
(556.839355, 400.562561) (619.045959, 516.989136)
sub17_h1_sg_2_176.jpg: Predicted in 0.154902 seconds.
baseball bat: 88%
(557.269653, 399.015778) (607.963318, 520.892090)
sub17_h1_sg_2_177.jpg: Predicted in 0.154934 seconds.
baseball bat: 86%
(559.053894, 400.927795) (598.678650, 524.976196)
sub17_h1_sg_2_178.jpg: Predicted in 0.155973 seconds.
baseball bat: 82%
(559.846191, 403.411926) (586.874512, 526.239807)
sub17_h1_sg_2_179.jpg: Predicted in 0.155813 seconds.
baseball bat: 72%
(559.334656, 403.667786) (575.317749, 527.519775)
sub17_h1_sg_2_180.jpg: Predicted in 0.156713 seconds.
baseball bat: 49%
(556.049927, 402.276611) (565.294617, 531.633545)
sub17_h1_sg_2_181.jpg: Predicted in 0.156784 seconds.
baseball bat: 57%
(551.265381, 402.463409) (561.583496, 531.981873)
sub17_h1_sg_2_182.jpg: Predicted in 0.158424 seconds.
baseball bat: 73%
(543.591553, 407.516083) (559.286072, 530.189758)
sub17_h1_sg_2_183.jpg: Predicted in 0.155352 seconds.
baseball bat: 81%
(532.510864, 409.437805) (557.559082, 530.973755)
sub17_h1_sg_2_184.jpg: Predicted in 0.156602 seconds.
baseball bat: 86%
(523.813843, 406.861908) (558.451904, 530.810059)
sub17_h1_sg_2_185.jpg: Predicted in 0.157014 seconds.
baseball bat: 87%
(516.174561, 405.491730) (558.818359, 530.010010)
sub17_h1_sg_2_186.jpg: Predicted in 0.162842 seconds.
baseball bat: 89%
(505.334076, 408.086029) (558.106201, 530.934509)
sub17_h1_sg_2_187.jpg: Predicted in 0.156398 seconds.
baseball bat: 89%
(494.558411, 407.658478) (558.947815, 531.310913)
sub17_h1_sg_2_188.jpg: Predicted in 0.158175 seconds.
baseball bat: 90%
(482.892700, 406.736053) (559.999878, 534.233215)
sub17_h1_sg_2_189.jpg: Predicted in 0.155898 seconds.
baseball bat: 90%
(476.691833, 408.634705) (559.581909, 533.457703)
sub17_h1_sg_2_190.jpg: Predicted in 0.156782 seconds.
baseball bat: 90%
(470.266724, 411.311798) (559.043030, 532.635803)
sub17_h1_sg_2_191.jpg: Predicted in 0.155579 seconds.
baseball bat: 90%
(460.857330, 411.314026) (556.145752, 532.903015)
sub17_h1_sg_2_192.jpg: Predicted in 0.156254 seconds.
baseball bat: 91%
(453.295868, 406.090820) (562.777893, 532.778259)
sub17_h1_sg_2_193.jpg: Predicted in 0.156151 seconds.
baseball bat: 90%
(442.413391, 402.500092) (565.661316, 532.807007)
sub17_h1_sg_2_194.jpg: Predicted in 0.160611 seconds.
baseball bat: 88%
(431.188385, 401.488617) (568.869690, 533.823486)
sub17_h1_sg_2_195.jpg: Predicted in 0.158080 seconds.
baseball bat: 86%
(424.896851, 401.772064) (571.476013, 532.267273)
sub17_h1_sg_2_196.jpg: Predicted in 0.157067 seconds.
baseball bat: 84%
(404.546051, 401.196198) (567.295288, 530.550964)
sub17_h1_sg_2_197.jpg: Predicted in 0.161396 seconds.
baseball bat: 84%
(395.923218, 402.209106) (567.574585, 531.274414)
sub17_h1_sg_2_198.jpg: Predicted in 0.155250 seconds.
baseball bat: 81%
(387.572540, 402.770416) (568.738037, 529.469604)
sub17_h1_sg_2_199.jpg: Predicted in 0.156619 seconds.
baseball bat: 69%
(381.888062, 405.501648) (569.057800, 523.313416)
sub17_h1_sg_2_200.jpg: Predicted in 0.155094 seconds.
baseball bat: 36%
(369.327057, 409.351654) (570.169556, 521.473694)
sub17_h1_sg_2_201.jpg: Predicted in 0.155062 seconds.
baseball bat: 35%
(367.699036, 410.006531) (570.361084, 519.132019)
sub17_h1_sg_2_202.jpg: Predicted in 0.157121 seconds.
baseball bat: 32%
(364.985901, 410.873199) (570.791626, 520.014099)
sub17_h1_sg_2_203.jpg: Predicted in 0.156710 seconds.
baseball bat: 48%
(368.305603, 410.493805) (569.504761, 521.397766)
sub17_h1_sg_2_204.jpg: Predicted in 0.155222 seconds.
baseball bat: 38%
(362.225555, 409.208954) (571.130798, 523.092651)
sub17_h1_sg_2_205.jpg: Predicted in 0.156313 seconds.
baseball bat: 41%
(363.088135, 411.427917) (571.433655, 521.602600)
sub17_h1_sg_2_206.jpg: Predicted in 0.155928 seconds.
baseball bat: 48%
(364.470978, 414.146118) (569.937195, 522.510437)
sub17_h1_sg_2_207.jpg: Predicted in 0.155303 seconds.
baseball bat: 43%
(363.636993, 417.551666) (570.719604, 523.777466)
sub17_h1_sg_2_208.jpg: Predicted in 0.160500 seconds.
sub17_h1_sg_2_209.jpg: Predicted in 0.166168 seconds.
baseball bat: 39%
(367.546753, 421.691162) (569.485107, 522.430664)
sub17_h1_sg_2_210.jpg: Predicted in 0.163221 seconds.
baseball bat: 34%
(368.126221, 421.553558) (568.827271, 521.832703)
sub17_h1_sg_2_211.jpg: Predicted in 0.157741 seconds.
sub17_h1_sg_2_212.jpg: Predicted in 0.156794 seconds.
sub17_h1_sg_2_213.jpg: Predicted in 0.157126 seconds.
sub17_h1_sg_2_214.jpg: Predicted in 0.154624 seconds.
sub17_h1_sg_2_215.jpg: Predicted in 0.162911 seconds.
sub17_h1_sg_2_216.jpg: Predicted in 0.165965 seconds.
sub17_h1_sg_2_217.jpg: Predicted in 0.163844 seconds.
sub17_h1_sg_2_218.jpg: Predicted in 0.164904 seconds.
sub17_h1_sg_2_219.jpg: Predicted in 0.156954 seconds.
