sub19_b2_lg_1_001.jpg: Predicted in 0.155990 seconds.
person: 76%
(250.802795, 162.039978) (503.487976, 625.192261)
sub19_b2_lg_1_002.jpg: Predicted in 0.154136 seconds.
person: 76%
(249.731842, 161.508896) (504.908661, 627.568481)
sub19_b2_lg_1_003.jpg: Predicted in 0.156303 seconds.
person: 75%
(248.801239, 161.113983) (507.069580, 627.101562)
sub19_b2_lg_1_004.jpg: Predicted in 0.154599 seconds.
person: 75%
(249.896942, 159.255890) (509.847778, 630.235840)
sub19_b2_lg_1_005.jpg: Predicted in 0.154147 seconds.
person: 75%
(250.224991, 157.272339) (508.511810, 629.088135)
sub19_b2_lg_1_006.jpg: Predicted in 0.156516 seconds.
person: 75%
(251.164108, 158.508560) (508.007721, 628.211243)
sub19_b2_lg_1_007.jpg: Predicted in 0.155845 seconds.
person: 75%
(250.344055, 159.007568) (505.593292, 627.152222)
sub19_b2_lg_1_008.jpg: Predicted in 0.153246 seconds.
person: 74%
(248.866791, 157.165314) (506.937653, 625.197632)
sub19_b2_lg_1_009.jpg: Predicted in 0.160904 seconds.
person: 75%
(250.477081, 157.785416) (505.912598, 621.651917)
sub19_b2_lg_1_010.jpg: Predicted in 0.154989 seconds.
person: 75%
(246.560913, 157.614975) (509.950317, 620.592896)
sub19_b2_lg_1_011.jpg: Predicted in 0.156501 seconds.
person: 74%
(244.483429, 159.641266) (510.827698, 619.154480)
sub19_b2_lg_1_012.jpg: Predicted in 0.155855 seconds.
person: 75%
(245.797516, 162.517258) (509.287018, 620.814209)
sub19_b2_lg_1_013.jpg: Predicted in 0.154631 seconds.
person: 75%
(246.193878, 162.200836) (509.336761, 619.571472)
sub19_b2_lg_1_014.jpg: Predicted in 0.154316 seconds.
person: 75%
(248.235855, 160.197403) (509.010376, 620.793030)
sub19_b2_lg_1_015.jpg: Predicted in 0.155820 seconds.
person: 30%
(688.932922, 264.357117) (729.294006, 319.529083)
person: 74%
(250.855377, 165.412552) (508.083008, 621.434265)
sub19_b2_lg_1_016.jpg: Predicted in 0.154110 seconds.
person: 31%
(688.916138, 264.002472) (729.448425, 319.869080)
person: 74%
(250.133453, 166.313751) (509.476379, 621.905212)
sub19_b2_lg_1_017.jpg: Predicted in 0.153538 seconds.
person: 75%
(253.566010, 165.263550) (507.375458, 620.688599)
sub19_b2_lg_1_018.jpg: Predicted in 0.153600 seconds.
person: 75%
(256.570282, 164.676193) (505.570465, 619.458618)
sub19_b2_lg_1_019.jpg: Predicted in 0.163041 seconds.
person: 76%
(255.924957, 165.477448) (507.032349, 621.187073)
sub19_b2_lg_1_020.jpg: Predicted in 0.156580 seconds.
person: 75%
(254.954132, 168.713837) (508.106567, 621.834534)
sub19_b2_lg_1_021.jpg: Predicted in 0.155267 seconds.
person: 76%
(253.843216, 167.904922) (509.702332, 621.045715)
sub19_b2_lg_1_022.jpg: Predicted in 0.155486 seconds.
person: 75%
(255.754898, 165.587646) (508.797546, 620.879395)
sub19_b2_lg_1_023.jpg: Predicted in 0.155173 seconds.
person: 75%
(255.585190, 165.848755) (509.280090, 621.855408)
sub19_b2_lg_1_024.jpg: Predicted in 0.163172 seconds.
person: 74%
(254.630341, 165.262909) (510.633118, 621.556824)
sub19_b2_lg_1_025.jpg: Predicted in 0.155942 seconds.
person: 74%
(253.895355, 163.458389) (511.328033, 622.429199)
sub19_b2_lg_1_026.jpg: Predicted in 0.157033 seconds.
person: 74%
(253.390930, 163.911942) (513.056946, 620.586243)
sub19_b2_lg_1_027.jpg: Predicted in 0.154374 seconds.
person: 74%
(255.910095, 163.118317) (510.151764, 620.363403)
sub19_b2_lg_1_028.jpg: Predicted in 0.154826 seconds.
person: 73%
(254.065781, 162.017700) (511.601318, 621.547791)
sub19_b2_lg_1_029.jpg: Predicted in 0.154527 seconds.
person: 73%
(252.872925, 161.271835) (511.480865, 621.442566)
sub19_b2_lg_1_030.jpg: Predicted in 0.155108 seconds.
person: 73%
(251.284866, 161.402313) (512.174561, 621.508057)
sub19_b2_lg_1_031.jpg: Predicted in 0.156517 seconds.
person: 72%
(251.188599, 160.952240) (511.383972, 620.805725)
sub19_b2_lg_1_032.jpg: Predicted in 0.158395 seconds.
person: 72%
(254.045578, 161.789795) (510.279053, 622.735901)
sub19_b2_lg_1_033.jpg: Predicted in 0.155549 seconds.
person: 72%
(256.244598, 158.515213) (508.447327, 625.050903)
sub19_b2_lg_1_034.jpg: Predicted in 0.154741 seconds.
person: 73%
(257.676697, 158.097366) (507.648224, 625.938293)
sub19_b2_lg_1_035.jpg: Predicted in 0.154278 seconds.
person: 74%
(259.497894, 160.679810) (506.184387, 624.512207)
sub19_b2_lg_1_036.jpg: Predicted in 0.154314 seconds.
person: 74%
(259.906067, 163.489563) (506.143890, 625.150146)
sub19_b2_lg_1_037.jpg: Predicted in 0.154728 seconds.
person: 74%
(258.235260, 164.787811) (508.954224, 625.444885)
sub19_b2_lg_1_038.jpg: Predicted in 0.155126 seconds.
person: 73%
(257.626556, 163.522079) (509.945557, 626.482178)
sub19_b2_lg_1_039.jpg: Predicted in 0.153724 seconds.
person: 72%
(255.567825, 162.641724) (513.044983, 627.423218)
sub19_b2_lg_1_040.jpg: Predicted in 0.164260 seconds.
person: 73%
(257.522675, 164.268677) (509.907074, 626.444153)
sub19_b2_lg_1_041.jpg: Predicted in 0.162957 seconds.
person: 30%
(690.101990, 263.104370) (729.028381, 320.428802)
person: 72%
(256.895691, 159.831543) (509.570923, 628.478333)
sub19_b2_lg_1_042.jpg: Predicted in 0.155937 seconds.
person: 72%
(258.862427, 159.144135) (506.431213, 627.146667)
sub19_b2_lg_1_043.jpg: Predicted in 0.155092 seconds.
person: 72%
(258.672485, 157.327789) (507.500061, 627.179321)
sub19_b2_lg_1_044.jpg: Predicted in 0.154932 seconds.
person: 72%
(259.464935, 156.819321) (505.741302, 626.396729)
sub19_b2_lg_1_045.jpg: Predicted in 0.154438 seconds.
person: 30%
(689.219604, 261.781097) (730.170044, 319.930969)
person: 72%
(258.377960, 159.860489) (507.110016, 626.113831)
sub19_b2_lg_1_046.jpg: Predicted in 0.156025 seconds.
person: 73%
(258.247650, 158.745605) (506.478912, 625.330261)
sub19_b2_lg_1_047.jpg: Predicted in 0.154558 seconds.
person: 73%
(257.378448, 157.287628) (507.600128, 624.304321)
sub19_b2_lg_1_048.jpg: Predicted in 0.156565 seconds.
person: 72%
(257.522034, 155.309723) (508.230957, 625.524048)
sub19_b2_lg_1_049.jpg: Predicted in 0.154349 seconds.
person: 73%
(257.682739, 155.882477) (508.209900, 624.067261)
sub19_b2_lg_1_050.jpg: Predicted in 0.154685 seconds.
person: 73%
(257.550629, 155.754608) (508.885468, 624.116943)
sub19_b2_lg_1_051.jpg: Predicted in 0.153841 seconds.
person: 73%
(257.248932, 153.365677) (509.077271, 624.264832)
sub19_b2_lg_1_052.jpg: Predicted in 0.154996 seconds.
person: 73%
(254.512222, 154.069473) (512.108032, 623.971252)
sub19_b2_lg_1_053.jpg: Predicted in 0.196346 seconds.
person: 72%
(256.804413, 156.063217) (509.491272, 623.773499)
sub19_b2_lg_1_054.jpg: Predicted in 0.155697 seconds.
person: 31%
(689.525330, 260.572937) (732.343567, 320.739563)
person: 73%
(256.521057, 154.188873) (509.216400, 624.897339)
sub19_b2_lg_1_055.jpg: Predicted in 0.153949 seconds.
person: 31%
(689.251038, 260.312012) (732.560486, 320.409607)
person: 71%
(254.719788, 156.029160) (512.543579, 624.418640)
sub19_b2_lg_1_056.jpg: Predicted in 0.153768 seconds.
person: 30%
(689.466614, 260.781067) (732.545410, 319.993347)
person: 72%
(254.783752, 154.288986) (512.513184, 625.967834)
sub19_b2_lg_1_057.jpg: Predicted in 0.156277 seconds.
person: 30%
(689.360046, 260.584351) (732.757874, 320.279541)
person: 72%
(255.730103, 157.026031) (511.964752, 624.336548)
sub19_b2_lg_1_058.jpg: Predicted in 0.156391 seconds.
person: 31%
(689.483154, 260.614258) (732.824707, 320.563354)
person: 72%
(255.072937, 161.969345) (513.757874, 624.803894)
sub19_b2_lg_1_059.jpg: Predicted in 0.155748 seconds.
person: 31%
(689.939880, 261.389618) (732.950745, 320.498352)
person: 72%
(256.290558, 164.449219) (511.986176, 623.800781)
sub19_b2_lg_1_060.jpg: Predicted in 0.152854 seconds.
person: 31%
(689.862427, 261.683655) (732.999390, 320.488159)
person: 72%
(257.244537, 166.360382) (511.279022, 623.774170)
sub19_b2_lg_1_061.jpg: Predicted in 0.155617 seconds.
person: 32%
(689.377441, 261.382599) (733.235596, 320.890472)
person: 73%
(255.781219, 166.596130) (512.538757, 624.209473)
sub19_b2_lg_1_062.jpg: Predicted in 0.159590 seconds.
person: 32%
(689.485596, 261.614197) (732.878174, 320.515320)
person: 73%
(256.743164, 167.189835) (510.612030, 623.780701)
sub19_b2_lg_1_063.jpg: Predicted in 0.162836 seconds.
person: 31%
(687.851685, 260.503571) (732.875366, 318.608063)
person: 73%
(258.166779, 163.480423) (504.839355, 621.459290)
sub19_b2_lg_1_064.jpg: Predicted in 0.156423 seconds.
person: 73%
(256.586060, 163.453842) (505.568390, 620.050842)
sub19_b2_lg_1_065.jpg: Predicted in 0.154825 seconds.
person: 74%
(255.747604, 165.739822) (506.054138, 618.954773)
sub19_b2_lg_1_066.jpg: Predicted in 0.154669 seconds.
person: 73%
(255.531998, 166.754227) (507.675171, 620.012207)
sub19_b2_lg_1_067.jpg: Predicted in 0.153967 seconds.
person: 74%
(256.554993, 167.317490) (506.049530, 619.864197)
sub19_b2_lg_1_068.jpg: Predicted in 0.153996 seconds.
person: 74%
(259.863312, 166.706818) (504.163177, 622.229431)
sub19_b2_lg_1_069.jpg: Predicted in 0.155251 seconds.
person: 74%
(258.879517, 167.405655) (505.885559, 621.620667)
sub19_b2_lg_1_070.jpg: Predicted in 0.155463 seconds.
person: 74%
(258.964874, 167.656357) (505.473999, 622.498596)
sub19_b2_lg_1_071.jpg: Predicted in 0.154016 seconds.
person: 74%
(257.509735, 169.355957) (506.377136, 621.398804)
sub19_b2_lg_1_072.jpg: Predicted in 0.156228 seconds.
person: 74%
(256.644287, 168.959595) (508.663330, 621.570923)
sub19_b2_lg_1_073.jpg: Predicted in 0.155918 seconds.
person: 75%
(257.166687, 170.277786) (506.354187, 621.653198)
sub19_b2_lg_1_074.jpg: Predicted in 0.161861 seconds.
person: 75%
(257.209229, 170.088577) (504.081604, 621.521973)
sub19_b2_lg_1_075.jpg: Predicted in 0.157759 seconds.
person: 30%
(689.153320, 261.691833) (733.415344, 319.275879)
person: 74%
(255.933746, 172.102097) (505.603577, 620.700134)
sub19_b2_lg_1_076.jpg: Predicted in 0.154890 seconds.
person: 30%
(688.882935, 261.867798) (733.231628, 319.349396)
person: 74%
(255.698212, 174.377609) (505.830261, 619.845032)
sub19_b2_lg_1_077.jpg: Predicted in 0.155282 seconds.
person: 30%
(689.002502, 261.472687) (733.405334, 319.179260)
person: 74%
(257.075073, 176.105621) (504.805054, 616.717041)
sub19_b2_lg_1_078.jpg: Predicted in 0.155681 seconds.
person: 31%
(689.368835, 262.117645) (732.932312, 319.484283)
person: 74%
(253.824631, 174.589706) (508.524536, 618.931885)
sub19_b2_lg_1_079.jpg: Predicted in 0.156794 seconds.
person: 31%
(689.346191, 262.358856) (732.951904, 320.012329)
person: 73%
(254.429459, 177.615067) (508.147583, 618.494873)
sub19_b2_lg_1_080.jpg: Predicted in 0.154931 seconds.
person: 32%
(689.349426, 262.726898) (732.889648, 320.537903)
person: 74%
(256.252869, 175.941040) (506.407654, 620.064087)
sub19_b2_lg_1_081.jpg: Predicted in 0.164710 seconds.
person: 33%
(689.457092, 263.403473) (732.795593, 320.888031)
person: 74%
(254.123062, 174.411041) (508.059723, 620.803528)
sub19_b2_lg_1_082.jpg: Predicted in 0.156175 seconds.
person: 33%
(689.228455, 263.370697) (732.857727, 321.036743)
person: 74%
(254.451477, 174.609406) (508.207214, 621.741760)
sub19_b2_lg_1_083.jpg: Predicted in 0.156319 seconds.
person: 33%
(689.501648, 263.391479) (732.956848, 320.926880)
person: 73%
(254.130600, 175.365311) (507.197968, 621.021606)
sub19_b2_lg_1_084.jpg: Predicted in 0.156360 seconds.
person: 33%
(689.229126, 263.453766) (732.893555, 320.831299)
person: 74%
(256.210724, 178.616791) (505.491760, 617.868225)
sub19_b2_lg_1_085.jpg: Predicted in 0.178393 seconds.
person: 33%
(689.464722, 262.908112) (733.312683, 320.564911)
person: 75%
(257.271027, 179.196213) (503.861176, 615.889221)
sub19_b2_lg_1_086.jpg: Predicted in 0.154271 seconds.
person: 33%
(689.421326, 262.682037) (733.030579, 320.385468)
person: 75%
(256.714172, 181.876511) (504.005829, 614.258362)
sub19_b2_lg_1_087.jpg: Predicted in 0.164602 seconds.
person: 33%
(688.953857, 261.770691) (733.094910, 319.932068)
person: 75%
(257.575409, 180.191681) (504.092896, 615.072327)
sub19_b2_lg_1_088.jpg: Predicted in 0.165072 seconds.
person: 34%
(688.755554, 262.117950) (732.586487, 320.613007)
person: 74%
(256.921936, 180.119659) (507.230072, 616.418579)
sub19_b2_lg_1_089.jpg: Predicted in 0.155335 seconds.
person: 34%
(688.216614, 261.767822) (732.404236, 321.031433)
person: 74%
(253.972656, 180.627914) (510.671967, 617.383545)
sub19_b2_lg_1_090.jpg: Predicted in 0.154009 seconds.
person: 34%
(688.671204, 262.002472) (732.548401, 320.764221)
person: 74%
(251.484711, 179.123093) (514.126831, 618.266785)
sub19_b2_lg_1_091.jpg: Predicted in 0.156004 seconds.
person: 33%
(688.847839, 261.862488) (732.411926, 320.379822)
person: 74%
(255.086014, 178.476288) (510.835327, 617.649170)
sub19_b2_lg_1_092.jpg: Predicted in 0.154191 seconds.
person: 34%
(688.177856, 261.657898) (731.989990, 321.321259)
person: 74%
(254.687592, 179.212570) (511.312836, 617.329224)
sub19_b2_lg_1_093.jpg: Predicted in 0.154777 seconds.
person: 35%
(688.155273, 260.887177) (731.765198, 321.723999)
person: 75%
(253.624527, 175.794907) (510.473083, 617.632751)
sub19_b2_lg_1_094.jpg: Predicted in 0.156079 seconds.
person: 32%
(688.696777, 259.349304) (733.063477, 317.839386)
person: 72%
(250.267899, 182.321518) (515.806274, 619.828735)
sub19_b2_lg_1_095.jpg: Predicted in 0.154285 seconds.
person: 32%
(688.564209, 258.667297) (733.571106, 318.616516)
person: 73%
(253.049881, 179.699631) (512.426331, 620.996460)
sub19_b2_lg_1_096.jpg: Predicted in 0.180945 seconds.
person: 32%
(688.630310, 258.539398) (733.224670, 318.336365)
person: 73%
(254.659821, 181.017044) (509.741669, 621.098877)
sub19_b2_lg_1_097.jpg: Predicted in 0.156021 seconds.
person: 32%
(688.382507, 257.650848) (733.427490, 317.904419)
person: 74%
(255.064270, 179.128433) (508.037994, 619.458740)
sub19_b2_lg_1_098.jpg: Predicted in 0.154438 seconds.
person: 31%
(687.915649, 257.462402) (733.556824, 318.106750)
person: 73%
(257.039825, 180.754181) (506.318329, 617.393616)
sub19_b2_lg_1_099.jpg: Predicted in 0.154283 seconds.
person: 32%
(688.285828, 257.888580) (732.818726, 318.374481)
person: 73%
(258.348480, 180.150391) (504.302338, 615.821411)
sub19_b2_lg_1_100.jpg: Predicted in 0.158255 seconds.
person: 33%
(687.851013, 259.336365) (732.369324, 319.399933)
person: 73%
(257.790558, 177.484772) (506.094269, 618.929504)
sub19_b2_lg_1_101.jpg: Predicted in 0.159646 seconds.
person: 32%
(687.782410, 258.908752) (732.567017, 319.034332)
person: 73%
(260.515289, 174.976868) (504.000702, 620.057861)
sub19_b2_lg_1_102.jpg: Predicted in 0.160816 seconds.
person: 32%
(687.873657, 259.096710) (732.412292, 318.964050)
person: 73%
(259.065735, 175.016815) (505.689148, 619.266174)
sub19_b2_lg_1_103.jpg: Predicted in 0.155737 seconds.
person: 32%
(688.266113, 258.792236) (732.633118, 319.636200)
person: 73%
(255.885056, 179.659622) (552.369568, 612.038940)
sub19_b2_lg_1_104.jpg: Predicted in 0.155488 seconds.
person: 32%
(687.985596, 258.929993) (732.677124, 319.756531)
person: 73%
(255.624557, 180.755478) (553.107666, 611.366577)
sub19_b2_lg_1_105.jpg: Predicted in 0.155228 seconds.
person: 32%
(687.557190, 257.622375) (733.352661, 318.795349)
person: 73%
(253.618546, 182.380707) (555.029541, 609.061829)
sub19_b2_lg_1_106.jpg: Predicted in 0.153810 seconds.
person: 32%
(687.353333, 257.588776) (732.822571, 318.551666)
person: 73%
(253.965988, 178.143478) (506.695618, 622.781799)
sub19_b2_lg_1_107.jpg: Predicted in 0.154676 seconds.
person: 32%
(687.173157, 257.216156) (732.356384, 318.905457)
person: 73%
(252.884644, 179.179504) (507.791382, 622.436096)
sub19_b2_lg_1_108.jpg: Predicted in 0.165778 seconds.
person: 33%
(687.170349, 257.810425) (732.297913, 319.325806)
person: 73%
(251.445679, 179.371780) (509.740234, 621.738281)
sub19_b2_lg_1_109.jpg: Predicted in 0.155767 seconds.
person: 33%
(687.397644, 257.713562) (732.513245, 319.258728)
person: 73%
(246.305420, 186.542969) (563.274536, 609.176758)
sub19_b2_lg_1_110.jpg: Predicted in 0.155338 seconds.
person: 33%
(687.527710, 258.079224) (732.472595, 319.981873)
person: 72%
(247.401382, 187.121613) (562.280579, 607.898071)
sub19_b2_lg_1_111.jpg: Predicted in 0.154804 seconds.
person: 33%
(687.828430, 258.391998) (732.574402, 319.714630)
person: 72%
(248.622162, 186.257095) (561.881470, 609.622192)
sub19_b2_lg_1_112.jpg: Predicted in 0.155306 seconds.
person: 32%
(687.390076, 258.563995) (732.920898, 319.618225)
person: 72%
(247.892273, 187.955856) (562.959534, 612.004395)
sub19_b2_lg_1_113.jpg: Predicted in 0.155260 seconds.
person: 32%
(688.028076, 259.796906) (732.528687, 319.974182)
person: 73%
(249.342606, 186.313446) (561.899597, 613.184265)
sub19_b2_lg_1_114.jpg: Predicted in 0.156985 seconds.
person: 32%
(687.405762, 259.329590) (732.817017, 320.384979)
person: 72%
(250.381805, 183.770569) (559.670227, 611.199036)
sub19_b2_lg_1_115.jpg: Predicted in 0.163338 seconds.
person: 33%
(687.291870, 260.249939) (731.935608, 320.874054)
person: 73%
(259.225311, 180.841446) (500.259552, 626.832214)
sub19_b2_lg_1_116.jpg: Predicted in 0.154125 seconds.
baseball bat: 32%
(191.967667, 104.152977) (290.959961, 318.130280)
person: 33%
(686.797607, 259.958221) (731.977600, 320.676270)
person: 73%
(261.579285, 179.653854) (497.916779, 626.903198)
sub19_b2_lg_1_117.jpg: Predicted in 0.153877 seconds.
baseball bat: 35%
(189.423645, 105.889633) (291.728577, 315.806549)
person: 33%
(687.011230, 260.150146) (731.899719, 320.596527)
person: 73%
(263.109436, 184.501617) (495.067902, 625.816101)
sub19_b2_lg_1_118.jpg: Predicted in 0.155162 seconds.
baseball bat: 38%
(188.536697, 102.974831) (289.740875, 315.078369)
person: 34%
(686.890930, 260.702698) (731.415039, 321.463684)
person: 74%
(259.454773, 187.560349) (498.022034, 626.493408)
sub19_b2_lg_1_119.jpg: Predicted in 0.155677 seconds.
baseball bat: 38%
(189.152756, 103.605927) (284.288147, 314.640442)
person: 34%
(687.083740, 260.528656) (731.863098, 321.138763)
person: 73%
(258.740417, 186.542542) (497.499969, 626.402466)
sub19_b2_lg_1_120.jpg: Predicted in 0.155218 seconds.
baseball bat: 41%
(191.153564, 104.468414) (286.756531, 312.052795)
person: 34%
(687.060669, 260.278137) (732.023926, 321.271088)
person: 73%
(260.394531, 189.365250) (496.234131, 624.021301)
sub19_b2_lg_1_121.jpg: Predicted in 0.153574 seconds.
baseball bat: 39%
(190.886124, 107.957825) (290.072510, 308.695984)
person: 34%
(687.050537, 259.890625) (731.977661, 321.361481)
person: 74%
(261.698425, 189.456223) (494.402405, 623.082397)
sub19_b2_lg_1_122.jpg: Predicted in 0.154412 seconds.
baseball bat: 39%
(192.115234, 104.524063) (286.272736, 311.620361)
person: 33%
(687.152771, 259.436981) (731.926331, 321.152130)
person: 73%
(259.999359, 190.939377) (496.008026, 620.961426)
sub19_b2_lg_1_123.jpg: Predicted in 0.157370 seconds.
baseball bat: 37%
(191.526230, 110.518349) (287.449432, 308.716034)
person: 33%
(687.262695, 259.290527) (731.981384, 321.152435)
person: 73%
(258.026367, 190.587402) (499.452362, 620.882812)
sub19_b2_lg_1_124.jpg: Predicted in 0.153893 seconds.
baseball bat: 41%
(190.383011, 111.553360) (285.747925, 309.468567)
person: 33%
(686.953125, 259.421021) (731.683472, 321.048401)
person: 72%
(259.987946, 187.652847) (499.099487, 620.404358)
sub19_b2_lg_1_125.jpg: Predicted in 0.155276 seconds.
baseball bat: 44%
(192.739868, 104.305878) (276.739685, 317.630432)
person: 34%
(685.747314, 261.263916) (731.696228, 322.794250)
person: 72%
(252.327484, 184.969421) (504.507599, 621.291382)
sub19_b2_lg_1_126.jpg: Predicted in 0.155945 seconds.
baseball bat: 44%
(190.799057, 107.076202) (278.744385, 315.067444)
person: 33%
(687.146240, 261.389618) (732.313293, 322.662140)
person: 71%
(254.241257, 189.247162) (503.101807, 620.665222)
sub19_b2_lg_1_127.jpg: Predicted in 0.156507 seconds.
baseball bat: 45%
(192.241318, 104.272987) (276.449799, 319.458832)
person: 34%
(687.793030, 261.797913) (731.812256, 322.274048)
person: 71%
(254.777802, 181.442291) (502.311890, 623.285645)
sub19_b2_lg_1_128.jpg: Predicted in 0.155607 seconds.
baseball bat: 47%
(189.550659, 106.010750) (280.063446, 319.798920)
person: 34%
(688.367554, 261.809082) (732.279907, 321.820648)
person: 72%
(253.279419, 177.502274) (501.495514, 625.579834)
sub19_b2_lg_1_129.jpg: Predicted in 0.156380 seconds.
baseball bat: 51%
(192.440857, 110.880623) (285.198914, 316.457397)
person: 34%
(688.551270, 261.984192) (731.754517, 321.806335)
person: 72%
(254.085663, 176.548431) (500.148804, 628.940369)
sub19_b2_lg_1_130.jpg: Predicted in 0.156394 seconds.
baseball bat: 52%
(193.935822, 112.749802) (284.945953, 316.403503)
person: 34%
(688.206055, 262.592346) (731.704529, 321.735992)
person: 72%
(253.892044, 171.760208) (500.331757, 632.006042)
sub19_b2_lg_1_131.jpg: Predicted in 0.156390 seconds.
baseball bat: 53%
(191.977280, 111.277023) (285.229034, 313.423340)
person: 33%
(688.989990, 263.456543) (731.712646, 321.306885)
person: 72%
(255.818146, 176.995377) (500.060547, 629.306335)
sub19_b2_lg_1_132.jpg: Predicted in 0.163556 seconds.
baseball bat: 51%
(194.740570, 109.764145) (279.244690, 316.326080)
person: 34%
(687.627319, 263.766327) (731.787964, 322.519989)
person: 73%
(256.902283, 174.502518) (499.556610, 629.002991)
sub19_b2_lg_1_133.jpg: Predicted in 0.165061 seconds.
baseball bat: 51%
(192.897949, 112.777290) (277.561646, 316.321350)
person: 34%
(687.424683, 263.591400) (731.849487, 322.365784)
person: 73%
(254.893768, 176.495316) (502.596863, 627.764465)
sub19_b2_lg_1_134.jpg: Predicted in 0.158704 seconds.
baseball bat: 51%
(191.563278, 112.718460) (275.419037, 316.913239)
person: 33%
(687.598022, 263.128357) (731.799072, 322.059601)
person: 73%
(255.129929, 171.485611) (503.803101, 627.558044)
sub19_b2_lg_1_135.jpg: Predicted in 0.164290 seconds.
baseball bat: 47%
(189.653839, 114.586685) (270.595764, 319.508545)
person: 33%
(687.493103, 263.381561) (731.587708, 322.199799)
person: 73%
(250.582321, 162.177948) (507.821991, 628.012024)
sub19_b2_lg_1_136.jpg: Predicted in 0.156439 seconds.
baseball bat: 51%
(186.453705, 117.199577) (271.118164, 320.910645)
person: 33%
(687.820923, 263.262939) (731.614929, 321.897797)
person: 73%
(251.597656, 160.525269) (507.087799, 629.557190)
sub19_b2_lg_1_137.jpg: Predicted in 0.154586 seconds.
baseball bat: 54%
(185.754440, 118.514603) (273.178009, 317.041534)
person: 33%
(688.229675, 263.966553) (730.816956, 321.978790)
person: 73%
(253.869064, 164.457077) (505.715820, 629.070740)
sub19_b2_lg_1_138.jpg: Predicted in 0.156103 seconds.
baseball bat: 57%
(184.469162, 118.713493) (275.609741, 315.308014)
person: 33%
(688.090759, 263.628082) (731.536926, 321.625824)
person: 73%
(255.506058, 165.753265) (505.672150, 629.480286)
sub19_b2_lg_1_139.jpg: Predicted in 0.154275 seconds.
baseball bat: 55%
(183.343018, 119.245743) (275.878540, 315.058746)
person: 32%
(688.416138, 263.580170) (731.893005, 321.214935)
person: 73%
(255.560913, 164.695572) (505.299438, 631.277710)
sub19_b2_lg_1_140.jpg: Predicted in 0.154214 seconds.
baseball bat: 54%
(179.733292, 116.111649) (274.729553, 313.253693)
person: 32%
(688.751343, 264.242493) (731.525574, 321.338440)
person: 73%
(255.045227, 165.544891) (504.711334, 630.760071)
sub19_b2_lg_1_141.jpg: Predicted in 0.155362 seconds.
baseball bat: 52%
(177.057465, 113.132111) (277.369720, 314.881897)
person: 32%
(688.665405, 263.917419) (731.482605, 321.272827)
person: 73%
(254.723083, 167.090103) (505.703644, 631.995483)
sub19_b2_lg_1_142.jpg: Predicted in 0.154091 seconds.
baseball bat: 54%
(175.134674, 114.594833) (280.277802, 313.281158)
person: 32%
(689.119385, 263.788879) (731.692688, 321.100983)
person: 71%
(255.088989, 169.178513) (506.993835, 630.081177)
sub19_b2_lg_1_143.jpg: Predicted in 0.157494 seconds.
baseball bat: 54%
(174.470261, 113.709190) (275.206696, 311.946472)
person: 32%
(688.740234, 263.627441) (731.647827, 320.904633)
person: 71%
(254.255402, 170.566254) (507.799133, 629.523010)
sub19_b2_lg_1_144.jpg: Predicted in 0.157110 seconds.
baseball bat: 54%
(171.766113, 112.942383) (274.988373, 311.070862)
person: 31%
(689.123962, 264.007874) (731.573853, 320.399078)
person: 71%
(241.955566, 180.606201) (567.311035, 617.403381)
sub19_b2_lg_1_145.jpg: Predicted in 0.155850 seconds.
baseball bat: 56%
(171.486176, 116.025215) (274.712524, 312.951355)
person: 32%
(689.242676, 264.258820) (731.678162, 320.933258)
person: 72%
(241.109589, 179.892899) (568.886597, 616.692444)
sub19_b2_lg_1_146.jpg: Predicted in 0.154398 seconds.
baseball bat: 57%
(170.618347, 122.127678) (275.175903, 308.666046)
person: 32%
(688.983643, 263.800446) (731.824036, 319.964447)
person: 72%
(253.527405, 170.478943) (508.099396, 628.633789)
sub19_b2_lg_1_147.jpg: Predicted in 0.155478 seconds.
baseball bat: 53%
(169.484985, 120.838928) (273.142517, 307.284363)
person: 31%
(688.812988, 264.087524) (731.533081, 319.646057)
person: 72%
(241.170975, 179.927139) (570.078125, 618.105896)
sub19_b2_lg_1_148.jpg: Predicted in 0.157533 seconds.
baseball bat: 52%
(170.107147, 116.293648) (270.023163, 309.814362)
person: 32%
(688.813354, 263.642883) (732.122009, 319.564789)
person: 72%
(239.108398, 181.517456) (571.518005, 620.259399)
sub19_b2_lg_1_149.jpg: Predicted in 0.155866 seconds.
baseball bat: 52%
(167.028961, 118.524345) (267.778015, 310.974945)
person: 32%
(688.688965, 263.647705) (732.142029, 319.389496)
person: 71%
(236.913483, 178.659897) (573.946045, 619.632996)
sub19_b2_lg_1_150.jpg: Predicted in 0.155063 seconds.
baseball bat: 52%
(167.034607, 115.307930) (268.934204, 312.697662)
person: 32%
(688.443237, 262.654510) (732.493958, 319.003754)
person: 74%
(234.640564, 180.559616) (576.405029, 618.570068)
sub19_b2_lg_1_151.jpg: Predicted in 0.162770 seconds.
baseball bat: 55%
(165.848419, 114.318970) (269.528015, 310.134277)
person: 32%
(688.100098, 262.988770) (732.420654, 319.247620)
person: 74%
(235.552597, 184.377213) (576.877747, 619.630859)
sub19_b2_lg_1_152.jpg: Predicted in 0.156961 seconds.
baseball bat: 56%
(165.772400, 116.853416) (271.838959, 308.067963)
person: 32%
(687.966492, 263.100616) (732.329224, 319.580475)
person: 75%
(237.125259, 182.818787) (575.331177, 621.091187)
sub19_b2_lg_1_153.jpg: Predicted in 0.154387 seconds.
baseball bat: 56%
(167.747269, 120.997375) (269.991272, 306.162994)
person: 32%
(688.020935, 263.516846) (732.032776, 320.052216)
person: 74%
(235.173721, 180.836029) (577.052307, 622.092224)
sub19_b2_lg_1_154.jpg: Predicted in 0.164494 seconds.
baseball bat: 56%
(168.614258, 122.314873) (268.698944, 307.287567)
person: 32%
(688.112122, 263.679962) (732.390625, 319.835297)
person: 74%
(235.300720, 182.190659) (575.729736, 621.032166)
sub19_b2_lg_1_155.jpg: Predicted in 0.162704 seconds.
baseball bat: 53%
(165.998871, 122.491280) (267.229858, 308.988647)
person: 33%
(687.803772, 264.608398) (731.079895, 321.120422)
person: 74%
(233.795471, 179.489685) (576.352051, 621.228455)
sub19_b2_lg_1_156.jpg: Predicted in 0.155785 seconds.
baseball bat: 55%
(162.617706, 127.017273) (267.698456, 304.965393)
person: 34%
(686.061523, 261.831421) (732.255737, 320.301270)
person: 75%
(236.710663, 176.152390) (576.013794, 618.512390)
sub19_b2_lg_1_157.jpg: Predicted in 0.154651 seconds.
baseball bat: 56%
(161.144531, 132.230865) (268.738220, 303.571167)
person: 34%
(686.130615, 262.253815) (731.914612, 320.198303)
person: 75%
(236.021393, 177.644348) (576.427490, 617.548035)
sub19_b2_lg_1_158.jpg: Predicted in 0.155973 seconds.
baseball bat: 52%
(160.490692, 138.989365) (271.976166, 298.367950)
person: 34%
(686.396912, 262.570129) (732.910156, 319.981384)
person: 74%
(231.371307, 177.127808) (579.654419, 619.937561)
sub19_b2_lg_1_159.jpg: Predicted in 0.155799 seconds.
baseball bat: 55%
(158.141693, 141.555099) (274.469788, 297.472351)
person: 34%
(687.122192, 262.881073) (732.758179, 319.936646)
person: 74%
(241.720383, 170.931763) (518.063477, 626.033875)
sub19_b2_lg_1_160.jpg: Predicted in 0.154984 seconds.
baseball bat: 56%
(160.254044, 138.107407) (278.376160, 299.250488)
person: 34%
(686.996704, 262.898926) (732.553162, 320.012146)
person: 75%
(240.836670, 174.449417) (519.325989, 624.990173)
sub19_b2_lg_1_161.jpg: Predicted in 0.157132 seconds.
baseball bat: 60%
(160.285339, 134.583801) (282.967377, 300.221588)
person: 34%
(687.336243, 263.578552) (732.095642, 320.528046)
person: 74%
(232.443924, 181.376343) (578.151367, 618.393127)
sub19_b2_lg_1_162.jpg: Predicted in 0.156429 seconds.
baseball bat: 58%
(158.555496, 135.761871) (285.054565, 301.266541)
person: 33%
(687.673279, 263.505798) (732.213013, 320.507568)
person: 75%
(234.848724, 180.842834) (575.188965, 619.272949)
sub19_b2_lg_1_163.jpg: Predicted in 0.160609 seconds.
baseball bat: 56%
(156.438477, 135.613724) (282.433716, 304.243378)
person: 33%
(687.639587, 263.153900) (732.198181, 320.547607)
person: 76%
(238.365601, 180.539444) (570.745056, 618.888428)
sub19_b2_lg_1_164.jpg: Predicted in 0.155065 seconds.
baseball bat: 57%
(153.449356, 141.563934) (281.238922, 304.274628)
person: 33%
(687.687683, 262.584259) (732.578003, 320.201416)
person: 75%
(240.679688, 174.027847) (518.681885, 630.041870)
sub19_b2_lg_1_165.jpg: Predicted in 0.153201 seconds.
baseball bat: 57%
(153.042267, 144.374207) (283.079437, 301.047729)
person: 33%
(687.489014, 261.509949) (732.961853, 319.492279)
person: 76%
(229.156967, 172.258301) (527.530334, 631.751770)
sub19_b2_lg_1_166.jpg: Predicted in 0.154772 seconds.
baseball bat: 58%
(154.478577, 148.134598) (283.094788, 300.431946)
person: 34%
(687.162842, 261.503815) (733.012817, 319.515442)
person: 77%
(233.090851, 172.525024) (523.363770, 632.492432)
sub19_b2_lg_1_167.jpg: Predicted in 0.155104 seconds.
baseball bat: 54%
(156.683228, 151.227600) (281.078491, 299.977661)
person: 34%
(686.900635, 261.321930) (733.141907, 319.823212)
person: 77%
(231.432251, 172.793030) (524.875549, 632.166199)
sub19_b2_lg_1_168.jpg: Predicted in 0.155150 seconds.
baseball bat: 51%
(156.431412, 150.767944) (280.492310, 296.661194)
person: 34%
(687.228027, 261.946716) (732.954956, 319.946655)
person: 76%
(229.906250, 174.429672) (525.892822, 630.837158)
sub19_b2_lg_1_169.jpg: Predicted in 0.156761 seconds.
person: 34%
(687.138733, 262.065277) (732.620667, 320.125336)
person: 78%
(217.115585, 170.354935) (535.565063, 632.958496)
sub19_b2_lg_1_170.jpg: Predicted in 0.155716 seconds.
baseball bat: 38%
(153.164017, 151.448563) (282.559814, 294.602356)
person: 34%
(687.534912, 262.654419) (732.449951, 320.627686)
person: 79%
(214.146149, 170.378281) (537.340149, 632.147888)
sub19_b2_lg_1_171.jpg: Predicted in 0.158305 seconds.
baseball bat: 44%
(153.510300, 152.756439) (284.058350, 295.020874)
person: 34%
(687.006409, 262.020844) (732.374695, 320.526855)
person: 79%
(216.093887, 169.196030) (536.322205, 633.504700)
sub19_b2_lg_1_172.jpg: Predicted in 0.155884 seconds.
baseball bat: 35%
(150.661469, 155.872940) (287.524750, 289.038544)
person: 34%
(686.688049, 261.362274) (732.641052, 320.198120)
person: 79%
(209.416931, 170.560837) (542.711548, 631.483276)
sub19_b2_lg_1_173.jpg: Predicted in 0.156833 seconds.
baseball bat: 43%
(150.552902, 157.620102) (287.786285, 286.608490)
person: 34%
(686.775330, 260.946899) (732.623291, 319.681305)
person: 78%
(214.079742, 174.126251) (538.364929, 630.399597)
sub19_b2_lg_1_174.jpg: Predicted in 0.154406 seconds.
baseball bat: 50%
(154.282043, 161.836014) (287.956268, 288.867126)
person: 35%
(686.569702, 260.661865) (733.154419, 319.376770)
person: 78%
(218.477127, 173.295456) (535.120911, 630.605652)
sub19_b2_lg_1_175.jpg: Predicted in 0.154288 seconds.
baseball bat: 41%
(149.626297, 161.214676) (294.629211, 284.626923)
person: 34%
(687.317566, 261.089020) (733.562073, 319.398651)
person: 78%
(215.116028, 175.231628) (536.092773, 628.687012)
sub19_b2_lg_1_176.jpg: Predicted in 0.157453 seconds.
baseball bat: 49%
(153.759995, 163.931503) (294.027618, 285.204559)
person: 33%
(687.672119, 261.738220) (733.264893, 319.510681)
person: 76%
(226.451553, 177.373337) (528.084229, 626.812500)
sub19_b2_lg_1_177.jpg: Predicted in 0.157045 seconds.
baseball bat: 37%
(152.360382, 164.958267) (290.586914, 284.281952)
person: 33%
(687.566528, 261.711151) (733.112366, 319.647644)
person: 77%
(212.941742, 177.137589) (537.900330, 626.556152)
sub19_b2_lg_1_178.jpg: Predicted in 0.156175 seconds.
baseball bat: 50%
(151.835510, 170.259689) (290.456024, 287.254974)
person: 33%
(686.968140, 261.086517) (733.156250, 319.149231)
person: 76%
(221.611160, 181.263565) (532.082336, 626.348572)
sub19_b2_lg_1_179.jpg: Predicted in 0.156726 seconds.
baseball bat: 42%
(153.778824, 168.779388) (288.016479, 285.497253)
person: 34%
(687.126770, 261.119354) (732.916992, 319.847229)
person: 77%
(217.383865, 180.588028) (535.070129, 626.983887)
sub19_b2_lg_1_180.jpg: Predicted in 0.155966 seconds.
baseball bat: 31%
(150.082306, 167.788040) (292.611786, 282.945587)
person: 34%
(687.001770, 261.091309) (732.834534, 319.584656)
person: 78%
(211.395721, 179.668304) (540.344299, 625.395874)
sub19_b2_lg_1_181.jpg: Predicted in 0.154034 seconds.
baseball bat: 41%
(149.623230, 170.729752) (296.627075, 286.721893)
person: 35%
(686.966797, 261.935425) (732.254700, 319.591919)
person: 77%
(222.542282, 182.330750) (534.386292, 623.182983)
sub19_b2_lg_1_182.jpg: Predicted in 0.164539 seconds.
baseball bat: 47%
(147.291946, 169.203400) (300.512970, 286.926910)
person: 35%
(685.953369, 261.511017) (732.003052, 319.185242)
person: 76%
(227.394348, 183.093567) (531.283020, 625.189636)
sub19_b2_lg_1_183.jpg: Predicted in 0.158341 seconds.
baseball bat: 44%
(146.323044, 169.226181) (302.444000, 289.624054)
person: 34%
(686.663086, 261.360138) (732.298096, 319.232025)
person: 76%
(230.733780, 179.566055) (528.643677, 628.048645)
sub19_b2_lg_1_184.jpg: Predicted in 0.156924 seconds.
baseball bat: 35%
(146.012939, 168.926605) (301.005615, 284.618774)
person: 34%
(686.554443, 261.369934) (732.550598, 319.188934)
person: 76%
(218.530365, 179.677200) (535.504822, 627.849976)
sub19_b2_lg_1_185.jpg: Predicted in 0.155603 seconds.
person: 34%
(686.443237, 261.162018) (732.766846, 319.315216)
person: 74%
(219.526199, 182.267212) (535.805359, 625.457947)
sub19_b2_lg_1_186.jpg: Predicted in 0.157803 seconds.
baseball bat: 31%
(148.597260, 171.724548) (299.848145, 283.857117)
person: 35%
(686.066528, 261.582855) (732.724060, 319.903656)
person: 75%
(252.141220, 189.292236) (561.834473, 611.181641)
sub19_b2_lg_1_187.jpg: Predicted in 0.155082 seconds.
baseball bat: 41%
(144.338501, 179.405136) (301.939850, 286.862152)
person: 32%
(686.798096, 259.949860) (733.642578, 318.015533)
person: 76%
(252.032791, 188.436127) (560.473328, 610.436096)
sub19_b2_lg_1_188.jpg: Predicted in 0.156848 seconds.
baseball bat: 49%
(146.866943, 180.704254) (303.913544, 291.349609)
person: 32%
(686.807068, 260.524780) (733.738892, 317.387024)
person: 76%
(257.107086, 188.005096) (555.644592, 612.829651)
sub19_b2_lg_1_189.jpg: Predicted in 0.154474 seconds.
baseball bat: 34%
(168.636292, 189.529037) (273.675201, 271.076019)
baseball bat: 51%
(141.614288, 184.544235) (307.029999, 324.833160)
person: 33%
(687.303345, 260.725372) (733.963135, 317.311890)
person: 78%
(259.202240, 188.315826) (554.014465, 612.640259)
sub19_b2_lg_1_190.jpg: Predicted in 0.155735 seconds.
baseball bat: 51%
(139.464096, 185.982651) (311.088715, 324.597809)
person: 33%
(686.876038, 259.905487) (734.088013, 316.953400)
person: 77%
(252.978699, 190.568329) (559.554260, 611.181396)
sub19_b2_lg_1_191.jpg: Predicted in 0.164571 seconds.
baseball bat: 50%
(139.393982, 188.426926) (309.185913, 323.702057)
person: 32%
(687.038330, 260.289398) (732.769104, 317.480164)
person: 77%
(253.866867, 187.076920) (559.131775, 610.680603)
sub19_b2_lg_1_192.jpg: Predicted in 0.156561 seconds.
baseball bat: 52%
(138.242310, 190.535934) (313.583435, 323.712860)
person: 33%
(686.646606, 260.663635) (732.640076, 317.485901)
person: 78%
(256.771667, 187.945526) (556.862366, 610.019043)
sub19_b2_lg_1_193.jpg: Predicted in 0.155563 seconds.
baseball bat: 54%
(139.908646, 192.255569) (318.285461, 324.079437)
person: 33%
(687.263428, 260.556549) (732.931885, 317.433258)
person: 77%
(257.574768, 190.074234) (557.331909, 609.975464)
sub19_b2_lg_1_194.jpg: Predicted in 0.157340 seconds.
baseball bat: 53%
(136.573456, 194.639145) (318.815918, 322.860291)
person: 33%
(687.387146, 260.163574) (733.101929, 317.257690)
person: 77%
(259.344940, 189.675766) (557.444153, 609.692688)
sub19_b2_lg_1_195.jpg: Predicted in 0.164680 seconds.
baseball bat: 52%
(137.842926, 198.400421) (310.751373, 320.684113)
person: 33%
(687.496765, 260.366364) (733.419373, 317.514160)
person: 77%
(259.376526, 192.223404) (557.660461, 610.947266)
sub19_b2_lg_1_196.jpg: Predicted in 0.155857 seconds.
baseball bat: 48%
(136.674316, 198.531174) (308.435303, 323.085419)
person: 33%
(687.341858, 260.723022) (733.318970, 317.573242)
person: 76%
(256.641083, 193.447693) (559.767578, 609.845093)
sub19_b2_lg_1_197.jpg: Predicted in 0.210266 seconds.
baseball bat: 50%
(135.343231, 197.946075) (311.472931, 323.463287)
person: 33%
(686.820312, 260.761414) (732.671875, 317.803009)
person: 76%
(251.974747, 195.023209) (562.992432, 607.825439)
sub19_b2_lg_1_198.jpg: Predicted in 0.154646 seconds.
baseball bat: 54%
(135.127655, 201.220963) (315.522247, 320.360840)
person: 34%
(686.330994, 261.283569) (732.520630, 318.952332)
person: 78%
(255.477448, 197.847717) (560.972168, 606.007141)
sub19_b2_lg_1_199.jpg: Predicted in 0.155363 seconds.
baseball bat: 54%
(135.327286, 202.643005) (315.259033, 321.551178)
person: 32%
(687.136719, 261.908905) (732.213074, 318.275116)
person: 78%
(254.814117, 196.068542) (561.671997, 605.434265)
sub19_b2_lg_1_200.jpg: Predicted in 0.155453 seconds.
baseball bat: 53%
(136.973816, 204.315247) (313.530487, 320.835968)
person: 32%
(686.092957, 260.596069) (732.219421, 316.896759)
person: 79%
(256.391693, 192.445679) (559.707153, 606.520264)
sub19_b2_lg_1_201.jpg: Predicted in 0.165303 seconds.
baseball bat: 49%
(135.663513, 207.089706) (316.001862, 318.208221)
person: 33%
(685.664368, 260.871216) (732.278748, 317.641266)
person: 79%
(257.757141, 193.525696) (559.925598, 604.869385)
sub19_b2_lg_1_202.jpg: Predicted in 0.154398 seconds.
baseball bat: 51%
(133.616699, 208.664108) (323.167847, 317.746185)
person: 31%
(685.970825, 260.063873) (732.529663, 316.349823)
person: 78%
(258.968811, 188.979752) (559.447693, 607.768250)
sub19_b2_lg_1_203.jpg: Predicted in 0.157358 seconds.
baseball bat: 31%
(168.786179, 233.557541) (283.173157, 298.398712)
baseball bat: 53%
(134.844299, 210.522064) (322.699005, 316.178192)
person: 77%
(258.162323, 189.690857) (560.710571, 608.916504)
sub19_b2_lg_1_204.jpg: Predicted in 0.156915 seconds.
baseball bat: 53%
(135.059875, 210.803848) (317.087708, 316.992950)
person: 75%
(258.549561, 188.429611) (559.757324, 611.775208)
sub19_b2_lg_1_205.jpg: Predicted in 0.156886 seconds.
baseball bat: 56%
(134.284058, 214.517700) (319.243103, 315.787537)
person: 76%
(262.844971, 191.390152) (556.346069, 611.359680)
sub19_b2_lg_1_206.jpg: Predicted in 0.166601 seconds.
baseball bat: 56%
(136.271179, 216.907410) (317.664520, 315.071198)
person: 73%
(263.739075, 192.820786) (556.724548, 610.503357)
sub19_b2_lg_1_207.jpg: Predicted in 0.156978 seconds.
baseball bat: 57%
(137.371689, 217.522110) (323.843475, 313.902527)
person: 72%
(260.317322, 205.019135) (561.203064, 606.919800)
sub19_b2_lg_1_208.jpg: Predicted in 0.163592 seconds.
baseball bat: 54%
(139.462387, 220.062088) (330.216034, 311.914948)
person: 72%
(258.246277, 210.007034) (562.123901, 605.190613)
sub19_b2_lg_1_209.jpg: Predicted in 0.156330 seconds.
baseball bat: 54%
(136.129623, 223.530548) (325.918915, 310.996948)
person: 68%
(260.075500, 211.628464) (561.607605, 603.486633)
sub19_b2_lg_1_210.jpg: Predicted in 0.155795 seconds.
baseball bat: 49%
(134.520355, 223.473282) (319.994965, 311.376495)
person: 67%
(255.276566, 211.004562) (564.995972, 604.740479)
sub19_b2_lg_1_211.jpg: Predicted in 0.156607 seconds.
baseball bat: 30%
(132.221954, 220.359894) (313.393219, 314.074768)
person: 65%
(255.521545, 209.614105) (566.019836, 607.084656)
sub19_b2_lg_1_212.jpg: Predicted in 0.155596 seconds.
person: 66%
(260.308777, 213.821655) (562.347107, 605.755188)
sub19_b2_lg_1_213.jpg: Predicted in 0.156002 seconds.
person: 67%
(262.874359, 213.299652) (561.290833, 606.401855)
sub19_b2_lg_1_214.jpg: Predicted in 0.158061 seconds.
person: 68%
(263.022095, 211.767258) (561.025146, 606.922668)
sub19_b2_lg_1_215.jpg: Predicted in 0.165322 seconds.
baseball bat: 30%
(133.803955, 227.361893) (318.413635, 318.813385)
person: 69%
(265.540833, 206.217194) (560.427979, 608.147705)
sub19_b2_lg_1_216.jpg: Predicted in 0.156839 seconds.
person: 69%
(265.932465, 205.763000) (561.162964, 605.035339)
sub19_b2_lg_1_217.jpg: Predicted in 0.157006 seconds.
person: 71%
(265.501495, 202.854614) (560.149902, 605.523987)
sub19_b2_lg_1_218.jpg: Predicted in 0.161893 seconds.
person: 72%
(265.244354, 205.422180) (559.867432, 603.779907)
sub19_b2_lg_1_219.jpg: Predicted in 0.157794 seconds.
person: 71%
(265.662048, 206.099365) (561.882446, 603.854431)
sub19_b2_lg_1_220.jpg: Predicted in 0.154411 seconds.
person: 67%
(266.989014, 209.403305) (562.888855, 603.747009)
sub19_b2_lg_1_221.jpg: Predicted in 0.157675 seconds.
person: 72%
(265.949341, 205.018936) (561.931519, 604.532043)
sub19_b2_lg_1_222.jpg: Predicted in 0.156264 seconds.
person: 31%
(685.965698, 261.945160) (729.188232, 316.063446)
person: 70%
(263.497070, 204.693436) (565.804443, 606.906860)
sub19_b2_lg_1_223.jpg: Predicted in 0.154826 seconds.
person: 72%
(265.711548, 207.327560) (564.363770, 606.294922)
sub19_b2_lg_1_224.jpg: Predicted in 0.157695 seconds.
person: 30%
(685.309814, 254.433990) (729.423157, 312.793365)
person: 69%
(267.425873, 206.207062) (561.467590, 607.307068)
sub19_b2_lg_1_225.jpg: Predicted in 0.155047 seconds.
person: 71%
(264.751953, 201.815369) (563.134338, 609.270325)
sub19_b2_lg_1_226.jpg: Predicted in 0.155411 seconds.
person: 71%
(261.169983, 200.167587) (565.138855, 611.074585)
sub19_b2_lg_1_227.jpg: Predicted in 0.156212 seconds.
person: 31%
(685.511047, 257.151642) (728.779907, 314.667755)
person: 72%
(263.119873, 200.626343) (561.937866, 611.276489)
sub19_b2_lg_1_228.jpg: Predicted in 0.156287 seconds.
person: 32%
(686.060242, 258.514679) (729.883484, 314.108337)
person: 68%
(266.661499, 203.676956) (559.627319, 611.754333)
sub19_b2_lg_1_229.jpg: Predicted in 0.163601 seconds.
person: 31%
(686.109619, 258.627655) (730.036926, 314.685211)
person: 68%
(264.658691, 204.493195) (559.853027, 612.899231)
sub19_b2_lg_1_230.jpg: Predicted in 0.157370 seconds.
person: 32%
(686.237366, 259.150787) (728.965271, 314.887634)
person: 64%
(272.120087, 203.304886) (556.198975, 614.563049)
sub19_b2_lg_1_231.jpg: Predicted in 0.165219 seconds.
person: 33%
(686.535706, 259.971283) (727.570862, 316.718323)
person: 67%
(265.822876, 195.723221) (559.411804, 615.148865)
sub19_b2_lg_1_232.jpg: Predicted in 0.156366 seconds.
person: 32%
(686.011658, 258.255127) (728.475037, 315.672913)
person: 68%
(270.990723, 197.365402) (553.650024, 612.808411)
sub19_b2_lg_1_233.jpg: Predicted in 0.165650 seconds.
person: 32%
(686.082520, 251.810226) (729.353394, 313.441833)
person: 69%
(266.734985, 196.984482) (554.388245, 608.740784)
sub19_b2_lg_1_234.jpg: Predicted in 0.157571 seconds.
person: 68%
(268.953857, 197.484421) (552.520691, 609.712097)
sub19_b2_lg_1_235.jpg: Predicted in 0.156352 seconds.
person: 64%
(266.542297, 212.312561) (556.428345, 606.366272)
sub19_b2_lg_1_236.jpg: Predicted in 0.156636 seconds.
person: 31%
(688.617981, 257.729523) (728.441040, 316.104553)
person: 62%
(265.556458, 215.939423) (559.389771, 605.231567)
sub19_b2_lg_1_237.jpg: Predicted in 0.156084 seconds.
person: 31%
(688.718079, 259.124542) (729.373962, 316.697113)
person: 67%
(259.720764, 198.792648) (561.279358, 610.694702)
sub19_b2_lg_1_238.jpg: Predicted in 0.154795 seconds.
person: 67%
(259.672180, 201.482101) (558.219666, 609.329956)
sub19_b2_lg_1_239.jpg: Predicted in 0.157280 seconds.
person: 65%
(259.072388, 199.672287) (558.206604, 609.083557)
sub19_b2_lg_1_240.jpg: Predicted in 0.155817 seconds.
person: 67%
(260.777161, 212.813660) (563.271667, 603.687744)
sub19_b2_lg_1_241.jpg: Predicted in 0.155319 seconds.
person: 70%
(265.159149, 198.405579) (555.971802, 607.592957)
sub19_b2_lg_1_242.jpg: Predicted in 0.158003 seconds.
person: 68%
(264.327606, 206.840576) (560.006592, 605.620239)
sub19_b2_lg_1_243.jpg: Predicted in 0.156627 seconds.
person: 65%
(262.007141, 216.859070) (561.355347, 603.343445)
sub19_b2_lg_1_244.jpg: Predicted in 0.155534 seconds.
person: 30%
(683.852173, 257.086365) (733.503784, 312.991455)
person: 69%
(256.145386, 207.473221) (564.219238, 605.419128)
sub19_b2_lg_1_245.jpg: Predicted in 0.156587 seconds.
sports ball: 30%
(661.522461, 262.683868) (694.397034, 288.644012)
person: 71%
(248.984848, 201.571793) (568.926147, 608.196411)
sub19_b2_lg_1_246.jpg: Predicted in 0.155527 seconds.
person: 73%
(256.201385, 194.201843) (562.436829, 609.213379)
sub19_b2_lg_1_247.jpg: Predicted in 0.157294 seconds.
person: 73%
(250.867004, 194.806458) (567.352295, 609.272766)
sub19_b2_lg_1_248.jpg: Predicted in 0.158074 seconds.
sports ball: 33%
(659.151367, 264.993011) (693.716553, 288.738525)
person: 74%
(245.982574, 193.359039) (568.803284, 609.377747)
sub19_b2_lg_1_249.jpg: Predicted in 0.156603 seconds.
sports ball: 30%
(657.677185, 265.780670) (691.205994, 293.130402)
person: 73%
(252.255600, 191.774399) (564.200684, 610.764648)
sub19_b2_lg_1_250.jpg: Predicted in 0.155057 seconds.
person: 73%
(258.135040, 195.297333) (560.002380, 606.177124)
sub19_b2_lg_1_251.jpg: Predicted in 0.155012 seconds.
person: 74%
(255.215546, 192.879181) (561.251526, 603.052673)
sub19_b2_lg_1_252.jpg: Predicted in 0.156627 seconds.
person: 74%
(262.554077, 192.917130) (556.892090, 605.673401)
sub19_b2_lg_1_253.jpg: Predicted in 0.157333 seconds.
person: 73%
(259.901245, 194.116791) (557.080994, 606.744263)
sub19_b2_lg_1_254.jpg: Predicted in 0.156396 seconds.
person: 71%
(263.254211, 197.504669) (556.982971, 607.441162)
sub19_b2_lg_1_255.jpg: Predicted in 0.155161 seconds.
person: 65%
(259.170258, 209.881302) (562.917175, 603.797791)
sub19_b2_lg_1_256.jpg: Predicted in 0.163522 seconds.
person: 62%
(258.352905, 216.770966) (565.127563, 600.625305)
sub19_b2_lg_1_257.jpg: Predicted in 0.158269 seconds.
baseball bat: 36%
(274.390594, 303.651794) (393.969086, 362.363220)
person: 59%
(261.378601, 220.279663) (564.029114, 597.578247)
sub19_b2_lg_1_258.jpg: Predicted in 0.155202 seconds.
sports ball: 32%
(612.431335, 280.462158) (639.377991, 303.239746)
baseball bat: 34%
(281.872040, 303.400360) (390.850586, 363.474518)
person: 63%
(256.052368, 218.674591) (566.175049, 598.085083)
sub19_b2_lg_1_259.jpg: Predicted in 0.157504 seconds.
baseball bat: 44%
(275.497437, 301.433655) (398.412231, 363.450378)
person: 60%
(257.989197, 222.113342) (567.183533, 594.746643)
sub19_b2_lg_1_260.jpg: Predicted in 0.156975 seconds.
baseball bat: 34%
(276.858704, 301.155975) (403.237183, 362.697144)
person: 63%
(249.855713, 233.270889) (571.494751, 591.425049)
sub19_b2_lg_1_261.jpg: Predicted in 0.165476 seconds.
baseball bat: 34%
(285.975281, 301.491791) (404.833984, 359.505371)
person: 63%
(251.317001, 230.064041) (567.557739, 591.998657)
sub19_b2_lg_1_262.jpg: Predicted in 0.155762 seconds.
sports ball: 32%
(606.403870, 283.297028) (636.122070, 304.171936)
baseball bat: 32%
(287.507965, 299.667572) (407.004608, 359.931335)
person: 62%
(245.266708, 231.476196) (573.852966, 592.191345)
sub19_b2_lg_1_263.jpg: Predicted in 0.164522 seconds.
baseball bat: 36%
(287.338837, 299.375366) (405.810516, 361.883911)
person: 63%
(245.205536, 229.919998) (570.825867, 587.793152)
sub19_b2_lg_1_264.jpg: Predicted in 0.156055 seconds.
baseball bat: 37%
(284.137573, 300.457184) (401.236206, 367.698090)
person: 60%
(238.578888, 279.458496) (576.055969, 623.772278)
sub19_b2_lg_1_265.jpg: Predicted in 0.169957 seconds.
baseball bat: 35%
(285.636322, 302.507935) (406.703613, 368.792511)
person: 61%
(239.276047, 233.915955) (576.905518, 585.244507)
sub19_b2_lg_1_266.jpg: Predicted in 0.165490 seconds.
baseball bat: 34%
(281.664795, 286.851166) (450.867950, 396.103333)
person: 62%
(245.391769, 239.129562) (570.011475, 585.874268)
sub19_b2_lg_1_267.jpg: Predicted in 0.156797 seconds.
person: 64%
(244.490585, 234.824036) (567.410583, 590.671753)
sub19_b2_lg_1_268.jpg: Predicted in 0.165263 seconds.
person: 64%
(248.341156, 236.269318) (565.754883, 591.181458)
sub19_b2_lg_1_269.jpg: Predicted in 0.164572 seconds.
person: 69%
(248.996140, 230.134827) (565.249207, 592.951172)
sub19_b2_lg_1_270.jpg: Predicted in 0.157939 seconds.
baseball bat: 31%
(297.836090, 276.742767) (458.764191, 402.873108)
person: 64%
(252.424332, 232.112152) (564.824707, 592.123840)
sub19_b2_lg_1_271.jpg: Predicted in 0.155325 seconds.
person: 65%
(259.469208, 226.946945) (557.582703, 594.027710)
sub19_b2_lg_1_272.jpg: Predicted in 0.156398 seconds.
baseball bat: 43%
(303.800385, 271.373260) (456.136597, 412.289795)
person: 58%
(252.007034, 276.988770) (561.629333, 630.418030)
sub19_b2_lg_1_273.jpg: Predicted in 0.157564 seconds.
person: 54%
(278.214661, 220.458481) (542.216187, 598.273682)
sub19_b2_lg_1_274.jpg: Predicted in 0.156209 seconds.
sports ball: 38%
(558.821411, 301.095032) (582.897705, 322.300690)
person: 56%
(252.023651, 276.672668) (561.929810, 627.887146)
sub19_b2_lg_1_275.jpg: Predicted in 0.158235 seconds.
person: 58%
(257.034973, 274.758575) (560.861938, 631.158691)
sub19_b2_lg_1_276.jpg: Predicted in 0.157011 seconds.
person: 53%
(260.597046, 272.944183) (558.246338, 627.627563)
sub19_b2_lg_1_277.jpg: Predicted in 0.165699 seconds.
baseball bat: 36%
(347.961700, 275.360321) (488.518311, 409.687927)
sports ball: 40%
(556.367798, 303.417358) (581.276489, 324.682861)
person: 49%
(284.666321, 226.836716) (545.835754, 598.313110)
sub19_b2_lg_1_278.jpg: Predicted in 0.156699 seconds.
sports ball: 41%
(559.596558, 305.520264) (582.908508, 326.706970)
person: 52%
(262.251038, 270.787140) (560.357056, 626.628662)
sub19_b2_lg_1_279.jpg: Predicted in 0.164513 seconds.
baseball bat: 30%
(396.429504, 290.588043) (460.992004, 361.964722)
sports ball: 31%
(560.014465, 306.255585) (581.024658, 327.276031)
person: 48%
(330.888275, 239.273499) (501.390930, 569.111511)
sub19_b2_lg_1_280.jpg: Predicted in 0.156861 seconds.
baseball bat: 31%
(398.387482, 289.569061) (464.342316, 361.912750)
baseball bat: 35%
(354.881348, 275.500305) (482.031738, 413.443420)
sports ball: 39%
(557.839172, 307.177185) (580.557983, 327.063019)
person: 50%
(257.923859, 270.688324) (562.904785, 631.110291)
sub19_b2_lg_1_281.jpg: Predicted in 0.156118 seconds.
sports ball: 43%
(556.535461, 306.487091) (581.762024, 327.380127)
person: 49%
(271.916840, 227.906723) (555.552246, 599.723694)
sub19_b2_lg_1_282.jpg: Predicted in 0.156943 seconds.
sports ball: 43%
(558.205688, 306.380493) (582.377625, 326.337067)
person: 49%
(269.792023, 230.503616) (557.978394, 596.961548)
sub19_b2_lg_1_283.jpg: Predicted in 0.156651 seconds.
sports ball: 36%
(558.463257, 307.627838) (580.120178, 325.780945)
person: 45%
(255.744537, 272.124268) (568.910645, 632.065247)
sub19_b2_lg_1_284.jpg: Predicted in 0.157263 seconds.
sports ball: 41%
(558.387329, 309.835480) (584.926941, 328.236542)
person: 40%
(345.682861, 260.853210) (505.873840, 551.254456)
person: 34%
(253.251221, 272.736572) (573.187561, 628.647705)
sub19_b2_lg_1_285.jpg: Predicted in 0.155930 seconds.
sports ball: 31%
(556.694153, 312.004089) (579.932800, 327.779388)
person: 42%
(313.349915, 335.493500) (524.021057, 593.084412)
sub19_b2_lg_1_286.jpg: Predicted in 0.158667 seconds.
sports ball: 34%
(554.970154, 312.885254) (580.080261, 327.622620)
person: 55%
(256.448517, 216.250153) (569.346008, 601.693420)
sub19_b2_lg_1_287.jpg: Predicted in 0.157870 seconds.
sports ball: 39%
(538.008301, 311.149658) (560.885620, 327.683289)
person: 46%
(245.256134, 220.831161) (579.135498, 600.548035)
sub19_b2_lg_1_288.jpg: Predicted in 0.160098 seconds.
person: 57%
(245.669846, 217.454926) (578.692932, 603.860840)
sub19_b2_lg_1_289.jpg: Predicted in 0.156977 seconds.
person: 58%
(249.735641, 214.610840) (577.807678, 604.543701)
sub19_b2_lg_1_290.jpg: Predicted in 0.163967 seconds.
person: 63%
(249.921844, 212.075226) (574.274841, 602.644653)
sub19_b2_lg_1_291.jpg: Predicted in 0.156019 seconds.
person: 67%
(253.770142, 216.004181) (569.528809, 604.233521)
sub19_b2_lg_1_292.jpg: Predicted in 0.156731 seconds.
person: 65%
(259.877655, 214.703400) (561.628845, 604.798889)
sub19_b2_lg_1_293.jpg: Predicted in 0.154974 seconds.
person: 65%
(257.260681, 213.126526) (563.320374, 606.208862)
sub19_b2_lg_1_294.jpg: Predicted in 0.158851 seconds.
person: 57%
(263.319061, 218.901520) (561.545288, 603.884155)
sub19_b2_lg_1_295.jpg: Predicted in 0.162881 seconds.
person: 30%
(686.652527, 259.012177) (732.512817, 315.046600)
person: 61%
(263.562012, 224.305847) (558.458862, 602.408508)
sub19_b2_lg_1_296.jpg: Predicted in 0.156190 seconds.
person: 31%
(686.545776, 258.954437) (731.997498, 315.388672)
person: 58%
(261.870209, 222.784332) (561.382874, 602.685364)
sub19_b2_lg_1_297.jpg: Predicted in 0.158190 seconds.
person: 31%
(686.612915, 258.775391) (732.591980, 314.971466)
person: 63%
(259.455200, 219.377457) (557.841614, 602.653931)
sub19_b2_lg_1_298.jpg: Predicted in 0.155287 seconds.
person: 31%
(686.125427, 258.395477) (733.288025, 315.529968)
person: 56%
(256.051971, 218.634109) (563.801331, 601.633362)
sub19_b2_lg_1_299.jpg: Predicted in 0.154658 seconds.
person: 32%
(686.160339, 258.487549) (732.511841, 314.919922)
person: 57%
(259.783569, 225.447876) (560.756531, 599.463501)
sub19_b2_lg_1_300.jpg: Predicted in 0.156599 seconds.
person: 31%
(686.651611, 258.314850) (732.217285, 313.412903)
person: 60%
(260.900574, 222.154175) (557.340149, 599.670288)
sub19_b2_lg_1_301.jpg: Predicted in 0.157985 seconds.
person: 31%
(687.190125, 257.631134) (733.050659, 313.093170)
person: 55%
(262.927856, 218.376419) (555.351685, 601.159241)
sub19_b2_lg_1_302.jpg: Predicted in 0.157169 seconds.
person: 31%
(687.238159, 257.060547) (733.677368, 313.024719)
person: 57%
(265.098572, 213.245041) (550.883423, 602.058167)
baseball bat: 37%
(464.987213, 318.276306) (631.961121, 482.605957)
sub19_b2_lg_1_303.jpg: Predicted in 0.188783 seconds.
person: 31%
(687.078796, 257.492340) (733.306946, 313.261780)
person: 66%
(265.683563, 202.915497) (546.381897, 606.170410)
baseball bat: 31%
(502.767548, 351.521545) (557.553589, 430.292114)
baseball bat: 35%
(474.047394, 324.410065) (630.315552, 481.969818)
sub19_b2_lg_1_304.jpg: Predicted in 0.157430 seconds.
person: 32%
(686.323914, 258.064026) (732.990540, 312.888000)
person: 61%
(265.179688, 208.020050) (551.997070, 605.827087)
baseball bat: 32%
(499.058716, 351.711914) (561.084717, 428.223236)
baseball bat: 44%
(476.324677, 324.874847) (633.199341, 483.382996)
sub19_b2_lg_1_305.jpg: Predicted in 0.156661 seconds.
person: 32%
(686.633606, 258.279907) (732.355652, 312.675751)
person: 63%
(266.372681, 202.342819) (550.882568, 609.852356)
baseball bat: 37%
(500.885254, 350.800415) (563.056702, 430.087250)
baseball bat: 43%
(479.255310, 328.693970) (631.788757, 480.109711)
sub19_b2_lg_1_306.jpg: Predicted in 0.155114 seconds.
person: 33%
(686.295044, 258.499634) (732.242065, 314.023438)
person: 66%
(265.567719, 204.452545) (553.866089, 605.617493)
baseball bat: 30%
(471.692352, 315.659760) (625.780945, 487.483734)
sub19_b2_lg_1_307.jpg: Predicted in 0.155123 seconds.
person: 34%
(685.763245, 258.569031) (732.294922, 314.592743)
person: 68%
(262.387177, 206.923126) (554.469299, 604.220825)
sub19_b2_lg_1_308.jpg: Predicted in 0.158196 seconds.
person: 33%
(685.932190, 259.070129) (731.687012, 314.518921)
person: 70%
(262.723450, 205.274994) (552.615479, 601.892822)
sub19_b2_lg_1_309.jpg: Predicted in 0.156704 seconds.
person: 33%
(686.239380, 259.852417) (730.861145, 314.357758)
person: 73%
(263.195953, 204.241547) (550.561584, 602.961060)
sub19_b2_lg_1_310.jpg: Predicted in 0.155847 seconds.
person: 73%
(257.799377, 200.378830) (556.049805, 601.645935)
sub19_b2_lg_1_311.jpg: Predicted in 0.165964 seconds.
sports ball: 32%
(551.561462, 315.119812) (577.439575, 334.955292)
person: 76%
(257.059113, 207.675217) (552.224548, 596.849792)
baseball bat: 33%
(477.669250, 319.501526) (640.749390, 481.138489)
sub19_b2_lg_1_312.jpg: Predicted in 0.158257 seconds.
person: 77%
(260.738312, 207.366272) (550.871826, 596.663452)
baseball bat: 35%
(470.083344, 320.487976) (641.216125, 481.648834)
sub19_b2_lg_1_313.jpg: Predicted in 0.155677 seconds.
person: 77%
(257.371948, 215.660522) (554.811829, 594.242126)
baseball bat: 33%
(472.357574, 316.737213) (641.603760, 484.460602)
sub19_b2_lg_1_314.jpg: Predicted in 0.157653 seconds.
sports ball: 34%
(550.742188, 311.155273) (582.320312, 335.364868)
person: 75%
(260.623322, 220.929688) (556.153809, 591.664856)
baseball bat: 44%
(462.941742, 317.732697) (647.099915, 480.543640)
sub19_b2_lg_1_315.jpg: Predicted in 0.156657 seconds.
person: 74%
(260.624481, 227.591232) (558.129944, 591.134277)
baseball bat: 44%
(459.810883, 319.380066) (643.333740, 480.642273)
sub19_b2_lg_1_316.jpg: Predicted in 0.156966 seconds.
sports ball: 33%
(557.432556, 308.854645) (584.377014, 331.495728)
person: 75%
(261.744415, 228.226898) (557.878296, 591.478271)
baseball bat: 40%
(459.101562, 317.309296) (645.833923, 481.159607)
sub19_b2_lg_1_317.jpg: Predicted in 0.160733 seconds.
sports ball: 32%
(556.043884, 308.300781) (584.551514, 329.744720)
person: 76%
(258.588348, 218.287399) (558.675171, 592.461365)
baseball bat: 46%
(461.122650, 321.751373) (647.677185, 477.376953)
sub19_b2_lg_1_318.jpg: Predicted in 0.155617 seconds.
sports ball: 32%
(553.999695, 302.956024) (584.090698, 327.531433)
person: 74%
(261.127045, 218.109039) (558.778442, 591.618469)
baseball bat: 45%
(460.773224, 325.802521) (645.747986, 474.833282)
sub19_b2_lg_1_319.jpg: Predicted in 0.156111 seconds.
sports ball: 38%
(552.061340, 290.388763) (593.923157, 311.119995)
person: 73%
(263.043152, 210.662491) (557.042236, 591.786377)
baseball bat: 48%
(460.835022, 324.041077) (643.804565, 481.170471)
sub19_b2_lg_1_320.jpg: Predicted in 0.156693 seconds.
person: 75%
(261.410675, 211.428650) (562.849487, 593.406555)
baseball bat: 59%
(452.298218, 317.208130) (645.702576, 479.897217)
sub19_b2_lg_1_321.jpg: Predicted in 0.155511 seconds.
person: 76%
(261.034302, 214.433823) (564.686890, 594.098145)
baseball bat: 56%
(445.193237, 316.018036) (644.655334, 478.753082)
