sub11_h1_sg_1_001.jpg: Predicted in 0.156574 seconds.
baseball bat: 42%
(452.942017, 228.433548) (491.665833, 330.222717)
baseball bat: 33%
(437.122589, 266.220459) (577.189941, 419.845581)
person: 83%
(406.262604, 276.212677) (619.692078, 783.636902)
sub11_h1_sg_1_002.jpg: Predicted in 0.165232 seconds.
baseball bat: 48%
(450.978516, 224.226639) (492.596680, 333.231720)
person: 83%
(407.818695, 278.684143) (616.930725, 784.271912)
sub11_h1_sg_1_003.jpg: Predicted in 0.156181 seconds.
baseball bat: 49%
(452.805389, 222.688751) (494.007111, 338.007507)
baseball bat: 35%
(438.089569, 261.574707) (576.471680, 417.533356)
person: 83%
(407.433380, 277.622528) (618.280212, 783.105896)
sub11_h1_sg_1_004.jpg: Predicted in 0.189123 seconds.
baseball bat: 52%
(453.702576, 223.646545) (495.021118, 335.207703)
baseball bat: 33%
(438.943573, 258.785767) (573.091553, 418.474915)
person: 83%
(408.574585, 275.348114) (616.266663, 783.028076)
sub11_h1_sg_1_005.jpg: Predicted in 0.157348 seconds.
baseball bat: 47%
(455.772858, 226.649063) (497.485352, 333.945984)
baseball bat: 37%
(436.731781, 260.904907) (575.767578, 418.552246)
person: 84%
(411.034546, 275.332092) (613.359741, 784.728699)
sub11_h1_sg_1_006.jpg: Predicted in 0.156961 seconds.
baseball bat: 49%
(455.476013, 226.167435) (497.241058, 332.974060)
baseball bat: 41%
(436.333130, 262.181366) (577.137878, 417.181091)
person: 84%
(410.434601, 277.469147) (612.401733, 785.072510)
sub11_h1_sg_1_007.jpg: Predicted in 0.156816 seconds.
baseball bat: 46%
(454.800079, 226.750504) (497.898438, 332.759186)
baseball bat: 44%
(436.477264, 260.771973) (574.436584, 419.010620)
person: 84%
(411.639587, 277.885925) (614.467834, 783.277405)
sub11_h1_sg_1_008.jpg: Predicted in 0.157017 seconds.
baseball bat: 49%
(453.143738, 227.758362) (495.531494, 330.922852)
baseball bat: 40%
(435.579041, 261.682678) (575.304749, 419.212189)
person: 84%
(410.033020, 277.176971) (611.221375, 785.663696)
sub11_h1_sg_1_009.jpg: Predicted in 0.157101 seconds.
baseball bat: 49%
(452.998505, 229.118896) (495.282959, 330.489197)
baseball bat: 42%
(436.831390, 263.220398) (572.762268, 417.068390)
person: 83%
(410.970581, 278.132355) (612.840149, 784.231812)
sub11_h1_sg_1_010.jpg: Predicted in 0.155938 seconds.
baseball bat: 38%
(456.289795, 232.994705) (493.997070, 328.790344)
baseball bat: 46%
(437.383759, 266.230835) (573.772400, 419.118286)
person: 83%
(412.108398, 281.413757) (614.835632, 780.141907)
sub11_h1_sg_1_011.jpg: Predicted in 0.156345 seconds.
baseball bat: 35%
(457.588654, 234.898941) (492.812256, 327.968475)
baseball bat: 50%
(437.402985, 266.327271) (575.392639, 422.370453)
person: 83%
(410.572266, 278.817596) (614.562744, 781.947449)
sub11_h1_sg_1_012.jpg: Predicted in 0.157134 seconds.
baseball bat: 42%
(456.842499, 232.169891) (495.911316, 332.337585)
baseball bat: 46%
(435.360443, 266.033325) (576.247375, 422.120087)
person: 83%
(411.367035, 280.398407) (613.935486, 781.563416)
sub11_h1_sg_1_013.jpg: Predicted in 0.155554 seconds.
baseball bat: 41%
(456.289368, 232.608276) (495.233154, 333.230927)
baseball bat: 46%
(437.457886, 264.396790) (571.528320, 418.480042)
person: 82%
(409.935852, 278.404938) (614.482910, 784.706848)
sub11_h1_sg_1_014.jpg: Predicted in 0.156767 seconds.
baseball bat: 44%
(454.583679, 233.494385) (495.167542, 333.042328)
baseball bat: 40%
(437.210968, 263.970276) (571.967896, 415.235413)
person: 83%
(409.476532, 276.865875) (613.423157, 784.420349)
sub11_h1_sg_1_015.jpg: Predicted in 0.155628 seconds.
baseball bat: 46%
(456.192535, 234.697784) (494.589630, 332.097992)
baseball bat: 38%
(437.070862, 265.165741) (572.554932, 414.940247)
person: 83%
(407.662598, 278.558411) (614.140930, 784.202820)
sub11_h1_sg_1_016.jpg: Predicted in 0.157607 seconds.
baseball bat: 46%
(454.915527, 235.977417) (493.921814, 331.673584)
baseball bat: 37%
(436.892548, 265.713501) (573.397888, 414.138702)
person: 83%
(408.841187, 276.607269) (614.111633, 784.914062)
sub11_h1_sg_1_017.jpg: Predicted in 0.157628 seconds.
baseball bat: 49%
(455.647583, 233.984482) (494.970093, 335.120087)
baseball bat: 35%
(439.426331, 264.450897) (571.922729, 413.611115)
person: 83%
(408.283417, 275.340332) (615.002747, 785.151794)
sub11_h1_sg_1_018.jpg: Predicted in 0.156999 seconds.
baseball bat: 53%
(452.304840, 233.409927) (495.064240, 336.719086)
baseball bat: 36%
(439.297791, 264.157166) (568.596436, 411.335358)
person: 83%
(408.804688, 279.395996) (613.082764, 782.135925)
sub11_h1_sg_1_019.jpg: Predicted in 0.154508 seconds.
baseball bat: 46%
(454.813843, 238.763229) (492.915344, 334.281708)
baseball bat: 34%
(439.315552, 267.478455) (572.229858, 413.188324)
person: 83%
(410.491089, 276.000854) (614.836121, 781.863037)
sub11_h1_sg_1_020.jpg: Predicted in 0.156632 seconds.
baseball bat: 39%
(454.062958, 237.720810) (492.034210, 332.635376)
baseball bat: 39%
(436.871216, 266.949036) (575.641541, 415.705994)
person: 83%
(407.671631, 278.389191) (621.837952, 776.731384)
sub11_h1_sg_1_021.jpg: Predicted in 0.157954 seconds.
baseball bat: 39%
(454.151215, 235.033737) (492.715851, 334.428558)
baseball bat: 37%
(437.751953, 266.227631) (578.327515, 415.681946)
person: 82%
(407.815125, 277.979126) (621.311768, 777.795105)
sub11_h1_sg_1_022.jpg: Predicted in 0.157154 seconds.
baseball bat: 43%
(453.082458, 235.952896) (492.752441, 335.573242)
baseball bat: 39%
(436.909698, 264.991699) (576.321899, 418.673981)
person: 83%
(409.450287, 279.351318) (621.332275, 777.429199)
sub11_h1_sg_1_023.jpg: Predicted in 0.157627 seconds.
baseball bat: 42%
(455.772552, 235.652420) (492.865753, 334.391205)
baseball bat: 36%
(438.712250, 263.585785) (572.752930, 418.226990)
person: 83%
(408.743927, 280.104736) (616.216431, 781.197266)
sub11_h1_sg_1_024.jpg: Predicted in 0.154924 seconds.
baseball bat: 44%
(455.199219, 238.514542) (492.531189, 333.908875)
baseball bat: 34%
(448.786804, 246.423996) (490.760925, 421.424866)
baseball bat: 33%
(439.757507, 265.155243) (573.474365, 416.701782)
person: 83%
(408.937042, 279.817810) (616.195374, 781.215576)
sub11_h1_sg_1_025.jpg: Predicted in 0.155705 seconds.
baseball bat: 46%
(456.037598, 237.613312) (494.028320, 336.649689)
baseball bat: 33%
(441.658508, 264.161957) (569.387146, 416.135315)
person: 83%
(410.606659, 280.959137) (616.462524, 783.432861)
sub11_h1_sg_1_026.jpg: Predicted in 0.155575 seconds.
baseball bat: 45%
(457.063599, 236.852600) (495.372925, 336.687073)
baseball bat: 33%
(447.693054, 242.065674) (491.364471, 423.378326)
baseball bat: 39%
(440.294495, 262.215851) (570.587952, 416.650391)
person: 83%
(410.695160, 280.467377) (616.203552, 782.243469)
sub11_h1_sg_1_027.jpg: Predicted in 0.156378 seconds.
baseball bat: 47%
(455.185211, 237.201523) (494.363495, 337.123993)
baseball bat: 37%
(441.382996, 263.841370) (568.386597, 415.469818)
person: 83%
(410.131104, 280.079315) (614.974243, 782.187439)
sub11_h1_sg_1_028.jpg: Predicted in 0.157855 seconds.
baseball bat: 42%
(455.540680, 238.497589) (494.349823, 336.580048)
baseball bat: 43%
(440.122375, 264.741302) (567.490479, 420.012299)
person: 83%
(414.069672, 276.629272) (613.604614, 783.585327)
sub11_h1_sg_1_029.jpg: Predicted in 0.157878 seconds.
baseball bat: 42%
(455.650085, 240.451096) (494.654388, 333.440063)
baseball bat: 47%
(440.242859, 266.536957) (568.723755, 417.071350)
person: 83%
(413.100891, 280.592194) (617.698914, 783.365906)
sub11_h1_sg_1_030.jpg: Predicted in 0.157224 seconds.
baseball bat: 41%
(456.079163, 238.807434) (495.821625, 333.352051)
baseball bat: 47%
(437.600128, 269.253754) (573.242859, 418.774170)
person: 82%
(409.877167, 281.158112) (620.733582, 781.094482)
sub11_h1_sg_1_031.jpg: Predicted in 0.165410 seconds.
baseball bat: 37%
(457.864136, 240.899109) (495.922333, 331.464081)
baseball bat: 46%
(438.575195, 270.987885) (573.435303, 420.403290)
person: 82%
(408.138977, 282.375458) (620.355713, 782.038635)
sub11_h1_sg_1_032.jpg: Predicted in 0.164171 seconds.
baseball bat: 37%
(457.928528, 241.098663) (496.082916, 331.968781)
baseball bat: 40%
(438.615417, 268.152069) (573.969727, 419.699005)
person: 82%
(408.825562, 278.900757) (621.841003, 784.323914)
sub11_h1_sg_1_033.jpg: Predicted in 0.155586 seconds.
baseball bat: 38%
(456.611328, 243.088074) (496.229614, 332.686157)
baseball bat: 37%
(439.207001, 268.082275) (573.593445, 418.141815)
person: 81%
(406.366577, 275.844971) (619.895508, 783.229248)
sub11_h1_sg_1_034.jpg: Predicted in 0.157410 seconds.
baseball bat: 43%
(455.147949, 240.450485) (497.054810, 334.303467)
baseball bat: 33%
(438.717529, 266.341797) (574.560669, 413.577728)
person: 81%
(407.941010, 274.901703) (621.073669, 784.474182)
sub11_h1_sg_1_035.jpg: Predicted in 0.154974 seconds.
baseball bat: 42%
(456.037506, 242.480087) (496.301605, 334.317871)
baseball bat: 35%
(437.962708, 268.328094) (574.188477, 412.078674)
person: 82%
(407.099579, 275.045410) (617.270386, 784.945007)
sub11_h1_sg_1_036.jpg: Predicted in 0.200659 seconds.
baseball bat: 41%
(456.313934, 243.889542) (496.992249, 333.320129)
baseball bat: 37%
(436.946503, 267.958191) (573.890076, 410.697998)
person: 83%
(410.850891, 276.148651) (615.527588, 783.230286)
sub11_h1_sg_1_037.jpg: Predicted in 0.156441 seconds.
baseball bat: 39%
(456.745392, 244.933060) (496.342926, 334.080963)
baseball bat: 41%
(435.722748, 269.957092) (573.241943, 410.698059)
person: 83%
(411.499115, 278.196381) (616.050842, 783.731873)
sub11_h1_sg_1_038.jpg: Predicted in 0.156238 seconds.
baseball bat: 41%
(455.306244, 243.083481) (497.231293, 336.406738)
baseball bat: 45%
(435.915680, 270.417633) (572.790894, 412.586060)
person: 83%
(410.738190, 277.059326) (615.119873, 781.663635)
sub11_h1_sg_1_039.jpg: Predicted in 0.156938 seconds.
baseball bat: 41%
(454.574371, 243.503418) (497.904205, 336.863770)
baseball bat: 47%
(436.913544, 271.199524) (570.884155, 415.423706)
person: 82%
(413.311615, 278.307068) (615.670105, 785.134094)
sub11_h1_sg_1_040.jpg: Predicted in 0.157875 seconds.
baseball bat: 32%
(452.624481, 244.192291) (498.114044, 414.496765)
baseball bat: 52%
(435.958649, 270.960114) (571.238953, 418.664093)
person: 82%
(413.425629, 284.035095) (618.399414, 779.806091)
sub11_h1_sg_1_041.jpg: Predicted in 0.158421 seconds.
baseball bat: 34%
(457.728577, 243.599640) (498.713623, 337.038300)
baseball bat: 52%
(436.556549, 269.831909) (572.229919, 419.152191)
person: 82%
(412.278320, 283.998749) (621.610718, 779.603333)
sub11_h1_sg_1_042.jpg: Predicted in 0.157328 seconds.
baseball bat: 35%
(457.342896, 243.779800) (499.002869, 340.357727)
baseball bat: 50%
(436.158722, 270.317810) (572.036987, 416.742340)
person: 83%
(412.438232, 282.066986) (615.861694, 782.297363)
sub11_h1_sg_1_043.jpg: Predicted in 0.156050 seconds.
baseball bat: 36%
(455.109985, 243.252655) (498.003326, 340.037872)
baseball bat: 50%
(439.361328, 270.057465) (569.299500, 416.486389)
person: 82%
(412.812744, 278.789917) (615.500305, 784.041687)
sub11_h1_sg_1_044.jpg: Predicted in 0.158147 seconds.
baseball bat: 37%
(453.266205, 236.277206) (499.663696, 420.738129)
baseball bat: 51%
(438.192749, 270.139709) (568.599365, 417.001678)
person: 82%
(415.328064, 275.542694) (612.837769, 784.585876)
sub11_h1_sg_1_045.jpg: Predicted in 0.155265 seconds.
baseball bat: 38%
(451.540375, 237.813339) (499.126129, 417.491180)
baseball bat: 54%
(437.201843, 272.172455) (570.488892, 416.664948)
person: 82%
(415.876617, 277.197540) (614.718018, 784.360718)
sub11_h1_sg_1_046.jpg: Predicted in 0.157584 seconds.
baseball bat: 45%
(451.899811, 233.108047) (499.536133, 422.488495)
baseball bat: 50%
(437.944214, 272.239105) (570.864685, 413.349396)
person: 83%
(414.613190, 278.115906) (614.880859, 785.481018)
sub11_h1_sg_1_047.jpg: Predicted in 0.155190 seconds.
baseball bat: 43%
(451.983002, 235.049088) (501.216827, 419.065674)
baseball bat: 54%
(437.581421, 272.358093) (569.100098, 413.416931)
person: 82%
(416.617157, 281.070129) (613.333130, 784.099976)
sub11_h1_sg_1_048.jpg: Predicted in 0.158427 seconds.
baseball bat: 42%
(452.108002, 235.450363) (501.118530, 418.134796)
baseball bat: 56%
(437.878418, 272.649994) (568.962219, 410.824310)
person: 82%
(417.027496, 281.737000) (612.435181, 784.500061)
sub11_h1_sg_1_049.jpg: Predicted in 0.156112 seconds.
baseball bat: 38%
(452.826050, 234.890335) (501.804443, 418.752747)
baseball bat: 55%
(435.380646, 272.519592) (572.045898, 413.400208)
person: 82%
(418.014496, 281.168427) (615.970581, 784.922729)
sub11_h1_sg_1_050.jpg: Predicted in 0.154837 seconds.
baseball bat: 36%
(450.567566, 239.552475) (498.639587, 414.654175)
baseball bat: 53%
(436.933380, 271.595673) (570.882141, 415.953491)
person: 82%
(420.199829, 283.651245) (615.514893, 783.558838)
sub11_h1_sg_1_051.jpg: Predicted in 0.164675 seconds.
baseball bat: 35%
(451.429077, 239.114899) (500.932678, 414.727509)
baseball bat: 58%
(436.215515, 271.408447) (575.273132, 417.893341)
person: 82%
(418.152344, 285.532898) (617.525818, 782.893066)
sub11_h1_sg_1_052.jpg: Predicted in 0.157741 seconds.
baseball bat: 39%
(451.612640, 239.543823) (500.249298, 416.501190)
baseball bat: 55%
(436.258057, 273.798920) (574.749023, 416.087708)
person: 83%
(418.436035, 285.230896) (613.848450, 784.755737)
sub11_h1_sg_1_053.jpg: Predicted in 0.156693 seconds.
baseball bat: 34%
(452.782715, 240.843231) (500.672119, 413.521790)
baseball bat: 59%
(433.923615, 274.129395) (577.856384, 416.049896)
person: 82%
(417.394562, 286.883484) (612.434631, 783.185364)
sub11_h1_sg_1_054.jpg: Predicted in 0.156148 seconds.
baseball bat: 39%
(451.322174, 240.206665) (500.322815, 415.046509)
baseball bat: 57%
(434.382965, 275.153961) (576.290527, 414.718597)
person: 82%
(417.733185, 284.876953) (615.305298, 782.888184)
sub11_h1_sg_1_055.jpg: Predicted in 0.156220 seconds.
baseball bat: 39%
(451.177094, 243.073837) (500.328735, 413.308472)
baseball bat: 57%
(435.035065, 275.165771) (574.012695, 415.865967)
person: 83%
(418.406097, 283.399323) (616.191284, 787.447693)
sub11_h1_sg_1_056.jpg: Predicted in 0.165377 seconds.
baseball bat: 36%
(453.267731, 241.708710) (500.214325, 411.982544)
baseball bat: 58%
(434.591492, 274.554382) (574.381409, 412.765808)
person: 83%
(418.158539, 287.087860) (612.207581, 785.017700)
sub11_h1_sg_1_057.jpg: Predicted in 0.156968 seconds.
baseball bat: 42%
(451.565613, 244.862213) (499.799896, 409.487976)
baseball bat: 58%
(435.579773, 276.221375) (573.493896, 412.932251)
person: 83%
(417.819214, 287.231171) (613.646240, 783.662415)
sub11_h1_sg_1_058.jpg: Predicted in 0.156759 seconds.
baseball bat: 38%
(453.421234, 245.631271) (501.255188, 409.337372)
baseball bat: 58%
(436.686127, 274.520416) (570.856323, 417.155731)
person: 83%
(419.781281, 286.962158) (613.828735, 784.431152)
sub11_h1_sg_1_059.jpg: Predicted in 0.156494 seconds.
baseball bat: 40%
(453.107025, 242.749786) (501.595795, 414.274536)
baseball bat: 58%
(436.232239, 274.961884) (573.449463, 416.905762)
person: 82%
(419.922852, 288.945648) (615.500671, 782.015076)
sub11_h1_sg_1_060.jpg: Predicted in 0.158022 seconds.
baseball bat: 38%
(452.043304, 246.047272) (499.630127, 410.907867)
baseball bat: 52%
(434.758484, 274.575745) (578.138489, 414.583710)
person: 83%
(417.842010, 293.251190) (615.967285, 779.467346)
sub11_h1_sg_1_061.jpg: Predicted in 0.165931 seconds.
baseball bat: 41%
(452.918365, 245.714340) (499.607513, 411.417664)
baseball bat: 52%
(434.534515, 275.989960) (577.938110, 416.417969)
person: 82%
(416.101105, 292.815857) (618.549316, 779.332214)
sub11_h1_sg_1_062.jpg: Predicted in 0.160280 seconds.
baseball bat: 43%
(453.547943, 245.544098) (500.978821, 409.710236)
baseball bat: 51%
(436.029907, 276.801117) (574.913513, 415.905823)
person: 83%
(418.666443, 289.660278) (616.262207, 782.189575)
sub11_h1_sg_1_063.jpg: Predicted in 0.165459 seconds.
baseball bat: 46%
(453.281342, 242.707718) (499.247955, 408.169250)
baseball bat: 43%
(433.971405, 277.738983) (575.709290, 413.184265)
person: 82%
(415.982452, 285.530243) (620.375122, 780.352905)
sub11_h1_sg_1_064.jpg: Predicted in 0.154668 seconds.
baseball bat: 45%
(453.865143, 245.986343) (498.672699, 404.986847)
baseball bat: 41%
(432.875702, 278.182434) (576.981201, 412.309753)
person: 81%
(413.606995, 288.502014) (623.444519, 780.413147)
sub11_h1_sg_1_065.jpg: Predicted in 0.155722 seconds.
baseball bat: 50%
(452.767944, 246.035461) (500.532288, 405.576050)
baseball bat: 47%
(433.609344, 278.227020) (575.263611, 412.496552)
person: 82%
(414.537201, 284.042419) (620.144958, 782.682556)
sub11_h1_sg_1_066.jpg: Predicted in 0.156602 seconds.
baseball bat: 51%
(453.664917, 246.945633) (502.934723, 405.514130)
baseball bat: 55%
(434.771790, 279.661682) (572.994995, 411.301788)
person: 81%
(417.980774, 285.563934) (616.996277, 782.352783)
sub11_h1_sg_1_067.jpg: Predicted in 0.156133 seconds.
baseball bat: 52%
(453.295654, 252.261292) (500.628448, 402.415436)
baseball bat: 53%
(435.164124, 280.268219) (573.622375, 411.524170)
person: 81%
(416.192383, 287.048462) (619.528381, 783.287903)
sub11_h1_sg_1_068.jpg: Predicted in 0.155540 seconds.
baseball bat: 51%
(453.312195, 255.488449) (502.175537, 401.133209)
baseball bat: 56%
(434.355743, 280.834595) (573.531067, 414.054260)
person: 83%
(415.293732, 289.434143) (615.805115, 782.598328)
sub11_h1_sg_1_069.jpg: Predicted in 0.156728 seconds.
baseball bat: 46%
(452.986603, 256.045807) (502.940826, 401.575012)
baseball bat: 60%
(434.029907, 280.703430) (574.049438, 416.430634)
person: 82%
(418.546173, 289.508972) (617.268433, 781.085693)
sub11_h1_sg_1_070.jpg: Predicted in 0.156918 seconds.
baseball bat: 43%
(452.980225, 252.895157) (502.688019, 404.358673)
baseball bat: 62%
(435.512817, 280.196136) (574.730103, 417.912872)
person: 82%
(416.726013, 291.155945) (618.755249, 780.617859)
sub11_h1_sg_1_071.jpg: Predicted in 0.155127 seconds.
baseball bat: 44%
(453.618958, 255.947174) (503.520325, 401.480713)
baseball bat: 64%
(435.250549, 279.690338) (575.078064, 418.147400)
person: 82%
(415.199585, 290.225494) (618.511658, 781.652832)
sub11_h1_sg_1_072.jpg: Predicted in 0.163001 seconds.
baseball bat: 40%
(453.634521, 252.575089) (502.695801, 401.767242)
baseball bat: 60%
(436.142395, 278.280090) (576.245239, 418.416748)
person: 82%
(415.460419, 289.223328) (618.816650, 781.891602)
sub11_h1_sg_1_073.jpg: Predicted in 0.210407 seconds.
baseball bat: 44%
(452.892365, 253.963882) (503.442169, 399.613586)
baseball bat: 56%
(436.589905, 278.600037) (574.694031, 415.377930)
person: 83%
(414.840515, 287.553131) (619.876953, 781.868042)
sub11_h1_sg_1_074.jpg: Predicted in 0.155953 seconds.
baseball bat: 38%
(455.418823, 258.270630) (503.221161, 396.561493)
baseball bat: 56%
(437.751831, 279.605957) (577.243469, 417.742249)
person: 83%
(414.774292, 288.157990) (621.554382, 783.914124)
sub11_h1_sg_1_075.jpg: Predicted in 0.156198 seconds.
baseball bat: 46%
(453.993164, 258.672211) (503.624786, 397.561249)
baseball bat: 55%
(438.056427, 281.180298) (576.688110, 413.232666)
person: 83%
(416.884003, 286.146820) (618.753357, 783.496338)
sub11_h1_sg_1_076.jpg: Predicted in 0.166403 seconds.
baseball bat: 48%
(454.058533, 258.264069) (504.598145, 397.620819)
baseball bat: 53%
(438.553162, 281.773529) (576.773132, 411.893738)
person: 82%
(418.307953, 285.889374) (621.684143, 784.050293)
sub11_h1_sg_1_077.jpg: Predicted in 0.156666 seconds.
baseball bat: 48%
(454.251495, 256.489777) (503.948944, 398.225006)
baseball bat: 53%
(437.814392, 280.405884) (576.357727, 412.084198)
person: 81%
(417.970673, 285.258240) (622.632202, 783.382385)
sub11_h1_sg_1_078.jpg: Predicted in 0.164256 seconds.
baseball bat: 53%
(452.659607, 256.508575) (503.421021, 398.918304)
baseball bat: 52%
(438.819611, 281.802734) (575.721802, 411.955994)
person: 82%
(415.306335, 284.886108) (627.062805, 783.184692)
sub11_h1_sg_1_079.jpg: Predicted in 0.155421 seconds.
baseball bat: 51%
(453.902588, 257.672668) (503.837189, 397.575531)
baseball bat: 51%
(437.934845, 282.274933) (574.357117, 414.381165)
person: 83%
(420.816345, 285.568115) (621.598938, 783.755920)
sub11_h1_sg_1_080.jpg: Predicted in 0.156750 seconds.
baseball bat: 54%
(452.810211, 258.020416) (503.260193, 400.281708)
baseball bat: 54%
(438.281311, 283.563538) (574.995789, 415.098724)
person: 82%
(417.850677, 285.921936) (626.796753, 781.818909)
sub11_h1_sg_1_081.jpg: Predicted in 0.156806 seconds.
baseball bat: 51%
(454.528168, 259.735382) (504.751984, 397.960510)
baseball bat: 55%
(437.960114, 281.881775) (577.779175, 411.883209)
person: 82%
(419.246063, 287.577118) (626.717957, 782.156860)
sub11_h1_sg_1_082.jpg: Predicted in 0.156340 seconds.
baseball bat: 52%
(455.273743, 258.341003) (503.406067, 401.675873)
baseball bat: 56%
(438.277252, 282.142975) (577.440063, 414.530792)
person: 83%
(419.129944, 285.876038) (625.784119, 782.716980)
sub11_h1_sg_1_083.jpg: Predicted in 0.157202 seconds.
baseball bat: 47%
(454.183594, 259.506409) (503.266968, 397.981720)
baseball bat: 56%
(436.249023, 281.652100) (577.799744, 414.346924)
person: 82%
(420.197113, 288.589081) (622.614014, 784.964417)
sub11_h1_sg_1_084.jpg: Predicted in 0.155603 seconds.
baseball bat: 49%
(454.083069, 257.876434) (503.694397, 398.281158)
baseball bat: 55%
(435.738251, 282.051208) (576.803528, 413.974884)
person: 82%
(418.456299, 286.218506) (624.691772, 783.505798)
sub11_h1_sg_1_085.jpg: Predicted in 0.155233 seconds.
baseball bat: 46%
(454.489563, 262.418976) (504.428680, 393.403870)
baseball bat: 55%
(435.283020, 282.726135) (578.017090, 413.805481)
person: 82%
(422.105469, 287.313019) (623.487183, 784.906067)
sub11_h1_sg_1_086.jpg: Predicted in 0.155767 seconds.
baseball bat: 48%
(453.870880, 261.161346) (505.347870, 395.780670)
baseball bat: 55%
(435.664978, 285.139313) (576.281738, 412.491364)
person: 82%
(420.677673, 290.311096) (620.807678, 785.639832)
sub11_h1_sg_1_087.jpg: Predicted in 0.156134 seconds.
baseball bat: 48%
(453.482666, 260.853546) (504.284668, 395.291351)
baseball bat: 54%
(436.260651, 283.140747) (577.320862, 413.855164)
person: 82%
(421.221100, 287.380707) (624.196716, 788.601135)
sub11_h1_sg_1_088.jpg: Predicted in 0.157024 seconds.
baseball bat: 47%
(453.072815, 263.511261) (504.949188, 394.590485)
baseball bat: 55%
(437.181915, 284.134430) (577.781616, 411.758148)
person: 81%
(417.402069, 286.184967) (624.777161, 788.101746)
sub11_h1_sg_1_089.jpg: Predicted in 0.155347 seconds.
baseball bat: 47%
(455.061005, 260.811737) (504.542053, 397.478729)
baseball bat: 55%
(439.600220, 284.999878) (574.253662, 415.265533)
person: 82%
(417.708374, 284.860229) (623.270813, 788.083740)
sub11_h1_sg_1_090.jpg: Predicted in 0.155401 seconds.
baseball bat: 52%
(453.336823, 260.894104) (503.399567, 398.371521)
baseball bat: 54%
(439.638184, 283.973633) (574.992188, 419.665161)
person: 82%
(416.954712, 285.913727) (627.505249, 787.383789)
sub11_h1_sg_1_091.jpg: Predicted in 0.157055 seconds.
baseball bat: 48%
(454.223267, 262.830688) (503.358917, 398.062653)
baseball bat: 56%
(439.207825, 282.461151) (576.955322, 418.054291)
person: 83%
(414.295715, 286.731049) (632.920532, 789.761658)
sub11_h1_sg_1_092.jpg: Predicted in 0.158231 seconds.
baseball bat: 47%
(453.959656, 265.985077) (505.021820, 396.520630)
baseball bat: 57%
(438.535400, 283.050201) (577.474060, 419.042847)
person: 82%
(415.781891, 287.726501) (627.913513, 786.496338)
sub11_h1_sg_1_093.jpg: Predicted in 0.156674 seconds.
baseball bat: 49%
(454.351166, 266.873291) (505.146301, 394.866302)
baseball bat: 57%
(437.307159, 283.838165) (578.531799, 417.144623)
person: 81%
(416.190216, 285.895477) (626.347839, 786.902893)
sub11_h1_sg_1_094.jpg: Predicted in 0.158109 seconds.
baseball bat: 50%
(455.022247, 263.777496) (506.094391, 394.121887)
baseball bat: 59%
(435.877655, 286.271484) (579.920471, 416.125580)
person: 81%
(420.130249, 288.640533) (628.625916, 787.372070)
sub11_h1_sg_1_095.jpg: Predicted in 0.157286 seconds.
baseball bat: 50%
(455.463593, 264.616882) (506.845154, 394.673859)
baseball bat: 58%
(436.864685, 286.529053) (577.470825, 416.398987)
person: 81%
(420.336243, 286.642151) (626.110107, 786.402039)
sub11_h1_sg_1_096.jpg: Predicted in 0.156008 seconds.
baseball bat: 54%
(453.931610, 261.569641) (506.991180, 399.236298)
baseball bat: 57%
(438.118286, 286.346191) (577.278198, 416.387329)
person: 81%
(422.408813, 289.053497) (627.547485, 787.905701)
sub11_h1_sg_1_097.jpg: Predicted in 0.157830 seconds.
baseball bat: 55%
(452.482300, 259.794830) (507.979889, 399.446533)
baseball bat: 57%
(438.704895, 287.148712) (577.875427, 414.523865)
person: 81%
(420.664398, 288.199860) (627.248352, 787.570618)
sub11_h1_sg_1_098.jpg: Predicted in 0.157085 seconds.
baseball bat: 59%
(454.185577, 258.186981) (507.145233, 401.717346)
baseball bat: 57%
(439.512817, 287.931305) (577.051453, 416.738281)
person: 81%
(420.671387, 289.466370) (624.596863, 787.724670)
sub11_h1_sg_1_099.jpg: Predicted in 0.156480 seconds.
baseball bat: 52%
(454.001740, 259.688995) (508.121613, 398.886627)
baseball bat: 59%
(438.217987, 288.457397) (574.858215, 418.968903)
person: 79%
(420.514282, 292.137604) (627.153870, 788.055725)
sub11_h1_sg_1_100.jpg: Predicted in 0.156685 seconds.
baseball bat: 54%
(454.261963, 255.647629) (507.637360, 406.077545)
baseball bat: 62%
(438.904785, 288.461884) (574.052002, 420.154724)
person: 79%
(421.646301, 293.491852) (629.548096, 789.517212)
sub11_h1_sg_1_101.jpg: Predicted in 0.169391 seconds.
baseball bat: 51%
(454.962555, 257.309418) (507.470062, 404.322723)
baseball bat: 61%
(438.000153, 288.254578) (576.544312, 417.926727)
person: 79%
(423.645874, 291.427979) (627.434387, 788.205383)
sub11_h1_sg_1_102.jpg: Predicted in 0.164749 seconds.
baseball bat: 53%
(452.182098, 260.749908) (507.384949, 402.205475)
baseball bat: 58%
(437.423401, 287.650421) (578.490723, 417.949371)
person: 80%
(420.767853, 291.216370) (628.289185, 789.433777)
sub11_h1_sg_1_103.jpg: Predicted in 0.155554 seconds.
baseball bat: 54%
(451.040985, 264.933807) (507.396210, 399.065002)
baseball bat: 55%
(437.571259, 288.070984) (578.849487, 415.984100)
person: 78%
(424.319733, 295.327942) (625.224731, 787.093140)
sub11_h1_sg_1_104.jpg: Predicted in 0.155589 seconds.
baseball bat: 56%
(452.825958, 263.132874) (508.583344, 400.072937)
baseball bat: 54%
(437.604279, 287.493622) (579.288025, 414.822449)
person: 79%
(424.239105, 295.497528) (626.258484, 786.198425)
sub11_h1_sg_1_105.jpg: Predicted in 0.158957 seconds.
baseball bat: 53%
(451.814026, 266.293152) (509.699890, 398.302765)
baseball bat: 54%
(437.131378, 287.948730) (578.780029, 416.409729)
person: 80%
(422.067169, 295.757690) (626.476868, 784.608826)
sub11_h1_sg_1_106.jpg: Predicted in 0.155637 seconds.
baseball bat: 52%
(452.966766, 265.605774) (509.321228, 397.286987)
baseball bat: 55%
(436.490906, 287.659546) (579.893555, 417.621552)
person: 80%
(421.628632, 295.406281) (627.483643, 786.820007)
sub11_h1_sg_1_107.jpg: Predicted in 0.156503 seconds.
baseball bat: 53%
(452.797302, 264.917206) (509.983459, 397.976074)
baseball bat: 55%
(436.878265, 288.285278) (580.834900, 416.217163)
person: 80%
(421.466187, 296.345001) (627.790100, 786.121338)
sub11_h1_sg_1_108.jpg: Predicted in 0.156436 seconds.
baseball bat: 56%
(451.856964, 264.445618) (511.299469, 399.831879)
baseball bat: 54%
(437.573822, 288.544220) (578.458191, 414.137939)
person: 80%
(421.518402, 298.802124) (627.800354, 786.620300)
sub11_h1_sg_1_109.jpg: Predicted in 0.156023 seconds.
baseball bat: 53%
(451.936798, 266.982513) (510.133362, 396.785339)
baseball bat: 53%
(438.595398, 289.048248) (575.588318, 415.457855)
person: 80%
(420.349640, 297.025238) (627.203552, 790.175659)
sub11_h1_sg_1_110.jpg: Predicted in 0.155874 seconds.
baseball bat: 52%
(450.749146, 268.899292) (509.132141, 392.009888)
baseball bat: 54%
(438.551025, 288.733124) (575.535034, 416.074768)
person: 80%
(419.147278, 296.829773) (627.359192, 786.752747)
sub11_h1_sg_1_111.jpg: Predicted in 0.188846 seconds.
baseball bat: 46%
(450.419647, 267.918213) (509.870575, 394.031433)
baseball bat: 59%
(436.945679, 289.109924) (578.024719, 416.238373)
person: 79%
(417.262939, 295.182312) (631.635437, 788.102173)
sub11_h1_sg_1_112.jpg: Predicted in 0.156352 seconds.
baseball bat: 43%
(450.291534, 269.906738) (509.846954, 396.274414)
baseball bat: 58%
(436.436676, 288.773712) (578.685669, 418.748962)
person: 80%
(417.989349, 295.372253) (624.346069, 785.710388)
sub11_h1_sg_1_113.jpg: Predicted in 0.157202 seconds.
baseball bat: 41%
(450.599579, 270.947021) (511.482391, 393.845856)
baseball bat: 58%
(437.047668, 289.619110) (576.035583, 418.078613)
person: 80%
(424.232971, 296.683411) (626.160889, 787.411011)
sub11_h1_sg_1_114.jpg: Predicted in 0.158810 seconds.
baseball bat: 41%
(449.703094, 269.316284) (511.317352, 396.779297)
baseball bat: 58%
(435.953003, 288.659210) (577.705994, 417.808441)
person: 79%
(422.212158, 297.869232) (623.299194, 788.472351)
sub11_h1_sg_1_115.jpg: Predicted in 0.157312 seconds.
baseball bat: 40%
(450.183990, 271.717224) (511.143280, 392.517609)
baseball bat: 58%
(436.152740, 290.381714) (576.918030, 418.310516)
person: 80%
(424.370941, 300.355774) (625.118347, 785.305176)
sub11_h1_sg_1_116.jpg: Predicted in 0.166661 seconds.
baseball bat: 44%
(448.438049, 269.936340) (511.089783, 391.506897)
baseball bat: 54%
(435.249207, 290.717682) (578.617310, 417.265961)
person: 80%
(420.867615, 299.003693) (626.756836, 786.115723)
sub11_h1_sg_1_117.jpg: Predicted in 0.157814 seconds.
baseball bat: 40%
(446.282196, 268.020508) (513.346069, 392.400391)
baseball bat: 57%
(433.939301, 290.540283) (578.875610, 417.260864)
person: 79%
(424.358124, 300.053589) (630.030884, 786.117859)
sub11_h1_sg_1_118.jpg: Predicted in 0.158168 seconds.
baseball bat: 40%
(446.780945, 269.161743) (512.348022, 392.356842)
baseball bat: 55%
(433.606445, 290.910187) (578.319397, 417.542023)
person: 78%
(424.817688, 299.789642) (629.000732, 787.406921)
sub11_h1_sg_1_119.jpg: Predicted in 0.157757 seconds.
baseball bat: 40%
(446.634644, 269.507935) (511.630676, 387.928101)
baseball bat: 54%
(435.615112, 289.390350) (578.993042, 418.011017)
person: 78%
(422.794830, 297.795746) (626.525757, 788.347534)
sub11_h1_sg_1_120.jpg: Predicted in 0.156465 seconds.
baseball bat: 41%
(446.313080, 268.361389) (511.977417, 392.510925)
baseball bat: 56%
(436.130920, 291.390015) (575.816833, 419.186859)
person: 79%
(422.387848, 297.980560) (629.632812, 786.952637)
sub11_h1_sg_1_121.jpg: Predicted in 0.156212 seconds.
baseball bat: 45%
(446.148041, 270.981171) (511.480347, 390.432129)
baseball bat: 52%
(436.928955, 291.022491) (575.564392, 417.903076)
person: 81%
(424.444916, 297.878448) (628.832092, 788.412170)
sub11_h1_sg_1_122.jpg: Predicted in 0.155630 seconds.
baseball bat: 45%
(445.371124, 271.223785) (510.681488, 390.761047)
baseball bat: 51%
(438.218140, 290.635742) (578.904602, 416.872040)
person: 80%
(425.170502, 298.005402) (627.669617, 785.457886)
sub11_h1_sg_1_123.jpg: Predicted in 0.157331 seconds.
baseball bat: 52%
(443.276367, 271.596222) (510.941528, 388.233429)
baseball bat: 48%
(437.942566, 289.682434) (584.894104, 413.297394)
person: 80%
(426.488770, 298.868835) (629.200256, 787.103516)
sub11_h1_sg_1_124.jpg: Predicted in 0.156558 seconds.
baseball bat: 57%
(442.562378, 268.088104) (511.896332, 393.121918)
baseball bat: 50%
(438.442169, 290.687958) (582.274048, 412.471436)
person: 80%
(424.919678, 297.723358) (630.461975, 786.654297)
sub11_h1_sg_1_125.jpg: Predicted in 0.156449 seconds.
baseball bat: 54%
(444.485779, 267.878723) (512.046814, 394.522522)
baseball bat: 51%
(438.386719, 291.614685) (581.335205, 415.790283)
person: 80%
(425.514862, 296.235229) (633.357056, 787.471313)
sub11_h1_sg_1_126.jpg: Predicted in 0.155062 seconds.
baseball bat: 58%
(443.866699, 268.842499) (511.673401, 392.603027)
baseball bat: 51%
(438.710510, 291.268524) (582.405762, 416.208099)
person: 81%
(425.685364, 294.721008) (630.813110, 787.467285)
sub11_h1_sg_1_127.jpg: Predicted in 0.157440 seconds.
baseball bat: 56%
(442.852234, 270.181885) (512.390564, 392.272186)
baseball bat: 50%
(437.541504, 292.888275) (581.158264, 417.401581)
person: 81%
(427.644257, 298.470062) (629.442688, 787.216797)
sub11_h1_sg_1_128.jpg: Predicted in 0.158013 seconds.
baseball bat: 52%
(443.282867, 272.589355) (510.756744, 391.813202)
baseball bat: 51%
(438.735199, 291.447388) (583.663025, 417.723724)
person: 81%
(428.765839, 298.042236) (628.772766, 787.217407)
sub11_h1_sg_1_129.jpg: Predicted in 0.154210 seconds.
baseball bat: 45%
(442.844940, 273.911774) (511.357941, 389.835205)
baseball bat: 49%
(438.541077, 293.662781) (582.052063, 419.870026)
person: 80%
(426.252808, 298.377899) (628.791016, 786.540222)
sub11_h1_sg_1_130.jpg: Predicted in 0.156232 seconds.
baseball bat: 46%
(444.132446, 273.802277) (509.061615, 388.048553)
baseball bat: 45%
(437.144653, 295.237793) (580.231812, 418.009796)
person: 80%
(429.607880, 299.917847) (629.123962, 784.462219)
sub11_h1_sg_1_131.jpg: Predicted in 0.159616 seconds.
baseball bat: 46%
(444.194885, 274.760468) (509.849609, 389.298462)
baseball bat: 51%
(437.633453, 294.180573) (581.418579, 419.066010)
person: 80%
(429.309204, 300.036346) (629.244446, 785.749451)
sub11_h1_sg_1_132.jpg: Predicted in 0.155544 seconds.
baseball bat: 47%
(442.191589, 272.979462) (510.080750, 389.573792)
baseball bat: 50%
(435.271057, 294.534790) (580.936340, 418.063110)
person: 80%
(430.125885, 302.025604) (630.318970, 784.382141)
sub11_h1_sg_1_133.jpg: Predicted in 0.163369 seconds.
baseball bat: 54%
(440.072723, 273.978241) (509.596008, 387.402740)
baseball bat: 46%
(435.338043, 294.208252) (582.001892, 415.855255)
person: 81%
(428.880951, 299.177063) (630.154785, 785.005493)
sub11_h1_sg_1_134.jpg: Predicted in 0.155488 seconds.
baseball bat: 52%
(439.804840, 272.478973) (511.423706, 388.536163)
baseball bat: 45%
(436.502014, 294.676697) (581.885437, 417.022552)
person: 80%
(428.883209, 296.465607) (630.043579, 785.065979)
sub11_h1_sg_1_135.jpg: Predicted in 0.165356 seconds.
baseball bat: 57%
(441.467010, 272.607910) (510.045135, 387.855164)
baseball bat: 46%
(438.223572, 293.351288) (584.927002, 416.733307)
person: 80%
(428.755951, 295.718048) (632.369873, 786.148621)
sub11_h1_sg_1_136.jpg: Predicted in 0.156064 seconds.
baseball bat: 57%
(439.662750, 271.299194) (509.839355, 386.347046)
baseball bat: 45%
(437.267975, 294.949951) (583.030090, 417.083221)
person: 80%
(427.460449, 294.518799) (632.361572, 786.450806)
sub11_h1_sg_1_137.jpg: Predicted in 0.156984 seconds.
baseball bat: 55%
(438.795044, 272.091705) (509.553558, 385.219452)
baseball bat: 47%
(436.631042, 294.567230) (583.550781, 417.553680)
person: 81%
(427.321075, 294.451843) (631.966797, 787.116577)
sub11_h1_sg_1_138.jpg: Predicted in 0.157651 seconds.
baseball bat: 52%
(436.358582, 274.949799) (510.783447, 386.937164)
baseball bat: 49%
(438.613586, 295.463226) (582.815186, 418.916748)
person: 80%
(428.748627, 295.345093) (632.754639, 787.809387)
sub11_h1_sg_1_139.jpg: Predicted in 0.155620 seconds.
baseball bat: 53%
(437.152222, 275.123718) (511.687653, 388.238342)
baseball bat: 48%
(439.693298, 296.215118) (582.192688, 418.665161)
person: 80%
(434.503143, 299.179291) (630.797241, 784.019653)
sub11_h1_sg_1_140.jpg: Predicted in 0.155176 seconds.
baseball bat: 56%
(435.504150, 274.026978) (510.433655, 385.361542)
baseball bat: 49%
(437.037964, 297.372437) (581.585083, 415.820923)
person: 81%
(431.958435, 298.553497) (635.062378, 782.889160)
sub11_h1_sg_1_141.jpg: Predicted in 0.155635 seconds.
baseball bat: 56%
(435.006104, 274.327667) (509.640442, 384.370270)
baseball bat: 47%
(437.090485, 297.250732) (581.718262, 416.484406)
person: 81%
(431.316650, 297.176758) (638.135437, 784.358398)
sub11_h1_sg_1_142.jpg: Predicted in 0.157386 seconds.
baseball bat: 61%
(436.516357, 275.834686) (510.516632, 384.248779)
baseball bat: 43%
(440.190704, 300.135101) (579.367615, 413.298645)
person: 80%
(436.126343, 301.167267) (634.080139, 779.813049)
sub11_h1_sg_1_143.jpg: Predicted in 0.156682 seconds.
baseball bat: 60%
(434.870697, 276.906860) (512.169800, 385.423431)
baseball bat: 46%
(439.880310, 300.228027) (583.305054, 414.341309)
person: 80%
(435.947296, 303.031403) (633.000671, 780.268982)
sub11_h1_sg_1_144.jpg: Predicted in 0.155576 seconds.
baseball bat: 57%
(434.088562, 277.968414) (513.228027, 384.541656)
baseball bat: 45%
(439.157135, 300.737549) (583.361816, 413.213989)
person: 79%
(435.072144, 301.350037) (633.973938, 778.231628)
sub11_h1_sg_1_145.jpg: Predicted in 0.156770 seconds.
baseball bat: 56%
(434.823883, 277.241333) (514.436218, 383.926422)
baseball bat: 44%
(437.407990, 299.178070) (582.506958, 414.979248)
person: 79%
(434.495392, 304.064789) (635.251404, 779.249451)
sub11_h1_sg_1_146.jpg: Predicted in 0.158097 seconds.
baseball bat: 56%
(434.018585, 279.525055) (512.283325, 381.236328)
baseball bat: 46%
(437.363434, 299.508972) (584.276978, 414.768799)
person: 80%
(435.525696, 302.533844) (634.326904, 783.149048)
sub11_h1_sg_1_147.jpg: Predicted in 0.158537 seconds.
baseball bat: 54%
(425.896912, 294.203491) (542.587585, 404.621246)
person: 81%
(434.780670, 302.169312) (635.403503, 782.957825)
sub11_h1_sg_1_148.jpg: Predicted in 0.157934 seconds.
baseball bat: 56%
(430.206604, 277.866302) (513.033875, 379.124420)
baseball bat: 46%
(437.039124, 299.328613) (584.170837, 414.227417)
person: 81%
(439.642120, 306.144867) (634.092102, 779.710266)
sub11_h1_sg_1_149.jpg: Predicted in 0.157119 seconds.
baseball bat: 57%
(430.147369, 278.420929) (512.159241, 380.015045)
baseball bat: 46%
(437.325256, 299.799561) (583.730408, 415.096527)
person: 80%
(439.967865, 303.964142) (631.336914, 782.312134)
sub11_h1_sg_1_150.jpg: Predicted in 0.157769 seconds.
baseball bat: 54%
(429.179321, 278.135468) (513.210205, 379.854095)
baseball bat: 41%
(434.335480, 298.259766) (584.778503, 416.835175)
person: 80%
(436.834229, 303.611420) (632.986877, 781.665833)
sports ball: 30%
(353.351776, 771.698120) (385.750763, 796.826904)
sub11_h1_sg_1_151.jpg: Predicted in 0.157075 seconds.
baseball bat: 53%
(427.472137, 278.305695) (512.973389, 380.480743)
baseball bat: 44%
(431.804871, 299.753418) (585.756470, 415.110352)
person: 78%
(434.860962, 306.318573) (634.097656, 780.621704)
sub11_h1_sg_1_152.jpg: Predicted in 0.156263 seconds.
baseball bat: 52%
(426.231262, 279.478577) (513.783691, 379.625519)
baseball bat: 46%
(430.816986, 299.032837) (586.154602, 415.215271)
person: 79%
(437.417572, 305.609192) (630.860413, 781.654053)
sub11_h1_sg_1_153.jpg: Predicted in 0.156810 seconds.
baseball bat: 58%
(426.013123, 280.867432) (512.579102, 378.596771)
baseball bat: 47%
(434.660339, 299.926880) (584.628967, 414.805878)
person: 79%
(441.783691, 302.928131) (633.501770, 783.275330)
sub11_h1_sg_1_154.jpg: Predicted in 0.155532 seconds.
baseball bat: 59%
(424.256348, 279.882294) (512.711304, 380.082184)
baseball bat: 43%
(431.938110, 298.114899) (587.197815, 415.247467)
person: 80%
(444.474304, 303.873657) (631.771851, 783.234375)
sub11_h1_sg_1_155.jpg: Predicted in 0.157384 seconds.
baseball bat: 56%
(424.063690, 283.252319) (513.966248, 379.453491)
baseball bat: 44%
(432.356293, 298.992432) (586.534790, 414.989105)
person: 79%
(443.811523, 305.857910) (631.836731, 783.338745)
sports ball: 30%
(351.553070, 771.910767) (384.145874, 796.076660)
sub11_h1_sg_1_156.jpg: Predicted in 0.155671 seconds.
baseball bat: 52%
(427.103210, 281.635132) (511.942139, 378.009857)
baseball bat: 44%
(431.933838, 298.728271) (588.182007, 414.423218)
person: 80%
(443.009277, 300.932281) (630.655518, 783.757874)
sub11_h1_sg_1_157.jpg: Predicted in 0.155773 seconds.
baseball bat: 52%
(425.729736, 283.900513) (510.613434, 375.964722)
baseball bat: 43%
(432.881805, 298.786530) (586.266052, 416.178619)
person: 80%
(441.695740, 300.922363) (628.516418, 785.121399)
sub11_h1_sg_1_158.jpg: Predicted in 0.157492 seconds.
baseball bat: 56%
(422.192444, 284.777161) (510.612579, 375.805389)
baseball bat: 42%
(433.906158, 298.783508) (587.171997, 415.398132)
person: 79%
(441.676727, 303.082214) (628.544983, 784.609680)
sub11_h1_sg_1_159.jpg: Predicted in 0.156603 seconds.
baseball bat: 56%
(423.135010, 284.036835) (510.096191, 375.934662)
baseball bat: 45%
(433.850922, 299.389954) (585.101440, 416.375244)
person: 78%
(446.119141, 304.512970) (629.321289, 784.361755)
sub11_h1_sg_1_160.jpg: Predicted in 0.166175 seconds.
baseball bat: 58%
(421.845184, 285.098511) (509.404205, 375.927124)
baseball bat: 47%
(435.178925, 297.760284) (585.948059, 413.346497)
person: 79%
(444.177551, 299.685394) (632.201355, 787.286438)
sub11_h1_sg_1_161.jpg: Predicted in 0.154308 seconds.
baseball bat: 62%
(418.529175, 286.295868) (509.629700, 377.398346)
baseball bat: 48%
(433.330200, 300.259369) (587.608215, 412.911102)
person: 79%
(444.678345, 298.888458) (634.055542, 785.788574)
sub11_h1_sg_1_162.jpg: Predicted in 0.166163 seconds.
baseball bat: 55%
(415.767334, 297.266724) (548.146790, 398.999573)
person: 80%
(445.550232, 301.879578) (633.602966, 784.985291)
sub11_h1_sg_1_163.jpg: Predicted in 0.155641 seconds.
baseball bat: 55%
(418.016449, 287.281342) (512.815002, 378.374390)
baseball bat: 46%
(428.803802, 299.453369) (591.562195, 415.289825)
person: 80%
(444.230377, 304.063354) (633.241272, 783.879517)
sub11_h1_sg_1_164.jpg: Predicted in 0.155454 seconds.
baseball bat: 57%
(413.982697, 298.497894) (547.624756, 397.975464)
person: 79%
(443.540039, 306.723663) (634.346313, 783.368408)
sub11_h1_sg_1_165.jpg: Predicted in 0.157109 seconds.
baseball bat: 58%
(413.736084, 299.522491) (549.854919, 400.990784)
person: 80%
(446.415222, 303.828369) (631.843506, 786.466248)
sub11_h1_sg_1_166.jpg: Predicted in 0.157841 seconds.
baseball bat: 57%
(410.139954, 300.084351) (552.925415, 398.998077)
person: 80%
(447.172455, 304.537933) (634.950745, 785.387085)
sub11_h1_sg_1_167.jpg: Predicted in 0.156361 seconds.
baseball bat: 55%
(409.403778, 299.944641) (551.110291, 399.172455)
person: 80%
(445.878754, 306.118561) (637.274170, 783.805664)
sub11_h1_sg_1_168.jpg: Predicted in 0.157705 seconds.
baseball bat: 58%
(411.305115, 292.187073) (505.272644, 379.267792)
baseball bat: 41%
(439.331299, 299.394257) (592.928162, 414.406372)
person: 79%
(445.031891, 303.843231) (640.249878, 783.562805)
sub11_h1_sg_1_169.jpg: Predicted in 0.155958 seconds.
baseball bat: 61%
(410.530823, 292.423889) (504.322937, 382.056030)
baseball bat: 34%
(441.475464, 300.681641) (592.530334, 413.426544)
person: 78%
(442.708954, 302.674377) (639.334595, 784.112976)
sub11_h1_sg_1_170.jpg: Predicted in 0.156686 seconds.
baseball bat: 58%
(405.587311, 296.033234) (500.239807, 377.944336)
person: 78%
(443.764557, 304.220856) (641.016785, 783.052917)
sub11_h1_sg_1_171.jpg: Predicted in 0.157539 seconds.
baseball bat: 59%
(403.795166, 297.371124) (492.289124, 378.291687)
person: 77%
(444.879272, 302.497162) (643.283508, 783.173279)
sub11_h1_sg_1_172.jpg: Predicted in 0.156184 seconds.
baseball bat: 57%
(408.536041, 295.556122) (502.518494, 380.268677)
person: 77%
(439.437836, 304.630005) (642.434021, 781.017944)
sports ball: 31%
(352.528381, 771.718628) (384.389404, 796.807983)
sub11_h1_sg_1_173.jpg: Predicted in 0.155132 seconds.
baseball bat: 59%
(399.972809, 303.238342) (544.382935, 399.191010)
person: 78%
(440.252136, 301.606140) (642.021362, 783.272095)
sub11_h1_sg_1_174.jpg: Predicted in 0.154952 seconds.
baseball bat: 59%
(405.399017, 299.080170) (500.744324, 380.898926)
person: 79%
(439.952454, 300.954376) (641.547668, 784.415894)
sub11_h1_sg_1_175.jpg: Predicted in 0.155617 seconds.
baseball bat: 61%
(396.549713, 299.834351) (494.872559, 380.534790)
person: 79%
(444.690033, 301.692413) (640.717163, 785.994629)
sub11_h1_sg_1_176.jpg: Predicted in 0.157060 seconds.
baseball bat: 60%
(397.516205, 304.264618) (540.741150, 399.477051)
person: 80%
(446.452820, 301.527863) (643.137390, 785.093994)
sub11_h1_sg_1_177.jpg: Predicted in 0.156072 seconds.
baseball bat: 62%
(399.541931, 302.794159) (547.543640, 399.894928)
person: 79%
(442.959961, 303.953033) (641.781128, 784.181519)
sub11_h1_sg_1_178.jpg: Predicted in 0.156967 seconds.
baseball bat: 62%
(398.253265, 301.017792) (498.013214, 382.062744)
person: 80%
(438.765320, 303.875763) (646.442871, 782.738831)
sub11_h1_sg_1_179.jpg: Predicted in 0.157673 seconds.
baseball bat: 58%
(398.550110, 305.906464) (545.726990, 399.198792)
person: 80%
(443.936188, 301.200195) (645.354431, 784.918213)
sub11_h1_sg_1_180.jpg: Predicted in 0.154885 seconds.
baseball bat: 63%
(394.543213, 303.294159) (497.248535, 380.464600)
person: 80%
(442.306183, 302.191406) (646.845703, 781.403137)
sub11_h1_sg_1_181.jpg: Predicted in 0.157492 seconds.
baseball bat: 60%
(390.696747, 304.819824) (494.745300, 380.824615)
person: 80%
(446.498932, 302.669464) (648.116394, 783.454956)
sub11_h1_sg_1_182.jpg: Predicted in 0.155375 seconds.
baseball bat: 58%
(392.810364, 303.245453) (497.441406, 381.241425)
person: 81%
(445.609711, 303.986694) (648.129517, 780.039246)
sub11_h1_sg_1_183.jpg: Predicted in 0.156615 seconds.
baseball bat: 64%
(391.019379, 302.874329) (496.478027, 382.533020)
person: 81%
(449.570496, 303.515564) (645.524170, 781.464172)
sub11_h1_sg_1_184.jpg: Predicted in 0.155633 seconds.
baseball bat: 61%
(390.234253, 301.872498) (500.994995, 385.135834)
person: 82%
(450.025513, 301.401031) (643.434875, 783.961121)
sub11_h1_sg_1_185.jpg: Predicted in 0.156602 seconds.
baseball bat: 62%
(388.636261, 303.812866) (497.999176, 385.366272)
person: 82%
(450.689941, 299.783905) (645.953003, 784.107422)
sub11_h1_sg_1_186.jpg: Predicted in 0.155810 seconds.
baseball bat: 60%
(388.017120, 304.317261) (499.379883, 384.968689)
person: 82%
(451.335449, 302.697449) (645.064575, 781.851318)
sub11_h1_sg_1_187.jpg: Predicted in 0.157941 seconds.
baseball bat: 57%
(389.684021, 308.819458) (547.518372, 401.285248)
person: 81%
(453.686035, 304.181061) (644.360535, 781.220276)
sub11_h1_sg_1_188.jpg: Predicted in 0.157136 seconds.
baseball bat: 56%
(389.485016, 310.688232) (545.853638, 403.120300)
person: 82%
(452.784729, 308.190338) (644.900879, 777.650818)
sub11_h1_sg_1_189.jpg: Predicted in 0.156279 seconds.
baseball bat: 57%
(386.903870, 309.304169) (501.226929, 386.289764)
person: 82%
(451.448914, 308.339172) (645.005493, 776.397095)
sub11_h1_sg_1_190.jpg: Predicted in 0.155917 seconds.
baseball bat: 58%
(384.371948, 310.832825) (544.172119, 403.016296)
person: 80%
(450.621246, 309.060516) (647.435242, 779.373535)
sub11_h1_sg_1_191.jpg: Predicted in 0.156045 seconds.
baseball bat: 60%
(387.959900, 309.297607) (504.499207, 388.817078)
person: 81%
(453.668549, 310.104584) (645.683044, 778.317444)
sub11_h1_sg_1_192.jpg: Predicted in 0.157969 seconds.
baseball bat: 60%
(385.060089, 314.198181) (545.610046, 404.441772)
person: 81%
(455.718964, 314.332428) (643.664673, 776.405945)
sub11_h1_sg_1_193.jpg: Predicted in 0.156888 seconds.
baseball bat: 61%
(391.818359, 315.616699) (545.638306, 404.438843)
person: 80%
(453.182526, 310.185974) (641.506958, 777.887573)
sub11_h1_sg_1_194.jpg: Predicted in 0.157953 seconds.
baseball bat: 62%
(382.755829, 317.481842) (549.581360, 404.334290)
person: 82%
(454.172424, 309.065918) (646.134155, 778.233032)
sub11_h1_sg_1_195.jpg: Predicted in 0.156426 seconds.
baseball bat: 57%
(381.434937, 317.514191) (553.986511, 407.999939)
person: 78%
(455.831940, 312.134949) (640.279663, 777.383972)
sub11_h1_sg_1_196.jpg: Predicted in 0.156756 seconds.
baseball bat: 56%
(381.417114, 317.124573) (558.861389, 408.548187)
person: 79%
(457.781311, 307.418976) (640.815063, 780.876770)
sub11_h1_sg_1_197.jpg: Predicted in 0.155644 seconds.
baseball bat: 56%
(380.347839, 318.985352) (560.286926, 407.612152)
person: 79%
(459.084595, 308.681091) (638.107483, 779.725220)
sub11_h1_sg_1_198.jpg: Predicted in 0.158032 seconds.
baseball bat: 58%
(381.740936, 319.637543) (561.098145, 407.735229)
person: 77%
(455.176910, 307.597534) (641.617615, 781.145264)
sub11_h1_sg_1_199.jpg: Predicted in 0.155594 seconds.
baseball bat: 56%
(377.840240, 318.821625) (558.460571, 406.901062)
person: 76%
(455.896545, 304.428925) (641.160645, 783.519470)
sub11_h1_sg_1_200.jpg: Predicted in 0.155525 seconds.
baseball bat: 57%
(379.748993, 317.829620) (561.892517, 407.150757)
person: 79%
(455.438446, 306.973602) (642.146179, 780.001709)
sub11_h1_sg_1_201.jpg: Predicted in 0.155431 seconds.
baseball bat: 55%
(383.149872, 319.372375) (564.388489, 403.586182)
person: 77%
(452.534454, 307.658539) (642.873535, 782.904663)
sub11_h1_sg_1_202.jpg: Predicted in 0.157977 seconds.
baseball bat: 57%
(383.426300, 321.162964) (566.977600, 404.786835)
person: 80%
(457.633759, 309.907471) (642.760437, 779.952759)
sub11_h1_sg_1_203.jpg: Predicted in 0.165146 seconds.
baseball bat: 57%
(381.086792, 321.103119) (562.027344, 406.626617)
person: 79%
(458.039612, 304.588654) (636.576477, 784.637878)
sub11_h1_sg_1_204.jpg: Predicted in 0.156596 seconds.
baseball bat: 55%
(375.968323, 322.759369) (565.369324, 406.069641)
person: 79%
(454.613373, 305.703430) (641.652832, 782.706299)
sub11_h1_sg_1_205.jpg: Predicted in 0.156362 seconds.
baseball bat: 53%
(373.738983, 322.646027) (565.395813, 405.931458)
person: 77%
(447.717834, 305.151123) (646.686829, 782.805115)
sub11_h1_sg_1_206.jpg: Predicted in 0.155207 seconds.
baseball bat: 55%
(374.448456, 323.734467) (563.078552, 404.945496)
person: 80%
(450.343384, 303.360352) (650.383606, 783.513367)
sub11_h1_sg_1_207.jpg: Predicted in 0.157231 seconds.
baseball bat: 55%
(373.676697, 323.492279) (562.907532, 404.697235)
person: 78%
(450.856110, 305.744110) (650.982117, 782.449280)
sub11_h1_sg_1_208.jpg: Predicted in 0.156541 seconds.
baseball bat: 52%
(371.870880, 322.857971) (568.664917, 407.069702)
person: 77%
(453.913269, 305.140961) (652.131042, 785.867676)
sub11_h1_sg_1_209.jpg: Predicted in 0.156932 seconds.
baseball bat: 46%
(381.760437, 329.238403) (506.238373, 389.932098)
baseball bat: 54%
(372.740936, 326.987549) (589.668274, 421.223969)
person: 79%
(458.434418, 307.493652) (650.101501, 782.914490)
sub11_h1_sg_1_210.jpg: Predicted in 0.166262 seconds.
baseball bat: 53%
(372.923950, 330.487793) (591.130371, 418.292358)
person: 79%
(457.812531, 309.087463) (658.290894, 782.014587)
sub11_h1_sg_1_211.jpg: Predicted in 0.163748 seconds.
baseball bat: 50%
(381.947815, 330.815704) (501.715454, 390.131592)
baseball bat: 48%
(374.844940, 329.868561) (588.475708, 420.750793)
person: 78%
(453.002625, 309.489227) (660.797363, 781.211182)
sub11_h1_sg_1_212.jpg: Predicted in 0.155253 seconds.
baseball bat: 39%
(385.013062, 331.919281) (508.254517, 388.507751)
baseball bat: 51%
(372.533112, 332.195496) (594.039917, 417.433258)
person: 80%
(454.341064, 309.117615) (655.963074, 782.209778)
sub11_h1_sg_1_213.jpg: Predicted in 0.157761 seconds.
baseball bat: 34%
(383.852203, 330.715271) (503.807556, 389.244415)
baseball bat: 50%
(372.112152, 332.576172) (593.956177, 420.518982)
person: 80%
(452.056152, 307.553589) (661.651001, 782.349854)
sub11_h1_sg_1_214.jpg: Predicted in 0.157478 seconds.
baseball bat: 39%
(381.959442, 332.233002) (507.547180, 389.307709)
baseball bat: 49%
(371.442078, 332.370178) (592.733643, 418.973450)
person: 78%
(453.015442, 310.963226) (662.664795, 779.738281)
sub11_h1_sg_1_215.jpg: Predicted in 0.155701 seconds.
baseball bat: 32%
(379.513855, 334.197571) (494.702301, 384.935669)
baseball bat: 44%
(369.029449, 333.557861) (594.555664, 418.563934)
person: 78%
(450.672852, 309.722565) (661.293457, 781.008118)
sub11_h1_sg_1_216.jpg: Predicted in 0.157347 seconds.
baseball bat: 37%
(380.798676, 337.230865) (496.140961, 384.963470)
baseball bat: 42%
(417.117249, 330.078857) (628.093018, 436.540955)
person: 78%
(447.896149, 309.235596) (661.934021, 782.038879)
sub11_h1_sg_1_217.jpg: Predicted in 0.159247 seconds.
baseball bat: 39%
(383.042206, 335.727936) (490.058228, 386.008789)
baseball bat: 33%
(419.706970, 334.952179) (625.484253, 436.903320)
person: 79%
(449.058746, 302.360046) (662.350464, 785.871094)
sub11_h1_sg_1_218.jpg: Predicted in 0.157084 seconds.
baseball bat: 43%
(411.619232, 336.591644) (634.566589, 435.335144)
person: 81%
(447.785553, 303.044800) (661.933533, 784.038330)
sub11_h1_sg_1_219.jpg: Predicted in 0.156407 seconds.
baseball bat: 47%
(412.384521, 339.004028) (638.627197, 429.009918)
person: 78%
(447.670227, 305.284943) (667.920105, 784.131836)
sub11_h1_sg_1_220.jpg: Predicted in 0.157965 seconds.
baseball bat: 50%
(410.608276, 340.963379) (638.264099, 428.469360)
person: 76%
(447.577118, 302.897614) (665.491211, 786.796387)
sub11_h1_sg_1_221.jpg: Predicted in 0.156741 seconds.
baseball bat: 52%
(402.710632, 342.239746) (650.294922, 426.484222)
person: 75%
(445.261871, 304.661682) (666.284851, 784.069397)
sub11_h1_sg_1_222.jpg: Predicted in 0.154936 seconds.
baseball bat: 48%
(407.191864, 342.250885) (648.483887, 427.314087)
person: 75%
(442.614441, 302.480652) (664.804688, 785.546753)
sub11_h1_sg_1_223.jpg: Predicted in 0.155570 seconds.
baseball bat: 49%
(414.464783, 345.147949) (644.338318, 429.961243)
person: 78%
(440.727753, 297.841431) (665.551758, 788.155212)
sub11_h1_sg_1_224.jpg: Predicted in 0.159233 seconds.
baseball bat: 45%
(412.070648, 342.330841) (643.717773, 430.179352)
person: 77%
(437.328461, 299.915039) (666.201172, 787.122314)
sub11_h1_sg_1_225.jpg: Predicted in 0.157299 seconds.
baseball bat: 47%
(398.187225, 340.657593) (649.572693, 427.848877)
person: 76%
(437.261536, 301.722412) (667.186035, 786.951294)
sub11_h1_sg_1_226.jpg: Predicted in 0.154307 seconds.
baseball bat: 42%
(396.543243, 343.748322) (653.017822, 427.987762)
person: 76%
(432.744659, 305.338654) (667.975952, 784.914490)
sub11_h1_sg_1_227.jpg: Predicted in 0.158537 seconds.
baseball bat: 37%
(406.527374, 345.701721) (650.750549, 429.899658)
person: 79%
(437.075623, 304.345245) (671.704285, 782.914062)
sub11_h1_sg_1_228.jpg: Predicted in 0.156590 seconds.
baseball bat: 37%
(402.307495, 345.327301) (649.683655, 424.759766)
person: 79%
(440.665588, 306.099548) (672.202881, 782.751343)
sub11_h1_sg_1_229.jpg: Predicted in 0.157498 seconds.
baseball bat: 34%
(419.684387, 343.709839) (636.497498, 431.421448)
person: 78%
(437.962677, 302.766357) (668.956482, 783.929688)
sub11_h1_sg_1_230.jpg: Predicted in 0.156053 seconds.
baseball bat: 34%
(410.202118, 353.981873) (637.388428, 430.971527)
person: 77%
(434.131958, 302.668640) (669.364319, 781.528198)
sub11_h1_sg_1_231.jpg: Predicted in 0.156032 seconds.
baseball bat: 32%
(407.103699, 356.152710) (641.129089, 428.817169)
person: 72%
(428.733002, 305.938782) (674.851074, 781.246826)
sub11_h1_sg_1_232.jpg: Predicted in 0.161882 seconds.
baseball bat: 33%
(414.864197, 356.576660) (634.614868, 430.605591)
person: 76%
(430.939270, 303.647308) (672.532471, 780.965637)
sub11_h1_sg_1_233.jpg: Predicted in 0.154934 seconds.
baseball bat: 36%
(404.298981, 356.188934) (644.290588, 424.574188)
person: 75%
(428.921112, 301.772491) (672.713562, 783.097168)
sub11_h1_sg_1_234.jpg: Predicted in 0.156555 seconds.
sports ball: 34%
(957.873413, 271.458832) (982.741638, 293.509369)
person: 75%
(430.445923, 297.153046) (672.374695, 786.067810)
sub11_h1_sg_1_235.jpg: Predicted in 0.155553 seconds.
sports ball: 36%
(956.651184, 271.236206) (982.201660, 294.646484)
baseball bat: 36%
(400.279755, 357.642975) (650.914001, 422.009369)
person: 77%
(430.733398, 301.352570) (671.724487, 782.580811)
sub11_h1_sg_1_236.jpg: Predicted in 0.157892 seconds.
sports ball: 36%
(956.358948, 274.320282) (981.460571, 299.424286)
person: 68%
(422.497101, 353.787628) (679.520142, 782.062622)
sub11_h1_sg_1_237.jpg: Predicted in 0.155863 seconds.
sports ball: 35%
(955.973206, 275.042389) (979.318115, 298.343933)
person: 73%
(428.256409, 295.395721) (666.956360, 788.424072)
sub11_h1_sg_1_238.jpg: Predicted in 0.157845 seconds.
sports ball: 35%
(953.627319, 276.791870) (976.976318, 302.688110)
baseball bat: 33%
(402.986115, 362.474365) (646.952332, 414.986786)
person: 76%
(429.682068, 302.388336) (669.234680, 782.143066)
sub11_h1_sg_1_239.jpg: Predicted in 0.156182 seconds.
sports ball: 33%
(951.451599, 280.657318) (974.224060, 304.424591)
baseball bat: 32%
(399.029724, 361.578674) (646.674866, 414.251953)
person: 76%
(425.949951, 301.485382) (668.565796, 782.479919)
sub11_h1_sg_1_240.jpg: Predicted in 0.164759 seconds.
person: 71%
(431.204987, 352.903381) (679.570801, 782.840332)
sub11_h1_sg_1_241.jpg: Predicted in 0.155700 seconds.
baseball bat: 31%
(395.503754, 366.516083) (653.881104, 411.446442)
person: 68%
(428.571167, 357.084015) (681.736389, 780.635132)
sub11_h1_sg_1_242.jpg: Predicted in 0.157691 seconds.
person: 71%
(428.302246, 352.879181) (679.608032, 781.766663)
sub11_h1_sg_1_243.jpg: Predicted in 0.157694 seconds.
sports ball: 35%
(940.686829, 285.182281) (964.740112, 308.574768)
person: 70%
(430.028168, 350.753296) (680.200684, 785.064880)
sub11_h1_sg_1_244.jpg: Predicted in 0.157610 seconds.
sports ball: 39%
(937.059448, 285.034088) (962.634277, 310.176117)
person: 71%
(434.377686, 354.928680) (680.850769, 782.398315)
sub11_h1_sg_1_245.jpg: Predicted in 0.156819 seconds.
sports ball: 41%
(929.051819, 283.691528) (953.763550, 308.497070)
person: 72%
(440.323761, 356.935822) (680.905151, 781.844666)
sub11_h1_sg_1_246.jpg: Predicted in 0.157746 seconds.
sports ball: 39%
(922.564697, 283.833801) (947.033813, 308.595947)
person: 72%
(437.866058, 346.956818) (680.477844, 786.747742)
sub11_h1_sg_1_247.jpg: Predicted in 0.155762 seconds.
sports ball: 42%
(912.733521, 283.716553) (938.771484, 309.332977)
person: 71%
(440.295380, 309.283295) (664.751404, 781.953979)
sub11_h1_sg_1_248.jpg: Predicted in 0.157562 seconds.
sports ball: 42%
(905.083435, 284.950562) (930.026245, 308.816559)
person: 71%
(446.311157, 340.636353) (678.205200, 789.972595)
sub11_h1_sg_1_249.jpg: Predicted in 0.158438 seconds.
sports ball: 41%
(902.383850, 285.009430) (927.634644, 308.569244)
person: 75%
(448.113220, 308.520660) (664.724487, 780.929199)
sub11_h1_sg_1_250.jpg: Predicted in 0.159313 seconds.
sports ball: 45%
(899.986877, 283.870056) (926.869324, 310.738251)
person: 78%
(446.233795, 305.983368) (669.836304, 781.565613)
sub11_h1_sg_1_251.jpg: Predicted in 0.156640 seconds.
sports ball: 40%
(899.121948, 284.333038) (924.652771, 310.757172)
person: 79%
(447.114838, 302.785156) (675.482971, 783.140869)
sub11_h1_sg_1_252.jpg: Predicted in 0.157559 seconds.
sports ball: 41%
(898.213867, 284.142303) (924.989258, 312.069275)
person: 76%
(440.948151, 304.001221) (675.713074, 783.214294)
sub11_h1_sg_1_253.jpg: Predicted in 0.156094 seconds.
sports ball: 41%
(897.405457, 284.347412) (926.166931, 312.516388)
person: 74%
(442.928436, 310.682831) (674.764343, 778.319580)
sub11_h1_sg_1_254.jpg: Predicted in 0.158344 seconds.
sports ball: 44%
(894.973816, 285.567993) (924.478882, 314.340393)
person: 77%
(448.058105, 309.005646) (668.535889, 778.592041)
sub11_h1_sg_1_255.jpg: Predicted in 0.155863 seconds.
sports ball: 39%
(896.169006, 286.943207) (925.718506, 314.661591)
person: 78%
(447.070374, 311.159576) (669.324951, 777.197144)
sub11_h1_sg_1_256.jpg: Predicted in 0.165806 seconds.
sports ball: 39%
(895.580261, 285.906830) (926.695862, 316.575439)
person: 76%
(444.997559, 309.338867) (672.820740, 779.000183)
sub11_h1_sg_1_257.jpg: Predicted in 0.156468 seconds.
sports ball: 33%
(896.215271, 286.560791) (927.730835, 316.501221)
person: 79%
(455.367065, 306.610321) (670.019958, 780.788208)
sub11_h1_sg_1_258.jpg: Predicted in 0.156611 seconds.
person: 79%
(455.274719, 307.351440) (671.394531, 779.082458)
sub11_h1_sg_1_259.jpg: Predicted in 0.161600 seconds.
person: 78%
(457.700531, 307.410431) (669.978333, 781.066895)
sub11_h1_sg_1_260.jpg: Predicted in 0.156034 seconds.
person: 77%
(464.185852, 305.847992) (666.705444, 780.046021)
sub11_h1_sg_1_261.jpg: Predicted in 0.157348 seconds.
sports ball: 34%
(854.956543, 305.765717) (885.373047, 342.479492)
tennis racket: 32%
(616.830383, 367.322388) (674.850525, 415.358185)
person: 76%
(466.278229, 301.944550) (669.047363, 786.278442)
sub11_h1_sg_1_262.jpg: Predicted in 0.163406 seconds.
sports ball: 38%
(853.646973, 309.936646) (882.478333, 342.224152)
person: 75%
(466.531921, 303.424652) (667.300110, 784.345703)
sub11_h1_sg_1_263.jpg: Predicted in 0.156421 seconds.
sports ball: 40%
(854.206421, 310.978577) (883.015869, 338.962280)
person: 76%
(469.778656, 300.326111) (668.739197, 786.833496)
sub11_h1_sg_1_264.jpg: Predicted in 0.157400 seconds.
sports ball: 39%
(853.407349, 314.154327) (881.001709, 338.718475)
person: 77%
(466.826904, 300.678741) (669.550293, 786.796265)
sub11_h1_sg_1_265.jpg: Predicted in 0.157727 seconds.
sports ball: 46%
(853.427124, 311.474976) (883.297241, 339.486053)
person: 75%
(464.720612, 301.515045) (670.181641, 786.061157)
sub11_h1_sg_1_266.jpg: Predicted in 0.158717 seconds.
sports ball: 46%
(853.597900, 311.360199) (882.587585, 340.247162)
person: 75%
(465.619476, 300.839508) (672.908447, 786.838806)
sub11_h1_sg_1_267.jpg: Predicted in 0.159118 seconds.
sports ball: 46%
(852.556030, 312.305359) (882.199219, 343.347168)
person: 76%
(467.130951, 298.743713) (669.085876, 789.014343)
sub11_h1_sg_1_268.jpg: Predicted in 0.157692 seconds.
sports ball: 47%
(851.609009, 313.066711) (882.394714, 343.056244)
person: 77%
(464.490814, 296.216583) (669.916321, 791.188843)
sub11_h1_sg_1_269.jpg: Predicted in 0.156297 seconds.
sports ball: 46%
(850.435181, 313.984497) (879.421875, 342.663330)
person: 77%
(463.268219, 295.451050) (670.552429, 791.727478)
sub11_h1_sg_1_270.jpg: Predicted in 0.167012 seconds.
sports ball: 48%
(850.137634, 314.991180) (879.142456, 342.287689)
person: 77%
(462.198914, 293.752960) (671.701904, 791.876221)
sub11_h1_sg_1_271.jpg: Predicted in 0.157856 seconds.
sports ball: 44%
(846.992615, 316.192871) (875.821106, 343.007507)
person: 78%
(459.637238, 294.915619) (671.011047, 794.526550)
sub11_h1_sg_1_272.jpg: Predicted in 0.156390 seconds.
sports ball: 47%
(847.537903, 316.752563) (875.646301, 343.645874)
person: 77%
(463.039093, 296.126434) (671.204285, 791.057922)
sub11_h1_sg_1_273.jpg: Predicted in 0.156644 seconds.
sports ball: 46%
(842.257019, 318.741852) (870.861877, 343.483643)
tennis racket: 33%
(612.808960, 362.834747) (668.255188, 412.936676)
person: 77%
(462.446106, 294.194336) (669.604004, 791.911987)
sub11_h1_sg_1_274.jpg: Predicted in 0.154389 seconds.
sports ball: 43%
(836.431946, 321.498657) (862.181152, 344.802917)
tennis racket: 34%
(607.247742, 361.696869) (666.898926, 416.807404)
person: 77%
(464.352112, 294.338593) (668.431702, 789.940186)
sub11_h1_sg_1_275.jpg: Predicted in 0.166636 seconds.
sports ball: 43%
(828.344238, 325.161102) (849.734070, 344.955902)
tennis racket: 36%
(607.097595, 365.278870) (661.529724, 416.878387)
person: 78%
(462.487396, 296.863464) (667.616211, 787.671021)
sub11_h1_sg_1_276.jpg: Predicted in 0.162862 seconds.
sports ball: 44%
(814.553101, 327.179810) (836.522461, 347.943146)
tennis racket: 32%
(609.591797, 365.867859) (659.512512, 414.920685)
person: 78%
(464.098572, 294.881653) (668.989502, 787.013000)
sub11_h1_sg_1_277.jpg: Predicted in 0.165403 seconds.
sports ball: 44%
(807.096924, 332.307098) (827.475342, 352.557587)
person: 78%
(465.588470, 293.514954) (667.155884, 790.327209)
sub11_h1_sg_1_278.jpg: Predicted in 0.158390 seconds.
sports ball: 45%
(804.901062, 332.341736) (826.480774, 352.246063)
tennis racket: 38%
(613.095764, 361.128265) (659.470215, 420.197357)
person: 76%
(464.956635, 294.526947) (666.809387, 792.524353)
sub11_h1_sg_1_279.jpg: Predicted in 0.156893 seconds.
sports ball: 46%
(802.599182, 333.807953) (825.479309, 355.407379)
tennis racket: 33%
(618.161865, 362.106934) (663.580078, 417.329437)
person: 78%
(464.593597, 296.360992) (666.036377, 790.775269)
sub11_h1_sg_1_280.jpg: Predicted in 0.166218 seconds.
sports ball: 48%
(799.996277, 333.633453) (823.047058, 357.752869)
tennis racket: 44%
(622.343323, 357.014618) (663.109131, 422.115021)
person: 76%
(469.229309, 296.664856) (665.846252, 788.833374)
sub11_h1_sg_1_281.jpg: Predicted in 0.158109 seconds.
sports ball: 45%
(798.708557, 337.344666) (820.808350, 361.090576)
tennis racket: 45%
(617.790283, 358.500519) (664.745117, 423.375671)
person: 76%
(470.354126, 294.441162) (671.351135, 789.790039)
sub11_h1_sg_1_282.jpg: Predicted in 0.156725 seconds.
sports ball: 48%
(797.169861, 339.172211) (821.779297, 365.843567)
tennis racket: 47%
(620.486572, 355.386658) (667.418701, 422.607086)
person: 78%
(469.618134, 292.767395) (671.069519, 792.454651)
sub11_h1_sg_1_283.jpg: Predicted in 0.155262 seconds.
sports ball: 50%
(796.366638, 341.166321) (819.749695, 367.673920)
tennis racket: 39%
(626.257751, 356.204987) (673.999939, 416.000916)
person: 77%
(469.596130, 293.963806) (668.931274, 789.918823)
sub11_h1_sg_1_284.jpg: Predicted in 0.166326 seconds.
sports ball: 49%
(793.908020, 343.454346) (818.383728, 368.417664)
tennis racket: 48%
(626.479675, 351.627991) (681.823120, 417.821594)
person: 77%
(469.216827, 293.582764) (671.238586, 788.296265)
sub11_h1_sg_1_285.jpg: Predicted in 0.156460 seconds.
sports ball: 52%
(793.051941, 342.414551) (818.799866, 366.667847)
tennis racket: 55%
(630.730896, 349.622284) (690.110168, 417.753326)
person: 77%
(471.504822, 296.172485) (670.856995, 783.367920)
sub11_h1_sg_1_286.jpg: Predicted in 0.156236 seconds.
sports ball: 54%
(792.903931, 342.720276) (819.784668, 369.699707)
tennis racket: 55%
(627.907349, 347.113312) (692.324280, 419.573273)
person: 76%
(468.980774, 294.593201) (675.745178, 785.707214)
sub11_h1_sg_1_287.jpg: Predicted in 0.157177 seconds.
sports ball: 50%
(791.500671, 342.684174) (819.047546, 370.410583)
tennis racket: 49%
(628.919006, 349.928192) (699.654907, 417.721161)
person: 75%
(470.742493, 298.108063) (673.291870, 781.500305)
sub11_h1_sg_1_288.jpg: Predicted in 0.155541 seconds.
sports ball: 37%
(791.986938, 341.864777) (820.213196, 371.363129)
tennis racket: 51%
(624.893066, 350.323578) (707.340820, 420.983337)
person: 75%
(473.165161, 299.983551) (670.456848, 781.176147)
sub11_h1_sg_1_289.jpg: Predicted in 0.157047 seconds.
tennis racket: 53%
(625.619873, 350.798798) (716.242188, 420.094910)
person: 73%
(472.123688, 298.326416) (670.419739, 785.685120)
sub11_h1_sg_1_290.jpg: Predicted in 0.155036 seconds.
sports ball: 36%
(756.509460, 347.805206) (784.152039, 372.046631)
tennis racket: 52%
(624.615662, 351.288574) (719.234558, 422.229706)
person: 74%
(474.258118, 297.868835) (671.138000, 780.516235)
sub11_h1_sg_1_291.jpg: Predicted in 0.157736 seconds.
sports ball: 35%
(753.626770, 351.572632) (780.606201, 373.500641)
tennis racket: 52%
(626.043945, 352.724823) (719.740662, 419.791626)
person: 74%
(477.544861, 295.443085) (673.598267, 780.346191)
sub11_h1_sg_1_292.jpg: Predicted in 0.164403 seconds.
sports ball: 45%
(752.937012, 350.669220) (781.688721, 374.822815)
tennis racket: 43%
(629.130493, 354.166534) (715.825134, 415.835724)
person: 74%
(476.231537, 294.533630) (674.635376, 785.636780)
sub11_h1_sg_1_293.jpg: Predicted in 0.155512 seconds.
sports ball: 43%
(752.736633, 353.102142) (779.635193, 374.421722)
tennis racket: 41%
(626.333801, 355.172333) (716.957825, 416.572845)
person: 72%
(473.610565, 297.924713) (679.999390, 785.639465)
sub11_h1_sg_1_294.jpg: Predicted in 0.157504 seconds.
sports ball: 44%
(751.272705, 352.399048) (779.098999, 375.046661)
person: 71%
(474.644928, 295.446045) (680.822693, 784.377625)
sub11_h1_sg_1_295.jpg: Predicted in 0.156771 seconds.
sports ball: 40%
(746.054993, 353.355286) (776.857300, 376.742828)
person: 72%
(458.411194, 305.443512) (744.211792, 766.684753)
sub11_h1_sg_1_296.jpg: Predicted in 0.155727 seconds.
person: 71%
(476.728333, 292.849548) (676.830750, 785.031616)
sub11_h1_sg_1_297.jpg: Predicted in 0.158141 seconds.
sports ball: 33%
(742.109009, 353.908508) (774.644714, 377.597504)
person: 73%
(474.783386, 293.080383) (674.888367, 782.455688)
sub11_h1_sg_1_298.jpg: Predicted in 0.156182 seconds.
person: 73%
(472.603333, 297.874634) (674.882324, 781.658447)
sub11_h1_sg_1_299.jpg: Predicted in 0.157567 seconds.
person: 75%
(473.716583, 295.308502) (674.838318, 785.659241)
sub11_h1_sg_1_300.jpg: Predicted in 0.155264 seconds.
baseball bat: 32%
(684.739990, 357.328217) (786.568115, 393.864410)
person: 73%
(468.731628, 297.612122) (679.797180, 781.540771)
sub11_h1_sg_1_301.jpg: Predicted in 0.157946 seconds.
person: 71%
(467.319519, 296.946777) (683.864624, 782.940613)
sub11_h1_sg_1_302.jpg: Predicted in 0.155498 seconds.
person: 74%
(437.633484, 304.197632) (766.920837, 770.415283)
sub11_h1_sg_1_303.jpg: Predicted in 0.158204 seconds.
baseball bat: 31%
(697.072510, 361.349792) (800.696045, 388.959625)
person: 77%
(438.532837, 308.133514) (766.521851, 769.681152)
sub11_h1_sg_1_304.jpg: Predicted in 0.156843 seconds.
person: 77%
(442.423615, 306.583923) (761.227722, 767.804688)
sub11_h1_sg_1_305.jpg: Predicted in 0.158672 seconds.
tennis racket: 31%
(701.932251, 355.341888) (802.808472, 398.935059)
person: 73%
(442.113068, 304.918335) (758.835876, 765.176636)
sub11_h1_sg_1_306.jpg: Predicted in 0.157749 seconds.
sports ball: 31%
(747.070435, 353.303986) (777.766113, 375.353943)
tennis racket: 43%
(690.839783, 351.863586) (810.840698, 403.176666)
person: 74%
(440.989166, 304.524689) (761.438171, 766.424133)
sub11_h1_sg_1_307.jpg: Predicted in 0.157497 seconds.
sports ball: 35%
(748.214661, 351.525635) (781.601318, 374.500458)
tennis racket: 37%
(689.050903, 351.593475) (816.892395, 405.770538)
person: 72%
(446.034943, 307.558228) (755.959045, 766.893799)
sub11_h1_sg_1_308.jpg: Predicted in 0.155490 seconds.
sports ball: 39%
(749.526672, 348.074951) (781.823730, 375.229218)
person: 72%
(465.500732, 299.445129) (683.827637, 783.008484)
sub11_h1_sg_1_309.jpg: Predicted in 0.157163 seconds.
sports ball: 37%
(749.280884, 344.351624) (782.698669, 374.802155)
person: 74%
(465.503967, 298.099030) (680.804138, 780.212402)
sub11_h1_sg_1_310.jpg: Predicted in 0.155331 seconds.
sports ball: 42%
(758.253906, 344.608765) (785.040955, 366.856262)
tennis racket: 44%
(679.459595, 353.935608) (816.256775, 404.518555)
person: 75%
(463.934631, 302.129639) (673.631836, 777.729004)
sub11_h1_sg_1_311.jpg: Predicted in 0.157812 seconds.
sports ball: 38%
(756.411377, 335.282562) (785.408997, 358.751648)
tennis racket: 47%
(657.976929, 354.275604) (820.251099, 407.549530)
person: 77%
(467.141937, 298.058716) (671.831726, 779.120911)
sub11_h1_sg_1_312.jpg: Predicted in 0.156467 seconds.
sports ball: 35%
(753.836548, 330.090576) (785.170593, 354.284088)
baseball bat: 38%
(651.824097, 357.887146) (828.911987, 407.946228)
person: 75%
(467.556549, 297.273438) (674.097839, 780.897217)
sub11_h1_sg_1_313.jpg: Predicted in 0.155213 seconds.
sports ball: 33%
(754.246277, 327.314026) (785.397888, 350.928619)
tennis racket: 37%
(644.363831, 359.400085) (833.510498, 407.200531)
person: 73%
(466.755432, 296.734131) (679.842529, 779.037964)
sub11_h1_sg_1_314.jpg: Predicted in 0.156433 seconds.
sports ball: 35%
(753.519043, 324.476166) (786.236206, 348.236237)
baseball bat: 55%
(639.105530, 362.940125) (836.074219, 410.030304)
person: 73%
(468.920807, 295.503296) (675.404053, 779.479065)
sub11_h1_sg_1_315.jpg: Predicted in 0.155969 seconds.
sports ball: 39%
(751.985840, 323.136108) (785.427795, 348.618896)
baseball bat: 67%
(631.257629, 362.135406) (833.892822, 409.787689)
person: 75%
(467.782715, 293.906158) (672.770935, 781.298950)
sub11_h1_sg_1_316.jpg: Predicted in 0.156015 seconds.
sports ball: 32%
(755.535522, 321.904022) (786.833984, 345.985352)
baseball bat: 66%
(632.631775, 364.029083) (828.029846, 412.342987)
person: 74%
(469.972137, 294.575592) (674.127380, 781.556030)
sub11_h1_sg_1_317.jpg: Predicted in 0.156883 seconds.
baseball bat: 38%
(623.286316, 362.600311) (844.382751, 412.252045)
person: 73%
(469.553192, 296.341461) (679.599487, 781.515198)
sub11_h1_sg_1_318.jpg: Predicted in 0.157053 seconds.
baseball bat: 54%
(637.363770, 363.727295) (846.487244, 413.375275)
person: 73%
(470.001892, 296.050659) (679.008423, 781.040649)
sub11_h1_sg_1_319.jpg: Predicted in 0.158264 seconds.
sports ball: 34%
(758.535706, 288.793091) (782.117493, 312.201263)
tennis racket: 39%
(636.846130, 362.615204) (850.574219, 417.624939)
person: 73%
(471.866577, 294.850525) (676.960266, 781.994141)
sub11_h1_sg_1_320.jpg: Predicted in 0.155321 seconds.
sports ball: 34%
(759.365051, 285.729401) (785.313110, 311.255951)
baseball bat: 62%
(634.806396, 359.979950) (848.955078, 414.567535)
person: 71%
(468.993713, 297.516113) (680.712769, 781.027954)
sub11_h1_sg_1_321.jpg: Predicted in 0.158987 seconds.
sports ball: 35%
(759.339783, 283.065399) (785.870178, 309.822296)
baseball bat: 50%
(631.101013, 358.665405) (842.492920, 416.223755)
person: 74%
(468.443237, 294.703522) (668.909729, 783.469849)
