sub16_l2_sg_3_001.jpg: Predicted in 0.157193 seconds.
baseball bat: 30%
(829.291321, 178.193878) (871.117920, 358.058441)
person: 80%
(642.010742, 213.257629) (890.978027, 795.575500)
sub16_l2_sg_3_002.jpg: Predicted in 0.158210 seconds.
baseball bat: 30%
(829.487122, 183.681107) (871.390747, 351.829803)
person: 80%
(641.231873, 211.109116) (889.326111, 797.450562)
sub16_l2_sg_3_003.jpg: Predicted in 0.157078 seconds.
baseball bat: 30%
(829.150452, 185.363464) (872.504700, 349.725128)
person: 79%
(643.316406, 214.323395) (888.684631, 795.911743)
sub16_l2_sg_3_004.jpg: Predicted in 0.165777 seconds.
person: 81%
(639.685181, 216.662506) (891.360352, 795.286865)
sub16_l2_sg_3_005.jpg: Predicted in 0.160467 seconds.
baseball bat: 30%
(830.065796, 189.139236) (874.448364, 348.776001)
person: 81%
(639.891968, 215.893143) (891.150513, 795.802979)
sub16_l2_sg_3_006.jpg: Predicted in 0.156492 seconds.
baseball bat: 33%
(828.339355, 188.137878) (873.183289, 348.827454)
person: 80%
(641.811218, 215.673492) (891.141663, 794.588501)
sub16_l2_sg_3_007.jpg: Predicted in 0.157090 seconds.
baseball bat: 35%
(828.728394, 186.502518) (873.242554, 348.713013)
person: 80%
(637.896423, 214.192383) (893.646545, 796.178467)
sub16_l2_sg_3_008.jpg: Predicted in 0.163556 seconds.
baseball bat: 38%
(829.167480, 181.263824) (872.454407, 356.143951)
person: 80%
(639.545410, 215.099197) (894.389648, 797.692261)
sub16_l2_sg_3_009.jpg: Predicted in 0.158139 seconds.
baseball bat: 34%
(829.987976, 171.996033) (870.404785, 360.838745)
person: 80%
(639.268433, 212.035126) (894.112732, 794.306824)
sub16_l2_sg_3_010.jpg: Predicted in 0.156885 seconds.
baseball bat: 35%
(827.851868, 172.966370) (869.589233, 361.877319)
person: 80%
(636.678833, 211.869217) (894.708496, 794.198914)
sub16_l2_sg_3_011.jpg: Predicted in 0.155267 seconds.
baseball bat: 35%
(828.060181, 174.599457) (870.031982, 358.706909)
person: 80%
(640.469543, 213.869263) (893.537415, 797.435852)
sub16_l2_sg_3_012.jpg: Predicted in 0.157095 seconds.
baseball bat: 38%
(828.579773, 175.160217) (870.593201, 358.895538)
person: 80%
(641.245850, 214.841171) (893.273010, 796.460999)
sub16_l2_sg_3_013.jpg: Predicted in 0.158929 seconds.
baseball bat: 35%
(828.914917, 176.864075) (871.207153, 358.953491)
person: 80%
(636.623352, 216.516830) (892.037964, 795.885925)
sub16_l2_sg_3_014.jpg: Predicted in 0.156878 seconds.
baseball bat: 33%
(830.762024, 183.492798) (874.454346, 351.064636)
person: 79%
(634.884460, 217.013641) (893.467407, 793.085876)
sub16_l2_sg_3_015.jpg: Predicted in 0.156673 seconds.
baseball bat: 34%
(828.250671, 186.436890) (872.588867, 349.469513)
person: 80%
(636.481140, 218.505051) (891.828491, 793.351990)
sub16_l2_sg_3_016.jpg: Predicted in 0.156099 seconds.
baseball bat: 35%
(828.374634, 183.765594) (871.872986, 349.690002)
person: 81%
(639.349792, 216.896240) (891.224243, 795.459656)
sub16_l2_sg_3_017.jpg: Predicted in 0.163422 seconds.
baseball bat: 37%
(827.240112, 178.287064) (872.489319, 354.900360)
person: 81%
(638.347534, 221.010727) (891.969116, 791.545715)
sub16_l2_sg_3_018.jpg: Predicted in 0.157271 seconds.
baseball bat: 41%
(829.589111, 174.598526) (873.983459, 360.242188)
person: 81%
(636.407776, 218.673233) (893.564453, 792.147644)
sub16_l2_sg_3_019.jpg: Predicted in 0.156538 seconds.
baseball bat: 41%
(830.361267, 167.081314) (872.170776, 365.154266)
person: 81%
(634.762756, 218.959900) (892.917114, 789.639771)
sub16_l2_sg_3_020.jpg: Predicted in 0.158517 seconds.
baseball bat: 43%
(830.238586, 164.756348) (872.915710, 368.313110)
person: 81%
(634.139832, 218.412994) (891.472961, 788.808350)
sub16_l2_sg_3_021.jpg: Predicted in 0.156661 seconds.
baseball bat: 37%
(830.003906, 170.972763) (870.480103, 366.576599)
person: 81%
(633.204834, 220.735123) (890.244385, 789.706848)
sub16_l2_sg_3_022.jpg: Predicted in 0.157323 seconds.
baseball bat: 40%
(831.180054, 169.919128) (872.149536, 364.310913)
person: 81%
(633.332886, 221.846146) (887.992371, 790.771790)
sub16_l2_sg_3_023.jpg: Predicted in 0.155572 seconds.
baseball bat: 38%
(828.940308, 176.565613) (871.621643, 358.450195)
person: 80%
(632.622559, 223.081085) (885.760437, 789.365784)
sub16_l2_sg_3_024.jpg: Predicted in 0.158202 seconds.
baseball bat: 37%
(830.056274, 170.739960) (872.690186, 365.654877)
person: 80%
(633.133362, 218.628555) (886.688538, 793.512573)
sub16_l2_sg_3_025.jpg: Predicted in 0.155911 seconds.
baseball bat: 41%
(828.596619, 175.579391) (872.208557, 358.905182)
person: 81%
(631.810669, 219.183807) (885.313354, 793.925415)
sub16_l2_sg_3_026.jpg: Predicted in 0.157536 seconds.
baseball bat: 38%
(829.512268, 179.213028) (872.919983, 354.343719)
person: 81%
(634.997437, 222.640869) (886.045349, 791.173279)
sub16_l2_sg_3_027.jpg: Predicted in 0.156428 seconds.
baseball bat: 42%
(831.589050, 175.293106) (874.297607, 359.548035)
person: 81%
(633.868164, 221.044754) (882.610840, 792.648987)
sub16_l2_sg_3_028.jpg: Predicted in 0.155260 seconds.
baseball bat: 35%
(831.780579, 174.152161) (872.235352, 364.829651)
person: 81%
(632.318726, 224.103500) (885.068848, 791.122498)
sub16_l2_sg_3_029.jpg: Predicted in 0.154290 seconds.
baseball bat: 36%
(829.926208, 175.864471) (870.062805, 360.025635)
person: 80%
(633.941101, 222.067291) (890.562256, 788.979858)
sub16_l2_sg_3_030.jpg: Predicted in 0.157784 seconds.
baseball bat: 35%
(830.505615, 175.615387) (869.410461, 356.931854)
person: 81%
(631.471558, 221.384338) (890.542908, 789.839722)
sub16_l2_sg_3_031.jpg: Predicted in 0.155413 seconds.
baseball bat: 31%
(831.642456, 182.181091) (869.882202, 355.985352)
person: 81%
(631.215027, 225.740692) (887.551331, 790.103760)
sub16_l2_sg_3_032.jpg: Predicted in 0.155224 seconds.
person: 81%
(630.080444, 222.898788) (887.914429, 789.992859)
sub16_l2_sg_3_033.jpg: Predicted in 0.158743 seconds.
person: 80%
(629.699036, 223.524048) (888.410706, 790.505737)
sub16_l2_sg_3_034.jpg: Predicted in 0.157017 seconds.
person: 81%
(631.535645, 222.047668) (885.207947, 792.507996)
sub16_l2_sg_3_035.jpg: Predicted in 0.156833 seconds.
person: 81%
(631.604553, 223.614151) (886.510376, 794.650330)
sub16_l2_sg_3_036.jpg: Predicted in 0.158120 seconds.
person: 80%
(632.699646, 219.793839) (884.109253, 794.932800)
sub16_l2_sg_3_037.jpg: Predicted in 0.157743 seconds.
baseball bat: 33%
(830.725647, 172.539246) (870.682739, 362.644043)
person: 82%
(631.701904, 221.953613) (883.903564, 793.431152)
sub16_l2_sg_3_038.jpg: Predicted in 0.156355 seconds.
baseball bat: 33%
(830.858826, 170.559341) (868.091248, 364.431488)
person: 81%
(631.917419, 222.415955) (883.173523, 793.839417)
sub16_l2_sg_3_039.jpg: Predicted in 0.157365 seconds.
baseball bat: 33%
(834.625244, 171.421814) (869.261780, 360.964569)
person: 82%
(630.734375, 219.970993) (884.752686, 790.520874)
sub16_l2_sg_3_040.jpg: Predicted in 0.157690 seconds.
baseball bat: 31%
(837.359680, 172.138901) (870.490051, 359.800415)
person: 82%
(630.277832, 219.925049) (885.416748, 789.878540)
sub16_l2_sg_3_041.jpg: Predicted in 0.157148 seconds.
person: 82%
(628.015381, 223.753189) (885.512939, 789.617798)
sub16_l2_sg_3_042.jpg: Predicted in 0.161289 seconds.
person: 82%
(627.442444, 220.269653) (886.279785, 791.868164)
sub16_l2_sg_3_043.jpg: Predicted in 0.156784 seconds.
baseball bat: 31%
(833.421448, 183.250122) (871.379761, 353.423096)
person: 82%
(620.289856, 223.211487) (885.841248, 789.696716)
sub16_l2_sg_3_044.jpg: Predicted in 0.157939 seconds.
baseball bat: 33%
(833.799866, 180.658569) (872.385620, 357.294281)
person: 81%
(625.956360, 223.939972) (886.810852, 789.081665)
sub16_l2_sg_3_045.jpg: Predicted in 0.155015 seconds.
baseball bat: 41%
(834.291870, 179.954926) (873.703430, 354.385468)
person: 82%
(628.444519, 219.011993) (884.714966, 792.863708)
sub16_l2_sg_3_046.jpg: Predicted in 0.157201 seconds.
baseball bat: 38%
(833.894775, 178.603683) (873.106140, 359.660736)
person: 82%
(629.670410, 219.432190) (884.539307, 792.219299)
sub16_l2_sg_3_047.jpg: Predicted in 0.165459 seconds.
baseball bat: 37%
(834.337952, 181.913208) (872.794128, 354.260956)
person: 82%
(628.176758, 221.105743) (886.605713, 790.761047)
sub16_l2_sg_3_048.jpg: Predicted in 0.157609 seconds.
baseball bat: 42%
(835.277588, 176.933975) (871.974609, 359.677917)
person: 82%
(629.859375, 219.488098) (887.959717, 792.158386)
sub16_l2_sg_3_049.jpg: Predicted in 0.158485 seconds.
baseball bat: 42%
(834.177795, 168.556396) (869.425598, 367.753510)
person: 82%
(630.084717, 220.303726) (890.017700, 789.847290)
sub16_l2_sg_3_050.jpg: Predicted in 0.156232 seconds.
baseball bat: 39%
(833.873657, 165.854904) (867.884888, 371.935669)
person: 81%
(627.825867, 220.093582) (891.089233, 789.269470)
sub16_l2_sg_3_051.jpg: Predicted in 0.154835 seconds.
baseball bat: 36%
(833.762390, 171.527573) (869.498901, 364.434692)
person: 81%
(628.171631, 221.246643) (884.946167, 789.320435)
sub16_l2_sg_3_052.jpg: Predicted in 0.156536 seconds.
baseball bat: 34%
(832.728760, 179.765762) (869.706665, 353.965546)
person: 82%
(630.569153, 221.598846) (888.671265, 790.732666)
sub16_l2_sg_3_053.jpg: Predicted in 0.155777 seconds.
baseball bat: 36%
(831.939697, 182.899124) (869.952087, 352.955231)
person: 81%
(628.725830, 220.168045) (887.829956, 791.370544)
sub16_l2_sg_3_054.jpg: Predicted in 0.156020 seconds.
baseball bat: 35%
(830.231750, 177.782852) (868.814880, 359.107880)
person: 81%
(626.610229, 219.284851) (885.773010, 791.132812)
sub16_l2_sg_3_055.jpg: Predicted in 0.157807 seconds.
baseball bat: 35%
(830.374146, 182.195633) (869.654846, 350.606323)
person: 81%
(625.374695, 219.146912) (884.435303, 792.769653)
sub16_l2_sg_3_056.jpg: Predicted in 0.158280 seconds.
baseball bat: 33%
(829.762939, 179.511200) (867.114502, 353.757477)
person: 81%
(624.868286, 219.067596) (884.355774, 792.400696)
sub16_l2_sg_3_057.jpg: Predicted in 0.156793 seconds.
baseball bat: 36%
(832.365051, 178.083679) (870.407593, 354.473572)
person: 81%
(626.400696, 220.389252) (883.943115, 791.310059)
sub16_l2_sg_3_058.jpg: Predicted in 0.155781 seconds.
baseball bat: 31%
(833.240295, 179.838531) (869.399292, 351.591614)
person: 82%
(627.076721, 222.123764) (887.998535, 793.234375)
sub16_l2_sg_3_059.jpg: Predicted in 0.156568 seconds.
baseball bat: 34%
(833.326172, 180.409515) (870.151001, 346.457642)
person: 82%
(630.231018, 217.499588) (888.421143, 793.773865)
sub16_l2_sg_3_060.jpg: Predicted in 0.156681 seconds.
baseball bat: 37%
(834.024719, 176.479523) (869.769714, 351.078094)
person: 82%
(628.395813, 221.154114) (889.712219, 790.901855)
sub16_l2_sg_3_061.jpg: Predicted in 0.163966 seconds.
baseball bat: 34%
(833.932007, 179.262756) (870.148315, 346.916718)
person: 82%
(623.671021, 220.151001) (888.652588, 792.035339)
sub16_l2_sg_3_062.jpg: Predicted in 0.160171 seconds.
baseball bat: 36%
(837.899414, 182.846527) (875.399536, 343.842743)
person: 81%
(625.828979, 218.350098) (884.435791, 793.775513)
sub16_l2_sg_3_063.jpg: Predicted in 0.155661 seconds.
baseball bat: 34%
(834.811279, 174.198746) (874.524658, 349.284637)
person: 80%
(624.963440, 219.217163) (885.243469, 793.538879)
sub16_l2_sg_3_064.jpg: Predicted in 0.157502 seconds.
baseball bat: 34%
(835.055115, 175.959244) (874.602783, 348.358124)
person: 81%
(626.237488, 217.530472) (885.343750, 793.320374)
sub16_l2_sg_3_065.jpg: Predicted in 0.156096 seconds.
baseball bat: 34%
(833.681458, 176.430145) (872.598145, 349.388092)
person: 80%
(626.621887, 217.915131) (883.719604, 792.807434)
sub16_l2_sg_3_066.jpg: Predicted in 0.157314 seconds.
baseball bat: 32%
(835.943298, 177.066895) (873.566589, 348.842133)
person: 81%
(624.226318, 222.323990) (882.679199, 790.014160)
sub16_l2_sg_3_067.jpg: Predicted in 0.155853 seconds.
baseball bat: 31%
(839.306335, 173.952621) (874.046021, 352.475555)
person: 81%
(623.811890, 219.402130) (884.835571, 792.046753)
sub16_l2_sg_3_068.jpg: Predicted in 0.156026 seconds.
baseball bat: 38%
(838.476135, 170.102280) (873.162354, 352.218262)
person: 81%
(625.150330, 218.539383) (889.951294, 792.918335)
sub16_l2_sg_3_069.jpg: Predicted in 0.155422 seconds.
baseball bat: 37%
(840.967834, 165.286514) (874.080872, 357.893250)
person: 81%
(622.948608, 218.339584) (889.087830, 794.234436)
sub16_l2_sg_3_070.jpg: Predicted in 0.158116 seconds.
baseball bat: 35%
(840.291321, 166.290894) (874.534912, 356.091461)
person: 81%
(621.758728, 214.456604) (888.118164, 795.615234)
sub16_l2_sg_3_071.jpg: Predicted in 0.156340 seconds.
baseball bat: 34%
(840.372742, 168.403183) (873.398926, 352.850006)
person: 81%
(624.457458, 213.128799) (883.902344, 798.561218)
sub16_l2_sg_3_072.jpg: Predicted in 0.155946 seconds.
baseball bat: 34%
(840.504883, 164.316437) (873.567261, 356.520599)
person: 81%
(625.913391, 215.801422) (884.992249, 794.413452)
sub16_l2_sg_3_073.jpg: Predicted in 0.155508 seconds.
baseball bat: 30%
(838.183228, 164.065094) (871.692871, 356.200531)
person: 80%
(626.787598, 212.483383) (883.941772, 795.985413)
sub16_l2_sg_3_074.jpg: Predicted in 0.155361 seconds.
person: 80%
(625.333069, 217.303757) (880.582764, 791.175354)
sub16_l2_sg_3_075.jpg: Predicted in 0.157525 seconds.
person: 80%
(625.070068, 217.266800) (880.821045, 790.779358)
sub16_l2_sg_3_076.jpg: Predicted in 0.155356 seconds.
baseball bat: 34%
(838.137939, 165.901062) (870.791077, 358.415344)
person: 79%
(628.880615, 215.446045) (876.836975, 792.310791)
sub16_l2_sg_3_077.jpg: Predicted in 0.158689 seconds.
baseball bat: 30%
(836.605591, 165.124100) (869.186523, 362.810364)
person: 80%
(628.319702, 215.852325) (878.976135, 794.084961)
sub16_l2_sg_3_078.jpg: Predicted in 0.156141 seconds.
baseball bat: 38%
(836.437866, 170.795975) (870.704651, 353.225952)
person: 81%
(624.604248, 210.415741) (881.110596, 797.938416)
sub16_l2_sg_3_079.jpg: Predicted in 0.156190 seconds.
baseball bat: 38%
(835.352783, 169.960129) (868.593872, 353.712250)
person: 81%
(622.605042, 210.578033) (887.358765, 795.893433)
sub16_l2_sg_3_080.jpg: Predicted in 0.163719 seconds.
baseball bat: 40%
(831.269775, 168.886536) (865.282471, 355.950592)
person: 81%
(619.714905, 209.832947) (886.435181, 796.610352)
sub16_l2_sg_3_081.jpg: Predicted in 0.158209 seconds.
baseball bat: 41%
(831.544495, 168.307404) (865.068054, 360.427338)
person: 80%
(619.366699, 213.626129) (884.098877, 793.220398)
sub16_l2_sg_3_082.jpg: Predicted in 0.158298 seconds.
baseball bat: 43%
(833.464539, 165.355118) (867.604309, 361.952728)
person: 81%
(621.865234, 213.679321) (886.770508, 795.416809)
sub16_l2_sg_3_083.jpg: Predicted in 0.157494 seconds.
baseball bat: 44%
(832.304810, 165.421021) (869.320251, 362.191284)
person: 81%
(622.254517, 213.661743) (887.746521, 794.817932)
sub16_l2_sg_3_084.jpg: Predicted in 0.156971 seconds.
baseball bat: 39%
(831.111755, 167.704803) (867.290649, 360.532990)
person: 81%
(620.951660, 216.171890) (886.514771, 792.644348)
sub16_l2_sg_3_085.jpg: Predicted in 0.155699 seconds.
baseball bat: 44%
(831.597290, 168.599533) (868.946106, 360.086365)
person: 81%
(621.458679, 216.297943) (885.648560, 794.527405)
sub16_l2_sg_3_086.jpg: Predicted in 0.157042 seconds.
baseball bat: 40%
(834.660583, 172.336853) (870.667358, 360.042999)
person: 80%
(621.417908, 216.143677) (884.009033, 792.970215)
sub16_l2_sg_3_087.jpg: Predicted in 0.157501 seconds.
baseball bat: 44%
(833.684326, 170.586868) (869.941467, 359.640259)
person: 80%
(619.013000, 217.216782) (885.481506, 791.784851)
sub16_l2_sg_3_088.jpg: Predicted in 0.158399 seconds.
baseball bat: 46%
(831.112610, 169.267532) (869.313416, 359.722748)
person: 81%
(619.838806, 212.447235) (886.183533, 795.537476)
sub16_l2_sg_3_089.jpg: Predicted in 0.165855 seconds.
baseball bat: 53%
(827.879822, 171.684891) (866.294556, 357.955933)
person: 81%
(620.723145, 216.459229) (887.747498, 794.536133)
sub16_l2_sg_3_090.jpg: Predicted in 0.157758 seconds.
baseball bat: 49%
(828.262024, 168.544052) (867.347412, 361.366089)
person: 81%
(616.008118, 216.675598) (888.007202, 793.260254)
sub16_l2_sg_3_091.jpg: Predicted in 0.165573 seconds.
baseball bat: 46%
(826.047119, 172.011658) (866.503723, 358.746002)
person: 80%
(615.628113, 217.510559) (886.183105, 791.891907)
sub16_l2_sg_3_092.jpg: Predicted in 0.158052 seconds.
baseball bat: 43%
(826.536011, 177.705414) (866.555298, 349.170044)
person: 80%
(615.367493, 216.792877) (883.724915, 793.430298)
sub16_l2_sg_3_093.jpg: Predicted in 0.158268 seconds.
baseball bat: 46%
(825.775513, 177.868134) (865.641113, 349.285828)
person: 80%
(611.667480, 217.218613) (886.707764, 793.519958)
sub16_l2_sg_3_094.jpg: Predicted in 0.156689 seconds.
baseball bat: 42%
(825.098328, 181.200302) (865.732544, 345.034515)
person: 80%
(615.353638, 216.216660) (879.770752, 794.669312)
sub16_l2_sg_3_095.jpg: Predicted in 0.162002 seconds.
baseball bat: 53%
(825.149597, 177.616287) (867.731567, 348.921997)
person: 80%
(619.006592, 213.955933) (880.886475, 796.258240)
sub16_l2_sg_3_096.jpg: Predicted in 0.156971 seconds.
baseball bat: 48%
(827.934753, 179.580399) (868.438354, 348.843567)
person: 80%
(615.172913, 216.616272) (879.899719, 795.357605)
sub16_l2_sg_3_097.jpg: Predicted in 0.156982 seconds.
baseball bat: 51%
(824.845093, 177.728439) (868.049500, 352.875336)
person: 80%
(617.002075, 214.667847) (882.190552, 799.192566)
sub16_l2_sg_3_098.jpg: Predicted in 0.165318 seconds.
baseball bat: 52%
(823.804810, 175.818863) (866.905945, 357.787231)
person: 80%
(613.290283, 211.664490) (884.030579, 798.291687)
sub16_l2_sg_3_099.jpg: Predicted in 0.158188 seconds.
baseball bat: 47%
(824.362671, 179.138565) (867.925964, 354.105103)
person: 79%
(622.944092, 211.054810) (885.301941, 797.076294)
sub16_l2_sg_3_100.jpg: Predicted in 0.162257 seconds.
baseball bat: 52%
(822.839355, 176.544632) (865.052795, 355.464691)
person: 79%
(620.398926, 212.443359) (884.567505, 796.700928)
sub16_l2_sg_3_101.jpg: Predicted in 0.158247 seconds.
baseball bat: 52%
(824.457764, 174.319321) (869.410522, 356.677856)
person: 80%
(616.734558, 212.629730) (879.369385, 799.237244)
sub16_l2_sg_3_102.jpg: Predicted in 0.157444 seconds.
baseball bat: 50%
(825.400208, 175.622391) (871.128601, 351.680298)
person: 79%
(618.078369, 213.870361) (881.751953, 798.374084)
sub16_l2_sg_3_103.jpg: Predicted in 0.156090 seconds.
baseball bat: 56%
(825.369263, 172.042603) (869.667358, 356.079834)
person: 79%
(617.249512, 214.835266) (880.079590, 799.600525)
sub16_l2_sg_3_104.jpg: Predicted in 0.165238 seconds.
baseball bat: 51%
(826.883545, 176.159668) (869.434021, 349.713501)
person: 79%
(617.908020, 216.416000) (880.065125, 797.768372)
sub16_l2_sg_3_105.jpg: Predicted in 0.157249 seconds.
baseball bat: 51%
(828.223145, 175.236923) (868.835571, 351.260345)
person: 80%
(618.117371, 217.451981) (877.984497, 798.913940)
sub16_l2_sg_3_106.jpg: Predicted in 0.210768 seconds.
baseball bat: 53%
(832.001404, 180.872589) (871.878296, 346.618286)
person: 80%
(617.428955, 216.169998) (874.118469, 799.296570)
sub16_l2_sg_3_107.jpg: Predicted in 0.155894 seconds.
baseball bat: 58%
(830.796387, 174.968201) (874.305847, 352.698120)
person: 80%
(616.392090, 214.609863) (873.311096, 799.449585)
sub16_l2_sg_3_108.jpg: Predicted in 0.157674 seconds.
baseball bat: 61%
(829.222290, 174.200851) (876.744934, 357.530029)
person: 81%
(616.850952, 211.813522) (875.207458, 802.150085)
sub16_l2_sg_3_109.jpg: Predicted in 0.157804 seconds.
baseball bat: 61%
(827.959045, 173.345230) (873.008362, 354.732086)
person: 81%
(618.346191, 211.730621) (876.226562, 802.618164)
sub16_l2_sg_3_110.jpg: Predicted in 0.165339 seconds.
baseball bat: 61%
(827.330505, 172.632416) (874.266479, 352.563232)
person: 80%
(618.520508, 211.235550) (874.701355, 802.563232)
sub16_l2_sg_3_111.jpg: Predicted in 0.157373 seconds.
baseball bat: 59%
(826.679382, 175.358536) (873.224182, 351.923645)
person: 79%
(619.116211, 217.578705) (874.910767, 801.167786)
sub16_l2_sg_3_112.jpg: Predicted in 0.208136 seconds.
baseball bat: 58%
(827.721130, 171.995926) (873.063293, 353.203400)
person: 79%
(615.221741, 217.375061) (876.504333, 797.987671)
sub16_l2_sg_3_113.jpg: Predicted in 0.157460 seconds.
baseball bat: 62%
(828.068176, 169.937836) (874.517761, 354.501404)
person: 80%
(617.103821, 219.806152) (876.561768, 797.987305)
sub16_l2_sg_3_114.jpg: Predicted in 0.161188 seconds.
baseball bat: 64%
(828.606262, 166.613800) (876.090698, 357.042297)
person: 80%
(618.604736, 216.924927) (877.560852, 797.611938)
sub16_l2_sg_3_115.jpg: Predicted in 0.157906 seconds.
baseball bat: 66%
(828.963379, 167.605652) (877.792603, 356.618958)
person: 80%
(621.484802, 213.986664) (876.227112, 798.988342)
sub16_l2_sg_3_116.jpg: Predicted in 0.166009 seconds.
baseball bat: 65%
(828.659912, 170.632645) (878.754333, 355.182068)
person: 81%
(619.929260, 212.039902) (874.861206, 801.050537)
sub16_l2_sg_3_117.jpg: Predicted in 0.155881 seconds.
baseball bat: 63%
(828.605835, 172.961121) (878.365906, 353.171234)
person: 80%
(620.979065, 211.888672) (874.300171, 802.008484)
sub16_l2_sg_3_118.jpg: Predicted in 0.162024 seconds.
baseball bat: 64%
(830.841553, 174.396606) (880.637451, 354.529816)
person: 81%
(624.409973, 212.185501) (875.749451, 802.809998)
sub16_l2_sg_3_119.jpg: Predicted in 0.157295 seconds.
baseball bat: 67%
(830.643982, 173.778900) (881.106812, 353.575928)
person: 81%
(622.074341, 211.113266) (879.897217, 804.639343)
sub16_l2_sg_3_120.jpg: Predicted in 0.157522 seconds.
baseball bat: 66%
(829.529297, 171.621048) (881.531494, 355.404266)
person: 80%
(617.441833, 215.216248) (882.135010, 802.304260)
sub16_l2_sg_3_121.jpg: Predicted in 0.158409 seconds.
baseball bat: 63%
(828.591248, 174.636292) (879.632629, 350.818817)
person: 80%
(616.499084, 216.244339) (878.091980, 804.050232)
sub16_l2_sg_3_122.jpg: Predicted in 0.164394 seconds.
baseball bat: 64%
(829.071106, 171.825745) (880.260559, 352.349182)
person: 81%
(618.612366, 215.282318) (876.843994, 802.442749)
sub16_l2_sg_3_123.jpg: Predicted in 0.164454 seconds.
baseball bat: 67%
(830.613403, 174.158020) (881.988220, 352.011963)
person: 81%
(619.877380, 217.299347) (875.411194, 803.913696)
sub16_l2_sg_3_124.jpg: Predicted in 0.155652 seconds.
baseball bat: 68%
(830.789490, 177.384872) (882.562378, 348.271210)
person: 81%
(620.380737, 213.994003) (875.111511, 803.506470)
sub16_l2_sg_3_125.jpg: Predicted in 0.156951 seconds.
baseball bat: 64%
(830.961670, 181.512115) (883.755432, 342.715698)
person: 82%
(621.115479, 210.718369) (876.414734, 803.564209)
sub16_l2_sg_3_126.jpg: Predicted in 0.154904 seconds.
baseball bat: 64%
(831.017700, 183.049973) (883.373291, 338.460968)
person: 82%
(622.144775, 208.025574) (874.985962, 805.688354)
sub16_l2_sg_3_127.jpg: Predicted in 0.157413 seconds.
baseball bat: 63%
(832.417053, 181.705872) (884.410339, 338.466980)
person: 81%
(616.821350, 211.085648) (876.778381, 804.885437)
sub16_l2_sg_3_128.jpg: Predicted in 0.155031 seconds.
baseball bat: 61%
(833.438965, 181.942245) (883.568176, 339.334503)
person: 82%
(619.954529, 213.605377) (875.140564, 800.765808)
sub16_l2_sg_3_129.jpg: Predicted in 0.157497 seconds.
baseball bat: 59%
(831.052307, 189.702484) (881.430908, 333.405334)
person: 82%
(618.509399, 211.060074) (877.161804, 800.921875)
sub16_l2_sg_3_130.jpg: Predicted in 0.155476 seconds.
baseball bat: 55%
(835.620483, 189.834946) (878.721985, 331.555786)
person: 82%
(618.775879, 209.530258) (875.710999, 800.775330)
sub16_l2_sg_3_131.jpg: Predicted in 0.157467 seconds.
baseball bat: 62%
(833.766907, 184.088928) (877.875732, 334.612915)
person: 81%
(616.853027, 213.443466) (871.855042, 798.270996)
sub16_l2_sg_3_132.jpg: Predicted in 0.156103 seconds.
baseball bat: 69%
(830.360840, 178.277969) (879.978088, 342.366302)
person: 82%
(619.610413, 213.088470) (874.038147, 799.769653)
sub16_l2_sg_3_133.jpg: Predicted in 0.156095 seconds.
baseball bat: 66%
(830.399902, 188.537247) (881.801941, 333.871246)
person: 81%
(617.882446, 212.782501) (873.497742, 800.538879)
sub16_l2_sg_3_134.jpg: Predicted in 0.158627 seconds.
baseball bat: 61%
(829.102234, 189.190842) (879.680237, 334.265503)
person: 82%
(620.348389, 214.113739) (873.326843, 799.132690)
sub16_l2_sg_3_135.jpg: Predicted in 0.156510 seconds.
baseball bat: 62%
(827.596497, 191.349060) (879.649597, 332.246307)
person: 81%
(618.963562, 215.521957) (874.416382, 799.961609)
sub16_l2_sg_3_136.jpg: Predicted in 0.156048 seconds.
baseball bat: 60%
(829.235596, 196.866959) (879.906555, 325.780579)
person: 82%
(621.966370, 214.139099) (874.153625, 800.677673)
sub16_l2_sg_3_137.jpg: Predicted in 0.156368 seconds.
baseball bat: 60%
(831.747803, 199.432419) (879.241272, 324.679901)
person: 81%
(618.197571, 215.812057) (874.251465, 800.090149)
sub16_l2_sg_3_138.jpg: Predicted in 0.154896 seconds.
baseball bat: 63%
(830.392090, 197.105728) (880.883728, 329.423401)
person: 82%
(620.671997, 214.652344) (871.909607, 800.369446)
sub16_l2_sg_3_139.jpg: Predicted in 0.164564 seconds.
baseball bat: 65%
(830.359009, 194.549377) (883.299438, 330.835083)
person: 82%
(618.219238, 217.086075) (875.732178, 800.798645)
sub16_l2_sg_3_140.jpg: Predicted in 0.157130 seconds.
baseball bat: 64%
(830.017151, 197.626068) (881.279968, 330.639801)
person: 82%
(616.306580, 215.516571) (874.788391, 803.380188)
sub16_l2_sg_3_141.jpg: Predicted in 0.158704 seconds.
baseball bat: 66%
(828.086609, 199.652298) (883.097290, 332.924316)
baseball bat: 35%
(796.480896, 226.793777) (889.991760, 423.481567)
person: 82%
(613.520142, 218.408829) (870.659058, 800.455444)
sub16_l2_sg_3_142.jpg: Predicted in 0.162363 seconds.
baseball bat: 65%
(828.308899, 196.841537) (883.906250, 335.966339)
baseball bat: 34%
(796.955322, 228.146820) (892.057556, 422.346100)
person: 82%
(618.967102, 215.616745) (873.652222, 799.375000)
sub16_l2_sg_3_143.jpg: Predicted in 0.156733 seconds.
baseball bat: 67%
(828.855896, 193.357025) (888.053894, 344.002502)
baseball bat: 32%
(797.647217, 227.306015) (894.481689, 418.409027)
person: 82%
(617.941162, 220.370300) (872.775208, 799.276428)
sub16_l2_sg_3_144.jpg: Predicted in 0.158070 seconds.
baseball bat: 64%
(827.919373, 195.658112) (887.057617, 341.068604)
baseball bat: 34%
(795.739319, 226.235641) (893.530701, 420.445374)
person: 81%
(615.150513, 219.350143) (872.584167, 797.851868)
sub16_l2_sg_3_145.jpg: Predicted in 0.156991 seconds.
baseball bat: 65%
(828.252991, 195.587860) (887.001221, 342.787140)
baseball bat: 37%
(794.993713, 227.470520) (891.948914, 417.096436)
person: 82%
(617.817993, 221.675354) (872.040405, 798.769714)
sub16_l2_sg_3_146.jpg: Predicted in 0.156744 seconds.
baseball bat: 67%
(827.394470, 199.069870) (887.169128, 338.748749)
baseball bat: 34%
(789.970825, 228.702179) (889.733643, 418.142731)
person: 82%
(616.002441, 219.718552) (870.120911, 801.517761)
sub16_l2_sg_3_147.jpg: Predicted in 0.157700 seconds.
baseball bat: 65%
(829.696167, 201.259750) (886.852783, 338.701508)
baseball bat: 32%
(785.777039, 230.950928) (886.558350, 415.287689)
person: 83%
(614.592957, 218.433960) (871.598450, 802.303040)
sub16_l2_sg_3_148.jpg: Predicted in 0.155799 seconds.
baseball bat: 62%
(831.182922, 202.978500) (884.638000, 333.246826)
person: 83%
(616.136108, 217.512512) (873.658936, 802.519531)
sub16_l2_sg_3_149.jpg: Predicted in 0.156053 seconds.
baseball bat: 63%
(829.427124, 201.958572) (885.606750, 336.313385)
baseball bat: 34%
(787.950989, 230.528900) (888.586182, 414.872284)
person: 83%
(616.356201, 217.153381) (879.411499, 799.447327)
sub16_l2_sg_3_150.jpg: Predicted in 0.156366 seconds.
baseball bat: 67%
(829.286011, 199.587631) (885.304871, 340.115051)
baseball bat: 37%
(787.541199, 229.642029) (887.270813, 417.537964)
person: 82%
(617.043274, 216.497849) (878.409912, 799.690002)
sub16_l2_sg_3_151.jpg: Predicted in 0.157413 seconds.
baseball bat: 66%
(831.734924, 199.254257) (886.682617, 340.033844)
baseball bat: 32%
(792.078918, 230.799744) (891.669983, 417.913269)
person: 82%
(614.190491, 219.288712) (874.692139, 801.430420)
sub16_l2_sg_3_152.jpg: Predicted in 0.155597 seconds.
baseball bat: 60%
(830.954041, 202.542969) (884.863647, 333.607635)
baseball bat: 30%
(794.685669, 233.779160) (892.976196, 419.351044)
person: 82%
(612.131775, 218.932755) (872.616638, 800.044922)
sub16_l2_sg_3_153.jpg: Predicted in 0.156910 seconds.
baseball bat: 57%
(829.624329, 207.136627) (884.978821, 329.810089)
person: 82%
(615.331482, 220.912796) (871.458862, 801.969604)
sub16_l2_sg_3_154.jpg: Predicted in 0.154944 seconds.
baseball bat: 60%
(831.176697, 205.377960) (885.615112, 329.898773)
person: 83%
(614.631287, 215.482040) (865.276672, 803.082825)
sub16_l2_sg_3_155.jpg: Predicted in 0.156643 seconds.
baseball bat: 59%
(834.032227, 203.844986) (886.022278, 334.666626)
person: 82%
(616.734375, 217.894669) (866.409241, 801.987549)
sub16_l2_sg_3_156.jpg: Predicted in 0.155347 seconds.
baseball bat: 56%
(831.789062, 209.264679) (886.408386, 328.604919)
person: 82%
(620.513245, 219.873734) (867.975830, 800.764832)
sub16_l2_sg_3_157.jpg: Predicted in 0.156269 seconds.
baseball bat: 56%
(832.977966, 214.165695) (886.413391, 326.279022)
baseball bat: 30%
(797.315674, 229.156311) (894.873840, 359.044922)
person: 81%
(617.983521, 223.306625) (868.312866, 800.747986)
sub16_l2_sg_3_158.jpg: Predicted in 0.161940 seconds.
baseball bat: 55%
(832.864197, 216.588913) (890.098877, 330.700226)
baseball bat: 40%
(781.665405, 243.853821) (890.936829, 403.631470)
person: 82%
(618.784546, 223.310608) (866.979492, 801.162170)
sub16_l2_sg_3_159.jpg: Predicted in 0.155844 seconds.
baseball bat: 59%
(832.314148, 215.075836) (892.369995, 336.957886)
baseball bat: 40%
(783.963745, 241.399750) (889.671021, 405.028839)
person: 83%
(622.962219, 220.377350) (864.607788, 800.467041)
sub16_l2_sg_3_160.jpg: Predicted in 0.157779 seconds.
baseball bat: 59%
(832.428406, 216.639435) (891.986755, 340.760284)
baseball bat: 44%
(785.259583, 240.487778) (887.222229, 404.207458)
person: 83%
(622.621033, 222.199661) (863.571289, 801.580872)
sub16_l2_sg_3_161.jpg: Predicted in 0.165130 seconds.
baseball bat: 58%
(833.065674, 218.663940) (891.102844, 340.902222)
baseball bat: 48%
(785.562012, 241.717026) (890.844543, 404.215790)
person: 83%
(620.218811, 222.955841) (862.868469, 806.639404)
sub16_l2_sg_3_162.jpg: Predicted in 0.157128 seconds.
baseball bat: 61%
(833.315918, 213.616913) (894.257629, 344.436340)
baseball bat: 49%
(789.349426, 239.591797) (894.189392, 405.444855)
person: 82%
(620.024597, 223.139450) (862.101074, 802.290649)
sub16_l2_sg_3_163.jpg: Predicted in 0.156085 seconds.
baseball bat: 63%
(832.471619, 211.119217) (895.282288, 347.069611)
baseball bat: 52%
(789.864258, 239.377380) (893.807190, 407.405396)
person: 82%
(621.196411, 220.876099) (859.398071, 809.910339)
sub16_l2_sg_3_164.jpg: Predicted in 0.155356 seconds.
baseball bat: 61%
(833.086365, 215.675430) (894.553894, 342.636017)
baseball bat: 51%
(786.870728, 241.606903) (894.313171, 405.850067)
person: 83%
(622.910095, 222.425003) (857.474915, 807.997314)
sub16_l2_sg_3_165.jpg: Predicted in 0.155547 seconds.
baseball bat: 63%
(833.959229, 215.466446) (894.093750, 344.345337)
baseball bat: 45%
(788.193054, 240.923798) (893.258362, 408.141998)
person: 83%
(623.251465, 223.091217) (858.523865, 805.160339)
sub16_l2_sg_3_166.jpg: Predicted in 0.157152 seconds.
baseball bat: 59%
(828.215576, 217.065918) (895.127747, 350.393341)
baseball bat: 48%
(782.952942, 244.910614) (892.269226, 407.066986)
person: 83%
(623.639343, 224.658127) (854.680664, 806.987366)
sub16_l2_sg_3_167.jpg: Predicted in 0.159784 seconds.
baseball bat: 56%
(830.545837, 220.597015) (893.903931, 349.829590)
baseball bat: 48%
(783.054932, 245.626831) (892.234680, 403.585236)
person: 83%
(624.886719, 224.426086) (853.333313, 806.845215)
sub16_l2_sg_3_168.jpg: Predicted in 0.157548 seconds.
baseball bat: 51%
(836.594482, 225.462112) (893.753418, 351.759460)
baseball bat: 56%
(782.417725, 247.631729) (887.144958, 407.000183)
person: 82%
(623.299438, 223.678665) (854.596436, 807.889648)
sub16_l2_sg_3_169.jpg: Predicted in 0.155720 seconds.
baseball bat: 48%
(834.970947, 227.492462) (892.063782, 346.221710)
baseball bat: 55%
(779.958862, 248.566330) (883.072571, 406.375854)
person: 83%
(624.561768, 225.312088) (858.241577, 800.460876)
sub16_l2_sg_3_170.jpg: Predicted in 0.156404 seconds.
baseball bat: 44%
(836.209778, 232.470810) (891.071716, 342.134369)
baseball bat: 55%
(777.054504, 250.618500) (888.067139, 406.759308)
person: 83%
(623.315247, 227.417328) (855.962402, 798.857849)
sub16_l2_sg_3_171.jpg: Predicted in 0.155978 seconds.
baseball bat: 41%
(835.256775, 227.173691) (892.551270, 348.874817)
baseball bat: 57%
(781.360779, 249.462112) (888.477295, 410.663177)
person: 83%
(627.987305, 225.759308) (853.091064, 806.037354)
sub16_l2_sg_3_172.jpg: Predicted in 0.155763 seconds.
baseball bat: 51%
(833.064941, 218.193085) (896.749817, 358.829803)
baseball bat: 55%
(779.584778, 244.777542) (887.041199, 406.853668)
person: 82%
(624.886658, 227.237671) (854.034851, 807.491699)
sub16_l2_sg_3_173.jpg: Predicted in 0.155070 seconds.
baseball bat: 51%
(831.386963, 218.219177) (897.061340, 355.485748)
baseball bat: 56%
(777.989929, 246.732895) (887.465515, 407.095917)
person: 82%
(624.939026, 225.213043) (849.279114, 810.264099)
sub16_l2_sg_3_174.jpg: Predicted in 0.155803 seconds.
baseball bat: 46%
(835.529602, 223.985443) (895.166809, 349.656708)
baseball bat: 56%
(780.906555, 248.407349) (888.195496, 407.486176)
person: 82%
(626.213135, 226.965027) (850.680969, 807.851624)
sub16_l2_sg_3_175.jpg: Predicted in 0.156029 seconds.
baseball bat: 43%
(834.545166, 222.120224) (894.399231, 353.808990)
baseball bat: 54%
(780.182556, 248.314484) (888.825012, 407.556152)
person: 82%
(626.567505, 229.205902) (849.605286, 807.846558)
sub16_l2_sg_3_176.jpg: Predicted in 0.166740 seconds.
baseball bat: 36%
(834.076843, 223.088562) (894.998291, 359.646454)
baseball bat: 56%
(778.879456, 253.071930) (892.363831, 406.258636)
person: 82%
(629.106995, 231.572540) (850.251404, 807.523315)
sub16_l2_sg_3_177.jpg: Predicted in 0.156494 seconds.
baseball bat: 38%
(832.954163, 224.295319) (897.719971, 359.686646)
baseball bat: 57%
(776.756714, 252.846725) (895.944092, 403.446411)
person: 82%
(629.966797, 231.555099) (848.835205, 809.375732)
sub16_l2_sg_3_178.jpg: Predicted in 0.156519 seconds.
baseball bat: 33%
(831.884583, 231.952591) (898.193237, 355.302856)
baseball bat: 58%
(771.651550, 255.435730) (894.451477, 401.159180)
person: 83%
(627.855957, 229.971313) (847.941772, 806.947693)
sub16_l2_sg_3_179.jpg: Predicted in 0.156785 seconds.
baseball bat: 62%
(763.830627, 258.259583) (889.659180, 401.803009)
person: 83%
(631.336975, 228.111908) (848.018005, 803.219421)
sub16_l2_sg_3_180.jpg: Predicted in 0.155137 seconds.
baseball bat: 64%
(758.356934, 259.083710) (889.196777, 402.019287)
person: 83%
(629.420776, 234.677536) (847.039978, 804.503540)
sub16_l2_sg_3_181.jpg: Predicted in 0.155597 seconds.
baseball bat: 64%
(766.145203, 259.190765) (890.234070, 403.102509)
person: 83%
(630.588806, 233.864471) (844.327576, 806.236694)
sub16_l2_sg_3_182.jpg: Predicted in 0.156780 seconds.
baseball bat: 67%
(763.382751, 263.369812) (893.253723, 402.901337)
person: 83%
(626.681091, 233.557129) (844.865051, 809.087585)
sub16_l2_sg_3_183.jpg: Predicted in 0.155808 seconds.
baseball bat: 65%
(762.618347, 264.119080) (892.291016, 405.237183)
person: 83%
(629.770935, 232.022995) (843.997375, 807.653259)
sub16_l2_sg_3_184.jpg: Predicted in 0.156278 seconds.
baseball bat: 65%
(762.125305, 266.004211) (892.459961, 403.818817)
person: 83%
(626.550110, 234.666870) (843.367493, 807.564758)
sub16_l2_sg_3_185.jpg: Predicted in 0.155508 seconds.
baseball bat: 63%
(759.439270, 265.899323) (893.083435, 406.781006)
person: 82%
(627.059937, 237.829514) (841.559753, 807.258850)
sub16_l2_sg_3_186.jpg: Predicted in 0.155384 seconds.
baseball bat: 62%
(761.094604, 267.652893) (895.588745, 406.079193)
person: 82%
(628.635254, 238.468842) (842.173950, 806.679321)
sub16_l2_sg_3_187.jpg: Predicted in 0.154532 seconds.
baseball bat: 61%
(759.936584, 271.552917) (896.184326, 406.882202)
person: 82%
(629.730957, 239.307785) (841.532898, 808.347595)
sub16_l2_sg_3_188.jpg: Predicted in 0.155488 seconds.
baseball bat: 63%
(755.567322, 273.505249) (894.524536, 406.641876)
person: 83%
(628.003601, 236.343689) (843.336304, 809.578125)
sub16_l2_sg_3_189.jpg: Predicted in 0.165847 seconds.
baseball bat: 57%
(754.677979, 272.326202) (897.576843, 407.358917)
person: 82%
(630.256226, 240.056183) (835.031250, 803.520630)
sub16_l2_sg_3_190.jpg: Predicted in 0.156705 seconds.
baseball bat: 55%
(753.647583, 275.366699) (897.102539, 408.603149)
person: 82%
(630.555969, 243.747742) (833.846680, 804.321350)
sub16_l2_sg_3_191.jpg: Predicted in 0.156659 seconds.
baseball bat: 58%
(753.574463, 277.188721) (896.622070, 406.594452)
person: 81%
(627.563660, 244.819168) (830.661560, 808.461487)
sub16_l2_sg_3_192.jpg: Predicted in 0.157664 seconds.
tennis racket: 37%
(754.793396, 277.552704) (897.664978, 410.432770)
person: 80%
(627.068604, 243.322968) (830.341248, 804.607300)
sub16_l2_sg_3_193.jpg: Predicted in 0.155530 seconds.
tennis racket: 49%
(753.767639, 277.182892) (895.919861, 414.297180)
person: 81%
(626.234131, 249.642593) (835.156250, 804.751465)
sub16_l2_sg_3_194.jpg: Predicted in 0.156340 seconds.
tennis racket: 54%
(751.712219, 277.281891) (896.864746, 412.350189)
person: 80%
(628.544678, 253.468323) (834.515808, 804.578308)
sub16_l2_sg_3_195.jpg: Predicted in 0.155070 seconds.
tennis racket: 56%
(752.529358, 278.706207) (898.803345, 411.739685)
person: 80%
(628.926880, 253.398758) (834.487427, 803.705139)
sub16_l2_sg_3_196.jpg: Predicted in 0.157344 seconds.
tennis racket: 56%
(749.380798, 281.672363) (898.811462, 410.907379)
person: 80%
(629.527344, 253.105850) (832.270142, 803.694824)
sub16_l2_sg_3_197.jpg: Predicted in 0.157968 seconds.
tennis racket: 41%
(751.764954, 286.059143) (901.375916, 408.097534)
person: 81%
(627.619202, 251.827789) (838.226318, 806.741943)
sub16_l2_sg_3_198.jpg: Predicted in 0.155574 seconds.
tennis racket: 55%
(756.031982, 286.273315) (902.715149, 408.148865)
person: 81%
(628.798157, 250.103256) (837.404419, 804.290405)
sub16_l2_sg_3_199.jpg: Predicted in 0.158018 seconds.
tennis racket: 43%
(754.123779, 288.736938) (903.496887, 414.286316)
person: 80%
(634.053223, 246.935577) (837.869690, 802.795410)
sub16_l2_sg_3_200.jpg: Predicted in 0.156280 seconds.
tennis racket: 46%
(760.425964, 288.594421) (903.421387, 411.035614)
person: 80%
(630.955078, 244.193817) (841.505066, 805.837769)
sub16_l2_sg_3_201.jpg: Predicted in 0.157350 seconds.
tennis racket: 41%
(756.349609, 290.008179) (904.864502, 409.303894)
person: 81%
(626.648193, 250.878113) (838.754639, 805.524170)
sub16_l2_sg_3_202.jpg: Predicted in 0.165388 seconds.
tennis racket: 45%
(754.019226, 291.675079) (907.510132, 411.943573)
person: 80%
(628.145630, 243.731339) (839.004822, 806.090454)
sub16_l2_sg_3_203.jpg: Predicted in 0.165803 seconds.
tennis racket: 61%
(751.442200, 292.144196) (906.026550, 413.963837)
person: 81%
(628.351196, 240.103622) (837.423645, 810.545837)
sub16_l2_sg_3_204.jpg: Predicted in 0.155572 seconds.
tennis racket: 59%
(753.871033, 292.221375) (910.076538, 412.284607)
person: 81%
(631.951660, 243.692368) (835.110107, 807.553955)
sub16_l2_sg_3_205.jpg: Predicted in 0.158099 seconds.
tennis racket: 58%
(750.416748, 291.170471) (912.268005, 413.782623)
person: 80%
(632.473755, 241.042374) (835.267334, 811.852905)
sub16_l2_sg_3_206.jpg: Predicted in 0.158056 seconds.
tennis racket: 66%
(748.909424, 292.597351) (916.104126, 414.140228)
person: 80%
(632.442688, 242.090637) (834.954590, 815.268494)
sub16_l2_sg_3_207.jpg: Predicted in 0.155994 seconds.
tennis racket: 65%
(746.511475, 296.173248) (918.381104, 414.333008)
person: 79%
(632.746704, 245.416214) (836.620850, 810.131104)
sub16_l2_sg_3_208.jpg: Predicted in 0.156576 seconds.
tennis racket: 63%
(749.050354, 299.119995) (917.013794, 417.238159)
person: 80%
(631.888306, 236.021713) (836.357727, 811.185913)
sub16_l2_sg_3_209.jpg: Predicted in 0.161372 seconds.
tennis racket: 54%
(747.053711, 299.477478) (914.911316, 422.003174)
person: 81%
(640.188538, 235.719299) (837.135986, 809.208496)
sub16_l2_sg_3_210.jpg: Predicted in 0.155589 seconds.
tennis racket: 61%
(742.672424, 299.287659) (914.974060, 423.405701)
person: 81%
(640.641907, 232.386597) (837.639038, 810.020996)
sub16_l2_sg_3_211.jpg: Predicted in 0.155688 seconds.
tennis racket: 58%
(704.193665, 320.825836) (916.884644, 439.429230)
person: 80%
(633.968628, 233.932281) (827.468384, 810.448669)
sub16_l2_sg_3_212.jpg: Predicted in 0.154045 seconds.
tennis racket: 60%
(708.075073, 320.040131) (914.339478, 437.684967)
person: 81%
(633.152039, 237.715881) (823.296936, 807.354492)
sub16_l2_sg_3_213.jpg: Predicted in 0.161671 seconds.
tennis racket: 62%
(712.904663, 324.105499) (912.601807, 435.796051)
person: 80%
(635.566162, 237.414810) (826.119934, 805.896240)
sub16_l2_sg_3_214.jpg: Predicted in 0.155302 seconds.
tennis racket: 59%
(702.476440, 322.821594) (911.531128, 439.079895)
person: 80%
(632.084106, 229.225754) (821.480652, 809.002869)
sub16_l2_sg_3_215.jpg: Predicted in 0.156620 seconds.
tennis racket: 63%
(705.234863, 326.269043) (913.791809, 438.849640)
person: 81%
(631.549500, 227.212219) (816.557678, 807.067993)
sub16_l2_sg_3_216.jpg: Predicted in 0.156738 seconds.
tennis racket: 66%
(706.827026, 326.070709) (908.863770, 441.030151)
person: 81%
(632.607666, 226.913483) (818.881592, 809.693237)
sub16_l2_sg_3_217.jpg: Predicted in 0.158685 seconds.
tennis racket: 67%
(706.330750, 327.723999) (912.609558, 438.337494)
person: 80%
(630.531372, 223.526291) (820.216492, 811.221313)
sub16_l2_sg_3_218.jpg: Predicted in 0.157643 seconds.
tennis racket: 59%
(700.057312, 327.586029) (909.659058, 438.568024)
person: 80%
(635.332092, 217.731689) (822.608276, 818.149231)
sub16_l2_sg_3_219.jpg: Predicted in 0.154735 seconds.
tennis racket: 68%
(698.939392, 332.811707) (908.983398, 442.555084)
person: 79%
(632.038269, 220.748093) (827.645691, 813.762207)
sub16_l2_sg_3_220.jpg: Predicted in 0.156437 seconds.
tennis racket: 63%
(700.233276, 333.346313) (913.728943, 437.921875)
person: 76%
(627.422607, 221.170166) (828.697571, 812.631470)
sub16_l2_sg_3_221.jpg: Predicted in 0.156567 seconds.
tennis racket: 53%
(703.189209, 338.106415) (916.303406, 435.763306)
person: 79%
(626.395325, 218.415863) (824.122742, 812.891296)
sub16_l2_sg_3_222.jpg: Predicted in 0.157651 seconds.
tennis racket: 60%
(705.437866, 343.490936) (918.643677, 436.278625)
person: 78%
(623.841675, 220.574478) (825.040039, 812.565063)
sub16_l2_sg_3_223.jpg: Predicted in 0.157789 seconds.
tennis racket: 66%
(705.815063, 343.479706) (918.358521, 436.627563)
person: 77%
(623.231262, 220.355576) (825.954834, 815.973755)
sub16_l2_sg_3_224.jpg: Predicted in 0.156923 seconds.
tennis racket: 65%
(705.150024, 346.366455) (918.925781, 439.667816)
person: 79%
(621.767334, 220.082092) (823.511475, 817.128357)
sub16_l2_sg_3_225.jpg: Predicted in 0.157023 seconds.
tennis racket: 66%
(698.364746, 349.435608) (919.268311, 441.575500)
person: 80%
(622.656372, 217.763565) (822.619385, 818.968079)
sub16_l2_sg_3_226.jpg: Predicted in 0.155835 seconds.
tennis racket: 62%
(695.100952, 351.316772) (915.842163, 440.870789)
person: 79%
(623.663818, 217.088440) (823.632751, 821.298096)
sub16_l2_sg_3_227.jpg: Predicted in 0.156013 seconds.
tennis racket: 63%
(687.158875, 354.689941) (914.440063, 449.568604)
person: 81%
(622.645996, 215.029617) (825.433411, 824.993591)
sub16_l2_sg_3_228.jpg: Predicted in 0.157448 seconds.
tennis racket: 67%
(687.016907, 362.072418) (913.693359, 456.302795)
person: 82%
(617.297485, 215.587021) (824.665833, 825.802429)
sub16_l2_sg_3_229.jpg: Predicted in 0.160656 seconds.
tennis racket: 66%
(688.667847, 365.621429) (912.304260, 454.367493)
person: 83%
(616.899597, 214.810059) (825.979919, 824.679138)
sub16_l2_sg_3_230.jpg: Predicted in 0.154426 seconds.
tennis racket: 62%
(694.273865, 367.224762) (914.160767, 450.698212)
person: 83%
(610.332092, 216.975281) (833.008667, 819.510498)
sub16_l2_sg_3_231.jpg: Predicted in 0.158754 seconds.
tennis racket: 59%
(695.602722, 371.257355) (928.335876, 454.136902)
person: 81%
(609.461731, 212.024216) (828.610046, 820.580078)
sub16_l2_sg_3_232.jpg: Predicted in 0.157540 seconds.
tennis racket: 53%
(694.034912, 373.960144) (934.753967, 449.898682)
person: 81%
(608.339417, 210.218948) (827.950989, 820.322388)
sub16_l2_sg_3_233.jpg: Predicted in 0.166175 seconds.
tennis racket: 49%
(692.314636, 379.902740) (935.117432, 451.335815)
person: 81%
(608.242065, 210.282944) (826.900330, 819.404846)
sub16_l2_sg_3_234.jpg: Predicted in 0.155995 seconds.
tennis racket: 56%
(593.154602, 381.208038) (883.368042, 446.629028)
person: 82%
(608.408691, 203.219131) (821.594177, 822.119812)
sub16_l2_sg_3_235.jpg: Predicted in 0.156696 seconds.
tennis racket: 51%
(594.616333, 382.966644) (884.296509, 446.293121)
person: 83%
(611.296814, 201.176453) (823.242676, 822.079773)
sub16_l2_sg_3_236.jpg: Predicted in 0.157942 seconds.
tennis racket: 46%
(589.665710, 385.013428) (881.724182, 446.101715)
person: 84%
(606.411926, 200.145813) (826.557861, 822.094543)
sub16_l2_sg_3_237.jpg: Predicted in 0.155923 seconds.
tennis racket: 52%
(591.695801, 388.523163) (877.654663, 445.583557)
person: 83%
(603.837646, 203.972000) (825.796448, 824.475342)
sub16_l2_sg_3_238.jpg: Predicted in 0.155876 seconds.
tennis racket: 39%
(598.236145, 385.457794) (865.117554, 445.338257)
person: 82%
(604.334839, 205.005737) (824.497986, 822.154053)
sub16_l2_sg_3_239.jpg: Predicted in 0.157957 seconds.
tennis racket: 40%
(557.000610, 413.728210) (918.872620, 463.611542)
person: 80%
(605.790283, 210.785385) (822.799194, 813.347656)
sub16_l2_sg_3_240.jpg: Predicted in 0.157079 seconds.
tennis racket: 45%
(558.160278, 415.219025) (921.088745, 461.487854)
person: 74%
(608.773132, 207.684967) (822.144836, 818.871704)
sub16_l2_sg_3_241.jpg: Predicted in 0.157838 seconds.
person: 80%
(600.774902, 206.189377) (827.152466, 819.430969)
sub16_l2_sg_3_242.jpg: Predicted in 0.161126 seconds.
sports ball: 35%
(208.970184, 423.200104) (235.994568, 453.579529)
person: 78%
(599.056274, 195.874649) (831.419067, 823.180420)
sub16_l2_sg_3_243.jpg: Predicted in 0.157139 seconds.
sports ball: 35%
(210.637512, 425.866791) (236.842224, 453.191193)
tennis racket: 36%
(590.734314, 422.891083) (888.929565, 459.409943)
person: 76%
(597.474304, 198.017258) (831.194946, 819.778992)
sub16_l2_sg_3_244.jpg: Predicted in 0.157790 seconds.
sports ball: 34%
(212.064041, 427.586334) (237.362350, 451.582916)
tennis racket: 38%
(589.471863, 424.934143) (884.253723, 455.207123)
person: 74%
(599.365479, 203.304794) (830.085205, 819.287170)
sub16_l2_sg_3_245.jpg: Predicted in 0.158036 seconds.
sports ball: 33%
(215.549774, 427.423828) (240.386200, 451.348907)
tennis racket: 31%
(571.100220, 426.562439) (904.258789, 455.486633)
person: 77%
(594.909363, 198.436432) (836.339600, 822.129639)
sub16_l2_sg_3_246.jpg: Predicted in 0.156506 seconds.
sports ball: 34%
(224.567581, 426.285736) (248.403610, 450.196960)
tennis racket: 39%
(594.258179, 427.022583) (879.930359, 456.829224)
person: 78%
(589.901001, 199.776245) (838.494263, 818.401001)
sub16_l2_sg_3_247.jpg: Predicted in 0.157397 seconds.
sports ball: 37%
(239.561676, 424.740875) (264.472443, 451.228241)
person: 81%
(586.426392, 204.731674) (845.210083, 812.158752)
sub16_l2_sg_3_248.jpg: Predicted in 0.156033 seconds.
sports ball: 41%
(245.846710, 425.080383) (273.863068, 454.802826)
person: 80%
(586.263062, 206.427505) (846.288818, 811.046204)
sub16_l2_sg_3_249.jpg: Predicted in 0.156485 seconds.
sports ball: 36%
(251.592957, 425.326385) (278.828644, 457.211456)
tennis racket: 31%
(612.297729, 431.124084) (870.316406, 457.853180)
person: 81%
(593.990112, 210.783356) (840.523560, 808.610840)
sub16_l2_sg_3_250.jpg: Predicted in 0.155086 seconds.
sports ball: 40%
(257.235565, 424.731445) (284.229309, 457.105255)
tennis racket: 31%
(610.035583, 436.311005) (875.887390, 461.890472)
person: 81%
(585.858948, 210.459427) (848.397217, 805.182739)
sub16_l2_sg_3_251.jpg: Predicted in 0.157421 seconds.
sports ball: 39%
(254.587418, 425.842468) (283.914734, 458.079346)
tennis racket: 35%
(606.586182, 444.255524) (872.463928, 470.349915)
person: 79%
(584.308533, 215.380951) (846.342407, 801.578064)
sub16_l2_sg_3_252.jpg: Predicted in 0.156631 seconds.
tennis racket: 38%
(620.298340, 446.812592) (854.919373, 474.222992)
person: 80%
(582.920105, 213.466934) (846.829956, 799.321960)
sub16_l2_sg_3_253.jpg: Predicted in 0.155778 seconds.
tennis racket: 40%
(641.132507, 454.638641) (825.662231, 484.953247)
person: 83%
(575.822144, 214.105911) (846.206665, 803.558716)
sub16_l2_sg_3_254.jpg: Predicted in 0.155760 seconds.
tennis racket: 42%
(660.321655, 456.191528) (817.323914, 488.811401)
person: 81%
(569.259705, 217.257614) (846.419189, 801.056274)
sub16_l2_sg_3_255.jpg: Predicted in 0.155705 seconds.
tennis racket: 45%
(638.866211, 456.352814) (818.188965, 492.681976)
person: 79%
(570.146057, 216.853546) (843.423889, 797.766113)
sub16_l2_sg_3_256.jpg: Predicted in 0.156041 seconds.
tennis racket: 48%
(638.087097, 460.144470) (815.936035, 500.999969)
person: 80%
(561.221497, 220.403503) (847.632263, 794.041687)
sub16_l2_sg_3_257.jpg: Predicted in 0.163310 seconds.
tennis racket: 40%
(628.856262, 459.520996) (801.597717, 502.749359)
person: 79%
(561.471863, 223.558685) (848.196838, 793.006531)
sub16_l2_sg_3_258.jpg: Predicted in 0.166387 seconds.
person: 81%
(561.792114, 217.247421) (846.586487, 799.672363)
sub16_l2_sg_3_259.jpg: Predicted in 0.158184 seconds.
tennis racket: 30%
(568.220032, 445.623352) (845.048523, 503.794617)
person: 81%
(565.901550, 213.302322) (844.158569, 800.141357)
sub16_l2_sg_3_260.jpg: Predicted in 0.155941 seconds.
person: 82%
(566.646484, 212.087204) (838.326355, 804.844971)
sub16_l2_sg_3_261.jpg: Predicted in 0.155652 seconds.
person: 80%
(564.604797, 218.435379) (839.625061, 803.530884)
sub16_l2_sg_3_262.jpg: Predicted in 0.155019 seconds.
tennis racket: 34%
(585.376831, 444.463318) (711.055054, 494.117004)
person: 80%
(567.894592, 219.988159) (839.937134, 805.444336)
sub16_l2_sg_3_263.jpg: Predicted in 0.157499 seconds.
tennis racket: 39%
(582.022644, 442.422119) (710.287048, 496.180237)
person: 81%
(569.321533, 223.628235) (841.853699, 803.206665)
sub16_l2_sg_3_264.jpg: Predicted in 0.158456 seconds.
person: 80%
(567.084778, 230.136078) (841.449585, 799.466919)
sub16_l2_sg_3_265.jpg: Predicted in 0.156732 seconds.
person: 78%
(570.537109, 231.836777) (841.434143, 802.804810)
sub16_l2_sg_3_266.jpg: Predicted in 0.155819 seconds.
person: 77%
(570.778503, 233.926270) (838.384888, 804.309570)
sub16_l2_sg_3_267.jpg: Predicted in 0.157167 seconds.
person: 79%
(568.191895, 227.677658) (841.523682, 811.313782)
sub16_l2_sg_3_268.jpg: Predicted in 0.155041 seconds.
person: 81%
(573.293030, 232.024216) (838.544128, 812.795166)
sub16_l2_sg_3_269.jpg: Predicted in 0.158601 seconds.
sports ball: 37%
(304.074158, 463.554016) (326.669006, 489.419434)
person: 81%
(569.459961, 223.585968) (845.548279, 813.536865)
sub16_l2_sg_3_270.jpg: Predicted in 0.156790 seconds.
sports ball: 36%
(305.482147, 465.137573) (328.382324, 490.350433)
baseball bat: 35%
(579.039429, 435.808289) (730.241394, 581.577759)
person: 82%
(573.022644, 224.549606) (845.727356, 818.495361)
sub16_l2_sg_3_271.jpg: Predicted in 0.155557 seconds.
baseball bat: 33%
(576.604736, 424.215424) (711.110840, 589.461975)
person: 84%
(581.910522, 213.885254) (845.566284, 823.601318)
sub16_l2_sg_3_272.jpg: Predicted in 0.155934 seconds.
sports ball: 33%
(310.310852, 467.185303) (334.187195, 491.445923)
tennis racket: 38%
(610.601685, 471.743622) (673.727417, 561.314514)
person: 84%
(580.504028, 208.369354) (843.614746, 825.472534)
sub16_l2_sg_3_273.jpg: Predicted in 0.159365 seconds.
tennis racket: 37%
(607.493896, 479.138214) (665.639099, 560.482788)
tennis racket: 31%
(564.349365, 422.139313) (694.544373, 601.594360)
person: 84%
(581.561707, 207.074600) (834.892578, 826.514954)
sub16_l2_sg_3_274.jpg: Predicted in 0.157806 seconds.
tennis racket: 42%
(599.054688, 475.739319) (658.053894, 568.735657)
person: 84%
(580.750854, 208.036118) (834.787903, 824.578186)
sub16_l2_sg_3_275.jpg: Predicted in 0.155150 seconds.
tennis racket: 44%
(588.777161, 472.709991) (649.951111, 577.500366)
person: 83%
(583.446228, 215.614563) (832.750061, 821.976990)
sub16_l2_sg_3_276.jpg: Predicted in 0.154561 seconds.
sports ball: 33%
(348.339081, 472.733765) (373.595123, 498.621948)
tennis racket: 55%
(580.413025, 462.117950) (646.389343, 584.148499)
person: 81%
(580.642822, 218.743088) (830.412964, 820.902588)
sub16_l2_sg_3_277.jpg: Predicted in 0.155208 seconds.
tennis racket: 50%
(581.136292, 467.724701) (640.766663, 583.568420)
person: 83%
(570.370972, 220.382996) (840.318298, 816.188599)
sub16_l2_sg_3_278.jpg: Predicted in 0.156611 seconds.
sports ball: 32%
(356.871124, 484.908203) (385.931915, 509.895599)
tennis racket: 42%
(582.736938, 456.801086) (637.384949, 584.645508)
person: 81%
(578.552490, 220.124527) (839.833740, 818.710632)
sub16_l2_sg_3_279.jpg: Predicted in 0.157322 seconds.
sports ball: 32%
(358.486237, 486.056732) (385.681549, 509.891205)
tennis racket: 37%
(582.154663, 458.043274) (629.819458, 589.828369)
person: 82%
(583.630554, 218.928024) (841.263245, 815.960632)
sub16_l2_sg_3_280.jpg: Predicted in 0.154687 seconds.
sports ball: 46%
(359.319763, 488.162323) (389.540863, 514.921692)
tennis racket: 32%
(563.096863, 470.496857) (606.373108, 581.708984)
person: 82%
(585.207520, 216.982010) (838.202515, 814.289246)
sub16_l2_sg_3_281.jpg: Predicted in 0.155787 seconds.
sports ball: 47%
(359.197388, 490.096344) (389.458008, 516.117798)
tennis racket: 50%
(569.353394, 471.379456) (604.381531, 585.576416)
person: 81%
(583.606873, 215.014069) (835.310181, 810.072327)
sub16_l2_sg_3_282.jpg: Predicted in 0.156777 seconds.
sports ball: 47%
(360.604858, 489.317261) (391.397766, 518.095642)
tennis racket: 60%
(565.463562, 457.486938) (603.124268, 608.292542)
person: 80%
(582.952820, 220.731186) (832.650696, 810.218689)
sub16_l2_sg_3_283.jpg: Predicted in 0.155418 seconds.
sports ball: 47%
(364.338898, 491.634888) (392.625610, 518.336243)
tennis racket: 56%
(565.940552, 448.844879) (600.801636, 614.282104)
person: 80%
(577.241882, 220.999054) (835.410706, 810.360046)
sub16_l2_sg_3_284.jpg: Predicted in 0.155706 seconds.
sports ball: 48%
(365.895813, 493.816132) (392.891937, 518.763123)
tennis racket: 49%
(563.257812, 458.732574) (599.328430, 606.479675)
person: 80%
(580.390808, 221.930389) (833.695007, 812.934448)
sub16_l2_sg_3_285.jpg: Predicted in 0.155381 seconds.
sports ball: 51%
(366.030151, 494.180389) (394.824127, 520.933655)
tennis racket: 47%
(556.266846, 468.286469) (598.951538, 601.044128)
person: 80%
(579.105164, 218.363739) (832.191223, 817.008911)
sub16_l2_sg_3_286.jpg: Predicted in 0.190253 seconds.
sports ball: 45%
(368.228638, 495.157227) (395.978516, 521.686768)
tennis racket: 56%
(554.248169, 461.622253) (598.542542, 601.362915)
person: 80%
(578.868591, 217.441940) (829.332703, 818.045349)
sub16_l2_sg_3_287.jpg: Predicted in 0.156610 seconds.
tennis racket: 53%
(550.886108, 472.216797) (595.866150, 601.355957)
person: 81%
(578.268005, 213.675598) (829.940613, 822.916809)
sub16_l2_sg_3_288.jpg: Predicted in 0.155163 seconds.
tennis racket: 49%
(535.279114, 477.702698) (589.681946, 590.780273)
person: 79%
(581.624451, 213.467331) (833.318054, 822.441467)
sub16_l2_sg_3_289.jpg: Predicted in 0.157906 seconds.
sports ball: 33%
(400.836517, 499.305603) (429.833801, 521.449768)
tennis racket: 42%
(529.316589, 481.084137) (583.316223, 577.612915)
tennis racket: 51%
(517.858032, 440.108185) (615.485413, 598.836304)
person: 80%
(588.462952, 216.469070) (833.912354, 821.678833)
sub16_l2_sg_3_290.jpg: Predicted in 0.155694 seconds.
sports ball: 32%
(401.143402, 499.996002) (426.371552, 522.409546)
tennis racket: 35%
(527.256958, 491.725555) (575.689575, 569.985962)
tennis racket: 54%
(504.130524, 440.544128) (613.207520, 595.430969)
person: 79%
(586.478149, 214.068253) (835.542542, 824.594666)
sub16_l2_sg_3_291.jpg: Predicted in 0.154364 seconds.
sports ball: 31%
(403.408691, 504.943390) (426.833618, 525.360840)
tennis racket: 58%
(488.753601, 442.076111) (610.290955, 600.350220)
person: 80%
(593.902405, 212.892365) (835.045532, 821.520325)
sub16_l2_sg_3_292.jpg: Predicted in 0.165707 seconds.
tennis racket: 55%
(480.643250, 439.416412) (604.667786, 596.999146)
person: 80%
(588.098389, 210.961121) (832.447144, 823.808289)
sub16_l2_sg_3_293.jpg: Predicted in 0.157511 seconds.
sports ball: 37%
(403.741913, 512.521240) (427.486420, 531.970825)
tennis racket: 60%
(462.838623, 443.738373) (597.398254, 600.511353)
person: 79%
(580.875061, 207.808304) (834.027161, 824.901367)
sub16_l2_sg_3_294.jpg: Predicted in 0.157601 seconds.
sports ball: 31%
(409.646973, 517.876465) (434.701111, 539.554382)
tennis racket: 65%
(451.668304, 448.921204) (586.988098, 603.682617)
person: 79%
(577.191650, 207.668945) (834.062012, 826.441284)
sub16_l2_sg_3_295.jpg: Predicted in 0.158271 seconds.
sports ball: 36%
(410.245453, 518.892334) (437.469910, 542.751831)
tennis racket: 57%
(441.799896, 448.376617) (585.016296, 598.482605)
person: 79%
(578.518311, 206.699722) (833.180481, 825.671204)
sub16_l2_sg_3_296.jpg: Predicted in 0.158331 seconds.
sports ball: 37%
(410.866943, 519.934998) (437.523315, 544.277710)
tennis racket: 56%
(441.624390, 448.402740) (588.199768, 594.926392)
person: 78%
(577.189209, 211.941574) (836.677673, 822.048645)
sub16_l2_sg_3_297.jpg: Predicted in 0.156657 seconds.
sports ball: 38%
(412.482483, 524.973450) (440.922668, 548.947266)
tennis racket: 50%
(434.234131, 449.717804) (590.193604, 595.560303)
person: 78%
(577.423401, 214.042587) (835.599976, 817.820740)
sub16_l2_sg_3_298.jpg: Predicted in 0.157940 seconds.
tennis racket: 48%
(433.506775, 444.835052) (592.762207, 587.257141)
person: 80%
(582.788513, 213.127686) (834.195923, 824.929932)
sub16_l2_sg_3_299.jpg: Predicted in 0.157884 seconds.
tennis racket: 34%
(421.302582, 437.946686) (606.718201, 583.524170)
person: 80%
(585.067932, 214.670776) (838.175476, 821.296387)
sub16_l2_sg_3_300.jpg: Predicted in 0.157475 seconds.
baseball bat: 36%
(420.579712, 431.498199) (611.621948, 582.289551)
person: 80%
(582.416382, 215.290115) (835.673523, 820.787170)
sub16_l2_sg_3_301.jpg: Predicted in 0.157954 seconds.
baseball bat: 35%
(419.640594, 424.949402) (608.360901, 584.808411)
person: 80%
(579.539124, 210.294250) (833.402283, 827.673645)
sub16_l2_sg_3_302.jpg: Predicted in 0.155320 seconds.
baseball bat: 39%
(410.101074, 428.928925) (612.954712, 582.797729)
person: 77%
(572.472839, 206.715698) (836.996460, 828.620483)
sub16_l2_sg_3_303.jpg: Predicted in 0.155926 seconds.
baseball bat: 36%
(408.842407, 431.893402) (615.245239, 580.406616)
person: 77%
(572.973694, 205.838699) (836.263794, 827.339233)
sub16_l2_sg_3_304.jpg: Predicted in 0.155350 seconds.
baseball bat: 34%
(412.876373, 435.737488) (619.364746, 578.058289)
person: 75%
(564.697998, 206.229233) (839.971985, 823.528809)
sub16_l2_sg_3_305.jpg: Predicted in 0.156837 seconds.
baseball bat: 37%
(397.638763, 447.235596) (565.612244, 592.936584)
person: 76%
(567.244629, 207.289047) (837.517334, 823.932312)
sub16_l2_sg_3_306.jpg: Predicted in 0.155908 seconds.
person: 77%
(570.474670, 210.305145) (834.353516, 820.617432)
sub16_l2_sg_3_307.jpg: Predicted in 0.156411 seconds.
sports ball: 31%
(419.524139, 506.182556) (459.186493, 543.034485)
tennis racket: 35%
(395.037781, 451.196136) (564.284180, 587.782166)
person: 76%
(563.772156, 215.338058) (840.097046, 817.264893)
sub16_l2_sg_3_308.jpg: Predicted in 0.156008 seconds.
baseball bat: 30%
(402.359528, 440.274841) (624.060303, 578.598267)
person: 77%
(566.230347, 211.497742) (834.631836, 821.462097)
sub16_l2_sg_3_309.jpg: Predicted in 0.156484 seconds.
sports ball: 35%
(415.360870, 499.637085) (453.819427, 530.464600)
tennis racket: 32%
(386.438538, 452.304657) (569.388062, 584.024414)
person: 76%
(568.058472, 216.017792) (837.265808, 820.127991)
sub16_l2_sg_3_310.jpg: Predicted in 0.157949 seconds.
sports ball: 40%
(412.669861, 496.002350) (448.855804, 527.894470)
baseball bat: 33%
(396.065491, 440.268005) (628.069580, 582.971924)
person: 75%
(562.817383, 213.485458) (841.905823, 816.788757)
sub16_l2_sg_3_311.jpg: Predicted in 0.156730 seconds.
sports ball: 46%
(408.174957, 492.958466) (446.601196, 527.110168)
baseball bat: 34%
(400.549896, 439.145538) (625.217407, 582.075806)
person: 73%
(559.326111, 216.373260) (845.789856, 813.605408)
sub16_l2_sg_3_312.jpg: Predicted in 0.156206 seconds.
sports ball: 49%
(406.570435, 490.456390) (442.911530, 524.888245)
baseball bat: 30%
(402.901459, 439.191833) (626.718628, 583.589050)
person: 72%
(554.955078, 213.183456) (851.691528, 814.187073)
sub16_l2_sg_3_313.jpg: Predicted in 0.155493 seconds.
sports ball: 48%
(406.746155, 490.656342) (443.098602, 522.091736)
person: 73%
(560.340454, 213.496902) (844.459839, 815.887634)
sub16_l2_sg_3_314.jpg: Predicted in 0.156678 seconds.
sports ball: 44%
(407.312103, 490.698730) (450.071686, 526.669678)
person: 74%
(505.494110, 236.602371) (850.896118, 805.357300)
sub16_l2_sg_3_315.jpg: Predicted in 0.155683 seconds.
sports ball: 46%
(407.327118, 488.924683) (449.751892, 524.275024)
person: 73%
(558.968018, 211.265656) (845.425293, 814.081482)
sub16_l2_sg_3_316.jpg: Predicted in 0.157171 seconds.
sports ball: 31%
(411.167480, 486.492920) (460.957153, 529.929810)
baseball bat: 39%
(389.758392, 451.527069) (566.486267, 577.678406)
person: 75%
(562.915894, 211.007996) (844.122375, 817.808411)
sub16_l2_sg_3_317.jpg: Predicted in 0.155422 seconds.
baseball bat: 33%
(404.914307, 403.603516) (638.330994, 538.090637)
baseball bat: 50%
(393.243408, 446.917603) (569.190491, 577.132080)
person: 76%
(492.513702, 237.376526) (860.467285, 799.651123)
sub16_l2_sg_3_318.jpg: Predicted in 0.168891 seconds.
sports ball: 34%
(414.418030, 469.544373) (452.449646, 498.286865)
baseball bat: 35%
(404.678894, 409.176605) (638.568237, 534.112976)
baseball bat: 48%
(399.250275, 447.473907) (565.153320, 577.872009)
person: 77%
(495.927521, 235.575134) (855.719177, 798.328186)
sub16_l2_sg_3_319.jpg: Predicted in 0.156200 seconds.
baseball bat: 49%
(398.972229, 443.110626) (564.678833, 582.532166)
person: 75%
(556.252625, 216.200516) (846.352051, 817.883911)
sub16_l2_sg_3_320.jpg: Predicted in 0.155915 seconds.
baseball bat: 39%
(393.401917, 402.829285) (643.170959, 543.948425)
baseball bat: 63%
(399.837708, 441.957489) (564.194641, 584.639221)
person: 75%
(490.970642, 239.926071) (859.854431, 800.894592)
sub16_l2_sg_3_321.jpg: Predicted in 0.157028 seconds.
baseball bat: 61%
(396.988098, 439.487488) (566.071228, 584.185852)
person: 73%
(494.257904, 239.189957) (857.279541, 800.907288)
