sub13_h1_lg_3_001.jpg: Predicted in 0.155369 seconds.
baseball bat: 50%
(417.215912, 290.837402) (502.843658, 310.792572)
baseball bat: 50%
(426.540039, 293.467712) (512.740784, 332.998047)
sub13_h1_lg_3_002.jpg: Predicted in 0.155829 seconds.
baseball bat: 60%
(427.946259, 290.462036) (518.317139, 336.703278)
sub13_h1_lg_3_003.jpg: Predicted in 0.155489 seconds.
baseball bat: 61%
(427.939240, 290.388855) (523.068726, 336.354156)
sub13_h1_lg_3_004.jpg: Predicted in 0.157436 seconds.
baseball bat: 48%
(418.652435, 291.503571) (510.220551, 314.017487)
baseball bat: 61%
(427.476440, 290.631165) (526.163696, 335.815277)
sub13_h1_lg_3_005.jpg: Predicted in 0.164229 seconds.
baseball bat: 49%
(416.805542, 291.727448) (512.515686, 314.221100)
baseball bat: 63%
(425.476318, 290.500427) (531.912842, 334.948578)
sub13_h1_lg_3_006.jpg: Predicted in 0.156778 seconds.
baseball bat: 59%
(424.285797, 292.312164) (530.940796, 331.890564)
sub13_h1_lg_3_007.jpg: Predicted in 0.157077 seconds.
baseball bat: 57%
(416.202881, 291.606323) (507.023438, 311.624664)
baseball bat: 53%
(423.246338, 292.678894) (524.229004, 330.709747)
sub13_h1_lg_3_008.jpg: Predicted in 0.167677 seconds.
baseball bat: 59%
(415.548676, 291.784424) (508.279968, 310.306793)
baseball bat: 49%
(422.465759, 293.715088) (527.136536, 327.811920)
sub13_h1_lg_3_009.jpg: Predicted in 0.155182 seconds.
baseball bat: 61%
(418.428223, 291.166809) (505.277161, 310.183563)
baseball bat: 47%
(424.364227, 293.472382) (523.096069, 327.853546)
sub13_h1_lg_3_010.jpg: Predicted in 0.155104 seconds.
baseball bat: 60%
(417.039551, 291.074341) (509.165070, 311.415009)
sub13_h1_lg_3_011.jpg: Predicted in 0.157374 seconds.
baseball bat: 60%
(419.286407, 290.644928) (510.106201, 311.283356)
sub13_h1_lg_3_012.jpg: Predicted in 0.155145 seconds.
baseball bat: 61%
(419.807404, 291.107971) (514.509766, 311.095551)
baseball bat: 52%
(426.552551, 293.014679) (528.939941, 328.903442)
sub13_h1_lg_3_013.jpg: Predicted in 0.157592 seconds.
baseball bat: 61%
(420.677155, 291.211395) (514.894714, 311.534058)
baseball bat: 32%
(447.118530, 291.425934) (549.333923, 334.253174)
sub13_h1_lg_3_014.jpg: Predicted in 0.154286 seconds.
baseball bat: 58%
(421.660858, 291.607208) (515.544739, 312.088562)
baseball bat: 38%
(446.795074, 290.506378) (550.002441, 335.864319)
sub13_h1_lg_3_015.jpg: Predicted in 0.155881 seconds.
baseball bat: 56%
(419.190521, 291.963776) (514.690247, 311.002350)
baseball bat: 36%
(446.314087, 291.512268) (550.411926, 335.019867)
sub13_h1_lg_3_016.jpg: Predicted in 0.154925 seconds.
baseball bat: 58%
(419.072998, 290.977509) (512.362671, 309.355133)
baseball bat: 48%
(427.501984, 293.446472) (524.905396, 329.014709)
sub13_h1_lg_3_017.jpg: Predicted in 0.156224 seconds.
baseball bat: 57%
(418.743530, 291.653992) (509.576630, 310.046478)
baseball bat: 49%
(425.920746, 293.461304) (525.164368, 329.025757)
sub13_h1_lg_3_018.jpg: Predicted in 0.156945 seconds.
baseball bat: 57%
(416.877899, 291.904785) (508.508453, 310.697418)
baseball bat: 51%
(424.532043, 293.395966) (523.203918, 329.836304)
sub13_h1_lg_3_019.jpg: Predicted in 0.154516 seconds.
baseball bat: 58%
(426.289307, 292.189148) (526.107910, 331.818115)
sub13_h1_lg_3_020.jpg: Predicted in 0.155377 seconds.
baseball bat: 62%
(421.587250, 291.359192) (510.336121, 311.462128)
sub13_h1_lg_3_021.jpg: Predicted in 0.155470 seconds.
baseball bat: 61%
(422.130371, 291.107910) (511.399841, 312.370056)
sub13_h1_lg_3_022.jpg: Predicted in 0.155593 seconds.
baseball bat: 61%
(422.640564, 291.275055) (510.541595, 311.981567)
sub13_h1_lg_3_023.jpg: Predicted in 0.158097 seconds.
baseball bat: 62%
(423.369507, 290.927032) (509.649048, 311.528107)
sub13_h1_lg_3_024.jpg: Predicted in 0.157369 seconds.
baseball bat: 62%
(423.404572, 290.921997) (510.532440, 311.930267)
sub13_h1_lg_3_025.jpg: Predicted in 0.155154 seconds.
baseball bat: 62%
(423.117493, 291.487000) (515.526001, 312.815399)
baseball bat: 40%
(447.384766, 290.957245) (548.221619, 333.741760)
sub13_h1_lg_3_026.jpg: Predicted in 0.178248 seconds.
baseball bat: 65%
(428.899567, 290.005096) (532.671509, 332.588257)
sub13_h1_lg_3_027.jpg: Predicted in 0.158111 seconds.
baseball bat: 68%
(428.232849, 289.422180) (535.981384, 333.660156)
sub13_h1_lg_3_028.jpg: Predicted in 0.158173 seconds.
baseball bat: 63%
(427.464661, 291.042694) (530.151672, 331.404907)
sub13_h1_lg_3_029.jpg: Predicted in 0.157377 seconds.
baseball bat: 63%
(428.114471, 291.233124) (531.973145, 331.079529)
sub13_h1_lg_3_030.jpg: Predicted in 0.155191 seconds.
baseball bat: 59%
(424.445282, 293.311157) (518.205750, 314.663727)
baseball bat: 69%
(429.704834, 289.670166) (534.974060, 334.147125)
sub13_h1_lg_3_031.jpg: Predicted in 0.159994 seconds.
baseball bat: 69%
(431.143097, 289.361298) (535.735779, 334.421051)
sub13_h1_lg_3_032.jpg: Predicted in 0.157248 seconds.
baseball bat: 75%
(430.047638, 287.514191) (542.647156, 337.911224)
sub13_h1_lg_3_033.jpg: Predicted in 0.158540 seconds.
baseball bat: 73%
(428.814606, 288.474884) (544.374634, 335.399017)
sub13_h1_lg_3_034.jpg: Predicted in 0.154842 seconds.
baseball bat: 72%
(428.451630, 289.058197) (544.200134, 334.419220)
sub13_h1_lg_3_035.jpg: Predicted in 0.165729 seconds.
baseball bat: 70%
(428.757141, 290.200470) (542.039978, 332.618103)
sub13_h1_lg_3_036.jpg: Predicted in 0.165152 seconds.
baseball bat: 67%
(428.176727, 291.397034) (542.578796, 330.179779)
sub13_h1_lg_3_037.jpg: Predicted in 0.155861 seconds.
baseball bat: 64%
(424.734955, 293.120453) (520.618225, 313.742584)
baseball bat: 58%
(441.821075, 291.393585) (552.331665, 333.318787)
sub13_h1_lg_3_038.jpg: Predicted in 0.156926 seconds.
baseball bat: 64%
(423.909973, 292.654510) (517.497620, 312.811798)
baseball bat: 46%
(442.920044, 291.975891) (550.703613, 332.924591)
sub13_h1_lg_3_039.jpg: Predicted in 0.155362 seconds.
baseball bat: 64%
(424.972443, 292.943512) (516.147522, 313.225006)
baseball bat: 41%
(443.223328, 291.361511) (549.974487, 333.200897)
sub13_h1_lg_3_040.jpg: Predicted in 0.156250 seconds.
baseball bat: 65%
(426.337006, 292.817017) (516.846069, 312.242279)
baseball bat: 40%
(443.792480, 292.574188) (549.512268, 331.424072)
sub13_h1_lg_3_041.jpg: Predicted in 0.159584 seconds.
baseball bat: 65%
(427.704956, 291.946747) (512.174072, 311.917145)
sub13_h1_lg_3_042.jpg: Predicted in 0.155088 seconds.
baseball bat: 63%
(427.412231, 293.071472) (514.779053, 311.998230)
baseball bat: 35%
(445.527985, 292.917664) (547.837891, 331.391815)
sub13_h1_lg_3_043.jpg: Predicted in 0.164983 seconds.
baseball bat: 63%
(427.457855, 293.291626) (510.493652, 311.217987)
sub13_h1_lg_3_044.jpg: Predicted in 0.156119 seconds.
baseball bat: 63%
(426.352539, 292.947754) (509.868713, 310.518372)
sub13_h1_lg_3_045.jpg: Predicted in 0.154957 seconds.
baseball bat: 64%
(425.186615, 292.777557) (511.602783, 310.211792)
sub13_h1_lg_3_046.jpg: Predicted in 0.155540 seconds.
baseball bat: 64%
(425.446014, 291.454163) (506.532288, 309.262207)
baseball bat: 33%
(432.817993, 294.576660) (514.906799, 324.850403)
sub13_h1_lg_3_047.jpg: Predicted in 0.156963 seconds.
baseball bat: 64%
(425.147217, 291.894775) (506.980377, 309.782043)
baseball bat: 38%
(433.023987, 294.320923) (516.216309, 325.108826)
sub13_h1_lg_3_048.jpg: Predicted in 0.155569 seconds.
baseball bat: 64%
(424.611359, 292.235474) (507.713409, 310.643433)
sub13_h1_lg_3_049.jpg: Predicted in 0.158031 seconds.
baseball bat: 64%
(426.040710, 291.586395) (507.257629, 309.653381)
baseball bat: 36%
(433.646332, 294.428009) (514.205200, 324.961426)
sub13_h1_lg_3_050.jpg: Predicted in 0.156417 seconds.
baseball bat: 65%
(428.591217, 291.610474) (504.775482, 310.328735)
sub13_h1_lg_3_051.jpg: Predicted in 0.156058 seconds.
baseball bat: 63%
(429.795898, 291.940002) (501.466156, 310.152954)
sub13_h1_lg_3_052.jpg: Predicted in 0.155662 seconds.
baseball bat: 63%
(431.005768, 292.819550) (501.663757, 311.748718)
sub13_h1_lg_3_053.jpg: Predicted in 0.154803 seconds.
baseball bat: 62%
(432.220184, 293.092865) (499.583160, 312.782684)
sub13_h1_lg_3_054.jpg: Predicted in 0.155751 seconds.
baseball bat: 63%
(431.362549, 292.830597) (503.166016, 312.526855)
sub13_h1_lg_3_055.jpg: Predicted in 0.155139 seconds.
baseball bat: 63%
(430.388000, 293.017120) (505.038025, 312.786682)
sub13_h1_lg_3_056.jpg: Predicted in 0.158057 seconds.
baseball bat: 63%
(426.629974, 292.435730) (504.301727, 310.904419)
sub13_h1_lg_3_057.jpg: Predicted in 0.155494 seconds.
baseball bat: 65%
(428.403076, 292.196594) (504.926544, 312.134033)
sub13_h1_lg_3_058.jpg: Predicted in 0.156596 seconds.
baseball bat: 64%
(428.461578, 291.612518) (502.465546, 311.487793)
sub13_h1_lg_3_059.jpg: Predicted in 0.157130 seconds.
baseball bat: 63%
(427.217255, 292.300140) (508.368927, 311.953217)
sub13_h1_lg_3_060.jpg: Predicted in 0.156379 seconds.
baseball bat: 62%
(428.639465, 292.304047) (504.790405, 311.834534)
sub13_h1_lg_3_061.jpg: Predicted in 0.157760 seconds.
baseball bat: 62%
(429.778290, 292.731903) (505.210266, 312.748993)
sub13_h1_lg_3_062.jpg: Predicted in 0.155640 seconds.
baseball bat: 61%
(433.052307, 292.873108) (501.635803, 314.116760)
sub13_h1_lg_3_063.jpg: Predicted in 0.154349 seconds.
baseball bat: 62%
(431.452362, 292.129395) (503.130920, 311.759979)
sub13_h1_lg_3_064.jpg: Predicted in 0.155864 seconds.
baseball bat: 65%
(430.647858, 291.120941) (502.834808, 309.995941)
sub13_h1_lg_3_065.jpg: Predicted in 0.156698 seconds.
baseball bat: 65%
(429.386200, 290.310516) (503.638153, 308.493774)
sub13_h1_lg_3_066.jpg: Predicted in 0.155181 seconds.
baseball bat: 65%
(430.624603, 291.037384) (501.268616, 309.254791)
sub13_h1_lg_3_067.jpg: Predicted in 0.156512 seconds.
baseball bat: 66%
(430.154907, 291.582062) (503.704102, 310.671509)
sub13_h1_lg_3_068.jpg: Predicted in 0.157777 seconds.
baseball bat: 66%
(428.353546, 289.464325) (503.837097, 308.769684)
sub13_h1_lg_3_069.jpg: Predicted in 0.157167 seconds.
baseball bat: 66%
(430.398773, 289.973999) (501.582428, 309.711334)
sub13_h1_lg_3_070.jpg: Predicted in 0.156260 seconds.
baseball bat: 66%
(434.024506, 291.251160) (501.737518, 312.189117)
sub13_h1_lg_3_071.jpg: Predicted in 0.158509 seconds.
baseball bat: 64%
(435.498779, 291.227722) (500.479004, 312.818481)
sub13_h1_lg_3_072.jpg: Predicted in 0.155807 seconds.
baseball bat: 64%
(435.380920, 291.367188) (500.866791, 312.320740)
sub13_h1_lg_3_073.jpg: Predicted in 0.157136 seconds.
baseball bat: 65%
(436.635651, 291.181580) (502.207886, 313.125458)
sub13_h1_lg_3_074.jpg: Predicted in 0.157807 seconds.
baseball bat: 65%
(434.839691, 290.207947) (504.149506, 312.161987)
sub13_h1_lg_3_075.jpg: Predicted in 0.156393 seconds.
baseball bat: 67%
(435.813721, 290.063873) (502.219269, 312.540955)
sub13_h1_lg_3_076.jpg: Predicted in 0.156251 seconds.
baseball bat: 67%
(436.923706, 289.581451) (500.351166, 312.887421)
sub13_h1_lg_3_077.jpg: Predicted in 0.156799 seconds.
baseball bat: 67%
(435.125092, 289.714569) (502.725769, 313.812134)
sub13_h1_lg_3_078.jpg: Predicted in 0.157589 seconds.
baseball bat: 64%
(436.134918, 290.590515) (500.635620, 314.962067)
sub13_h1_lg_3_079.jpg: Predicted in 0.155139 seconds.
baseball bat: 66%
(434.645782, 290.315582) (502.897614, 314.104706)
sub13_h1_lg_3_080.jpg: Predicted in 0.157560 seconds.
baseball bat: 69%
(435.664398, 288.695923) (503.786835, 313.868256)
sub13_h1_lg_3_081.jpg: Predicted in 0.156922 seconds.
baseball bat: 69%
(436.101410, 288.361359) (502.549011, 314.085480)
sub13_h1_lg_3_082.jpg: Predicted in 0.161145 seconds.
baseball bat: 69%
(436.018494, 288.689117) (505.256622, 313.565460)
sub13_h1_lg_3_083.jpg: Predicted in 0.156060 seconds.
baseball bat: 70%
(436.925354, 288.339081) (505.543884, 314.636963)
sub13_h1_lg_3_084.jpg: Predicted in 0.158217 seconds.
baseball bat: 71%
(438.107361, 288.153687) (506.348907, 315.814301)
sub13_h1_lg_3_085.jpg: Predicted in 0.156939 seconds.
baseball bat: 72%
(436.272034, 287.565979) (508.764740, 315.063019)
sub13_h1_lg_3_086.jpg: Predicted in 0.158233 seconds.
baseball bat: 74%
(436.231201, 286.449951) (509.315521, 314.124756)
sub13_h1_lg_3_087.jpg: Predicted in 0.159676 seconds.
baseball bat: 74%
(434.438995, 286.650360) (512.068726, 314.130890)
sub13_h1_lg_3_088.jpg: Predicted in 0.157523 seconds.
baseball bat: 75%
(433.475708, 285.114960) (511.454498, 314.634186)
sub13_h1_lg_3_089.jpg: Predicted in 0.157644 seconds.
baseball bat: 76%
(432.952057, 285.038544) (510.257324, 314.857666)
sub13_h1_lg_3_090.jpg: Predicted in 0.160587 seconds.
baseball bat: 77%
(434.525360, 284.916565) (510.174255, 315.337646)
sub13_h1_lg_3_091.jpg: Predicted in 0.156482 seconds.
baseball bat: 77%
(435.534088, 284.906158) (509.528839, 315.706055)
sub13_h1_lg_3_092.jpg: Predicted in 0.156153 seconds.
baseball bat: 77%
(436.067200, 284.300659) (507.497467, 314.984406)
sub13_h1_lg_3_093.jpg: Predicted in 0.157555 seconds.
baseball bat: 77%
(435.724670, 285.187408) (506.978973, 315.297485)
sub13_h1_lg_3_094.jpg: Predicted in 0.160422 seconds.
baseball bat: 76%
(434.726044, 285.790527) (506.772369, 314.404663)
sub13_h1_lg_3_095.jpg: Predicted in 0.157711 seconds.
baseball bat: 76%
(435.357635, 286.272369) (507.848145, 315.641510)
sub13_h1_lg_3_096.jpg: Predicted in 0.156645 seconds.
baseball bat: 77%
(435.263031, 285.238159) (508.200043, 316.063232)
sub13_h1_lg_3_097.jpg: Predicted in 0.156508 seconds.
baseball bat: 79%
(436.264984, 283.774231) (511.936920, 317.451019)
sub13_h1_lg_3_098.jpg: Predicted in 0.158817 seconds.
baseball bat: 79%
(436.902222, 282.617950) (513.067078, 318.418854)
sub13_h1_lg_3_099.jpg: Predicted in 0.156547 seconds.
baseball bat: 79%
(437.914001, 282.567047) (511.520966, 319.229248)
sub13_h1_lg_3_100.jpg: Predicted in 0.156090 seconds.
baseball bat: 79%
(439.333557, 281.576111) (507.603943, 319.078644)
sub13_h1_lg_3_101.jpg: Predicted in 0.154928 seconds.
baseball bat: 79%
(440.495270, 281.907532) (509.886719, 319.567657)
sub13_h1_lg_3_102.jpg: Predicted in 0.157747 seconds.
baseball bat: 79%
(440.297821, 282.415161) (511.835907, 320.163483)
sub13_h1_lg_3_103.jpg: Predicted in 0.161881 seconds.
baseball bat: 78%
(441.026337, 283.779968) (511.538300, 320.855896)
sub13_h1_lg_3_104.jpg: Predicted in 0.158264 seconds.
baseball bat: 77%
(442.162109, 284.342316) (508.935547, 320.870819)
sub13_h1_lg_3_105.jpg: Predicted in 0.157651 seconds.
baseball bat: 78%
(443.111755, 283.546814) (509.748047, 321.570435)
sub13_h1_lg_3_106.jpg: Predicted in 0.165914 seconds.
baseball bat: 79%
(444.601044, 281.780548) (509.840637, 322.990540)
sub13_h1_lg_3_107.jpg: Predicted in 0.157263 seconds.
baseball bat: 80%
(445.516998, 280.434906) (512.797424, 324.018707)
sub13_h1_lg_3_108.jpg: Predicted in 0.155454 seconds.
baseball bat: 80%
(445.770386, 278.508148) (515.232117, 325.151642)
sub13_h1_lg_3_109.jpg: Predicted in 0.155462 seconds.
baseball bat: 81%
(447.984070, 277.241821) (515.150513, 326.951996)
sub13_h1_lg_3_110.jpg: Predicted in 0.155379 seconds.
baseball bat: 80%
(449.607086, 277.858185) (511.868683, 326.987823)
sub13_h1_lg_3_111.jpg: Predicted in 0.155861 seconds.
baseball bat: 80%
(451.180939, 276.029358) (513.673096, 327.920502)
sub13_h1_lg_3_112.jpg: Predicted in 0.156333 seconds.
baseball bat: 80%
(452.110962, 277.442535) (511.330872, 328.225067)
sub13_h1_lg_3_113.jpg: Predicted in 0.158471 seconds.
baseball bat: 80%
(454.119812, 275.953064) (512.064575, 329.274780)
sub13_h1_lg_3_114.jpg: Predicted in 0.155630 seconds.
baseball bat: 80%
(454.719238, 275.004608) (512.060547, 330.694794)
sub13_h1_lg_3_115.jpg: Predicted in 0.165849 seconds.
baseball bat: 81%
(456.893280, 273.916595) (510.422089, 332.485992)
sub13_h1_lg_3_116.jpg: Predicted in 0.157185 seconds.
baseball bat: 81%
(456.059998, 274.524597) (509.404877, 332.156128)
sub13_h1_lg_3_117.jpg: Predicted in 0.156084 seconds.
baseball bat: 80%
(455.605347, 276.051849) (507.802612, 331.809875)
sub13_h1_lg_3_118.jpg: Predicted in 0.156081 seconds.
baseball bat: 80%
(456.030609, 273.377228) (510.910156, 333.744720)
sub13_h1_lg_3_119.jpg: Predicted in 0.155504 seconds.
baseball bat: 79%
(457.623016, 273.293427) (510.243896, 334.750702)
sub13_h1_lg_3_120.jpg: Predicted in 0.156360 seconds.
baseball bat: 78%
(459.675690, 272.069336) (508.846954, 336.262421)
sub13_h1_lg_3_121.jpg: Predicted in 0.165967 seconds.
baseball bat: 78%
(461.128845, 270.812683) (508.723236, 337.566650)
sub13_h1_lg_3_122.jpg: Predicted in 0.155664 seconds.
baseball bat: 78%
(461.873444, 269.589233) (511.710541, 338.103973)
sub13_h1_lg_3_123.jpg: Predicted in 0.157322 seconds.
baseball bat: 78%
(462.674469, 267.603271) (512.604858, 339.799500)
sub13_h1_lg_3_124.jpg: Predicted in 0.156661 seconds.
baseball bat: 77%
(463.078918, 266.526917) (513.008545, 340.711517)
sub13_h1_lg_3_125.jpg: Predicted in 0.157653 seconds.
baseball bat: 76%
(463.364166, 265.333160) (515.371033, 341.111938)
sub13_h1_lg_3_126.jpg: Predicted in 0.158585 seconds.
baseball bat: 79%
(465.235260, 263.995514) (514.358826, 342.416809)
sub13_h1_lg_3_127.jpg: Predicted in 0.155471 seconds.
baseball bat: 78%
(466.236084, 264.378845) (512.747986, 342.915710)
sub13_h1_lg_3_128.jpg: Predicted in 0.156982 seconds.
baseball bat: 78%
(466.495056, 263.704651) (513.203552, 343.829712)
sub13_h1_lg_3_129.jpg: Predicted in 0.166330 seconds.
baseball bat: 79%
(467.267090, 261.809357) (513.310242, 344.848480)
sub13_h1_lg_3_130.jpg: Predicted in 0.156966 seconds.
baseball bat: 84%
(467.798370, 254.607437) (521.277100, 350.124420)
sub13_h1_lg_3_131.jpg: Predicted in 0.156053 seconds.
baseball bat: 86%
(468.196747, 253.135254) (520.308533, 350.435211)
sub13_h1_lg_3_132.jpg: Predicted in 0.157863 seconds.
baseball bat: 86%
(469.848083, 253.670517) (518.969238, 351.189667)
sub13_h1_lg_3_133.jpg: Predicted in 0.155891 seconds.
baseball bat: 87%
(470.866791, 253.789291) (518.353394, 351.392487)
sub13_h1_lg_3_134.jpg: Predicted in 0.156539 seconds.
baseball bat: 87%
(472.290375, 253.785858) (517.249146, 352.051056)
sub13_h1_lg_3_135.jpg: Predicted in 0.156163 seconds.
baseball bat: 87%
(473.442169, 252.343185) (516.353882, 353.041321)
sub13_h1_lg_3_136.jpg: Predicted in 0.163077 seconds.
baseball bat: 87%
(474.699463, 251.666809) (515.130981, 354.279388)
sub13_h1_lg_3_137.jpg: Predicted in 0.156454 seconds.
baseball bat: 85%
(475.846527, 251.192520) (515.203918, 355.028595)
sub13_h1_lg_3_138.jpg: Predicted in 0.154980 seconds.
baseball bat: 84%
(476.426666, 249.449142) (514.709839, 356.568054)
sub13_h1_lg_3_139.jpg: Predicted in 0.155676 seconds.
baseball bat: 83%
(477.869568, 248.383362) (513.956116, 357.455048)
sub13_h1_lg_3_140.jpg: Predicted in 0.157335 seconds.
baseball bat: 82%
(479.264740, 247.977585) (514.209167, 358.462524)
sub13_h1_lg_3_141.jpg: Predicted in 0.161442 seconds.
baseball bat: 84%
(480.548553, 247.960495) (513.458374, 357.840759)
sub13_h1_lg_3_142.jpg: Predicted in 0.165691 seconds.
baseball bat: 84%
(481.969757, 247.657074) (513.129639, 357.641693)
sub13_h1_lg_3_143.jpg: Predicted in 0.157809 seconds.
baseball bat: 83%
(484.573059, 247.205872) (512.625671, 358.682465)
sub13_h1_lg_3_144.jpg: Predicted in 0.157081 seconds.
baseball bat: 82%
(486.717010, 247.534805) (511.943329, 359.188477)
sub13_h1_lg_3_145.jpg: Predicted in 0.157618 seconds.
baseball bat: 80%
(487.923920, 247.220047) (511.753143, 361.014313)
sub13_h1_lg_3_146.jpg: Predicted in 0.155921 seconds.
baseball bat: 79%
(490.329041, 246.003235) (511.274963, 361.849426)
sub13_h1_lg_3_147.jpg: Predicted in 0.157320 seconds.
baseball bat: 76%
(491.120758, 245.600082) (511.160950, 362.849854)
sub13_h1_lg_3_148.jpg: Predicted in 0.156222 seconds.
baseball bat: 70%
(492.454987, 243.439529) (510.291138, 364.943848)
sub13_h1_lg_3_149.jpg: Predicted in 0.163850 seconds.
baseball bat: 62%
(494.710693, 242.214127) (509.981537, 366.693298)
sub13_h1_lg_3_150.jpg: Predicted in 0.157156 seconds.
baseball bat: 56%
(496.344055, 255.093903) (511.297302, 368.009338)
sub13_h1_lg_3_151.jpg: Predicted in 0.156884 seconds.
baseball bat: 47%
(498.575806, 254.137589) (510.445038, 368.761841)
sub13_h1_lg_3_152.jpg: Predicted in 0.156749 seconds.
baseball bat: 46%
(499.361786, 253.194168) (510.358917, 370.440033)
sub13_h1_lg_3_153.jpg: Predicted in 0.158222 seconds.
baseball bat: 40%
(501.031006, 254.781006) (511.151764, 370.494324)
sub13_h1_lg_3_154.jpg: Predicted in 0.157881 seconds.
baseball bat: 38%
(501.482117, 254.012131) (511.008362, 371.736755)
sub13_h1_lg_3_155.jpg: Predicted in 0.158061 seconds.
baseball bat: 38%
(502.071808, 252.251175) (511.536285, 373.025665)
sub13_h1_lg_3_156.jpg: Predicted in 0.159391 seconds.
baseball bat: 50%
(499.902496, 249.130142) (510.956787, 375.007751)
sub13_h1_lg_3_157.jpg: Predicted in 0.156307 seconds.
baseball bat: 56%
(498.973358, 244.041443) (511.136658, 379.416626)
sub13_h1_lg_3_158.jpg: Predicted in 0.158322 seconds.
baseball bat: 65%
(496.883392, 245.693497) (512.951660, 377.696594)
sub13_h1_lg_3_159.jpg: Predicted in 0.165994 seconds.
baseball bat: 75%
(493.984711, 245.127350) (515.386414, 378.577759)
sub13_h1_lg_3_160.jpg: Predicted in 0.155473 seconds.
baseball bat: 80%
(490.145416, 245.242279) (517.936829, 378.186066)
sub13_h1_lg_3_161.jpg: Predicted in 0.156353 seconds.
baseball bat: 84%
(486.246613, 244.919891) (520.623840, 378.843475)
sub13_h1_lg_3_162.jpg: Predicted in 0.155179 seconds.
baseball bat: 85%
(483.574005, 245.205246) (524.396240, 380.237915)
sub13_h1_lg_3_163.jpg: Predicted in 0.158178 seconds.
baseball bat: 87%
(482.102539, 246.307953) (527.937683, 381.178467)
sub13_h1_lg_3_164.jpg: Predicted in 0.155720 seconds.
baseball bat: 87%
(480.575989, 246.437943) (530.710938, 380.511566)
sub13_h1_lg_3_165.jpg: Predicted in 0.157262 seconds.
baseball bat: 88%
(478.727936, 245.851288) (533.682129, 381.240875)
sub13_h1_lg_3_166.jpg: Predicted in 0.157938 seconds.
baseball bat: 89%
(477.788269, 245.950790) (538.549194, 381.303162)
sub13_h1_lg_3_167.jpg: Predicted in 0.155812 seconds.
baseball bat: 89%
(474.379639, 244.626633) (541.233521, 382.190704)
sub13_h1_lg_3_168.jpg: Predicted in 0.157917 seconds.
baseball bat: 90%
(470.620789, 245.307480) (544.019897, 383.901642)
sub13_h1_lg_3_169.jpg: Predicted in 0.155379 seconds.
baseball bat: 90%
(468.232452, 247.003036) (545.222656, 388.068146)
sub13_h1_lg_3_170.jpg: Predicted in 0.155115 seconds.
baseball bat: 90%
(465.779938, 250.607468) (546.548218, 389.707397)
sub13_h1_lg_3_171.jpg: Predicted in 0.158026 seconds.
baseball bat: 90%
(463.079559, 246.616272) (554.803589, 397.580017)
sub13_h1_lg_3_172.jpg: Predicted in 0.155489 seconds.
baseball bat: 91%
(461.747711, 247.944702) (555.934021, 397.636444)
sub13_h1_lg_3_173.jpg: Predicted in 0.155585 seconds.
baseball bat: 91%
(460.288483, 251.445724) (558.200806, 399.485870)
sub13_h1_lg_3_174.jpg: Predicted in 0.165953 seconds.
baseball bat: 91%
(456.504456, 250.771255) (560.841675, 401.580811)
sub13_h1_lg_3_175.jpg: Predicted in 0.155714 seconds.
baseball bat: 91%
(454.007629, 252.657120) (563.811707, 401.021393)
sub13_h1_lg_3_176.jpg: Predicted in 0.164114 seconds.
baseball bat: 91%
(451.378265, 252.553802) (566.916321, 401.977875)
sub13_h1_lg_3_177.jpg: Predicted in 0.156093 seconds.
baseball bat: 91%
(450.360199, 252.878082) (570.830200, 401.999329)
sub13_h1_lg_3_178.jpg: Predicted in 0.165127 seconds.
baseball bat: 91%
(448.206238, 252.337189) (571.833008, 403.277100)
sub13_h1_lg_3_179.jpg: Predicted in 0.164160 seconds.
baseball bat: 91%
(445.556885, 252.838638) (575.900208, 405.393921)
sub13_h1_lg_3_180.jpg: Predicted in 0.164968 seconds.
baseball bat: 91%
(442.854706, 253.132980) (581.396362, 405.428589)
sub13_h1_lg_3_181.jpg: Predicted in 0.156814 seconds.
baseball bat: 91%
(440.803619, 255.188156) (583.181763, 405.605225)
sub13_h1_lg_3_182.jpg: Predicted in 0.157493 seconds.
baseball bat: 91%
(438.418671, 257.008514) (586.350464, 405.235840)
sub13_h1_lg_3_183.jpg: Predicted in 0.160013 seconds.
baseball bat: 91%
(437.352875, 258.174591) (587.684509, 406.685272)
sub13_h1_lg_3_184.jpg: Predicted in 0.157982 seconds.
baseball bat: 91%
(436.840454, 259.679596) (588.943970, 406.087891)
sub13_h1_lg_3_185.jpg: Predicted in 0.154200 seconds.
baseball bat: 91%
(432.674652, 260.689484) (590.032043, 405.007324)
sub13_h1_lg_3_186.jpg: Predicted in 0.157169 seconds.
baseball bat: 91%
(432.145935, 260.868317) (592.523804, 405.930511)
sub13_h1_lg_3_187.jpg: Predicted in 0.157265 seconds.
baseball bat: 91%
(430.415741, 261.719116) (598.136047, 407.773621)
sub13_h1_lg_3_188.jpg: Predicted in 0.157775 seconds.
baseball bat: 91%
(428.987030, 262.051849) (602.549011, 408.772064)
sub13_h1_lg_3_189.jpg: Predicted in 0.154690 seconds.
baseball bat: 91%
(426.154846, 261.912872) (606.364136, 409.584381)
sub13_h1_lg_3_190.jpg: Predicted in 0.157621 seconds.
baseball bat: 91%
(421.552979, 261.634705) (607.941406, 408.304047)
sub13_h1_lg_3_191.jpg: Predicted in 0.156983 seconds.
baseball bat: 91%
(423.132629, 264.644287) (609.721741, 407.270813)
sub13_h1_lg_3_192.jpg: Predicted in 0.158310 seconds.
baseball bat: 91%
(420.326599, 264.760559) (614.812805, 407.509491)
sub13_h1_lg_3_193.jpg: Predicted in 0.156676 seconds.
baseball bat: 91%
(419.556213, 266.434235) (619.612915, 408.282745)
sub13_h1_lg_3_194.jpg: Predicted in 0.160937 seconds.
baseball bat: 92%
(421.277863, 270.893585) (622.697510, 408.492401)
sub13_h1_lg_3_195.jpg: Predicted in 0.156129 seconds.
baseball bat: 91%
(418.441071, 272.821533) (626.486023, 408.964478)
sub13_h1_lg_3_196.jpg: Predicted in 0.156704 seconds.
baseball bat: 91%
(418.467743, 276.048676) (626.655334, 407.587738)
sub13_h1_lg_3_197.jpg: Predicted in 0.162374 seconds.
baseball bat: 91%
(417.941833, 277.812164) (626.622681, 406.076324)
sub13_h1_lg_3_198.jpg: Predicted in 0.157135 seconds.
baseball bat: 92%
(411.209473, 279.648041) (634.317993, 405.662354)
sub13_h1_lg_3_199.jpg: Predicted in 0.156213 seconds.
baseball bat: 92%
(408.687897, 280.732513) (640.251465, 406.645813)
sub13_h1_lg_3_200.jpg: Predicted in 0.156094 seconds.
baseball bat: 92%
(410.063232, 284.281769) (641.297302, 405.715759)
sub13_h1_lg_3_201.jpg: Predicted in 0.158336 seconds.
baseball bat: 92%
(411.173523, 288.163940) (646.744690, 406.349487)
sub13_h1_lg_3_202.jpg: Predicted in 0.156528 seconds.
baseball bat: 92%
(406.629425, 289.444031) (652.673950, 406.698395)
sub13_h1_lg_3_203.jpg: Predicted in 0.156486 seconds.
baseball bat: 92%
(406.771118, 292.219147) (654.633484, 406.961395)
sub13_h1_lg_3_204.jpg: Predicted in 0.157870 seconds.
baseball bat: 92%
(404.399475, 294.648315) (658.659363, 405.441345)
sub13_h1_lg_3_205.jpg: Predicted in 0.155472 seconds.
baseball bat: 92%
(404.695587, 297.015778) (659.597778, 405.212128)
sub13_h1_lg_3_206.jpg: Predicted in 0.159588 seconds.
baseball bat: 92%
(403.411499, 298.696228) (659.588928, 405.749512)
sub13_h1_lg_3_207.jpg: Predicted in 0.165332 seconds.
baseball bat: 92%
(404.562286, 301.321503) (665.052734, 404.196686)
sub13_h1_lg_3_208.jpg: Predicted in 0.156907 seconds.
baseball bat: 92%
(402.245331, 304.088501) (669.363037, 404.711060)
sub13_h1_lg_3_209.jpg: Predicted in 0.155506 seconds.
baseball bat: 92%
(401.611938, 307.771454) (672.035461, 405.610931)
sub13_h1_lg_3_210.jpg: Predicted in 0.156835 seconds.
baseball bat: 92%
(401.395447, 311.537231) (672.403137, 404.585083)
sub13_h1_lg_3_211.jpg: Predicted in 0.165297 seconds.
baseball bat: 92%
(400.981171, 314.623199) (672.068787, 404.646332)
sub13_h1_lg_3_212.jpg: Predicted in 0.166091 seconds.
baseball bat: 92%
(400.937988, 317.873169) (674.654724, 403.941681)
sub13_h1_lg_3_213.jpg: Predicted in 0.157834 seconds.
baseball bat: 92%
(402.080627, 321.997437) (676.986084, 402.136444)
sub13_h1_lg_3_214.jpg: Predicted in 0.156775 seconds.
baseball bat: 91%
(402.182709, 325.356689) (682.128174, 400.680786)
sub13_h1_lg_3_215.jpg: Predicted in 0.156092 seconds.
baseball bat: 91%
(401.048096, 329.403778) (685.514221, 399.403442)
sub13_h1_lg_3_216.jpg: Predicted in 0.165534 seconds.
baseball bat: 91%
(401.970581, 334.409485) (688.780334, 397.524170)
sub13_h1_lg_3_217.jpg: Predicted in 0.160590 seconds.
baseball bat: 91%
(399.071381, 342.097717) (698.455322, 399.826599)
sub13_h1_lg_3_218.jpg: Predicted in 0.158764 seconds.
baseball bat: 92%
(398.643768, 343.488983) (700.756775, 398.418182)
sub13_h1_lg_3_219.jpg: Predicted in 0.157073 seconds.
baseball bat: 92%
(402.331177, 347.894440) (705.969910, 395.660309)
sub13_h1_lg_3_220.jpg: Predicted in 0.157994 seconds.
baseball bat: 92%
(402.359039, 350.814270) (708.383789, 394.586334)
sub13_h1_lg_3_221.jpg: Predicted in 0.160091 seconds.
baseball bat: 88%
(406.021973, 355.142609) (711.019348, 395.099854)
sub13_h1_lg_3_222.jpg: Predicted in 0.156419 seconds.
baseball bat: 88%
(403.575836, 359.450867) (709.510620, 392.702942)
sub13_h1_lg_3_223.jpg: Predicted in 0.155468 seconds.
baseball bat: 86%
(404.437561, 363.761200) (710.389771, 391.091400)
sub13_h1_lg_3_224.jpg: Predicted in 0.160514 seconds.
baseball bat: 83%
(408.309418, 367.293121) (715.272522, 389.004608)
sub13_h1_lg_3_225.jpg: Predicted in 0.156174 seconds.
baseball bat: 78%
(409.144623, 371.481598) (714.306396, 388.109161)
sub13_h1_lg_3_226.jpg: Predicted in 0.157723 seconds.
baseball bat: 69%
(417.797089, 374.863983) (719.173889, 386.568634)
sub13_h1_lg_3_227.jpg: Predicted in 0.158388 seconds.
baseball bat: 61%
(419.736786, 377.330933) (721.093201, 386.528412)
sub13_h1_lg_3_228.jpg: Predicted in 0.184293 seconds.
baseball bat: 44%
(427.070557, 379.885864) (720.983337, 386.150452)
sub13_h1_lg_3_229.jpg: Predicted in 0.158701 seconds.
baseball bat: 35%
(431.222931, 380.695953) (721.965332, 385.914795)
sub13_h1_lg_3_230.jpg: Predicted in 0.156167 seconds.
baseball bat: 48%
(433.484314, 382.130432) (728.339172, 389.202606)
sub13_h1_lg_3_231.jpg: Predicted in 0.156897 seconds.
baseball bat: 66%
(438.718903, 381.959473) (731.672791, 393.622528)
sub13_h1_lg_3_232.jpg: Predicted in 0.165229 seconds.
baseball bat: 76%
(440.826355, 380.465729) (732.409546, 397.892090)
sub13_h1_lg_3_233.jpg: Predicted in 0.154248 seconds.
baseball bat: 80%
(449.065369, 379.486389) (741.022827, 402.320892)
sub13_h1_lg_3_234.jpg: Predicted in 0.167317 seconds.
baseball bat: 85%
(452.191010, 377.479279) (740.820007, 406.299164)
sub13_h1_lg_3_235.jpg: Predicted in 0.155496 seconds.
baseball bat: 86%
(455.912048, 376.981445) (739.786987, 410.496460)
sub13_h1_lg_3_236.jpg: Predicted in 0.155599 seconds.
baseball bat: 88%
(463.872253, 376.075531) (735.973389, 416.429993)
sub13_h1_lg_3_237.jpg: Predicted in 0.155877 seconds.
baseball bat: 89%
(471.249298, 372.154236) (734.244873, 419.284180)
sub13_h1_lg_3_238.jpg: Predicted in 0.165411 seconds.
baseball bat: 90%
(485.363434, 370.803284) (733.862854, 421.851257)
sub13_h1_lg_3_239.jpg: Predicted in 0.158521 seconds.
baseball bat: 91%
(499.578827, 369.470001) (732.440491, 425.048340)
sub13_h1_lg_3_240.jpg: Predicted in 0.156085 seconds.
baseball bat: 91%
(507.951965, 368.115356) (730.264404, 429.867279)
sub13_h1_lg_3_241.jpg: Predicted in 0.156073 seconds.
baseball bat: 91%
(516.019409, 366.011047) (728.146606, 434.877289)
sub13_h1_lg_3_242.jpg: Predicted in 0.157735 seconds.
baseball bat: 91%
(525.233948, 365.883209) (726.042725, 440.726227)
sub13_h1_lg_3_243.jpg: Predicted in 0.156187 seconds.
baseball bat: 91%
(541.957764, 361.459991) (726.441284, 442.752380)
sub13_h1_lg_3_244.jpg: Predicted in 0.158373 seconds.
baseball bat: 91%
(542.087708, 360.480927) (730.534241, 448.998871)
sub13_h1_lg_3_245.jpg: Predicted in 0.156659 seconds.
baseball bat: 91%
(558.548889, 358.592926) (731.946533, 455.277985)
sub13_h1_lg_3_246.jpg: Predicted in 0.155137 seconds.
baseball bat: 91%
(565.065125, 358.616516) (736.427490, 457.698853)
sub13_h1_lg_3_247.jpg: Predicted in 0.154971 seconds.
baseball bat: 91%
(570.846558, 357.824890) (735.503845, 463.679626)
sub13_h1_lg_3_248.jpg: Predicted in 0.156002 seconds.
baseball bat: 91%
(574.435669, 358.084839) (734.165100, 469.111084)
sub13_h1_lg_3_249.jpg: Predicted in 0.154718 seconds.
baseball bat: 90%
(583.918152, 354.807220) (733.118408, 469.538177)
sub13_h1_lg_3_250.jpg: Predicted in 0.155309 seconds.
baseball bat: 89%
(591.695923, 353.849335) (730.135742, 474.418243)
sub13_h1_lg_3_251.jpg: Predicted in 0.156682 seconds.
baseball bat: 91%
(604.921387, 351.856018) (725.518860, 477.428101)
sub13_h1_lg_3_252.jpg: Predicted in 0.163655 seconds.
baseball bat: 90%
(613.426270, 349.345215) (726.047119, 475.959015)
sub13_h1_lg_3_253.jpg: Predicted in 0.158791 seconds.
baseball bat: 89%
(625.620422, 346.227570) (727.750244, 477.745331)
sub13_h1_lg_3_254.jpg: Predicted in 0.155756 seconds.
baseball bat: 89%
(640.565552, 352.945587) (727.750366, 472.122894)
sub13_h1_lg_3_255.jpg: Predicted in 0.157674 seconds.
baseball bat: 91%
(645.644897, 352.626923) (727.676758, 482.608490)
sub13_h1_lg_3_256.jpg: Predicted in 0.157292 seconds.
baseball bat: 92%
(652.484436, 348.007050) (729.365967, 493.459381)
sub13_h1_lg_3_257.jpg: Predicted in 0.165276 seconds.
baseball bat: 92%
(660.012207, 341.711151) (726.352844, 500.132172)
sub13_h1_lg_3_258.jpg: Predicted in 0.163849 seconds.
baseball bat: 88%
(675.147400, 341.993073) (726.326477, 503.750580)
sub13_h1_lg_3_259.jpg: Predicted in 0.155955 seconds.
baseball bat: 84%
(686.917175, 340.815460) (724.267212, 499.925781)
sub13_h1_lg_3_260.jpg: Predicted in 0.159517 seconds.
baseball bat: 79%
(700.076050, 339.260834) (723.258728, 502.174103)
sub13_h1_lg_3_261.jpg: Predicted in 0.158895 seconds.
baseball bat: 57%
(707.789734, 336.013580) (720.649292, 510.113464)
sub13_h1_lg_3_262.jpg: Predicted in 0.164535 seconds.
baseball bat: 38%
(713.559082, 335.698822) (723.698181, 514.268127)
sub13_h1_lg_3_263.jpg: Predicted in 0.159746 seconds.
baseball bat: 64%
(714.342834, 332.973175) (729.913025, 515.566345)
sub13_h1_lg_3_264.jpg: Predicted in 0.167922 seconds.
baseball bat: 84%
(710.619873, 334.729309) (743.927368, 511.093597)
sub13_h1_lg_3_265.jpg: Predicted in 0.157930 seconds.
baseball bat: 87%
(711.503662, 334.180328) (756.621765, 512.384521)
sub13_h1_lg_3_266.jpg: Predicted in 0.159071 seconds.
baseball bat: 88%
(712.500061, 333.833740) (770.614746, 511.127716)
sub13_h1_lg_3_267.jpg: Predicted in 0.164092 seconds.
baseball bat: 88%
(714.507080, 333.459442) (779.602905, 511.205048)
sub13_h1_lg_3_268.jpg: Predicted in 0.165296 seconds.
baseball bat: 88%
(712.203064, 334.974182) (792.233582, 501.311493)
sub13_h1_lg_3_269.jpg: Predicted in 0.159202 seconds.
baseball bat: 89%
(713.321228, 335.675110) (802.032166, 500.507294)
sub13_h1_lg_3_270.jpg: Predicted in 0.155814 seconds.
baseball bat: 89%
(708.995422, 334.422241) (812.913330, 499.647186)
sub13_h1_lg_3_271.jpg: Predicted in 0.156365 seconds.
baseball bat: 88%
(706.874023, 332.864014) (823.972046, 499.761749)
sub13_h1_lg_3_272.jpg: Predicted in 0.166603 seconds.
baseball bat: 88%
(703.938904, 332.893768) (833.433960, 494.946838)
sub13_h1_lg_3_273.jpg: Predicted in 0.157884 seconds.
baseball bat: 87%
(703.110535, 332.921783) (844.452820, 491.922882)
sub13_h1_lg_3_274.jpg: Predicted in 0.158126 seconds.
baseball bat: 87%
(700.815491, 331.684387) (857.703674, 491.819489)
sub13_h1_lg_3_275.jpg: Predicted in 0.157175 seconds.
baseball bat: 69%
(693.045105, 333.609467) (867.695435, 488.563446)
sub13_h1_lg_3_276.jpg: Predicted in 0.155447 seconds.
baseball bat: 37%
(687.259644, 337.765717) (869.062195, 478.945984)
sub13_h1_lg_3_277.jpg: Predicted in 0.157204 seconds.
baseball bat: 45%
(687.839661, 338.397125) (869.708252, 475.385468)
sub13_h1_lg_3_278.jpg: Predicted in 0.161171 seconds.
baseball bat: 54%
(690.042908, 338.254028) (872.067871, 476.397736)
sub13_h1_lg_3_279.jpg: Predicted in 0.158085 seconds.
baseball bat: 78%
(718.382629, 340.117828) (869.444397, 477.153381)
sub13_h1_lg_3_280.jpg: Predicted in 0.159081 seconds.
baseball bat: 76%
(716.844971, 340.029724) (870.714844, 475.368408)
sub13_h1_lg_3_281.jpg: Predicted in 0.157719 seconds.
baseball bat: 76%
(715.613708, 341.539398) (873.025513, 475.746155)
sub13_h1_lg_3_282.jpg: Predicted in 0.157198 seconds.
baseball bat: 76%
(714.207031, 340.308655) (875.707947, 475.630096)
sub13_h1_lg_3_283.jpg: Predicted in 0.166097 seconds.
baseball bat: 73%
(713.746277, 340.094543) (878.254944, 474.789154)
sub13_h1_lg_3_284.jpg: Predicted in 0.157070 seconds.
baseball bat: 59%
(711.298645, 343.355865) (880.275879, 471.488556)
sub13_h1_lg_3_285.jpg: Predicted in 0.157190 seconds.
baseball bat: 48%
(711.479248, 344.466644) (881.057861, 467.395752)
sub13_h1_lg_3_286.jpg: Predicted in 0.157938 seconds.
baseball bat: 57%
(708.265869, 346.425201) (884.930542, 466.647461)
sub13_h1_lg_3_287.jpg: Predicted in 0.157487 seconds.
baseball bat: 56%
(706.112854, 346.262115) (887.174927, 466.644623)
sub13_h1_lg_3_288.jpg: Predicted in 0.157239 seconds.
baseball bat: 46%
(708.375671, 344.088745) (888.866272, 465.826691)
sub13_h1_lg_3_289.jpg: Predicted in 0.161991 seconds.
baseball bat: 50%
(710.397339, 344.050720) (888.050964, 465.103333)
sub13_h1_lg_3_290.jpg: Predicted in 0.162705 seconds.
baseball bat: 58%
(709.545776, 347.311249) (888.570801, 463.728760)
sub13_h1_lg_3_291.jpg: Predicted in 0.158650 seconds.
baseball bat: 46%
(708.202637, 346.494171) (887.357971, 459.781281)
sub13_h1_lg_3_292.jpg: Predicted in 0.157618 seconds.
baseball bat: 43%
(708.875122, 343.597321) (887.208862, 462.144928)
sub13_h1_lg_3_293.jpg: Predicted in 0.158409 seconds.
baseball bat: 43%
(708.673218, 343.986725) (890.818481, 459.924683)
sub13_h1_lg_3_294.jpg: Predicted in 0.157411 seconds.
baseball bat: 52%
(708.110046, 343.056641) (888.860474, 456.509979)
sub13_h1_lg_3_295.jpg: Predicted in 0.155330 seconds.
baseball bat: 46%
(708.387817, 342.796173) (889.988953, 457.077393)
