sub14_h2_lg_2_001.jpg: Predicted in 0.157060 seconds.
baseball bat: 54%
(510.883972, 299.868774) (589.307007, 382.762329)
person: 80%
(455.270782, 223.444229) (761.338684, 778.598816)
sub14_h2_lg_2_002.jpg: Predicted in 0.166179 seconds.
baseball bat: 48%
(512.504333, 302.497406) (585.381775, 382.236725)
person: 79%
(454.596863, 221.301956) (763.471558, 780.453186)
sub14_h2_lg_2_003.jpg: Predicted in 0.155526 seconds.
baseball bat: 44%
(512.960938, 303.315277) (583.056824, 383.695496)
person: 80%
(452.732025, 221.733688) (764.720642, 779.588074)
sub14_h2_lg_2_004.jpg: Predicted in 0.155781 seconds.
baseball bat: 45%
(511.188019, 303.787567) (584.297913, 385.732727)
person: 81%
(451.611755, 223.685287) (767.880188, 778.659302)
sub14_h2_lg_2_005.jpg: Predicted in 0.154475 seconds.
baseball bat: 48%
(512.869080, 299.906860) (586.002502, 381.683594)
person: 81%
(451.926208, 224.901993) (768.706421, 779.781677)
sub14_h2_lg_2_006.jpg: Predicted in 0.156718 seconds.
baseball bat: 52%
(512.000244, 297.438629) (584.236572, 381.557556)
baseball bat: 30%
(512.537109, 270.204163) (630.367004, 401.938965)
person: 82%
(452.986786, 222.716003) (766.208984, 781.935852)
sub14_h2_lg_2_007.jpg: Predicted in 0.156034 seconds.
baseball bat: 52%
(511.680298, 299.117523) (582.494263, 384.870148)
person: 81%
(453.863678, 228.050476) (764.618347, 776.798279)
sub14_h2_lg_2_008.jpg: Predicted in 0.155274 seconds.
baseball bat: 50%
(515.405701, 301.314545) (586.514160, 387.907013)
person: 80%
(455.083191, 223.527359) (764.954773, 778.552429)
sub14_h2_lg_2_009.jpg: Predicted in 0.157089 seconds.
baseball bat: 52%
(514.002686, 299.919006) (583.952209, 388.194641)
person: 79%
(458.978302, 225.812286) (766.665771, 777.738220)
sub14_h2_lg_2_010.jpg: Predicted in 0.156772 seconds.
baseball bat: 48%
(516.704834, 302.051819) (590.277283, 386.665680)
person: 80%
(458.557312, 225.100128) (767.831299, 777.873535)
sub14_h2_lg_2_011.jpg: Predicted in 0.177116 seconds.
baseball bat: 46%
(521.156494, 299.133972) (589.110168, 386.039185)
person: 80%
(461.146912, 224.463776) (765.794922, 778.751526)
sub14_h2_lg_2_012.jpg: Predicted in 0.157361 seconds.
baseball bat: 44%
(520.251038, 297.377228) (588.330750, 385.589050)
person: 81%
(461.483368, 225.688049) (762.546387, 778.064941)
sub14_h2_lg_2_013.jpg: Predicted in 0.162276 seconds.
baseball bat: 48%
(521.858826, 292.503998) (591.203430, 387.670410)
person: 81%
(464.536346, 225.172714) (762.574768, 780.237854)
sub14_h2_lg_2_014.jpg: Predicted in 0.157648 seconds.
baseball bat: 51%
(521.716797, 289.548431) (594.335266, 391.620117)
person: 82%
(464.867401, 227.353165) (765.392700, 780.615906)
sub14_h2_lg_2_015.jpg: Predicted in 0.157446 seconds.
baseball bat: 47%
(522.601379, 293.827698) (590.364746, 388.973694)
person: 81%
(462.343170, 226.015427) (764.135803, 780.332214)
sub14_h2_lg_2_016.jpg: Predicted in 0.157068 seconds.
baseball bat: 50%
(524.974487, 292.959961) (588.252075, 387.309052)
person: 80%
(463.168610, 225.709702) (764.300537, 780.044189)
sub14_h2_lg_2_017.jpg: Predicted in 0.154863 seconds.
baseball bat: 42%
(526.212524, 293.987152) (589.537292, 386.312347)
person: 81%
(464.729736, 221.740417) (763.180359, 783.892090)
sub14_h2_lg_2_018.jpg: Predicted in 0.156141 seconds.
baseball bat: 52%
(521.713684, 289.447662) (593.115784, 388.325989)
person: 80%
(466.434937, 224.208710) (762.654114, 782.460815)
sub14_h2_lg_2_019.jpg: Predicted in 0.159333 seconds.
baseball bat: 54%
(522.969727, 293.905121) (589.314819, 389.352081)
person: 80%
(470.724701, 222.281189) (757.610352, 783.283508)
sub14_h2_lg_2_020.jpg: Predicted in 0.158843 seconds.
baseball bat: 51%
(525.109314, 290.665955) (591.083679, 390.232574)
person: 80%
(471.695129, 221.841812) (755.758240, 781.919739)
sub14_h2_lg_2_021.jpg: Predicted in 0.156122 seconds.
baseball bat: 49%
(528.146484, 291.782379) (590.932495, 388.643219)
person: 80%
(472.144775, 224.533661) (756.882080, 782.392212)
sub14_h2_lg_2_022.jpg: Predicted in 0.156298 seconds.
baseball bat: 45%
(530.237671, 293.578461) (589.306885, 386.562469)
person: 81%
(477.486298, 225.425201) (756.033936, 783.173401)
sub14_h2_lg_2_023.jpg: Predicted in 0.160036 seconds.
baseball bat: 44%
(531.324768, 296.235260) (588.172974, 383.971710)
person: 80%
(476.197906, 225.865646) (755.916626, 782.827087)
sub14_h2_lg_2_024.jpg: Predicted in 0.155730 seconds.
baseball bat: 44%
(529.877197, 292.802887) (588.391174, 386.279236)
person: 80%
(472.885620, 224.752258) (757.842590, 783.479187)
sub14_h2_lg_2_025.jpg: Predicted in 0.165279 seconds.
baseball bat: 47%
(529.109131, 293.804932) (589.281189, 387.574677)
person: 80%
(475.204529, 222.467926) (757.084595, 785.492004)
sub14_h2_lg_2_026.jpg: Predicted in 0.154975 seconds.
baseball bat: 46%
(530.681702, 292.831848) (587.301575, 387.584076)
person: 80%
(473.116302, 218.387512) (757.339722, 786.782166)
sub14_h2_lg_2_027.jpg: Predicted in 0.156533 seconds.
baseball bat: 45%
(531.568115, 289.623810) (587.760864, 388.517395)
person: 80%
(473.237152, 221.109314) (756.108887, 785.045776)
sub14_h2_lg_2_028.jpg: Predicted in 0.156402 seconds.
baseball bat: 40%
(531.790344, 284.896576) (590.261536, 393.280457)
person: 79%
(469.480591, 222.789764) (756.343933, 784.599976)
sub14_h2_lg_2_029.jpg: Predicted in 0.156072 seconds.
baseball bat: 38%
(533.511841, 290.519226) (589.797302, 386.905365)
person: 81%
(475.444763, 223.266525) (753.429199, 783.021057)
sub14_h2_lg_2_030.jpg: Predicted in 0.156389 seconds.
baseball bat: 44%
(532.500610, 284.985321) (590.943909, 389.157104)
person: 79%
(472.362305, 223.917053) (755.264832, 782.027771)
sub14_h2_lg_2_031.jpg: Predicted in 0.155659 seconds.
baseball bat: 47%
(533.459961, 283.542786) (591.766663, 390.274139)
person: 81%
(477.180939, 221.642120) (755.016602, 784.740356)
sub14_h2_lg_2_032.jpg: Predicted in 0.156185 seconds.
baseball bat: 40%
(539.475708, 282.042938) (594.559631, 386.959076)
person: 80%
(476.111176, 220.559052) (760.646851, 786.256165)
sub14_h2_lg_2_033.jpg: Predicted in 0.157269 seconds.
baseball bat: 40%
(541.387451, 283.145447) (594.163635, 387.616058)
person: 79%
(471.850494, 221.785355) (758.476135, 785.342407)
sub14_h2_lg_2_034.jpg: Predicted in 0.156816 seconds.
baseball bat: 31%
(542.421509, 282.138397) (594.414490, 387.141510)
person: 79%
(472.400726, 218.390793) (760.645386, 788.545532)
sub14_h2_lg_2_035.jpg: Predicted in 0.157612 seconds.
baseball bat: 37%
(538.451233, 284.280243) (588.970459, 383.933380)
person: 79%
(470.882446, 222.867996) (757.614746, 787.053162)
sub14_h2_lg_2_036.jpg: Predicted in 0.157473 seconds.
baseball bat: 37%
(540.412048, 285.122223) (588.499878, 384.465149)
person: 80%
(473.759216, 220.012238) (760.202881, 785.956726)
sub14_h2_lg_2_037.jpg: Predicted in 0.157455 seconds.
baseball bat: 38%
(544.430237, 280.635406) (588.989929, 390.519775)
person: 79%
(477.104767, 219.680069) (760.564758, 787.215576)
sub14_h2_lg_2_038.jpg: Predicted in 0.158144 seconds.
baseball bat: 48%
(544.896973, 273.670776) (591.556458, 394.297119)
person: 80%
(480.640045, 222.658081) (758.107178, 783.875061)
sub14_h2_lg_2_039.jpg: Predicted in 0.155949 seconds.
baseball bat: 44%
(545.752686, 274.871918) (590.993713, 393.220642)
person: 80%
(478.942719, 221.799988) (755.776367, 786.023193)
sub14_h2_lg_2_040.jpg: Predicted in 0.157848 seconds.
baseball bat: 41%
(547.416687, 272.518860) (589.092407, 393.464386)
person: 80%
(480.993652, 215.881134) (759.530762, 789.161316)
sub14_h2_lg_2_041.jpg: Predicted in 0.165843 seconds.
baseball bat: 35%
(545.814636, 276.256287) (589.253906, 387.498444)
person: 80%
(481.919067, 215.122482) (756.098389, 791.834167)
sub14_h2_lg_2_042.jpg: Predicted in 0.156044 seconds.
baseball bat: 37%
(545.848633, 271.085999) (587.350037, 391.165222)
person: 79%
(480.275208, 217.836899) (755.917175, 789.722107)
sub14_h2_lg_2_043.jpg: Predicted in 0.155380 seconds.
person: 79%
(482.514587, 218.066833) (755.802002, 789.773132)
sub14_h2_lg_2_044.jpg: Predicted in 0.155833 seconds.
person: 79%
(480.445953, 218.211075) (756.740112, 789.791565)
sub14_h2_lg_2_045.jpg: Predicted in 0.158016 seconds.
baseball bat: 34%
(541.374634, 270.212250) (581.027100, 396.668365)
person: 79%
(478.899597, 223.342850) (757.786865, 786.442017)
sub14_h2_lg_2_046.jpg: Predicted in 0.164937 seconds.
baseball bat: 43%
(540.001709, 268.089874) (583.138550, 399.384338)
person: 79%
(482.773346, 226.097702) (758.694946, 780.181274)
sub14_h2_lg_2_047.jpg: Predicted in 0.163898 seconds.
baseball bat: 42%
(540.486694, 266.459137) (584.494568, 396.552216)
person: 79%
(483.280334, 229.440140) (755.044250, 781.067078)
sub14_h2_lg_2_048.jpg: Predicted in 0.157137 seconds.
baseball bat: 51%
(540.518982, 252.563309) (582.746765, 405.642822)
person: 79%
(488.385315, 227.737350) (754.884888, 780.851257)
sub14_h2_lg_2_049.jpg: Predicted in 0.164807 seconds.
baseball bat: 58%
(538.428101, 250.992340) (580.512573, 410.070892)
person: 78%
(486.865936, 231.345718) (756.427734, 782.950073)
sub14_h2_lg_2_050.jpg: Predicted in 0.156707 seconds.
baseball bat: 64%
(536.130676, 256.402527) (581.727051, 405.605194)
person: 80%
(490.960541, 228.134506) (753.400513, 783.401428)
sub14_h2_lg_2_051.jpg: Predicted in 0.158333 seconds.
baseball bat: 70%
(533.468872, 252.139389) (584.444336, 409.539062)
person: 79%
(491.159729, 231.994217) (753.717712, 781.002563)
sub14_h2_lg_2_052.jpg: Predicted in 0.155798 seconds.
baseball bat: 72%
(532.405212, 252.703262) (587.019714, 408.311157)
person: 79%
(490.936859, 237.650940) (753.571472, 778.793762)
sub14_h2_lg_2_053.jpg: Predicted in 0.158033 seconds.
baseball bat: 76%
(528.781189, 246.046860) (584.311829, 415.889038)
person: 81%
(488.418732, 237.673523) (755.223145, 780.514099)
sub14_h2_lg_2_054.jpg: Predicted in 0.156863 seconds.
baseball bat: 78%
(524.160461, 247.983078) (584.060547, 417.167023)
person: 79%
(487.349426, 242.631622) (754.045105, 780.399109)
sub14_h2_lg_2_055.jpg: Predicted in 0.164412 seconds.
baseball bat: 76%
(521.956055, 251.538666) (583.811646, 409.852386)
person: 79%
(489.439240, 239.635300) (758.378723, 778.364929)
sub14_h2_lg_2_056.jpg: Predicted in 0.157139 seconds.
baseball bat: 77%
(520.046509, 255.336273) (583.478760, 407.475861)
person: 80%
(490.639801, 239.390686) (758.524536, 780.029968)
sub14_h2_lg_2_057.jpg: Predicted in 0.154909 seconds.
baseball bat: 76%
(524.153625, 254.798813) (587.989868, 409.759521)
person: 80%
(497.850250, 242.439819) (755.066223, 781.099426)
sub14_h2_lg_2_058.jpg: Predicted in 0.157674 seconds.
baseball bat: 74%
(520.567383, 255.359436) (586.635254, 407.500244)
person: 80%
(501.001678, 245.201157) (751.404114, 783.071289)
sub14_h2_lg_2_059.jpg: Predicted in 0.155895 seconds.
baseball bat: 73%
(520.416138, 256.524658) (586.371094, 411.756714)
person: 80%
(503.753784, 249.288895) (749.664856, 787.443298)
sub14_h2_lg_2_060.jpg: Predicted in 0.155030 seconds.
baseball bat: 70%
(519.210632, 255.597290) (585.334351, 412.892395)
person: 79%
(503.407959, 247.573334) (751.342468, 784.678589)
sub14_h2_lg_2_061.jpg: Predicted in 0.155434 seconds.
baseball bat: 67%
(517.632019, 259.096710) (586.781433, 416.051788)
person: 80%
(505.158905, 244.330688) (752.562256, 787.109741)
sub14_h2_lg_2_062.jpg: Predicted in 0.155061 seconds.
baseball bat: 68%
(517.080933, 263.203949) (583.353455, 411.628021)
baseball bat: 60%
(535.918579, 281.154968) (620.656738, 427.492859)
person: 81%
(507.978302, 238.294891) (754.523132, 790.595032)
sub14_h2_lg_2_063.jpg: Predicted in 0.155769 seconds.
baseball bat: 69%
(512.056519, 265.542084) (581.656982, 407.878296)
person: 80%
(498.009888, 239.439301) (757.263977, 788.164062)
sub14_h2_lg_2_064.jpg: Predicted in 0.155268 seconds.
baseball bat: 64%
(529.822571, 282.253296) (622.734253, 426.209442)
person: 80%
(497.270660, 236.419205) (755.026489, 789.390198)
sub14_h2_lg_2_065.jpg: Predicted in 0.155361 seconds.
baseball bat: 58%
(528.791809, 281.556274) (620.131226, 422.358307)
person: 78%
(496.018585, 244.103760) (751.825806, 786.204590)
sub14_h2_lg_2_066.jpg: Predicted in 0.155459 seconds.
baseball bat: 57%
(509.771393, 270.904053) (579.611633, 404.535767)
baseball bat: 58%
(527.432190, 282.642944) (622.075562, 423.424805)
person: 79%
(493.920410, 240.656876) (757.706116, 784.259094)
sub14_h2_lg_2_067.jpg: Predicted in 0.156538 seconds.
baseball bat: 47%
(507.912476, 271.241455) (579.668884, 405.382324)
baseball bat: 56%
(525.255432, 285.988312) (621.738647, 422.013306)
person: 78%
(495.885895, 248.801849) (752.324768, 785.659668)
sub14_h2_lg_2_068.jpg: Predicted in 0.155504 seconds.
baseball bat: 49%
(505.004028, 274.615936) (576.069336, 404.802490)
baseball bat: 53%
(525.303528, 288.320526) (621.373596, 422.719574)
person: 78%
(498.499695, 248.358246) (751.695862, 787.059814)
sub14_h2_lg_2_069.jpg: Predicted in 0.159958 seconds.
baseball bat: 54%
(499.795929, 275.991699) (571.699585, 404.151001)
baseball bat: 54%
(522.382812, 288.773102) (619.418640, 421.975342)
person: 78%
(498.187103, 247.253967) (751.074463, 786.096436)
sub14_h2_lg_2_070.jpg: Predicted in 0.156553 seconds.
baseball bat: 44%
(497.476685, 279.490753) (572.155273, 403.763580)
baseball bat: 51%
(521.881531, 290.234650) (623.291077, 422.700928)
person: 79%
(502.205048, 250.486404) (750.187622, 788.347900)
sub14_h2_lg_2_071.jpg: Predicted in 0.157837 seconds.
sports ball: 33%
(1195.987183, 244.190536) (1232.084961, 279.771454)
baseball bat: 48%
(500.031464, 281.421600) (576.573608, 401.764160)
baseball bat: 56%
(521.341003, 291.352570) (623.744995, 422.852844)
person: 79%
(497.308838, 241.366714) (751.363647, 788.590088)
sub14_h2_lg_2_072.jpg: Predicted in 0.155862 seconds.
baseball bat: 48%
(499.754517, 281.742065) (576.777649, 398.968903)
baseball bat: 57%
(520.412598, 291.000183) (624.891663, 422.554626)
person: 81%
(498.871094, 238.559036) (752.314087, 788.688965)
sub14_h2_lg_2_073.jpg: Predicted in 0.157426 seconds.
sports ball: 34%
(1193.437134, 248.095200) (1226.387939, 279.452881)
baseball bat: 50%
(497.188416, 285.941956) (572.219849, 393.353943)
baseball bat: 60%
(515.186340, 291.060608) (627.388306, 422.450928)
person: 81%
(499.001923, 239.020233) (753.930542, 791.073853)
sub14_h2_lg_2_074.jpg: Predicted in 0.156913 seconds.
sports ball: 33%
(1191.643555, 249.011414) (1225.133667, 282.464752)
baseball bat: 49%
(496.698059, 288.713562) (574.223328, 397.500366)
baseball bat: 63%
(514.189758, 291.645447) (628.463745, 423.968018)
person: 81%
(500.509338, 240.769333) (753.518005, 789.677979)
sub14_h2_lg_2_075.jpg: Predicted in 0.159926 seconds.
baseball bat: 50%
(493.460419, 288.102936) (571.850525, 395.081512)
baseball bat: 58%
(512.032227, 292.690063) (626.361511, 419.223053)
person: 80%
(495.837250, 244.378952) (754.756653, 787.314819)
sub14_h2_lg_2_076.jpg: Predicted in 0.155346 seconds.
baseball bat: 49%
(492.523926, 293.575256) (572.991150, 397.618256)
baseball bat: 60%
(512.276855, 294.447571) (626.088440, 421.343201)
person: 81%
(500.689667, 245.104736) (752.281067, 785.805359)
sub14_h2_lg_2_077.jpg: Predicted in 0.157262 seconds.
baseball bat: 44%
(492.763000, 295.138916) (566.876282, 389.174835)
baseball bat: 57%
(507.868347, 294.099548) (628.023132, 420.737183)
person: 81%
(499.939026, 242.300201) (747.825928, 789.372864)
sub14_h2_lg_2_078.jpg: Predicted in 0.158514 seconds.
sports ball: 38%
(1188.419800, 250.201981) (1219.171997, 283.183075)
baseball bat: 47%
(493.318756, 295.219208) (569.531799, 392.095978)
baseball bat: 61%
(508.557495, 293.266266) (628.918762, 422.053711)
person: 82%
(502.648438, 240.822815) (753.250671, 787.023682)
sub14_h2_lg_2_079.jpg: Predicted in 0.156172 seconds.
sports ball: 32%
(1188.583862, 251.706268) (1220.465576, 283.606476)
baseball bat: 47%
(489.638794, 300.586975) (569.187256, 394.803497)
baseball bat: 62%
(505.672424, 296.418243) (629.135071, 424.269012)
person: 83%
(503.208435, 242.056946) (749.505005, 785.352905)
sub14_h2_lg_2_080.jpg: Predicted in 0.155245 seconds.
baseball bat: 50%
(487.485504, 300.334473) (571.985229, 396.693970)
baseball bat: 60%
(505.568054, 298.761230) (627.372559, 422.302246)
person: 83%
(500.226532, 241.352493) (749.443970, 785.070007)
sub14_h2_lg_2_081.jpg: Predicted in 0.155920 seconds.
baseball bat: 51%
(484.569550, 306.449921) (568.363098, 394.612640)
baseball bat: 62%
(504.048126, 301.872833) (629.498535, 421.573029)
person: 84%
(502.324219, 241.123657) (751.413452, 785.977844)
sub14_h2_lg_2_082.jpg: Predicted in 0.155682 seconds.
baseball bat: 52%
(481.134491, 304.736145) (567.593628, 395.606781)
baseball bat: 62%
(500.747223, 302.337799) (626.759521, 421.145966)
person: 83%
(500.427826, 240.566254) (752.257080, 788.458557)
sub14_h2_lg_2_083.jpg: Predicted in 0.156968 seconds.
baseball bat: 60%
(497.180420, 304.568604) (624.444580, 418.220734)
person: 81%
(499.580933, 241.616089) (754.166321, 787.099365)
sub14_h2_lg_2_084.jpg: Predicted in 0.155858 seconds.
baseball bat: 61%
(493.865021, 304.637909) (621.941650, 417.888824)
person: 81%
(502.880798, 249.589462) (760.245667, 784.231140)
sub14_h2_lg_2_085.jpg: Predicted in 0.155232 seconds.
baseball bat: 52%
(468.300995, 308.637817) (570.633728, 400.108948)
baseball bat: 59%
(483.860077, 313.051971) (636.966675, 438.249420)
person: 81%
(500.713684, 241.485519) (755.721313, 784.600342)
sub14_h2_lg_2_086.jpg: Predicted in 0.165839 seconds.
baseball bat: 48%
(472.218628, 309.211700) (571.794800, 404.097351)
baseball bat: 56%
(488.652893, 316.481628) (633.999451, 437.557037)
person: 81%
(500.145966, 239.288361) (757.537659, 784.535950)
sub14_h2_lg_2_087.jpg: Predicted in 0.157098 seconds.
baseball bat: 45%
(465.791962, 312.417877) (574.842346, 405.168121)
baseball bat: 64%
(484.350983, 315.288025) (642.166565, 438.461273)
person: 82%
(501.547913, 235.932297) (754.747742, 785.880493)
sub14_h2_lg_2_088.jpg: Predicted in 0.155727 seconds.
baseball bat: 48%
(462.428894, 315.960510) (573.676819, 403.307343)
baseball bat: 70%
(486.197815, 313.168793) (646.596741, 441.276581)
person: 84%
(500.902924, 239.074585) (756.140686, 786.372803)
sub14_h2_lg_2_089.jpg: Predicted in 0.158155 seconds.
baseball bat: 47%
(458.349121, 319.728546) (574.140991, 402.676178)
baseball bat: 69%
(484.745667, 315.599335) (645.819031, 441.186646)
person: 83%
(496.240479, 236.965256) (757.140625, 784.995361)
sub14_h2_lg_2_090.jpg: Predicted in 0.156242 seconds.
baseball bat: 47%
(462.914215, 319.736145) (576.033081, 402.503998)
baseball bat: 68%
(486.838348, 319.940735) (644.828918, 436.351898)
person: 82%
(499.703369, 243.385559) (754.106628, 782.769226)
sub14_h2_lg_2_091.jpg: Predicted in 0.210268 seconds.
sports ball: 31%
(1150.803589, 265.322876) (1175.925659, 294.737671)
baseball bat: 46%
(461.160400, 324.992554) (576.746765, 398.283875)
baseball bat: 66%
(488.119385, 321.358032) (652.973694, 436.369293)
person: 84%
(497.460480, 238.434845) (755.629333, 786.982666)
sub14_h2_lg_2_092.jpg: Predicted in 0.154753 seconds.
baseball bat: 44%
(462.717377, 326.419708) (575.719299, 396.843658)
baseball bat: 64%
(482.804810, 323.067993) (653.748047, 433.134247)
person: 83%
(496.267517, 232.535217) (756.039062, 789.492249)
sub14_h2_lg_2_093.jpg: Predicted in 0.156329 seconds.
sports ball: 34%
(1147.153931, 266.507141) (1174.224854, 295.763123)
baseball bat: 33%
(467.384583, 331.636169) (571.922668, 394.959381)
baseball bat: 62%
(485.845032, 325.917358) (657.903809, 432.829468)
person: 84%
(494.491119, 232.213242) (759.007324, 792.617554)
sub14_h2_lg_2_094.jpg: Predicted in 0.165455 seconds.
sports ball: 35%
(1147.814941, 267.149017) (1175.468994, 298.744537)
baseball bat: 32%
(462.314484, 337.340149) (566.519897, 391.075470)
baseball bat: 63%
(485.811920, 331.164307) (656.859985, 431.699799)
person: 82%
(494.649750, 244.196274) (761.733521, 786.161011)
sub14_h2_lg_2_095.jpg: Predicted in 0.155525 seconds.
baseball bat: 62%
(483.550446, 333.105469) (657.913330, 432.880737)
person: 83%
(494.143188, 245.240829) (761.907959, 785.594421)
sub14_h2_lg_2_096.jpg: Predicted in 0.155812 seconds.
sports ball: 31%
(1145.573608, 272.392151) (1171.433350, 302.884705)
baseball bat: 63%
(477.846191, 334.413757) (656.210144, 429.963257)
person: 83%
(492.730957, 241.041870) (763.688477, 785.171875)
sub14_h2_lg_2_097.jpg: Predicted in 0.155726 seconds.
sports ball: 35%
(1143.699341, 273.567902) (1171.830566, 305.103485)
baseball bat: 67%
(477.786133, 337.370026) (663.177917, 429.701385)
person: 82%
(492.872070, 241.658813) (764.726074, 781.956726)
sub14_h2_lg_2_098.jpg: Predicted in 0.156035 seconds.
baseball bat: 55%
(477.334320, 341.123901) (660.379456, 433.941376)
person: 83%
(494.286469, 246.658585) (764.109009, 780.279663)
sub14_h2_lg_2_099.jpg: Predicted in 0.157039 seconds.
baseball bat: 59%
(477.586243, 343.077118) (661.929504, 429.752960)
person: 83%
(489.886505, 244.800568) (766.322144, 781.588440)
sub14_h2_lg_2_100.jpg: Predicted in 0.156033 seconds.
baseball bat: 59%
(476.627899, 345.642700) (657.754089, 426.682129)
person: 82%
(494.574127, 249.505188) (762.612610, 776.027649)
sub14_h2_lg_2_101.jpg: Predicted in 0.156253 seconds.
sports ball: 33%
(1136.748901, 278.944000) (1163.741455, 308.288422)
baseball bat: 56%
(475.612701, 348.030823) (658.936279, 428.329681)
person: 82%
(497.209015, 246.222931) (762.240662, 779.496521)
sub14_h2_lg_2_102.jpg: Predicted in 0.156094 seconds.
sports ball: 30%
(1128.922607, 279.995575) (1155.548096, 308.515900)
baseball bat: 52%
(475.834229, 351.806885) (664.914673, 430.012573)
person: 82%
(493.679688, 248.811676) (765.784119, 780.647705)
sub14_h2_lg_2_103.jpg: Predicted in 0.155638 seconds.
sports ball: 31%
(1116.949463, 281.755493) (1142.068726, 307.656799)
baseball bat: 50%
(473.899750, 354.143677) (666.445496, 428.333069)
person: 81%
(492.337891, 243.872314) (765.275696, 780.798096)
sub14_h2_lg_2_104.jpg: Predicted in 0.154633 seconds.
sports ball: 31%
(1107.361572, 281.804932) (1131.900024, 308.949341)
baseball bat: 42%
(449.936462, 351.416504) (619.977783, 413.979767)
person: 82%
(495.527283, 240.836746) (766.855591, 782.282166)
sub14_h2_lg_2_105.jpg: Predicted in 0.155806 seconds.
baseball bat: 63%
(443.197357, 355.904633) (616.827576, 408.842560)
person: 82%
(498.798431, 249.220566) (768.052673, 780.034912)
sub14_h2_lg_2_106.jpg: Predicted in 0.154566 seconds.
baseball bat: 64%
(438.411987, 362.533478) (614.553772, 407.247864)
person: 80%
(488.875854, 249.903778) (769.920593, 776.313110)
sub14_h2_lg_2_107.jpg: Predicted in 0.156714 seconds.
baseball bat: 65%
(434.447418, 364.620911) (615.492981, 407.140564)
person: 81%
(489.683533, 246.605759) (763.477844, 777.663269)
sub14_h2_lg_2_108.jpg: Predicted in 0.156377 seconds.
baseball bat: 61%
(442.296082, 365.695801) (618.260010, 409.389465)
person: 81%
(492.239197, 243.417114) (764.389282, 777.483032)
sub14_h2_lg_2_109.jpg: Predicted in 0.155207 seconds.
baseball bat: 56%
(439.174652, 369.908020) (625.541870, 410.686279)
person: 81%
(487.013245, 241.685867) (765.672546, 774.728699)
sub14_h2_lg_2_110.jpg: Predicted in 0.157187 seconds.
baseball bat: 52%
(443.893036, 372.553558) (611.974792, 410.976410)
person: 80%
(481.185059, 236.097290) (762.024353, 777.512512)
sub14_h2_lg_2_111.jpg: Predicted in 0.165178 seconds.
baseball bat: 48%
(437.115417, 378.084869) (616.718506, 414.640228)
person: 80%
(482.111603, 236.160156) (757.899719, 778.341492)
sub14_h2_lg_2_112.jpg: Predicted in 0.166384 seconds.
baseball bat: 53%
(422.650604, 381.964355) (627.733582, 416.676178)
person: 80%
(484.917816, 242.179520) (760.285950, 773.641724)
sub14_h2_lg_2_113.jpg: Predicted in 0.162472 seconds.
baseball bat: 49%
(422.003540, 386.495667) (624.241028, 419.998383)
person: 80%
(488.740295, 243.783981) (757.181946, 773.014587)
sub14_h2_lg_2_114.jpg: Predicted in 0.157185 seconds.
baseball bat: 51%
(419.846863, 387.387726) (631.609192, 422.386078)
person: 79%
(491.378998, 238.664291) (761.827332, 773.104797)
sub14_h2_lg_2_115.jpg: Predicted in 0.157260 seconds.
baseball bat: 45%
(411.847168, 391.420502) (639.016113, 423.716492)
person: 79%
(490.915527, 237.159134) (765.551697, 775.165588)
sub14_h2_lg_2_116.jpg: Predicted in 0.165463 seconds.
baseball bat: 46%
(415.777924, 395.600830) (645.915039, 427.764679)
person: 79%
(492.145233, 229.040741) (767.097473, 779.386108)
sub14_h2_lg_2_117.jpg: Predicted in 0.155225 seconds.
baseball bat: 51%
(435.085480, 402.621429) (650.991943, 434.276245)
person: 79%
(492.715881, 228.670364) (762.623535, 777.180237)
sub14_h2_lg_2_118.jpg: Predicted in 0.159888 seconds.
baseball bat: 49%
(445.075562, 407.209900) (645.493530, 434.664886)
person: 78%
(496.658966, 232.786301) (765.528198, 773.285828)
sub14_h2_lg_2_119.jpg: Predicted in 0.158708 seconds.
baseball bat: 41%
(455.549622, 408.768433) (636.412964, 433.812653)
person: 78%
(493.305664, 232.408600) (768.437073, 772.918518)
sub14_h2_lg_2_120.jpg: Predicted in 0.158544 seconds.
baseball bat: 34%
(465.018036, 409.431305) (634.515564, 433.976898)
person: 78%
(494.320801, 232.692368) (768.994019, 770.888855)
sub14_h2_lg_2_121.jpg: Predicted in 0.158816 seconds.
person: 77%
(492.964355, 237.175293) (774.567566, 768.603394)
sub14_h2_lg_2_122.jpg: Predicted in 0.155755 seconds.
person: 78%
(501.397339, 239.140961) (778.487610, 767.623047)
sub14_h2_lg_2_123.jpg: Predicted in 0.158225 seconds.
person: 77%
(507.457703, 237.428665) (780.804932, 770.615479)
sub14_h2_lg_2_124.jpg: Predicted in 0.157458 seconds.
person: 78%
(510.272675, 238.053726) (782.388306, 770.333923)
sub14_h2_lg_2_125.jpg: Predicted in 0.157015 seconds.
baseball bat: 34%
(472.889954, 409.737885) (666.322021, 441.277863)
person: 79%
(501.986725, 240.271973) (783.538330, 769.051819)
sub14_h2_lg_2_126.jpg: Predicted in 0.162247 seconds.
person: 78%
(499.510559, 235.811203) (790.557312, 770.636475)
sub14_h2_lg_2_127.jpg: Predicted in 0.156501 seconds.
person: 78%
(500.928772, 236.640549) (785.727417, 769.719299)
sub14_h2_lg_2_128.jpg: Predicted in 0.157182 seconds.
person: 76%
(501.293915, 240.086716) (788.497070, 767.410889)
sub14_h2_lg_2_129.jpg: Predicted in 0.156211 seconds.
person: 77%
(502.343536, 244.007462) (795.078308, 767.545349)
sub14_h2_lg_2_130.jpg: Predicted in 0.154604 seconds.
person: 77%
(503.033569, 241.431015) (793.297424, 766.716309)
sub14_h2_lg_2_131.jpg: Predicted in 0.156355 seconds.
person: 77%
(506.084961, 241.472412) (790.754822, 769.695496)
sub14_h2_lg_2_132.jpg: Predicted in 0.154953 seconds.
person: 75%
(506.626740, 240.602951) (795.280457, 771.466736)
sub14_h2_lg_2_133.jpg: Predicted in 0.156024 seconds.
baseball bat: 34%
(493.741364, 409.489563) (773.543030, 471.978455)
person: 74%
(508.283508, 244.241882) (792.609863, 772.367798)
sub14_h2_lg_2_134.jpg: Predicted in 0.156744 seconds.
person: 72%
(503.448578, 244.290070) (792.218811, 771.754333)
sub14_h2_lg_2_135.jpg: Predicted in 0.156532 seconds.
baseball bat: 34%
(504.708496, 403.925262) (761.633972, 479.997009)
person: 70%
(507.051392, 241.280533) (788.858643, 774.002563)
sub14_h2_lg_2_136.jpg: Predicted in 0.156235 seconds.
baseball bat: 40%
(500.396210, 400.473938) (764.235901, 481.135498)
person: 72%
(507.176178, 239.185211) (791.560852, 777.022400)
sub14_h2_lg_2_137.jpg: Predicted in 0.158904 seconds.
baseball bat: 31%
(504.817444, 401.270203) (764.611511, 485.920258)
person: 76%
(497.128326, 247.875504) (796.466064, 773.098755)
sub14_h2_lg_2_138.jpg: Predicted in 0.156545 seconds.
person: 72%
(502.189850, 243.915527) (787.510742, 771.666199)
sub14_h2_lg_2_139.jpg: Predicted in 0.156503 seconds.
person: 75%
(503.543793, 253.519272) (781.560852, 764.950745)
sub14_h2_lg_2_140.jpg: Predicted in 0.155679 seconds.
person: 74%
(506.200775, 253.834656) (777.468689, 761.817261)
sub14_h2_lg_2_141.jpg: Predicted in 0.156088 seconds.
sports ball: 32%
(998.738892, 332.604584) (1024.414917, 360.387268)
person: 72%
(509.702087, 257.890167) (780.771545, 760.460754)
sub14_h2_lg_2_142.jpg: Predicted in 0.155469 seconds.
sports ball: 31%
(999.719727, 334.117706) (1025.068970, 363.380188)
person: 72%
(516.641724, 263.924408) (783.093262, 760.934570)
sub14_h2_lg_2_143.jpg: Predicted in 0.155739 seconds.
person: 74%
(519.581177, 259.172821) (790.786621, 762.899231)
sub14_h2_lg_2_144.jpg: Predicted in 0.155749 seconds.
person: 73%
(517.745117, 255.714661) (789.255432, 764.398926)
sub14_h2_lg_2_145.jpg: Predicted in 0.157498 seconds.
person: 72%
(516.777283, 247.890991) (794.038574, 768.713928)
sub14_h2_lg_2_146.jpg: Predicted in 0.156604 seconds.
person: 74%
(517.145569, 246.297913) (788.858154, 770.917358)
sub14_h2_lg_2_147.jpg: Predicted in 0.155789 seconds.
person: 75%
(523.025879, 235.695770) (787.985168, 774.841736)
sub14_h2_lg_2_148.jpg: Predicted in 0.154706 seconds.
sports ball: 33%
(995.722595, 341.250977) (1026.156860, 375.136383)
person: 76%
(525.851013, 243.622925) (784.041870, 772.783020)
sub14_h2_lg_2_149.jpg: Predicted in 0.155937 seconds.
person: 74%
(520.864868, 240.323425) (790.300781, 767.840332)
sub14_h2_lg_2_150.jpg: Predicted in 0.155990 seconds.
person: 75%
(526.116821, 232.426865) (793.129883, 734.672302)
sub14_h2_lg_2_151.jpg: Predicted in 0.155593 seconds.
person: 75%
(526.869019, 232.794006) (791.564331, 737.310486)
sub14_h2_lg_2_152.jpg: Predicted in 0.155760 seconds.
sports ball: 37%
(954.572449, 349.606812) (981.291809, 375.669464)
person: 75%
(525.903503, 228.629883) (789.420898, 743.454651)
sub14_h2_lg_2_153.jpg: Predicted in 0.156686 seconds.
sports ball: 41%
(951.424438, 350.352173) (978.156372, 374.643677)
person: 78%
(523.734741, 223.732895) (789.432556, 748.375549)
sub14_h2_lg_2_154.jpg: Predicted in 0.155883 seconds.
sports ball: 37%
(949.413635, 349.434509) (976.666077, 372.578033)
person: 75%
(519.074402, 221.792297) (793.480713, 753.676086)
sub14_h2_lg_2_155.jpg: Predicted in 0.156499 seconds.
sports ball: 43%
(948.676636, 348.335480) (975.732422, 373.659882)
person: 76%
(520.510010, 223.711533) (794.122986, 750.228943)
sub14_h2_lg_2_156.jpg: Predicted in 0.175508 seconds.
sports ball: 45%
(946.543091, 348.303406) (976.226562, 374.472809)
person: 77%
(521.984375, 224.504593) (793.887817, 748.365479)
sub14_h2_lg_2_157.jpg: Predicted in 0.157288 seconds.
sports ball: 43%
(945.156738, 350.114716) (972.726562, 375.442413)
person: 75%
(525.722961, 228.527481) (795.961792, 744.728760)
sub14_h2_lg_2_158.jpg: Predicted in 0.157617 seconds.
sports ball: 43%
(944.178223, 351.195953) (971.615662, 377.836334)
person: 75%
(526.761230, 229.591888) (794.912659, 743.960510)
sub14_h2_lg_2_159.jpg: Predicted in 0.156608 seconds.
sports ball: 40%
(941.720337, 351.992218) (970.303894, 377.685944)
person: 76%
(520.941650, 230.269867) (803.256714, 741.006348)
sub14_h2_lg_2_160.jpg: Predicted in 0.155905 seconds.
sports ball: 33%
(938.884644, 352.484131) (967.987427, 378.729675)
person: 77%
(521.854126, 230.515427) (800.850525, 740.714478)
sub14_h2_lg_2_161.jpg: Predicted in 0.154071 seconds.
person: 75%
(520.830811, 230.656311) (797.749939, 741.233276)
sub14_h2_lg_2_162.jpg: Predicted in 0.157072 seconds.
sports ball: 35%
(941.952026, 363.044861) (966.851990, 393.967651)
person: 76%
(520.300049, 229.119659) (803.021667, 742.660461)
sub14_h2_lg_2_163.jpg: Predicted in 0.155961 seconds.
sports ball: 36%
(935.332642, 364.129639) (959.052856, 396.826904)
person: 77%
(523.617126, 222.543686) (792.494019, 747.587402)
sub14_h2_lg_2_164.jpg: Predicted in 0.155308 seconds.
sports ball: 36%
(932.732178, 366.407959) (955.892883, 396.974976)
person: 76%
(527.258789, 217.340256) (798.649536, 752.368164)
sub14_h2_lg_2_165.jpg: Predicted in 0.156896 seconds.
sports ball: 37%
(923.741882, 368.275970) (947.576355, 398.048218)
person: 76%
(527.331970, 217.932770) (790.223877, 754.961426)
sub14_h2_lg_2_166.jpg: Predicted in 0.157023 seconds.
sports ball: 35%
(918.278870, 372.267883) (940.334106, 399.786255)
person: 76%
(530.464600, 220.059784) (800.570862, 753.519836)
sub14_h2_lg_2_167.jpg: Predicted in 0.158228 seconds.
sports ball: 38%
(906.077332, 373.100586) (931.974854, 402.283661)
person: 77%
(524.777405, 223.908966) (798.314148, 749.510986)
sub14_h2_lg_2_168.jpg: Predicted in 0.157060 seconds.
sports ball: 35%
(899.644958, 374.057709) (926.643005, 399.457581)
person: 75%
(520.927185, 226.094101) (804.289307, 745.962830)
baseball bat: 32%
(783.868774, 400.171326) (835.820679, 509.699768)
sub14_h2_lg_2_169.jpg: Predicted in 0.166476 seconds.
sports ball: 36%
(899.255066, 374.242798) (926.592529, 400.093933)
person: 73%
(521.012634, 227.492340) (797.378967, 745.349487)
sub14_h2_lg_2_170.jpg: Predicted in 0.157155 seconds.
baseball bat: 36%
(756.312134, 344.366333) (862.145325, 488.127716)
sports ball: 35%
(894.618774, 374.705109) (921.600281, 400.847870)
person: 72%
(519.262207, 225.469803) (800.300293, 745.747742)
sub14_h2_lg_2_171.jpg: Predicted in 0.167379 seconds.
baseball bat: 39%
(754.237305, 347.481903) (865.881592, 487.115112)
sports ball: 35%
(892.806580, 376.933228) (920.861145, 402.748779)
person: 71%
(515.327148, 228.806549) (803.484375, 742.830322)
sub14_h2_lg_2_172.jpg: Predicted in 0.166355 seconds.
baseball bat: 45%
(748.721008, 346.413605) (870.590210, 489.155945)
sports ball: 35%
(892.357300, 375.968201) (920.137390, 402.479797)
person: 71%
(517.599060, 228.637238) (800.069397, 743.652405)
sub14_h2_lg_2_173.jpg: Predicted in 0.156371 seconds.
baseball bat: 45%
(742.369141, 350.244446) (881.289795, 483.351410)
person: 73%
(513.848877, 227.439072) (798.337402, 745.947815)
sub14_h2_lg_2_174.jpg: Predicted in 0.158174 seconds.
baseball bat: 48%
(750.033264, 350.046967) (888.879822, 477.948608)
sports ball: 32%
(892.503906, 382.853363) (919.215454, 408.489258)
person: 73%
(518.891418, 228.257538) (801.692688, 744.659180)
sub14_h2_lg_2_175.jpg: Predicted in 0.156064 seconds.
baseball bat: 45%
(750.681335, 351.158295) (893.255310, 473.668213)
sports ball: 32%
(892.001587, 384.301208) (918.122620, 408.934296)
person: 73%
(521.824036, 228.065247) (800.591736, 745.196472)
sub14_h2_lg_2_176.jpg: Predicted in 0.157700 seconds.
baseball bat: 53%
(751.053955, 357.017700) (893.940857, 464.556213)
person: 74%
(524.375793, 227.058929) (805.268188, 745.811523)
sub14_h2_lg_2_177.jpg: Predicted in 0.156026 seconds.
baseball bat: 53%
(765.466492, 358.710114) (912.389648, 464.615692)
sports ball: 32%
(892.263733, 388.198059) (916.682007, 413.810760)
person: 74%
(527.007996, 225.731201) (804.426331, 746.477844)
sub14_h2_lg_2_178.jpg: Predicted in 0.157881 seconds.
baseball bat: 55%
(760.122925, 356.920105) (910.060974, 460.472351)
person: 77%
(525.262085, 225.138641) (804.162476, 745.939392)
sub14_h2_lg_2_179.jpg: Predicted in 0.158745 seconds.
baseball bat: 61%
(753.282532, 356.132172) (909.912048, 462.670258)
person: 75%
(518.388306, 223.938492) (807.544006, 748.740173)
sub14_h2_lg_2_180.jpg: Predicted in 0.165694 seconds.
baseball bat: 47%
(750.904236, 353.555054) (910.367554, 456.904846)
person: 74%
(523.037170, 225.422760) (812.105042, 747.278992)
sub14_h2_lg_2_181.jpg: Predicted in 0.158127 seconds.
baseball bat: 35%
(752.487305, 351.411072) (920.683655, 449.162964)
person: 73%
(521.137268, 225.437378) (818.855835, 747.974304)
sub14_h2_lg_2_182.jpg: Predicted in 0.156195 seconds.
person: 73%
(497.850861, 233.953903) (912.686401, 730.627319)
sub14_h2_lg_2_183.jpg: Predicted in 0.165797 seconds.
baseball bat: 49%
(741.790649, 352.709198) (936.473328, 443.235718)
person: 74%
(525.224304, 224.093597) (813.959839, 749.130737)
sub14_h2_lg_2_184.jpg: Predicted in 0.156853 seconds.
baseball bat: 56%
(744.916016, 352.868347) (936.756958, 442.260437)
person: 75%
(524.653992, 223.368286) (810.305847, 750.495422)
sub14_h2_lg_2_185.jpg: Predicted in 0.156006 seconds.
baseball bat: 52%
(748.990479, 349.249390) (943.075562, 440.611877)
sports ball: 30%
(886.114197, 372.940796) (922.983704, 412.542328)
person: 75%
(527.146973, 223.412018) (810.749146, 750.944336)
sub14_h2_lg_2_186.jpg: Predicted in 0.162982 seconds.
baseball bat: 53%
(752.175659, 345.928528) (942.422302, 434.984589)
person: 76%
(526.694702, 221.682617) (815.579468, 751.701477)
sub14_h2_lg_2_187.jpg: Predicted in 0.158857 seconds.
baseball bat: 43%
(751.803711, 346.554504) (933.515625, 432.090912)
person: 78%
(533.248413, 218.826797) (810.910339, 753.474182)
sub14_h2_lg_2_188.jpg: Predicted in 0.156651 seconds.
sports ball: 35%
(890.420837, 347.648224) (922.064026, 379.936066)
baseball bat: 42%
(748.481934, 345.728119) (927.083984, 430.982697)
person: 79%
(535.271973, 215.753143) (806.588501, 756.250244)
sub14_h2_lg_2_189.jpg: Predicted in 0.156619 seconds.
sports ball: 42%
(895.952637, 347.429535) (924.345642, 374.770905)
baseball bat: 35%
(743.151428, 346.868530) (925.789307, 433.744751)
person: 79%
(530.000061, 214.504059) (808.324829, 758.709595)
sub14_h2_lg_2_190.jpg: Predicted in 0.156714 seconds.
sports ball: 46%
(897.910095, 343.570343) (927.084839, 371.920471)
baseball bat: 40%
(739.637085, 345.543732) (926.663086, 431.648987)
person: 80%
(531.847900, 215.583725) (803.453003, 757.164001)
sub14_h2_lg_2_191.jpg: Predicted in 0.164004 seconds.
sports ball: 44%
(902.869690, 343.076782) (930.366699, 371.250153)
baseball bat: 49%
(741.725769, 348.942749) (929.735229, 431.745544)
person: 80%
(532.411987, 216.609283) (801.531616, 756.841675)
sub14_h2_lg_2_192.jpg: Predicted in 0.157817 seconds.
sports ball: 38%
(923.039246, 337.354889) (948.681030, 365.277832)
baseball bat: 54%
(741.660767, 345.806274) (943.947632, 430.346100)
person: 80%
(532.670105, 215.999817) (804.091797, 757.010071)
sub14_h2_lg_2_193.jpg: Predicted in 0.155687 seconds.
sports ball: 35%
(933.405396, 326.608673) (960.442261, 354.951782)
baseball bat: 57%
(744.253601, 342.673340) (950.003418, 428.013641)
person: 80%
(532.931396, 217.316345) (804.423035, 756.416443)
sub14_h2_lg_2_194.jpg: Predicted in 0.156762 seconds.
baseball bat: 56%
(741.564819, 341.272064) (952.373474, 424.053589)
person: 80%
(536.806458, 216.575806) (798.950684, 756.802063)
sub14_h2_lg_2_195.jpg: Predicted in 0.155400 seconds.
sports ball: 35%
(939.818665, 315.249512) (970.272888, 347.473083)
baseball bat: 55%
(740.256775, 338.119049) (949.460022, 423.630096)
person: 78%
(535.589111, 215.427185) (801.286804, 757.299927)
sub14_h2_lg_2_196.jpg: Predicted in 0.158065 seconds.
sports ball: 31%
(940.752258, 316.734528) (973.050110, 348.696167)
baseball bat: 54%
(746.358704, 338.287903) (958.900513, 420.477600)
person: 76%
(535.775269, 212.666107) (807.858887, 761.779236)
sub14_h2_lg_2_197.jpg: Predicted in 0.157616 seconds.
baseball bat: 51%
(746.804443, 335.780640) (965.962280, 419.085693)
person: 78%
(538.212524, 213.970734) (803.444153, 758.945984)
sub14_h2_lg_2_198.jpg: Predicted in 0.156298 seconds.
sports ball: 35%
(945.819885, 285.756897) (979.428833, 314.425140)
baseball bat: 45%
(744.754150, 335.673645) (967.414124, 416.551270)
person: 78%
(539.200317, 213.841080) (800.758484, 759.638123)
sub14_h2_lg_2_199.jpg: Predicted in 0.163802 seconds.
baseball bat: 43%
(747.126038, 337.530212) (971.495605, 412.775330)
person: 78%
(539.810791, 218.282776) (799.536560, 755.484009)
sub14_h2_lg_2_200.jpg: Predicted in 0.157103 seconds.
baseball bat: 43%
(743.305725, 339.207001) (974.751404, 413.529846)
person: 81%
(537.736816, 215.083649) (795.341675, 756.359436)
sub14_h2_lg_2_201.jpg: Predicted in 0.158103 seconds.
baseball bat: 43%
(741.953613, 338.477203) (982.989197, 412.214508)
person: 80%
(539.809021, 219.364044) (796.457153, 753.265991)
