sub13_h3_lg_3_001.jpg: Predicted in 0.156792 seconds.
person: 79%
(373.044373, 209.153320) (657.966492, 794.175110)
sub13_h3_lg_3_002.jpg: Predicted in 0.157755 seconds.
person: 79%
(374.001404, 212.132431) (660.518311, 790.887695)
sub13_h3_lg_3_003.jpg: Predicted in 0.158068 seconds.
person: 79%
(372.424438, 211.172058) (659.640686, 791.195618)
sub13_h3_lg_3_004.jpg: Predicted in 0.157598 seconds.
person: 80%
(370.927765, 212.655502) (660.686401, 791.980896)
sub13_h3_lg_3_005.jpg: Predicted in 0.156104 seconds.
person: 79%
(374.003967, 211.386322) (658.828369, 791.739746)
sub13_h3_lg_3_006.jpg: Predicted in 0.155682 seconds.
person: 79%
(370.107452, 207.099884) (657.969421, 793.405457)
sub13_h3_lg_3_007.jpg: Predicted in 0.157353 seconds.
person: 80%
(369.548798, 205.183411) (658.071228, 793.678589)
sub13_h3_lg_3_008.jpg: Predicted in 0.156231 seconds.
person: 78%
(371.801086, 207.070465) (661.894409, 794.953064)
sub13_h3_lg_3_009.jpg: Predicted in 0.164050 seconds.
person: 79%
(370.890656, 206.339523) (659.938721, 793.151611)
sub13_h3_lg_3_010.jpg: Predicted in 0.155888 seconds.
person: 77%
(374.615784, 213.775253) (667.811035, 789.932800)
sub13_h3_lg_3_011.jpg: Predicted in 0.156237 seconds.
person: 78%
(372.775360, 210.959152) (662.179138, 790.886719)
sub13_h3_lg_3_012.jpg: Predicted in 0.157385 seconds.
person: 77%
(373.257294, 208.729599) (662.109924, 792.157410)
sub13_h3_lg_3_013.jpg: Predicted in 0.156096 seconds.
person: 77%
(372.980194, 205.052017) (664.118408, 795.237061)
sub13_h3_lg_3_014.jpg: Predicted in 0.156595 seconds.
person: 78%
(370.586365, 214.096741) (664.963257, 791.938110)
sub13_h3_lg_3_015.jpg: Predicted in 0.156663 seconds.
person: 77%
(369.195984, 213.023453) (668.269592, 790.670227)
sub13_h3_lg_3_016.jpg: Predicted in 0.157493 seconds.
person: 78%
(374.177338, 211.818741) (666.902161, 791.164551)
sub13_h3_lg_3_017.jpg: Predicted in 0.154332 seconds.
person: 80%
(369.043854, 208.649155) (660.812683, 792.609680)
sub13_h3_lg_3_018.jpg: Predicted in 0.155615 seconds.
person: 80%
(368.445618, 207.770111) (665.605042, 793.354187)
sub13_h3_lg_3_019.jpg: Predicted in 0.157491 seconds.
person: 80%
(368.703156, 206.733871) (664.057007, 794.347778)
sub13_h3_lg_3_020.jpg: Predicted in 0.155755 seconds.
person: 79%
(369.532379, 207.212311) (665.266357, 792.118896)
sub13_h3_lg_3_021.jpg: Predicted in 0.155506 seconds.
person: 79%
(369.819824, 210.812805) (663.571533, 792.837402)
sub13_h3_lg_3_022.jpg: Predicted in 0.155606 seconds.
person: 77%
(377.883698, 212.057022) (667.721497, 789.173523)
sub13_h3_lg_3_023.jpg: Predicted in 0.157700 seconds.
person: 78%
(370.946259, 210.483688) (665.746155, 791.602966)
sub13_h3_lg_3_024.jpg: Predicted in 0.156379 seconds.
person: 77%
(371.974731, 207.106094) (664.402283, 794.715637)
sub13_h3_lg_3_025.jpg: Predicted in 0.157487 seconds.
person: 76%
(367.516785, 205.882294) (668.352051, 791.865540)
sub13_h3_lg_3_026.jpg: Predicted in 0.162388 seconds.
person: 77%
(364.371582, 205.966049) (671.070068, 791.388733)
sub13_h3_lg_3_027.jpg: Predicted in 0.156156 seconds.
person: 78%
(367.652924, 203.723938) (667.785095, 793.928101)
sub13_h3_lg_3_028.jpg: Predicted in 0.162878 seconds.
person: 79%
(370.146667, 202.978989) (667.745117, 794.703003)
sub13_h3_lg_3_029.jpg: Predicted in 0.163166 seconds.
person: 79%
(373.377136, 200.050003) (669.032715, 797.596497)
sub13_h3_lg_3_030.jpg: Predicted in 0.171951 seconds.
person: 78%
(373.890625, 203.418976) (672.270630, 794.667358)
sub13_h3_lg_3_031.jpg: Predicted in 0.155177 seconds.
person: 80%
(374.881653, 206.299210) (669.719482, 792.442810)
sub13_h3_lg_3_032.jpg: Predicted in 0.156942 seconds.
person: 79%
(372.567688, 205.114288) (673.057373, 794.384949)
sub13_h3_lg_3_033.jpg: Predicted in 0.157873 seconds.
person: 78%
(375.698608, 211.009598) (667.533691, 791.514893)
sub13_h3_lg_3_034.jpg: Predicted in 0.157023 seconds.
person: 77%
(373.860260, 211.251968) (672.169800, 789.934509)
sub13_h3_lg_3_035.jpg: Predicted in 0.158006 seconds.
person: 78%
(377.325195, 210.007126) (668.946045, 792.439941)
sub13_h3_lg_3_036.jpg: Predicted in 0.157896 seconds.
person: 78%
(374.542908, 209.982437) (667.651245, 789.556274)
sub13_h3_lg_3_037.jpg: Predicted in 0.155286 seconds.
person: 79%
(369.677094, 207.556824) (668.582397, 791.610229)
sub13_h3_lg_3_038.jpg: Predicted in 0.155208 seconds.
person: 78%
(370.159821, 205.213196) (668.888428, 793.375366)
sub13_h3_lg_3_039.jpg: Predicted in 0.154912 seconds.
person: 78%
(363.964355, 209.436981) (674.188782, 789.677124)
sub13_h3_lg_3_040.jpg: Predicted in 0.155634 seconds.
person: 78%
(375.665344, 210.794968) (675.398438, 788.119446)
sub13_h3_lg_3_041.jpg: Predicted in 0.155626 seconds.
person: 78%
(373.587006, 208.342606) (670.878601, 791.088745)
sub13_h3_lg_3_042.jpg: Predicted in 0.155788 seconds.
person: 79%
(374.823181, 210.366959) (675.088379, 790.127441)
sub13_h3_lg_3_043.jpg: Predicted in 0.156565 seconds.
person: 78%
(375.005737, 209.892349) (673.994446, 790.298706)
sub13_h3_lg_3_044.jpg: Predicted in 0.155110 seconds.
person: 79%
(372.970673, 210.808136) (668.315247, 789.548645)
sub13_h3_lg_3_045.jpg: Predicted in 0.156335 seconds.
person: 78%
(372.301819, 211.351196) (670.489014, 789.410034)
sub13_h3_lg_3_046.jpg: Predicted in 0.157057 seconds.
person: 78%
(368.931213, 210.913757) (676.082153, 788.732605)
sub13_h3_lg_3_047.jpg: Predicted in 0.155892 seconds.
person: 79%
(371.285950, 208.184891) (674.043213, 790.238098)
sub13_h3_lg_3_048.jpg: Predicted in 0.164011 seconds.
person: 78%
(369.957733, 208.550507) (673.350891, 789.748535)
sub13_h3_lg_3_049.jpg: Predicted in 0.156597 seconds.
person: 79%
(375.448730, 210.144394) (672.434692, 788.516663)
sub13_h3_lg_3_050.jpg: Predicted in 0.157572 seconds.
person: 77%
(378.962280, 208.850403) (675.609009, 789.303101)
sub13_h3_lg_3_051.jpg: Predicted in 0.156387 seconds.
person: 77%
(377.245117, 207.355591) (671.636963, 790.664551)
sub13_h3_lg_3_052.jpg: Predicted in 0.156517 seconds.
person: 77%
(376.304596, 212.022354) (676.317566, 788.404114)
sub13_h3_lg_3_053.jpg: Predicted in 0.157218 seconds.
person: 77%
(377.731628, 212.810471) (674.540466, 788.331055)
sub13_h3_lg_3_054.jpg: Predicted in 0.155205 seconds.
baseball bat: 31%
(417.352509, 252.566589) (483.477875, 311.372223)
person: 76%
(375.912506, 214.022858) (670.885437, 786.747986)
sub13_h3_lg_3_055.jpg: Predicted in 0.185084 seconds.
person: 77%
(376.853943, 214.938477) (676.846130, 786.656433)
sub13_h3_lg_3_056.jpg: Predicted in 0.156024 seconds.
person: 77%
(379.364044, 214.594299) (674.505432, 785.323975)
sub13_h3_lg_3_057.jpg: Predicted in 0.156724 seconds.
person: 78%
(384.178192, 210.589050) (673.409485, 789.411682)
sub13_h3_lg_3_058.jpg: Predicted in 0.157633 seconds.
person: 79%
(383.034637, 217.363708) (677.400513, 785.558228)
sub13_h3_lg_3_059.jpg: Predicted in 0.156436 seconds.
person: 79%
(381.591553, 214.886307) (675.989929, 787.254761)
sub13_h3_lg_3_060.jpg: Predicted in 0.155307 seconds.
person: 78%
(378.774353, 217.692261) (677.342163, 786.339600)
sub13_h3_lg_3_061.jpg: Predicted in 0.157382 seconds.
person: 79%
(374.317535, 216.287476) (675.086304, 787.324768)
sub13_h3_lg_3_062.jpg: Predicted in 0.156850 seconds.
person: 79%
(376.900055, 217.002197) (675.869873, 788.555786)
sub13_h3_lg_3_063.jpg: Predicted in 0.157802 seconds.
person: 77%
(376.390656, 209.231689) (680.260803, 792.148010)
sub13_h3_lg_3_064.jpg: Predicted in 0.156231 seconds.
person: 77%
(372.200317, 214.619186) (680.336365, 788.519287)
sub13_h3_lg_3_065.jpg: Predicted in 0.156148 seconds.
person: 78%
(372.798615, 216.868896) (678.001160, 786.429260)
sub13_h3_lg_3_066.jpg: Predicted in 0.155737 seconds.
person: 78%
(370.134857, 214.564011) (679.595886, 787.704712)
sub13_h3_lg_3_067.jpg: Predicted in 0.155206 seconds.
person: 79%
(376.569824, 213.474991) (683.067871, 788.694214)
sub13_h3_lg_3_068.jpg: Predicted in 0.156500 seconds.
person: 79%
(379.469696, 214.803986) (682.762451, 787.879822)
sub13_h3_lg_3_069.jpg: Predicted in 0.155932 seconds.
person: 78%
(380.736328, 215.017868) (687.469604, 785.609924)
sub13_h3_lg_3_070.jpg: Predicted in 0.156897 seconds.
person: 78%
(381.821045, 211.858612) (678.742065, 790.302063)
sub13_h3_lg_3_071.jpg: Predicted in 0.155959 seconds.
person: 77%
(384.302948, 212.277603) (682.389282, 788.395508)
sub13_h3_lg_3_072.jpg: Predicted in 0.155758 seconds.
person: 78%
(388.183929, 216.690872) (679.056702, 789.203857)
sub13_h3_lg_3_073.jpg: Predicted in 0.156446 seconds.
person: 78%
(381.960144, 216.140167) (684.504761, 788.458618)
sub13_h3_lg_3_074.jpg: Predicted in 0.154721 seconds.
person: 77%
(379.930725, 220.028351) (691.393799, 784.797363)
sub13_h3_lg_3_075.jpg: Predicted in 0.157130 seconds.
person: 78%
(381.428833, 216.079971) (686.729675, 787.135803)
sub13_h3_lg_3_076.jpg: Predicted in 0.155512 seconds.
person: 79%
(385.758453, 215.160110) (686.909485, 787.275208)
sub13_h3_lg_3_077.jpg: Predicted in 0.155433 seconds.
person: 79%
(386.319397, 213.804749) (686.173157, 790.168640)
sub13_h3_lg_3_078.jpg: Predicted in 0.154389 seconds.
person: 79%
(392.091187, 215.673737) (685.537537, 789.172485)
sub13_h3_lg_3_079.jpg: Predicted in 0.154809 seconds.
person: 79%
(394.858826, 217.125580) (684.870911, 787.495056)
sub13_h3_lg_3_080.jpg: Predicted in 0.156158 seconds.
person: 77%
(400.040710, 217.299744) (694.080750, 789.048889)
sub13_h3_lg_3_081.jpg: Predicted in 0.156676 seconds.
person: 76%
(400.703461, 217.535873) (693.984680, 787.991821)
sub13_h3_lg_3_082.jpg: Predicted in 0.155510 seconds.
person: 76%
(401.206024, 217.632416) (688.946838, 788.532898)
sub13_h3_lg_3_083.jpg: Predicted in 0.157632 seconds.
person: 77%
(397.858002, 214.629181) (685.191650, 789.523193)
sub13_h3_lg_3_084.jpg: Predicted in 0.165292 seconds.
person: 76%
(391.137695, 214.519043) (691.280762, 786.454651)
sub13_h3_lg_3_085.jpg: Predicted in 0.155360 seconds.
person: 77%
(393.097412, 216.116257) (695.412781, 786.786438)
sub13_h3_lg_3_086.jpg: Predicted in 0.155852 seconds.
person: 79%
(391.386322, 215.428543) (689.131409, 789.826782)
sub13_h3_lg_3_087.jpg: Predicted in 0.158217 seconds.
person: 79%
(387.288513, 214.169601) (690.664734, 789.263428)
sub13_h3_lg_3_088.jpg: Predicted in 0.163552 seconds.
person: 79%
(389.656158, 217.348907) (692.241394, 788.579895)
sub13_h3_lg_3_089.jpg: Predicted in 0.157415 seconds.
person: 80%
(383.286987, 215.211990) (682.515320, 790.747070)
sub13_h3_lg_3_090.jpg: Predicted in 0.166398 seconds.
person: 80%
(388.188965, 218.580124) (689.607849, 790.040833)
sub13_h3_lg_3_091.jpg: Predicted in 0.156634 seconds.
person: 80%
(391.912964, 218.673737) (689.074402, 787.203369)
sub13_h3_lg_3_092.jpg: Predicted in 0.161148 seconds.
person: 80%
(386.499359, 216.823395) (691.397217, 789.938538)
sub13_h3_lg_3_093.jpg: Predicted in 0.156730 seconds.
person: 79%
(392.773407, 219.404907) (696.463928, 789.183411)
sub13_h3_lg_3_094.jpg: Predicted in 0.156579 seconds.
person: 78%
(389.101379, 221.819183) (698.055542, 782.774353)
sub13_h3_lg_3_095.jpg: Predicted in 0.158481 seconds.
person: 78%
(393.258118, 219.825363) (696.351562, 784.615967)
sub13_h3_lg_3_096.jpg: Predicted in 0.162141 seconds.
person: 78%
(392.972748, 221.010635) (692.967957, 784.332397)
sub13_h3_lg_3_097.jpg: Predicted in 0.157277 seconds.
person: 79%
(391.547638, 216.625122) (695.777649, 785.950928)
sub13_h3_lg_3_098.jpg: Predicted in 0.167883 seconds.
baseball bat: 31%
(429.156891, 250.945770) (487.960052, 314.096313)
person: 80%
(387.695129, 218.346283) (689.592773, 785.217407)
sub13_h3_lg_3_099.jpg: Predicted in 0.157560 seconds.
person: 79%
(394.597565, 214.868713) (694.793884, 789.491577)
sub13_h3_lg_3_100.jpg: Predicted in 0.156249 seconds.
person: 79%
(393.461700, 220.157272) (697.135376, 786.198486)
sub13_h3_lg_3_101.jpg: Predicted in 0.156192 seconds.
person: 79%
(396.385925, 225.458450) (695.927002, 784.028809)
sub13_h3_lg_3_102.jpg: Predicted in 0.156908 seconds.
person: 79%
(400.511810, 223.242096) (699.137695, 784.443542)
sub13_h3_lg_3_103.jpg: Predicted in 0.154506 seconds.
person: 80%
(400.047546, 224.173706) (692.821167, 784.822083)
sub13_h3_lg_3_104.jpg: Predicted in 0.163748 seconds.
baseball bat: 35%
(430.357788, 247.599899) (492.435791, 320.165833)
person: 79%
(395.065094, 221.744537) (693.816528, 785.087463)
sub13_h3_lg_3_105.jpg: Predicted in 0.158770 seconds.
person: 78%
(393.506866, 221.466583) (700.694336, 784.990479)
sub13_h3_lg_3_106.jpg: Predicted in 0.166321 seconds.
person: 79%
(389.752594, 215.670197) (698.718567, 789.121521)
sub13_h3_lg_3_107.jpg: Predicted in 0.158204 seconds.
person: 79%
(388.679779, 213.827728) (699.661194, 787.583984)
sub13_h3_lg_3_108.jpg: Predicted in 0.159538 seconds.
person: 80%
(395.963654, 210.383698) (698.095886, 793.185303)
sub13_h3_lg_3_109.jpg: Predicted in 0.159352 seconds.
person: 80%
(392.186615, 215.062286) (698.144104, 788.627563)
sub13_h3_lg_3_110.jpg: Predicted in 0.156983 seconds.
person: 79%
(397.009949, 214.528366) (699.728394, 791.232300)
sub13_h3_lg_3_111.jpg: Predicted in 0.157263 seconds.
person: 80%
(397.189850, 218.050858) (703.250977, 790.348450)
sub13_h3_lg_3_112.jpg: Predicted in 0.157348 seconds.
baseball bat: 31%
(431.747345, 255.595688) (482.882172, 317.040527)
person: 80%
(399.166260, 214.377548) (700.993835, 789.928284)
sub13_h3_lg_3_113.jpg: Predicted in 0.156582 seconds.
baseball bat: 30%
(429.961975, 256.716217) (482.218506, 314.907623)
person: 79%
(402.542084, 214.845871) (707.483643, 787.184998)
sub13_h3_lg_3_114.jpg: Predicted in 0.162391 seconds.
person: 79%
(393.830261, 218.641037) (706.434570, 785.362183)
sub13_h3_lg_3_115.jpg: Predicted in 0.156872 seconds.
person: 79%
(398.775543, 217.680695) (707.039734, 786.828003)
sub13_h3_lg_3_116.jpg: Predicted in 0.157473 seconds.
person: 78%
(402.337433, 216.215652) (704.772949, 787.431030)
sub13_h3_lg_3_117.jpg: Predicted in 0.156238 seconds.
person: 79%
(402.755402, 214.225128) (703.875549, 789.668945)
sub13_h3_lg_3_118.jpg: Predicted in 0.155832 seconds.
person: 79%
(410.923187, 215.991287) (706.583435, 788.102478)
sub13_h3_lg_3_119.jpg: Predicted in 0.156226 seconds.
person: 79%
(409.187622, 220.175644) (705.619629, 788.358765)
sub13_h3_lg_3_120.jpg: Predicted in 0.155092 seconds.
person: 80%
(412.402405, 221.598953) (701.629028, 788.579041)
sub13_h3_lg_3_121.jpg: Predicted in 0.157290 seconds.
person: 79%
(415.710846, 218.825241) (703.678711, 788.423157)
sub13_h3_lg_3_122.jpg: Predicted in 0.191455 seconds.
person: 79%
(421.317932, 216.292694) (703.322632, 791.468140)
sub13_h3_lg_3_123.jpg: Predicted in 0.156526 seconds.
person: 78%
(423.039276, 218.917007) (702.718262, 790.320007)
sub13_h3_lg_3_124.jpg: Predicted in 0.164416 seconds.
person: 79%
(415.187714, 219.159485) (702.861084, 789.937073)
sub13_h3_lg_3_125.jpg: Predicted in 0.156853 seconds.
person: 78%
(421.194000, 211.158371) (700.086060, 792.313171)
sub13_h3_lg_3_126.jpg: Predicted in 0.162379 seconds.
person: 77%
(416.654053, 210.229919) (703.193115, 792.507202)
sub13_h3_lg_3_127.jpg: Predicted in 0.160568 seconds.
person: 77%
(419.336365, 213.413971) (704.977905, 790.764832)
sub13_h3_lg_3_128.jpg: Predicted in 0.156038 seconds.
person: 76%
(421.173859, 209.595154) (702.446838, 794.360107)
sub13_h3_lg_3_129.jpg: Predicted in 0.156567 seconds.
person: 78%
(422.018005, 214.832550) (708.271851, 791.548950)
sub13_h3_lg_3_130.jpg: Predicted in 0.156399 seconds.
person: 77%
(425.442688, 211.334061) (703.755920, 794.309509)
sub13_h3_lg_3_131.jpg: Predicted in 0.157200 seconds.
person: 76%
(425.426910, 215.229156) (702.324768, 790.669128)
sub13_h3_lg_3_132.jpg: Predicted in 0.157248 seconds.
person: 78%
(425.967896, 218.492172) (701.898560, 789.308105)
sub13_h3_lg_3_133.jpg: Predicted in 0.155522 seconds.
person: 77%
(431.119781, 217.518829) (700.350525, 790.276611)
sub13_h3_lg_3_134.jpg: Predicted in 0.157216 seconds.
person: 77%
(430.650421, 216.182205) (703.098999, 792.543274)
sub13_h3_lg_3_135.jpg: Predicted in 0.214508 seconds.
person: 76%
(430.395050, 212.427734) (702.083496, 791.717590)
sub13_h3_lg_3_136.jpg: Predicted in 0.155132 seconds.
person: 74%
(429.030273, 209.794800) (703.685608, 791.942322)
sub13_h3_lg_3_137.jpg: Predicted in 0.156152 seconds.
person: 75%
(428.261475, 213.050369) (705.773682, 788.757996)
sub13_h3_lg_3_138.jpg: Predicted in 0.157418 seconds.
person: 75%
(425.512024, 217.856934) (709.145874, 787.181030)
sub13_h3_lg_3_139.jpg: Predicted in 0.155775 seconds.
person: 75%
(426.660278, 217.508057) (707.488586, 787.124817)
sub13_h3_lg_3_140.jpg: Predicted in 0.155450 seconds.
person: 76%
(428.243103, 222.096207) (706.533203, 783.850891)
sub13_h3_lg_3_141.jpg: Predicted in 0.155035 seconds.
person: 75%
(429.644318, 220.595734) (706.477600, 784.718323)
sub13_h3_lg_3_142.jpg: Predicted in 0.155614 seconds.
person: 75%
(434.204895, 222.753265) (705.815552, 784.843018)
sub13_h3_lg_3_143.jpg: Predicted in 0.156179 seconds.
person: 75%
(434.150391, 225.632660) (703.572083, 783.243652)
sub13_h3_lg_3_144.jpg: Predicted in 0.155516 seconds.
person: 75%
(430.140991, 226.788361) (703.734985, 783.815247)
sub13_h3_lg_3_145.jpg: Predicted in 0.156065 seconds.
person: 75%
(427.083405, 226.219650) (703.279724, 783.997803)
sub13_h3_lg_3_146.jpg: Predicted in 0.155166 seconds.
person: 76%
(428.447418, 225.024368) (703.622375, 786.273499)
sub13_h3_lg_3_147.jpg: Predicted in 0.210624 seconds.
person: 75%
(429.152313, 224.921829) (705.025024, 784.438293)
sub13_h3_lg_3_148.jpg: Predicted in 0.153940 seconds.
person: 76%
(430.026062, 225.273987) (704.419983, 785.298035)
sub13_h3_lg_3_149.jpg: Predicted in 0.155619 seconds.
person: 75%
(431.226410, 238.335678) (702.184021, 783.145630)
sub13_h3_lg_3_150.jpg: Predicted in 0.155065 seconds.
tennis racket: 33%
(456.648834, 232.294937) (498.239929, 333.413635)
person: 75%
(437.075562, 233.982880) (699.727661, 784.224365)
sub13_h3_lg_3_151.jpg: Predicted in 0.158013 seconds.
person: 75%
(434.396271, 227.467041) (698.223206, 785.652832)
sub13_h3_lg_3_152.jpg: Predicted in 0.155010 seconds.
tennis racket: 40%
(457.309601, 221.092575) (500.656464, 344.713226)
person: 75%
(437.057495, 236.146851) (701.302124, 784.262512)
sub13_h3_lg_3_153.jpg: Predicted in 0.155995 seconds.
person: 75%
(437.568115, 239.729340) (698.367188, 785.905212)
sub13_h3_lg_3_154.jpg: Predicted in 0.157503 seconds.
person: 76%
(436.093597, 240.550186) (702.625793, 780.221863)
sub13_h3_lg_3_155.jpg: Predicted in 0.156241 seconds.
tennis racket: 33%
(462.257874, 222.823486) (497.393311, 339.748047)
person: 76%
(436.988953, 234.520081) (701.490784, 784.645142)
sub13_h3_lg_3_156.jpg: Predicted in 0.155171 seconds.
person: 77%
(439.173645, 230.666443) (700.277344, 784.003357)
sub13_h3_lg_3_157.jpg: Predicted in 0.155570 seconds.
person: 76%
(441.534241, 232.601746) (701.772705, 782.309631)
sub13_h3_lg_3_158.jpg: Predicted in 0.157559 seconds.
tennis racket: 32%
(465.003235, 218.393921) (495.410278, 347.963745)
person: 77%
(444.057312, 229.080841) (701.371704, 782.703796)
sub13_h3_lg_3_159.jpg: Predicted in 0.154670 seconds.
tennis racket: 31%
(462.630310, 222.232117) (491.924438, 347.975464)
person: 75%
(446.442963, 227.521545) (697.283630, 787.482727)
sub13_h3_lg_3_160.jpg: Predicted in 0.156601 seconds.
tennis racket: 41%
(461.991150, 219.035278) (494.778625, 353.523743)
person: 76%
(447.255524, 233.079117) (696.927673, 785.390564)
sub13_h3_lg_3_161.jpg: Predicted in 0.159530 seconds.
person: 75%
(448.137604, 231.006210) (697.381348, 785.406128)
sub13_h3_lg_3_162.jpg: Predicted in 0.157187 seconds.
tennis racket: 40%
(466.601074, 218.291153) (492.774597, 350.591278)
person: 74%
(451.897064, 237.828278) (696.366394, 784.442322)
sub13_h3_lg_3_163.jpg: Predicted in 0.157806 seconds.
tennis racket: 39%
(464.424835, 217.616470) (491.296356, 353.285980)
person: 74%
(450.922974, 230.460709) (694.401123, 785.531372)
sub13_h3_lg_3_164.jpg: Predicted in 0.155228 seconds.
tennis racket: 33%
(463.275543, 213.498764) (490.473145, 358.111450)
person: 75%
(450.646088, 231.693848) (694.470276, 784.426514)
sub13_h3_lg_3_165.jpg: Predicted in 0.157521 seconds.
tennis racket: 35%
(463.116241, 213.027283) (487.533020, 354.097504)
person: 75%
(448.551758, 231.405396) (693.763611, 787.040283)
sub13_h3_lg_3_166.jpg: Predicted in 0.157773 seconds.
tennis racket: 32%
(463.717438, 216.971680) (488.396118, 350.875153)
person: 75%
(450.380737, 227.277893) (694.595215, 787.909546)
sub13_h3_lg_3_167.jpg: Predicted in 0.156798 seconds.
person: 74%
(450.062531, 220.720261) (697.592407, 787.056580)
sub13_h3_lg_3_168.jpg: Predicted in 0.157528 seconds.
person: 75%
(450.996552, 216.203125) (694.978943, 789.582520)
sub13_h3_lg_3_169.jpg: Predicted in 0.155353 seconds.
tennis racket: 32%
(463.357300, 223.974579) (489.161713, 331.559784)
person: 75%
(453.342072, 219.748856) (692.789062, 790.509033)
sub13_h3_lg_3_170.jpg: Predicted in 0.158385 seconds.
person: 76%
(453.150238, 221.140747) (694.164368, 790.145142)
sub13_h3_lg_3_171.jpg: Predicted in 0.159130 seconds.
tennis racket: 38%
(459.975708, 226.574875) (493.651917, 326.513397)
person: 76%
(454.119141, 224.415375) (693.404419, 788.917175)
sub13_h3_lg_3_172.jpg: Predicted in 0.157702 seconds.
tennis racket: 45%
(462.807007, 221.433853) (496.259766, 330.176819)
person: 76%
(453.263611, 226.922516) (697.562195, 787.898071)
sub13_h3_lg_3_173.jpg: Predicted in 0.155617 seconds.
person: 76%
(451.029053, 224.727936) (694.549011, 788.267273)
sub13_h3_lg_3_174.jpg: Predicted in 0.157349 seconds.
baseball bat: 43%
(456.170715, 224.407883) (498.005554, 331.903015)
person: 76%
(451.888245, 225.078720) (695.296204, 787.108459)
sub13_h3_lg_3_175.jpg: Predicted in 0.163793 seconds.
tennis racket: 34%
(456.576019, 220.383179) (500.937927, 335.849945)
person: 76%
(450.430267, 225.819427) (694.609192, 789.783386)
sub13_h3_lg_3_176.jpg: Predicted in 0.157668 seconds.
tennis racket: 49%
(456.963287, 221.730988) (499.790161, 333.458191)
person: 76%
(450.176849, 219.008255) (697.308838, 790.954468)
sub13_h3_lg_3_177.jpg: Predicted in 0.155437 seconds.
tennis racket: 46%
(456.708344, 224.214050) (498.530212, 329.883881)
person: 76%
(451.932159, 215.942200) (695.915588, 790.855896)
sub13_h3_lg_3_178.jpg: Predicted in 0.156526 seconds.
person: 76%
(453.359680, 217.304962) (694.130005, 792.413757)
sub13_h3_lg_3_179.jpg: Predicted in 0.156213 seconds.
person: 77%
(453.279877, 216.563202) (694.582581, 790.667480)
sub13_h3_lg_3_180.jpg: Predicted in 0.158157 seconds.
tennis racket: 34%
(454.162598, 223.379211) (502.527100, 329.575226)
baseball bat: 34%
(470.168884, 224.256516) (588.205750, 344.118835)
person: 77%
(453.614929, 220.545029) (692.359314, 790.717285)
sub13_h3_lg_3_181.jpg: Predicted in 0.154975 seconds.
tennis racket: 44%
(454.040924, 218.841766) (505.145782, 333.797424)
person: 76%
(451.777832, 223.779297) (691.570312, 787.825012)
sub13_h3_lg_3_182.jpg: Predicted in 0.154732 seconds.
baseball bat: 31%
(470.217926, 225.822357) (588.880310, 348.066284)
person: 76%
(454.525818, 220.726730) (692.686707, 790.674561)
sub13_h3_lg_3_183.jpg: Predicted in 0.155118 seconds.
baseball bat: 33%
(451.537933, 225.911987) (504.421539, 329.258057)
baseball bat: 34%
(468.913300, 227.566833) (586.880554, 352.801392)
person: 78%
(454.709747, 222.338867) (691.512390, 789.552124)
sub13_h3_lg_3_184.jpg: Predicted in 0.156938 seconds.
baseball bat: 30%
(450.483887, 227.452499) (505.072662, 328.296692)
baseball bat: 35%
(468.824982, 228.818054) (589.180786, 350.729553)
person: 77%
(452.578461, 224.904709) (694.176086, 788.853699)
sub13_h3_lg_3_185.jpg: Predicted in 0.158998 seconds.
tennis racket: 38%
(446.228333, 221.766113) (507.173767, 331.591278)
person: 78%
(454.531616, 223.512299) (692.356506, 790.144348)
sub13_h3_lg_3_186.jpg: Predicted in 0.155912 seconds.
tennis racket: 33%
(443.274994, 220.019150) (504.659973, 337.687714)
person: 78%
(456.904694, 224.379608) (693.360718, 787.658264)
sub13_h3_lg_3_187.jpg: Predicted in 0.157011 seconds.
tennis racket: 46%
(442.820801, 218.117645) (508.546997, 339.914825)
person: 77%
(456.216583, 220.905518) (695.597534, 787.821167)
sub13_h3_lg_3_188.jpg: Predicted in 0.158740 seconds.
tennis racket: 45%
(445.613403, 217.917542) (507.257080, 337.680328)
person: 77%
(454.960236, 224.096558) (695.174377, 788.371704)
sub13_h3_lg_3_189.jpg: Predicted in 0.154832 seconds.
tennis racket: 48%
(445.168884, 219.748703) (509.767639, 336.554932)
tennis racket: 30%
(465.758972, 231.599548) (582.933838, 356.182831)
person: 77%
(453.437958, 225.992111) (693.191162, 788.033936)
sub13_h3_lg_3_190.jpg: Predicted in 0.156026 seconds.
tennis racket: 37%
(444.871674, 222.513092) (510.756378, 336.850891)
baseball bat: 30%
(462.888062, 231.159607) (584.525879, 358.914551)
person: 76%
(452.974762, 228.685883) (693.818298, 787.173462)
sub13_h3_lg_3_191.jpg: Predicted in 0.155832 seconds.
tennis racket: 44%
(442.857025, 221.507339) (510.208832, 333.212677)
tennis racket: 36%
(462.834564, 231.558853) (585.223572, 355.083710)
person: 75%
(457.240417, 223.561310) (690.826660, 788.953186)
sub13_h3_lg_3_192.jpg: Predicted in 0.156246 seconds.
tennis racket: 38%
(443.337280, 222.768661) (507.342499, 333.966370)
person: 76%
(456.011597, 223.733337) (687.851440, 790.396118)
sub13_h3_lg_3_193.jpg: Predicted in 0.156521 seconds.
tennis racket: 33%
(441.376251, 221.279373) (505.383698, 333.851837)
tennis racket: 35%
(456.247559, 222.872223) (596.517456, 422.247284)
person: 75%
(455.482208, 230.394028) (687.834595, 789.601868)
sub13_h3_lg_3_194.jpg: Predicted in 0.157383 seconds.
baseball bat: 38%
(462.495209, 231.101746) (586.093140, 360.105530)
person: 74%
(457.217377, 225.319336) (688.258911, 788.718079)
sub13_h3_lg_3_195.jpg: Predicted in 0.156468 seconds.
baseball bat: 39%
(459.675293, 230.124283) (588.848633, 361.189758)
person: 75%
(458.792358, 228.149063) (691.248291, 790.092224)
sub13_h3_lg_3_196.jpg: Predicted in 0.155084 seconds.
person: 74%
(452.334015, 217.825867) (694.033386, 791.391846)
sub13_h3_lg_3_197.jpg: Predicted in 0.157786 seconds.
person: 74%
(449.844116, 212.137772) (693.670044, 792.136597)
sub13_h3_lg_3_198.jpg: Predicted in 0.157182 seconds.
baseball bat: 35%
(414.772400, 232.890793) (537.470947, 354.049835)
person: 75%
(446.881836, 211.231750) (691.903809, 794.370605)
sub13_h3_lg_3_199.jpg: Predicted in 0.157100 seconds.
baseball bat: 38%
(412.434906, 230.995758) (541.207214, 357.065094)
person: 76%
(449.981110, 218.140717) (686.902283, 793.219360)
sub13_h3_lg_3_200.jpg: Predicted in 0.155256 seconds.
person: 76%
(453.840607, 228.519821) (683.362610, 790.038574)
sub13_h3_lg_3_201.jpg: Predicted in 0.156088 seconds.
baseball bat: 33%
(412.497833, 231.539856) (545.797791, 357.008148)
person: 76%
(448.809631, 220.559509) (684.789734, 791.665344)
sub13_h3_lg_3_202.jpg: Predicted in 0.155871 seconds.
baseball bat: 31%
(410.929199, 232.069046) (546.328796, 355.289185)
person: 77%
(452.365082, 227.955917) (683.994507, 787.827515)
sub13_h3_lg_3_203.jpg: Predicted in 0.156534 seconds.
baseball bat: 38%
(454.196198, 234.948761) (590.542419, 361.767456)
person: 77%
(455.790833, 228.933044) (683.009399, 789.597595)
sub13_h3_lg_3_204.jpg: Predicted in 0.157237 seconds.
person: 77%
(451.593414, 228.441528) (686.652344, 788.444519)
sub13_h3_lg_3_205.jpg: Predicted in 0.154168 seconds.
person: 75%
(447.617706, 223.450348) (689.867126, 786.586792)
sub13_h3_lg_3_206.jpg: Predicted in 0.156299 seconds.
person: 77%
(453.395599, 229.731995) (689.000732, 787.961914)
sub13_h3_lg_3_207.jpg: Predicted in 0.157164 seconds.
tennis racket: 37%
(411.746552, 237.495117) (545.472229, 357.457367)
person: 77%
(450.284760, 228.002640) (691.367737, 787.470459)
sub13_h3_lg_3_208.jpg: Predicted in 0.156108 seconds.
tennis racket: 33%
(406.981567, 235.830963) (550.519531, 357.319275)
person: 77%
(446.340759, 233.062485) (690.060425, 784.641602)
sub13_h3_lg_3_209.jpg: Predicted in 0.156725 seconds.
tennis racket: 39%
(437.115784, 242.357254) (609.059326, 401.145874)
person: 77%
(448.838928, 234.998138) (688.379150, 787.070679)
sub13_h3_lg_3_210.jpg: Predicted in 0.160556 seconds.
tennis racket: 35%
(438.626282, 243.685699) (607.978088, 400.306641)
person: 77%
(450.981354, 240.144928) (687.810242, 786.807922)
sub13_h3_lg_3_211.jpg: Predicted in 0.163775 seconds.
tennis racket: 48%
(437.144043, 241.587387) (608.034058, 404.853882)
person: 77%
(452.132996, 244.370453) (688.935669, 787.589478)
sub13_h3_lg_3_212.jpg: Predicted in 0.157959 seconds.
baseball bat: 33%
(404.787018, 234.637695) (559.353516, 365.402832)
tennis racket: 43%
(436.569672, 243.913681) (611.090149, 403.765533)
person: 76%
(457.887695, 242.550491) (683.949341, 789.838745)
sub13_h3_lg_3_213.jpg: Predicted in 0.160934 seconds.
tennis racket: 40%
(436.637726, 246.578964) (611.165222, 401.726013)
person: 77%
(458.776978, 244.079773) (684.861877, 789.703674)
sub13_h3_lg_3_214.jpg: Predicted in 0.157829 seconds.
tennis racket: 36%
(431.594604, 250.119965) (617.673035, 401.063843)
person: 78%
(455.145142, 240.204071) (686.617249, 787.857239)
sub13_h3_lg_3_215.jpg: Predicted in 0.164865 seconds.
tennis racket: 52%
(427.441284, 249.432770) (622.132568, 401.084412)
person: 77%
(454.152863, 244.951538) (692.112549, 785.510559)
sub13_h3_lg_3_216.jpg: Predicted in 0.157122 seconds.
tennis racket: 50%
(426.750977, 245.075119) (627.074768, 405.681946)
person: 76%
(453.227112, 240.360611) (696.010132, 788.598877)
sub13_h3_lg_3_217.jpg: Predicted in 0.164479 seconds.
tennis racket: 54%
(429.591766, 253.342087) (628.389832, 403.340210)
person: 76%
(454.912323, 247.043610) (696.998474, 787.135620)
sub13_h3_lg_3_218.jpg: Predicted in 0.159533 seconds.
tennis racket: 55%
(421.783020, 254.568893) (630.973572, 404.528656)
person: 75%
(449.844299, 248.187607) (699.645996, 787.885681)
sub13_h3_lg_3_219.jpg: Predicted in 0.163281 seconds.
tennis racket: 50%
(424.547974, 259.522247) (629.339905, 402.046844)
person: 76%
(451.715912, 248.240570) (697.331848, 790.505859)
sub13_h3_lg_3_220.jpg: Predicted in 0.156907 seconds.
tennis racket: 55%
(425.522064, 261.291962) (631.423279, 403.533051)
person: 75%
(449.980316, 259.785736) (697.173767, 789.004395)
sub13_h3_lg_3_221.jpg: Predicted in 0.156241 seconds.
tennis racket: 39%
(425.405121, 261.880463) (634.006226, 402.049500)
person: 76%
(448.995911, 249.436432) (698.643799, 784.259460)
sub13_h3_lg_3_222.jpg: Predicted in 0.154851 seconds.
tennis racket: 46%
(424.373108, 262.378723) (634.016602, 403.654877)
person: 75%
(449.115631, 253.940033) (699.623108, 785.155396)
sub13_h3_lg_3_223.jpg: Predicted in 0.165633 seconds.
baseball bat: 36%
(387.364899, 270.640991) (580.173157, 380.957794)
person: 75%
(449.482391, 253.194550) (699.704407, 784.820435)
sub13_h3_lg_3_224.jpg: Predicted in 0.157061 seconds.
baseball bat: 42%
(427.893066, 264.275452) (635.813721, 400.813629)
person: 76%
(447.215393, 244.214508) (702.091064, 782.807007)
sub13_h3_lg_3_225.jpg: Predicted in 0.155302 seconds.
baseball bat: 34%
(428.513702, 265.491364) (634.999573, 399.768341)
person: 75%
(447.810547, 243.611267) (705.179260, 783.797424)
sub13_h3_lg_3_226.jpg: Predicted in 0.176120 seconds.
baseball bat: 40%
(428.799194, 271.123138) (642.252747, 399.025055)
person: 76%
(445.832733, 242.379257) (706.575806, 785.004456)
sub13_h3_lg_3_227.jpg: Predicted in 0.156314 seconds.
baseball bat: 48%
(418.827454, 273.300262) (646.519470, 398.804169)
person: 75%
(443.453705, 176.339844) (698.944885, 775.434265)
sub13_h3_lg_3_228.jpg: Predicted in 0.157818 seconds.
baseball bat: 45%
(421.302795, 272.533051) (647.130493, 398.251312)
person: 74%
(443.277222, 234.661652) (710.305481, 782.069519)
sub13_h3_lg_3_229.jpg: Predicted in 0.157487 seconds.
baseball bat: 47%
(417.268341, 277.829376) (651.495300, 390.208435)
person: 76%
(445.107056, 234.705383) (707.046570, 784.051758)
sub13_h3_lg_3_230.jpg: Predicted in 0.156588 seconds.
baseball bat: 49%
(416.466644, 281.303955) (649.401428, 392.294006)
person: 75%
(445.280182, 238.892944) (707.427734, 781.536316)
sub13_h3_lg_3_231.jpg: Predicted in 0.156633 seconds.
baseball bat: 31%
(396.768951, 287.771545) (530.924988, 359.108368)
baseball bat: 56%
(409.641205, 287.957825) (659.950500, 386.940186)
person: 75%
(446.440613, 237.545776) (707.622864, 784.816650)
sub13_h3_lg_3_232.jpg: Predicted in 0.164106 seconds.
baseball bat: 30%
(392.353943, 291.228180) (533.929260, 359.807800)
baseball bat: 53%
(406.196960, 290.251495) (659.936035, 390.509552)
person: 75%
(446.227417, 243.464737) (706.257874, 780.338806)
sub13_h3_lg_3_233.jpg: Predicted in 0.159834 seconds.
baseball bat: 53%
(408.459106, 293.198669) (666.589905, 391.223114)
person: 74%
(442.703339, 246.730774) (708.645935, 780.246948)
sub13_h3_lg_3_234.jpg: Predicted in 0.165069 seconds.
baseball bat: 61%
(404.528351, 297.895844) (674.753174, 392.837341)
person: 73%
(440.837524, 246.116806) (711.643555, 779.689026)
sub13_h3_lg_3_235.jpg: Predicted in 0.157994 seconds.
baseball bat: 60%
(407.976166, 303.344879) (674.678162, 384.678589)
person: 72%
(435.955292, 237.902023) (717.874939, 780.513794)
sub13_h3_lg_3_236.jpg: Predicted in 0.158452 seconds.
baseball bat: 58%
(400.312836, 309.678436) (683.464966, 383.966827)
person: 72%
(432.000641, 191.412231) (712.770874, 769.305847)
sub13_h3_lg_3_237.jpg: Predicted in 0.157097 seconds.
baseball bat: 57%
(407.830811, 312.884064) (674.100098, 386.170074)
person: 75%
(434.754303, 186.058624) (711.979858, 771.326355)
sub13_h3_lg_3_238.jpg: Predicted in 0.156263 seconds.
baseball bat: 56%
(395.157623, 316.591309) (684.432373, 390.819305)
person: 78%
(433.100098, 182.697708) (712.745605, 774.828308)
sub13_h3_lg_3_239.jpg: Predicted in 0.155714 seconds.
baseball bat: 50%
(397.174774, 318.319336) (683.494873, 395.338470)
person: 69%
(424.324280, 155.734070) (718.121094, 791.113464)
sub13_h3_lg_3_240.jpg: Predicted in 0.166555 seconds.
baseball bat: 55%
(386.180023, 322.259277) (690.945374, 392.259583)
person: 71%
(426.029419, 173.584824) (715.290344, 777.573975)
sub13_h3_lg_3_241.jpg: Predicted in 0.158387 seconds.
baseball bat: 54%
(394.025238, 322.869537) (691.747681, 392.518341)
person: 70%
(421.456024, 174.976700) (718.083557, 776.992737)
sub13_h3_lg_3_242.jpg: Predicted in 0.158308 seconds.
baseball bat: 48%
(404.135803, 323.333344) (694.359192, 391.573212)
person: 66%
(419.930847, 174.431183) (722.721252, 775.608093)
sub13_h3_lg_3_243.jpg: Predicted in 0.157912 seconds.
baseball bat: 51%
(387.851807, 321.817017) (704.389587, 391.104980)
person: 65%
(439.343506, 247.333496) (713.894104, 779.331909)
sub13_h3_lg_3_244.jpg: Predicted in 0.157697 seconds.
baseball bat: 49%
(394.065643, 323.139587) (705.604919, 391.118439)
person: 66%
(438.451080, 246.809357) (713.723206, 780.375000)
sub13_h3_lg_3_245.jpg: Predicted in 0.155759 seconds.
baseball bat: 46%
(392.852905, 325.793304) (710.908264, 391.373840)
person: 64%
(435.769196, 244.960541) (715.754456, 778.413513)
sub13_h3_lg_3_246.jpg: Predicted in 0.157167 seconds.
baseball bat: 38%
(409.655212, 324.768433) (701.458008, 390.299408)
person: 63%
(420.692810, 192.420013) (722.329468, 762.330627)
sub13_h3_lg_3_247.jpg: Predicted in 0.164131 seconds.
person: 66%
(435.492981, 241.956284) (717.746826, 778.016968)
sub13_h3_lg_3_248.jpg: Predicted in 0.157933 seconds.
baseball bat: 32%
(418.573090, 349.104828) (713.586609, 406.059479)
person: 65%
(436.488647, 241.455383) (718.075806, 780.824646)
sub13_h3_lg_3_249.jpg: Predicted in 0.156528 seconds.
baseball bat: 36%
(424.069702, 354.890289) (712.558289, 405.233826)
person: 65%
(428.655334, 231.214005) (722.033386, 789.839478)
sub13_h3_lg_3_250.jpg: Predicted in 0.157520 seconds.
baseball bat: 41%
(414.839661, 359.136261) (724.326965, 404.268463)
person: 61%
(444.957458, 156.251404) (767.206360, 795.771240)
sub13_h3_lg_3_251.jpg: Predicted in 0.156993 seconds.
baseball bat: 34%
(420.175415, 362.619263) (722.517700, 406.450623)
tennis racket: 32%
(474.335052, 353.271820) (753.161499, 416.208679)
person: 67%
(445.403381, 163.094910) (765.732117, 790.306213)
sub13_h3_lg_3_252.jpg: Predicted in 0.157223 seconds.
baseball bat: 39%
(392.526611, 361.532227) (675.332947, 401.023743)
person: 66%
(440.010132, 158.069366) (772.401428, 792.710815)
sub13_h3_lg_3_253.jpg: Predicted in 0.155662 seconds.
sports ball: 32%
(1002.228210, 340.382294) (1031.255493, 375.601624)
baseball bat: 37%
(403.533203, 362.581177) (667.499573, 403.820160)
person: 64%
(415.080994, 191.902084) (731.786499, 767.526794)
sub13_h3_lg_3_254.jpg: Predicted in 0.161824 seconds.
sports ball: 31%
(1000.650024, 340.734009) (1029.977173, 375.019653)
tennis racket: 31%
(557.030884, 357.680603) (708.004028, 408.224304)
person: 67%
(418.759979, 195.045227) (727.703064, 764.241089)
sub13_h3_lg_3_255.jpg: Predicted in 0.158391 seconds.
person: 68%
(422.059479, 202.982635) (724.578064, 760.470337)
sub13_h3_lg_3_256.jpg: Predicted in 0.160425 seconds.
person: 65%
(434.839874, 244.345932) (716.887573, 779.860901)
sub13_h3_lg_3_257.jpg: Predicted in 0.157903 seconds.
person: 69%
(427.572693, 195.882751) (715.444824, 765.499268)
sub13_h3_lg_3_258.jpg: Predicted in 0.166054 seconds.
baseball bat: 33%
(420.408173, 360.970428) (651.028076, 407.303009)
person: 68%
(417.605469, 196.061462) (727.905762, 766.692566)
sub13_h3_lg_3_259.jpg: Predicted in 0.165462 seconds.
person: 72%
(417.473206, 207.170822) (730.367432, 758.902405)
sub13_h3_lg_3_260.jpg: Predicted in 0.164967 seconds.
tennis racket: 38%
(491.025970, 351.214386) (737.660217, 417.140839)
person: 69%
(427.384949, 235.742218) (724.945190, 782.778687)
sub13_h3_lg_3_261.jpg: Predicted in 0.158342 seconds.
sports ball: 34%
(954.477844, 351.605865) (981.347229, 376.941895)
tennis racket: 41%
(488.902191, 353.043488) (732.785828, 422.520691)
person: 67%
(431.282959, 236.260345) (723.970032, 783.326599)
sub13_h3_lg_3_262.jpg: Predicted in 0.154999 seconds.
tennis racket: 50%
(481.385071, 352.013184) (735.405457, 423.861725)
person: 67%
(455.590271, 242.406845) (758.305908, 773.843079)
sub13_h3_lg_3_263.jpg: Predicted in 0.157018 seconds.
tennis racket: 54%
(484.952484, 349.326141) (733.896301, 422.899017)
person: 66%
(417.895813, 194.314987) (730.517639, 762.973755)
sub13_h3_lg_3_264.jpg: Predicted in 0.165275 seconds.
tennis racket: 56%
(493.218903, 352.564484) (729.302002, 424.878662)
person: 61%
(466.627869, 256.142487) (749.960327, 769.452148)
sub13_h3_lg_3_265.jpg: Predicted in 0.156281 seconds.
tennis racket: 62%
(497.627625, 355.189453) (722.957764, 430.144012)
sports ball: 32%
(952.240173, 362.818146) (979.593018, 396.708405)
person: 58%
(473.258667, 262.969482) (742.411194, 764.287109)
sub13_h3_lg_3_266.jpg: Predicted in 0.156650 seconds.
tennis racket: 62%
(506.588928, 351.812714) (719.411072, 433.001617)
sports ball: 42%
(949.930542, 365.418884) (977.701294, 398.023376)
person: 62%
(476.871552, 268.549744) (739.031006, 760.490784)
sub13_h3_lg_3_267.jpg: Predicted in 0.157177 seconds.
tennis racket: 65%
(523.951904, 346.375549) (713.851746, 432.271973)
sports ball: 44%
(949.353638, 367.669586) (976.904480, 400.636566)
person: 67%
(431.990692, 172.628189) (713.907898, 778.366394)
sub13_h3_lg_3_268.jpg: Predicted in 0.155264 seconds.
tennis racket: 66%
(530.108337, 341.070068) (709.388611, 436.724548)
sports ball: 43%
(947.281006, 369.897980) (974.117004, 401.799805)
person: 70%
(434.149109, 178.765106) (711.763550, 776.529480)
sub13_h3_lg_3_269.jpg: Predicted in 0.155108 seconds.
tennis racket: 62%
(544.933594, 340.160492) (707.163391, 437.399658)
sports ball: 49%
(938.834595, 369.987915) (967.598389, 402.176941)
person: 67%
(477.927185, 248.174545) (735.676270, 766.819580)
sub13_h3_lg_3_270.jpg: Predicted in 0.156045 seconds.
tennis racket: 67%
(544.127991, 345.045715) (707.297180, 437.716370)
sports ball: 49%
(940.313843, 370.744934) (967.001648, 401.481201)
person: 70%
(434.367157, 234.032867) (722.346863, 778.704590)
sub13_h3_lg_3_271.jpg: Predicted in 0.158119 seconds.
tennis racket: 78%
(539.565491, 348.223022) (709.679199, 445.866150)
sports ball: 51%
(936.122803, 372.094788) (963.775269, 401.973694)
person: 62%
(432.275299, 181.216461) (715.387817, 773.054749)
sub13_h3_lg_3_272.jpg: Predicted in 0.156188 seconds.
tennis racket: 72%
(554.214783, 342.851990) (716.300049, 440.868958)
sports ball: 50%
(934.029724, 371.333130) (959.999023, 399.995514)
person: 69%
(438.481293, 232.968613) (717.764038, 782.599365)
sub13_h3_lg_3_273.jpg: Predicted in 0.156852 seconds.
tennis racket: 75%
(552.135010, 340.319153) (713.343384, 444.213501)
sports ball: 49%
(928.621826, 371.649231) (954.684448, 399.600494)
person: 67%
(438.018036, 195.404434) (708.814453, 767.066162)
sub13_h3_lg_3_274.jpg: Predicted in 0.157436 seconds.
tennis racket: 73%
(559.742065, 338.052124) (719.359924, 445.490601)
sports ball: 52%
(915.013245, 372.703674) (942.997314, 402.862000)
person: 69%
(440.633484, 198.279480) (707.483521, 763.615234)
sub13_h3_lg_3_275.jpg: Predicted in 0.155102 seconds.
tennis racket: 74%
(562.832642, 338.004272) (715.990417, 447.335388)
sports ball: 50%
(906.730347, 377.038971) (935.188477, 404.800293)
person: 70%
(445.072052, 195.570724) (708.393799, 768.046509)
sub13_h3_lg_3_276.jpg: Predicted in 0.158254 seconds.
tennis racket: 60%
(572.825867, 337.710815) (717.450317, 446.834686)
sports ball: 48%
(901.280212, 378.727997) (929.266052, 405.372498)
person: 71%
(470.376221, 233.112518) (741.575500, 777.089050)
sub13_h3_lg_3_277.jpg: Predicted in 0.155703 seconds.
tennis racket: 55%
(572.382202, 337.363037) (716.499939, 445.144958)
sports ball: 50%
(899.360352, 379.025879) (928.471985, 406.119019)
person: 72%
(467.076569, 241.569427) (745.784241, 768.419250)
sub13_h3_lg_3_278.jpg: Predicted in 0.158363 seconds.
tennis racket: 52%
(576.351074, 336.723358) (716.753662, 450.330109)
sports ball: 47%
(897.608643, 380.136780) (926.040039, 407.256531)
person: 70%
(467.511993, 244.568771) (744.790344, 766.448547)
sub13_h3_lg_3_279.jpg: Predicted in 0.157920 seconds.
tennis racket: 54%
(603.296509, 348.006195) (708.018494, 449.450745)
sports ball: 52%
(893.272339, 385.046844) (921.425659, 410.917572)
person: 73%
(469.747223, 249.187897) (741.211792, 760.091614)
sub13_h3_lg_3_280.jpg: Predicted in 0.156020 seconds.
tennis racket: 52%
(605.779175, 344.975616) (711.080688, 457.397308)
sports ball: 49%
(893.571655, 387.810394) (921.718262, 415.187775)
person: 74%
(470.175385, 246.815079) (739.603516, 762.096985)
sub13_h3_lg_3_281.jpg: Predicted in 0.155652 seconds.
tennis racket: 53%
(611.732300, 353.873962) (711.969666, 460.809387)
sports ball: 50%
(894.408875, 389.760345) (924.040649, 418.692383)
person: 74%
(465.419464, 247.981567) (744.753784, 758.058228)
sub13_h3_lg_3_282.jpg: Predicted in 0.156117 seconds.
tennis racket: 45%
(614.779663, 362.570557) (703.821228, 457.329834)
sports ball: 51%
(893.708313, 391.005615) (921.577026, 420.259766)
person: 76%
(455.209473, 243.766541) (753.905273, 761.903931)
sub13_h3_lg_3_283.jpg: Predicted in 0.156543 seconds.
tennis racket: 41%
(622.027588, 364.972717) (708.333618, 457.901337)
sports ball: 49%
(892.271606, 393.115021) (924.278687, 423.506287)
person: 76%
(454.762634, 242.140656) (754.717651, 762.111206)
sub13_h3_lg_3_284.jpg: Predicted in 0.156341 seconds.
sports ball: 44%
(892.994263, 394.708221) (921.335571, 424.457855)
person: 73%
(451.976746, 248.676117) (755.848755, 758.068115)
sub13_h3_lg_3_285.jpg: Predicted in 0.157182 seconds.
sports ball: 44%
(896.543030, 392.687836) (925.732056, 424.614288)
person: 73%
(453.593231, 238.981537) (755.760254, 764.019409)
sub13_h3_lg_3_286.jpg: Predicted in 0.154777 seconds.
tennis racket: 31%
(591.806824, 305.878326) (714.263733, 373.417267)
tennis racket: 36%
(676.475525, 354.720703) (728.842163, 472.523956)
sports ball: 41%
(892.692810, 393.554016) (921.171753, 425.879395)
person: 69%
(449.706055, 241.290070) (758.950195, 760.422729)
sub13_h3_lg_3_287.jpg: Predicted in 0.155307 seconds.
tennis racket: 33%
(587.504333, 304.121033) (714.310547, 375.556885)
tennis racket: 36%
(681.429688, 352.047791) (727.601501, 471.812469)
sports ball: 35%
(894.265442, 388.617920) (927.981873, 425.042694)
person: 68%
(452.871582, 239.101334) (755.290344, 761.840515)
sub13_h3_lg_3_288.jpg: Predicted in 0.158038 seconds.
tennis racket: 31%
(590.178589, 304.396362) (706.500793, 374.559143)
tennis racket: 32%
(687.087891, 350.797180) (733.018738, 468.134216)
person: 71%
(453.870758, 234.022598) (754.668213, 767.641357)
sub13_h3_lg_3_289.jpg: Predicted in 0.155290 seconds.
sports ball: 42%
(847.706421, 403.942566) (883.523865, 436.233246)
person: 76%
(443.750122, 234.194687) (761.739136, 766.072754)
sub13_h3_lg_3_290.jpg: Predicted in 0.156858 seconds.
sports ball: 41%
(849.086304, 407.161530) (882.319519, 435.823242)
person: 71%
(442.615509, 194.646164) (756.696960, 771.846191)
sub13_h3_lg_3_291.jpg: Predicted in 0.156772 seconds.
sports ball: 38%
(846.278259, 407.665771) (880.725708, 436.697327)
person: 75%
(443.212067, 232.833893) (762.822021, 770.244019)
sub13_h3_lg_3_292.jpg: Predicted in 0.156549 seconds.
sports ball: 40%
(843.910583, 407.428955) (878.365540, 439.437256)
person: 78%
(441.239441, 230.250717) (767.389771, 770.044250)
sub13_h3_lg_3_293.jpg: Predicted in 0.156800 seconds.
sports ball: 40%
(838.764587, 408.196228) (876.129333, 441.213440)
person: 78%
(446.118805, 223.688156) (767.654724, 777.631165)
sub13_h3_lg_3_294.jpg: Predicted in 0.156280 seconds.
tennis racket: 39%
(726.551941, 349.742584) (802.585938, 471.057892)
sports ball: 36%
(838.485229, 408.074371) (873.797974, 444.444366)
person: 78%
(445.830811, 225.019531) (767.826843, 775.547424)
sub13_h3_lg_3_295.jpg: Predicted in 0.157186 seconds.
baseball bat: 47%
(704.404358, 353.072632) (811.120422, 477.013306)
sports ball: 34%
(832.936157, 408.641541) (872.390564, 443.758484)
baseball bat: 38%
(747.226013, 403.869476) (797.382874, 489.653168)
person: 75%
(444.683472, 221.775635) (770.497925, 779.480652)
sub13_h3_lg_3_296.jpg: Predicted in 0.158006 seconds.
baseball bat: 55%
(716.925659, 352.006592) (816.955688, 476.199860)
person: 74%
(431.920105, 198.818832) (777.921448, 768.430481)
baseball bat: 40%
(740.666321, 396.927734) (803.766785, 487.860779)
sub13_h3_lg_3_297.jpg: Predicted in 0.163047 seconds.
baseball bat: 49%
(710.527161, 355.361725) (823.342773, 475.557556)
person: 73%
(428.492828, 203.195023) (780.328125, 763.255066)
baseball bat: 37%
(733.189697, 403.469208) (808.148193, 482.824188)
sports ball: 30%
(825.196533, 421.053131) (857.388184, 456.978699)
sub13_h3_lg_3_298.jpg: Predicted in 0.156037 seconds.
baseball bat: 39%
(699.027405, 350.959137) (827.307922, 472.155151)
person: 73%
(426.825714, 203.229813) (783.840576, 762.603394)
sports ball: 32%
(828.318665, 424.713257) (857.886169, 458.463348)
sub13_h3_lg_3_299.jpg: Predicted in 0.163391 seconds.
baseball bat: 53%
(696.448914, 347.879395) (831.300415, 466.591461)
person: 76%
(423.372742, 197.169785) (788.233826, 771.234314)
sports ball: 32%
(824.977295, 424.701019) (853.408630, 461.539673)
sub13_h3_lg_3_300.jpg: Predicted in 0.156928 seconds.
baseball bat: 33%
(689.471802, 346.841675) (839.856018, 462.982697)
person: 75%
(428.877686, 236.906006) (784.056580, 762.575378)
sub13_h3_lg_3_301.jpg: Predicted in 0.155733 seconds.
baseball bat: 34%
(671.380249, 339.205841) (852.494873, 457.133423)
person: 74%
(427.228729, 241.528198) (795.739868, 758.033569)
sub13_h3_lg_3_302.jpg: Predicted in 0.156506 seconds.
person: 74%
(428.703888, 242.154770) (794.759094, 758.010193)
sub13_h3_lg_3_303.jpg: Predicted in 0.157175 seconds.
person: 75%
(425.986237, 240.848541) (797.632141, 759.389893)
sub13_h3_lg_3_304.jpg: Predicted in 0.157148 seconds.
person: 76%
(429.246887, 242.184418) (796.209595, 757.531067)
sub13_h3_lg_3_305.jpg: Predicted in 0.159797 seconds.
person: 75%
(427.702698, 240.647156) (797.781799, 758.074463)
sub13_h3_lg_3_306.jpg: Predicted in 0.158167 seconds.
person: 78%
(428.217743, 244.350693) (798.144348, 757.347778)
sub13_h3_lg_3_307.jpg: Predicted in 0.157780 seconds.
person: 75%
(426.506714, 240.468307) (796.440369, 760.428711)
sub13_h3_lg_3_308.jpg: Predicted in 0.156802 seconds.
person: 75%
(425.000885, 240.860657) (799.107788, 758.728027)
sub13_h3_lg_3_309.jpg: Predicted in 0.156226 seconds.
baseball bat: 51%
(726.825623, 342.660583) (878.099304, 470.316528)
person: 74%
(431.104248, 240.593048) (782.970886, 760.484985)
sub13_h3_lg_3_310.jpg: Predicted in 0.154928 seconds.
baseball bat: 50%
(728.534424, 345.173370) (886.349121, 470.250214)
person: 72%
(432.761108, 242.930359) (779.522339, 757.630615)
sub13_h3_lg_3_311.jpg: Predicted in 0.177825 seconds.
baseball bat: 45%
(722.804993, 341.523834) (900.662598, 464.954407)
person: 75%
(420.255219, 213.206406) (784.933899, 755.592346)
sub13_h3_lg_3_312.jpg: Predicted in 0.156023 seconds.
baseball bat: 47%
(729.441040, 341.832855) (901.932434, 463.452698)
sports ball: 33%
(889.395630, 434.225342) (912.739502, 460.423401)
person: 72%
(436.601898, 243.349701) (769.853271, 758.021484)
sub13_h3_lg_3_313.jpg: Predicted in 0.156768 seconds.
baseball bat: 33%
(778.711914, 368.244629) (874.680420, 441.670654)
baseball bat: 48%
(727.890686, 341.501007) (905.592773, 459.428040)
person: 75%
(421.726044, 210.087509) (782.110413, 762.347412)
sports ball: 32%
(894.464417, 432.707367) (921.077576, 459.624054)
sub13_h3_lg_3_314.jpg: Predicted in 0.154693 seconds.
baseball bat: 36%
(779.787415, 368.907440) (879.664917, 443.674957)
baseball bat: 50%
(726.738953, 342.496155) (907.850769, 456.375031)
sports ball: 32%
(908.222412, 431.840118) (935.365845, 461.424377)
person: 74%
(438.438232, 241.043976) (767.683838, 759.792114)
sub13_h3_lg_3_315.jpg: Predicted in 0.155262 seconds.
baseball bat: 30%
(780.884583, 366.546570) (882.315796, 443.457672)
baseball bat: 53%
(723.709106, 341.577179) (907.990723, 455.967224)
person: 73%
(420.629272, 208.708649) (784.703674, 763.033020)
sports ball: 37%
(935.263245, 433.647003) (964.075623, 462.223572)
sub13_h3_lg_3_316.jpg: Predicted in 0.203071 seconds.
baseball bat: 32%
(784.284424, 361.817566) (884.960876, 442.018097)
baseball bat: 58%
(727.589050, 340.170624) (912.009338, 453.591309)
sports ball: 33%
(941.481567, 438.525696) (967.166931, 464.830383)
person: 72%
(432.606018, 237.848831) (774.492126, 761.353638)
sub13_h3_lg_3_317.jpg: Predicted in 0.157169 seconds.
baseball bat: 34%
(782.743408, 366.789276) (887.166077, 444.471802)
baseball bat: 55%
(721.883179, 342.856079) (911.335205, 454.173187)
person: 76%
(419.827271, 214.718536) (781.802063, 755.913635)
sports ball: 37%
(944.054932, 436.439728) (971.103638, 464.556885)
sub13_h3_lg_3_318.jpg: Predicted in 0.158146 seconds.
baseball bat: 58%
(729.853821, 343.359131) (906.335571, 455.355988)
person: 76%
(419.729614, 213.838867) (783.749878, 757.833679)
sports ball: 41%
(946.770142, 436.640839) (975.672058, 464.985382)
sub13_h3_lg_3_319.jpg: Predicted in 0.157303 seconds.
baseball bat: 59%
(727.662476, 341.401245) (915.668396, 449.536530)
person: 74%
(425.331329, 216.785248) (775.109985, 754.858765)
sports ball: 35%
(951.225708, 440.264862) (976.071472, 467.778809)
sub13_h3_lg_3_320.jpg: Predicted in 0.157733 seconds.
baseball bat: 56%
(728.484436, 337.970001) (917.723938, 447.015930)
person: 73%
(433.455750, 213.241455) (768.720154, 757.215027)
sub13_h3_lg_3_321.jpg: Predicted in 0.165454 seconds.
baseball bat: 55%
(731.016296, 337.567749) (913.741211, 446.232635)
person: 72%
(434.665344, 207.571991) (770.207397, 764.440186)
sports ball: 44%
(988.480286, 440.858368) (1012.332703, 471.226685)
