sub17_h1_lg_1_001.jpg: Predicted in 0.158441 seconds.
baseball bat: 67%
(757.104858, 207.879120) (848.589294, 347.704926)
person: 78%
(573.750610, 247.259384) (881.703918, 777.968750)
sub17_h1_lg_1_002.jpg: Predicted in 0.156715 seconds.
baseball bat: 67%
(754.200623, 208.123886) (847.485168, 348.245514)
person: 79%
(576.040894, 246.590500) (880.714905, 776.950500)
sub17_h1_lg_1_003.jpg: Predicted in 0.155315 seconds.
baseball bat: 70%
(756.664917, 208.921936) (851.125305, 349.759796)
person: 79%
(572.786316, 247.087433) (878.225342, 775.308777)
sub17_h1_lg_1_004.jpg: Predicted in 0.155300 seconds.
baseball bat: 68%
(756.246521, 211.726151) (852.002991, 348.004517)
person: 79%
(576.273621, 242.903519) (879.132690, 778.989807)
sub17_h1_lg_1_005.jpg: Predicted in 0.158253 seconds.
baseball bat: 66%
(757.040894, 208.459778) (849.692505, 347.237946)
person: 79%
(574.645935, 244.111633) (877.977844, 781.628296)
sub17_h1_lg_1_006.jpg: Predicted in 0.154956 seconds.
baseball bat: 67%
(757.799988, 208.750946) (848.473206, 347.369019)
person: 79%
(576.455505, 243.280884) (877.159302, 779.569031)
sub17_h1_lg_1_007.jpg: Predicted in 0.156109 seconds.
baseball bat: 67%
(758.738953, 209.234039) (847.022644, 347.013763)
person: 80%
(578.584900, 241.940735) (879.590454, 783.046570)
sub17_h1_lg_1_008.jpg: Predicted in 0.156199 seconds.
baseball bat: 68%
(757.815186, 208.087540) (846.818298, 348.530060)
person: 80%
(574.789185, 243.146942) (882.981323, 781.648987)
sub17_h1_lg_1_009.jpg: Predicted in 0.155724 seconds.
baseball bat: 71%
(760.431885, 208.909164) (845.397156, 351.683380)
person: 79%
(572.800781, 244.194916) (879.613953, 779.331360)
sub17_h1_lg_1_010.jpg: Predicted in 0.156067 seconds.
baseball bat: 72%
(759.174683, 210.071182) (842.467468, 350.903320)
person: 78%
(569.680725, 250.179123) (882.589783, 775.927979)
sub17_h1_lg_1_011.jpg: Predicted in 0.166258 seconds.
baseball bat: 71%
(759.649658, 211.267136) (843.536804, 352.398224)
person: 78%
(570.047485, 249.990204) (879.763184, 775.554321)
sub17_h1_lg_1_012.jpg: Predicted in 0.157290 seconds.
baseball bat: 72%
(759.378540, 212.546539) (846.073120, 349.793152)
person: 79%
(570.112244, 248.757431) (884.797424, 775.632507)
sub17_h1_lg_1_013.jpg: Predicted in 0.158424 seconds.
baseball bat: 71%
(759.351685, 210.680298) (844.012146, 352.885132)
person: 79%
(570.636108, 242.684601) (878.843872, 780.976318)
sub17_h1_lg_1_014.jpg: Predicted in 0.155656 seconds.
baseball bat: 71%
(759.623718, 209.390182) (844.645996, 354.435028)
person: 79%
(573.340393, 239.418106) (878.916260, 782.138855)
sub17_h1_lg_1_015.jpg: Predicted in 0.155836 seconds.
baseball bat: 70%
(760.415771, 211.197586) (847.702942, 352.691864)
person: 80%
(572.125916, 242.131210) (877.462524, 781.165894)
sub17_h1_lg_1_016.jpg: Predicted in 0.155115 seconds.
baseball bat: 70%
(759.473022, 210.667740) (850.795227, 352.259613)
person: 79%
(573.287354, 244.321777) (874.178894, 780.621277)
sub17_h1_lg_1_017.jpg: Predicted in 0.156192 seconds.
baseball bat: 72%
(760.595764, 213.031311) (847.185791, 350.695923)
person: 79%
(570.981995, 243.567352) (875.083191, 781.489868)
sub17_h1_lg_1_018.jpg: Predicted in 0.156903 seconds.
baseball bat: 72%
(759.795654, 211.829605) (845.743103, 352.960327)
person: 79%
(571.155640, 241.106873) (876.842224, 785.408997)
sub17_h1_lg_1_019.jpg: Predicted in 0.157623 seconds.
baseball bat: 70%
(758.900635, 211.539581) (848.027283, 351.322052)
person: 78%
(571.521606, 246.309525) (875.707825, 782.206604)
sub17_h1_lg_1_020.jpg: Predicted in 0.155428 seconds.
baseball bat: 73%
(758.173340, 212.017181) (844.169312, 351.745911)
person: 78%
(569.750366, 246.965378) (877.394104, 775.448547)
sub17_h1_lg_1_021.jpg: Predicted in 0.157865 seconds.
baseball bat: 69%
(759.087402, 213.695587) (846.040771, 349.317505)
person: 78%
(567.035522, 248.118942) (878.536560, 776.055359)
sub17_h1_lg_1_022.jpg: Predicted in 0.164650 seconds.
baseball bat: 69%
(759.911621, 214.818024) (842.908081, 350.673889)
person: 79%
(570.671448, 244.517807) (874.964111, 774.049377)
sub17_h1_lg_1_023.jpg: Predicted in 0.158478 seconds.
baseball bat: 66%
(760.427551, 210.388565) (844.306763, 349.557343)
person: 79%
(576.983093, 241.275787) (876.542419, 778.479675)
sub17_h1_lg_1_024.jpg: Predicted in 0.155778 seconds.
baseball bat: 60%
(761.738464, 211.474991) (844.701050, 350.021881)
person: 78%
(573.305542, 242.855103) (873.259277, 774.240662)
sub17_h1_lg_1_025.jpg: Predicted in 0.155776 seconds.
baseball bat: 61%
(763.141479, 213.435211) (845.918884, 349.722595)
person: 79%
(574.521118, 241.876816) (868.557678, 776.822632)
sub17_h1_lg_1_026.jpg: Predicted in 0.156178 seconds.
baseball bat: 63%
(760.671692, 211.997604) (846.623535, 350.116425)
person: 79%
(576.047791, 242.498642) (870.428467, 779.185059)
sub17_h1_lg_1_027.jpg: Predicted in 0.155205 seconds.
baseball bat: 62%
(762.090454, 214.594223) (850.249512, 348.959015)
person: 79%
(575.110596, 243.454529) (871.713440, 780.166077)
sub17_h1_lg_1_028.jpg: Predicted in 0.154686 seconds.
baseball bat: 62%
(761.836853, 215.702835) (850.031860, 349.932526)
person: 78%
(571.363525, 242.985626) (875.073059, 781.310181)
sub17_h1_lg_1_029.jpg: Predicted in 0.156575 seconds.
baseball bat: 60%
(760.963623, 219.081146) (851.452881, 348.002319)
person: 79%
(572.270081, 242.582993) (877.731262, 780.997375)
sub17_h1_lg_1_030.jpg: Predicted in 0.156116 seconds.
baseball bat: 60%
(758.622375, 216.085327) (846.911072, 347.839172)
person: 78%
(568.228699, 248.564835) (875.148254, 776.204468)
sub17_h1_lg_1_031.jpg: Predicted in 0.168018 seconds.
baseball bat: 61%
(760.452271, 216.905151) (847.785522, 347.993011)
person: 78%
(566.608398, 249.486420) (876.556702, 771.424500)
sub17_h1_lg_1_032.jpg: Predicted in 0.155198 seconds.
baseball bat: 60%
(767.488647, 197.081787) (836.841187, 341.196564)
person: 79%
(564.248962, 244.843262) (873.033020, 772.924438)
sub17_h1_lg_1_033.jpg: Predicted in 0.158824 seconds.
baseball bat: 59%
(768.015137, 196.010208) (837.829468, 344.464600)
person: 79%
(570.918640, 243.422913) (872.320190, 776.649231)
sub17_h1_lg_1_034.jpg: Predicted in 0.156623 seconds.
baseball bat: 60%
(761.315613, 216.434479) (843.734741, 348.938416)
person: 78%
(571.873291, 241.789276) (868.454590, 774.555176)
sub17_h1_lg_1_035.jpg: Predicted in 0.158513 seconds.
baseball bat: 59%
(761.442383, 219.062439) (846.991760, 348.034882)
person: 78%
(573.444824, 242.891983) (866.492310, 777.818604)
sub17_h1_lg_1_036.jpg: Predicted in 0.156641 seconds.
baseball bat: 62%
(761.457397, 218.183151) (846.552124, 352.263519)
person: 79%
(574.307556, 245.376556) (864.146118, 778.574402)
sub17_h1_lg_1_037.jpg: Predicted in 0.157355 seconds.
baseball bat: 64%
(761.039734, 217.215210) (844.675293, 353.015564)
person: 79%
(576.439880, 244.157715) (861.622864, 778.417664)
sub17_h1_lg_1_038.jpg: Predicted in 0.161773 seconds.
baseball bat: 63%
(761.561340, 217.957001) (847.762695, 352.568359)
person: 78%
(575.155029, 241.973038) (866.617004, 780.721252)
sub17_h1_lg_1_039.jpg: Predicted in 0.155161 seconds.
baseball bat: 64%
(760.015137, 215.427231) (843.649231, 353.922821)
person: 78%
(571.810791, 242.641968) (866.860596, 777.831726)
sub17_h1_lg_1_040.jpg: Predicted in 0.165014 seconds.
baseball bat: 62%
(761.471802, 217.563126) (842.894043, 350.882660)
person: 77%
(568.779358, 244.342621) (866.471985, 776.818481)
sub17_h1_lg_1_041.jpg: Predicted in 0.156786 seconds.
baseball bat: 57%
(761.290894, 216.670380) (842.870483, 351.383057)
person: 78%
(569.109680, 245.083694) (868.022400, 778.326233)
sub17_h1_lg_1_042.jpg: Predicted in 0.156522 seconds.
baseball bat: 64%
(763.089172, 220.091873) (841.371155, 354.626617)
person: 79%
(570.253052, 243.920013) (865.055054, 777.114014)
sub17_h1_lg_1_043.jpg: Predicted in 0.156963 seconds.
baseball bat: 61%
(762.517151, 219.271011) (844.961487, 353.083313)
person: 79%
(571.893982, 241.785889) (865.817078, 780.365601)
sub17_h1_lg_1_044.jpg: Predicted in 0.155700 seconds.
baseball bat: 62%
(761.867554, 218.300476) (843.735779, 354.209900)
person: 79%
(570.049377, 239.266785) (866.214355, 781.718933)
sub17_h1_lg_1_045.jpg: Predicted in 0.164673 seconds.
baseball bat: 62%
(763.037964, 217.199783) (846.277527, 354.228607)
person: 79%
(571.787598, 243.171555) (865.486877, 781.999512)
sub17_h1_lg_1_046.jpg: Predicted in 0.155943 seconds.
baseball bat: 59%
(762.464539, 217.273788) (845.164734, 353.595123)
person: 79%
(572.715027, 242.500473) (864.380005, 783.724243)
sub17_h1_lg_1_047.jpg: Predicted in 0.157532 seconds.
baseball bat: 60%
(761.700195, 216.646606) (845.060669, 355.715302)
person: 80%
(573.710388, 240.517563) (864.538940, 785.424561)
sub17_h1_lg_1_048.jpg: Predicted in 0.157694 seconds.
baseball bat: 58%
(762.506897, 218.296066) (847.054993, 356.563690)
person: 79%
(572.937439, 242.121719) (867.891541, 783.976257)
sub17_h1_lg_1_049.jpg: Predicted in 0.158356 seconds.
baseball bat: 59%
(771.300537, 193.169067) (834.133545, 349.236481)
person: 79%
(574.679688, 244.551773) (864.828674, 782.724182)
sub17_h1_lg_1_050.jpg: Predicted in 0.155745 seconds.
baseball bat: 59%
(772.937439, 195.515717) (830.893616, 348.505371)
person: 78%
(573.703430, 247.753983) (865.649597, 778.436707)
sub17_h1_lg_1_051.jpg: Predicted in 0.157021 seconds.
baseball bat: 58%
(773.808960, 193.889725) (829.692627, 350.322510)
person: 78%
(571.836060, 247.757462) (869.263611, 780.908752)
sub17_h1_lg_1_052.jpg: Predicted in 0.155647 seconds.
baseball bat: 59%
(771.552246, 192.541962) (832.291748, 350.538269)
person: 80%
(574.187439, 250.203125) (861.555481, 779.864807)
sub17_h1_lg_1_053.jpg: Predicted in 0.155881 seconds.
baseball bat: 60%
(772.266968, 191.201111) (833.614075, 353.271820)
person: 79%
(572.147949, 248.408203) (862.955933, 781.998962)
sub17_h1_lg_1_054.jpg: Predicted in 0.155937 seconds.
baseball bat: 57%
(772.845093, 194.183548) (833.730103, 351.820953)
person: 79%
(573.281006, 247.126846) (863.132874, 780.490051)
sub17_h1_lg_1_055.jpg: Predicted in 0.156879 seconds.
baseball bat: 55%
(774.601257, 193.674164) (832.466919, 351.973358)
person: 79%
(573.071533, 246.332581) (866.157898, 781.995300)
sub17_h1_lg_1_056.jpg: Predicted in 0.157974 seconds.
baseball bat: 54%
(774.047485, 191.172897) (834.386353, 353.834808)
person: 80%
(575.520386, 243.979309) (863.306213, 786.098999)
sub17_h1_lg_1_057.jpg: Predicted in 0.157277 seconds.
baseball bat: 56%
(774.151001, 187.473709) (831.438599, 357.627411)
person: 80%
(576.804199, 245.237869) (863.039551, 784.865051)
sub17_h1_lg_1_058.jpg: Predicted in 0.155610 seconds.
baseball bat: 56%
(774.315979, 186.537491) (830.662048, 355.977325)
person: 80%
(574.405273, 247.812683) (865.356506, 783.120789)
sub17_h1_lg_1_059.jpg: Predicted in 0.157074 seconds.
baseball bat: 58%
(775.128723, 191.127228) (829.729370, 352.958069)
person: 80%
(574.705383, 249.144913) (861.996460, 781.875916)
sub17_h1_lg_1_060.jpg: Predicted in 0.155118 seconds.
baseball bat: 58%
(774.131653, 190.405212) (830.018433, 355.295288)
person: 79%
(570.538330, 250.897079) (863.483276, 782.276489)
sub17_h1_lg_1_061.jpg: Predicted in 0.159395 seconds.
baseball bat: 57%
(774.408386, 188.928391) (828.798401, 355.371887)
person: 79%
(568.567932, 250.224731) (862.548584, 778.205933)
sub17_h1_lg_1_062.jpg: Predicted in 0.154916 seconds.
baseball bat: 57%
(773.873840, 186.734283) (830.736938, 356.521240)
person: 79%
(571.468262, 250.859528) (863.742615, 780.558533)
sub17_h1_lg_1_063.jpg: Predicted in 0.156857 seconds.
baseball bat: 56%
(776.419800, 185.835068) (828.091919, 359.180359)
person: 81%
(581.965698, 249.822525) (856.390747, 779.692566)
sub17_h1_lg_1_064.jpg: Predicted in 0.165355 seconds.
baseball bat: 59%
(776.293579, 185.016769) (829.733154, 362.562653)
person: 80%
(583.633362, 247.927979) (854.138855, 780.735657)
sub17_h1_lg_1_065.jpg: Predicted in 0.156618 seconds.
baseball bat: 59%
(776.737183, 181.980347) (829.728882, 363.163116)
person: 80%
(583.753540, 244.184784) (854.972351, 783.536072)
sub17_h1_lg_1_066.jpg: Predicted in 0.166048 seconds.
baseball bat: 59%
(779.618103, 180.465775) (828.648499, 361.782196)
person: 81%
(583.208923, 242.950851) (854.516113, 783.285950)
sub17_h1_lg_1_067.jpg: Predicted in 0.154948 seconds.
baseball bat: 58%
(783.095520, 177.705078) (827.932129, 366.260681)
person: 81%
(582.379456, 243.622803) (849.798889, 786.929749)
sub17_h1_lg_1_068.jpg: Predicted in 0.163853 seconds.
baseball bat: 59%
(782.983093, 180.874191) (827.356079, 366.998535)
person: 80%
(583.038391, 248.081589) (853.799988, 782.844421)
sub17_h1_lg_1_069.jpg: Predicted in 0.157578 seconds.
baseball bat: 60%
(781.330139, 185.061478) (828.143555, 362.547180)
person: 79%
(580.518677, 252.089218) (853.335388, 782.228455)
sub17_h1_lg_1_070.jpg: Predicted in 0.164011 seconds.
baseball bat: 63%
(778.254822, 184.877121) (827.348999, 364.803345)
person: 80%
(580.080627, 254.469299) (853.911560, 776.258179)
sub17_h1_lg_1_071.jpg: Predicted in 0.158003 seconds.
baseball bat: 64%
(779.643433, 186.579025) (828.994141, 363.308960)
person: 80%
(579.296021, 254.807236) (857.924622, 781.248596)
sub17_h1_lg_1_072.jpg: Predicted in 0.157617 seconds.
baseball bat: 59%
(780.618347, 181.798889) (826.604431, 370.167389)
person: 80%
(581.221252, 250.064713) (856.456482, 780.534973)
sub17_h1_lg_1_073.jpg: Predicted in 0.159633 seconds.
baseball bat: 60%
(783.427917, 178.425323) (826.264343, 376.091461)
person: 81%
(582.534546, 245.891388) (855.292480, 782.220337)
sub17_h1_lg_1_074.jpg: Predicted in 0.160888 seconds.
baseball bat: 56%
(784.042908, 178.369644) (825.406738, 373.890137)
person: 81%
(582.386902, 247.453308) (853.596680, 782.568054)
sub17_h1_lg_1_075.jpg: Predicted in 0.157830 seconds.
baseball bat: 54%
(783.357544, 179.195480) (823.575867, 373.178925)
person: 81%
(581.557922, 245.383667) (851.464050, 784.507446)
sub17_h1_lg_1_076.jpg: Predicted in 0.157563 seconds.
baseball bat: 53%
(784.258118, 173.687073) (822.793884, 379.355713)
person: 80%
(579.227112, 250.427826) (851.849121, 783.536926)
sub17_h1_lg_1_077.jpg: Predicted in 0.157766 seconds.
baseball bat: 60%
(785.839844, 172.590118) (825.068970, 377.800690)
person: 81%
(575.344971, 248.668243) (855.940552, 787.102295)
sub17_h1_lg_1_078.jpg: Predicted in 0.154960 seconds.
baseball bat: 58%
(786.881287, 178.460617) (825.178162, 373.046967)
person: 80%
(575.183411, 251.183014) (858.341553, 787.367065)
sub17_h1_lg_1_079.jpg: Predicted in 0.158690 seconds.
baseball bat: 55%
(787.158997, 176.344299) (823.716370, 374.786560)
person: 81%
(582.300232, 252.368301) (851.199402, 785.305054)
sub17_h1_lg_1_080.jpg: Predicted in 0.155789 seconds.
baseball bat: 50%
(786.391052, 178.213318) (823.156494, 375.166870)
person: 80%
(583.396057, 251.956421) (848.720459, 779.517578)
sub17_h1_lg_1_081.jpg: Predicted in 0.158068 seconds.
baseball bat: 54%
(786.272034, 178.795151) (823.397156, 374.390686)
person: 80%
(581.452759, 250.233002) (851.055664, 782.621948)
sub17_h1_lg_1_082.jpg: Predicted in 0.156007 seconds.
baseball bat: 54%
(787.092346, 178.609116) (822.966248, 372.756653)
person: 81%
(582.307373, 252.993195) (852.448181, 780.712708)
sub17_h1_lg_1_083.jpg: Predicted in 0.156892 seconds.
baseball bat: 51%
(788.133606, 180.956024) (823.353821, 369.953278)
person: 81%
(581.891602, 251.603455) (850.183472, 783.981934)
sub17_h1_lg_1_084.jpg: Predicted in 0.157687 seconds.
baseball bat: 50%
(788.704773, 183.721588) (822.871460, 364.393341)
person: 81%
(585.453552, 249.822708) (842.976501, 787.062378)
sub17_h1_lg_1_085.jpg: Predicted in 0.158183 seconds.
baseball bat: 48%
(789.336548, 177.755463) (820.873718, 371.502869)
person: 80%
(579.795776, 249.211258) (847.550415, 789.090576)
sub17_h1_lg_1_086.jpg: Predicted in 0.158542 seconds.
baseball bat: 47%
(787.936096, 175.834137) (817.051575, 375.106384)
person: 81%
(580.497681, 248.575089) (846.252380, 790.004456)
sub17_h1_lg_1_087.jpg: Predicted in 0.157987 seconds.
baseball bat: 52%
(788.577332, 179.471542) (819.216431, 371.512451)
person: 80%
(575.944519, 251.033600) (848.504028, 790.648193)
sub17_h1_lg_1_088.jpg: Predicted in 0.158858 seconds.
baseball bat: 56%
(788.039246, 175.841385) (819.292297, 373.238953)
person: 80%
(582.090332, 250.997665) (841.687744, 789.114563)
sub17_h1_lg_1_089.jpg: Predicted in 0.154977 seconds.
baseball bat: 57%
(787.938904, 175.489258) (821.020630, 372.602997)
person: 81%
(584.044678, 253.037643) (841.203125, 787.349487)
sub17_h1_lg_1_090.jpg: Predicted in 0.155440 seconds.
baseball bat: 58%
(787.091125, 171.573700) (818.105408, 374.236145)
person: 80%
(578.075500, 258.237061) (842.323669, 785.981201)
sub17_h1_lg_1_091.jpg: Predicted in 0.155539 seconds.
baseball bat: 60%
(786.923950, 169.414169) (818.005676, 376.058533)
person: 80%
(579.931946, 255.957932) (843.404053, 786.457886)
sub17_h1_lg_1_092.jpg: Predicted in 0.156763 seconds.
baseball bat: 64%
(786.547668, 168.618256) (816.386902, 379.641602)
person: 81%
(578.874268, 253.135727) (841.230713, 785.830078)
sub17_h1_lg_1_093.jpg: Predicted in 0.158246 seconds.
baseball bat: 57%
(786.450745, 169.608994) (815.560242, 374.867706)
person: 81%
(584.849121, 253.301193) (837.085693, 788.632935)
sub17_h1_lg_1_094.jpg: Predicted in 0.154736 seconds.
baseball bat: 53%
(787.544067, 174.029083) (815.700378, 369.931458)
person: 82%
(582.203674, 251.008728) (837.273560, 791.826538)
sub17_h1_lg_1_095.jpg: Predicted in 0.155361 seconds.
baseball bat: 48%
(787.444275, 178.774429) (816.685669, 366.547913)
person: 82%
(585.278931, 251.780777) (837.158020, 793.501404)
sub17_h1_lg_1_096.jpg: Predicted in 0.155029 seconds.
baseball bat: 44%
(787.923767, 177.408432) (815.740784, 371.028412)
person: 82%
(584.217957, 250.806717) (837.265015, 789.975281)
sub17_h1_lg_1_097.jpg: Predicted in 0.155479 seconds.
baseball bat: 47%
(788.060547, 177.593536) (815.307861, 371.592743)
person: 82%
(584.557556, 252.068970) (835.481689, 791.363831)
sub17_h1_lg_1_098.jpg: Predicted in 0.156364 seconds.
baseball bat: 47%
(789.496094, 179.423035) (816.515747, 369.602112)
person: 81%
(581.053650, 253.026657) (838.703003, 790.336853)
sub17_h1_lg_1_099.jpg: Predicted in 0.156287 seconds.
baseball bat: 47%
(789.761230, 178.583252) (816.613281, 368.975067)
person: 81%
(583.030273, 251.453613) (838.163452, 790.348206)
sub17_h1_lg_1_100.jpg: Predicted in 0.157625 seconds.
baseball bat: 51%
(789.478760, 181.949173) (817.766541, 366.101379)
person: 81%
(587.668884, 254.134750) (836.531982, 787.826904)
sub17_h1_lg_1_101.jpg: Predicted in 0.157119 seconds.
baseball bat: 51%
(789.731873, 184.788864) (817.779297, 360.676575)
person: 81%
(588.239014, 253.247116) (836.245544, 790.016418)
sub17_h1_lg_1_102.jpg: Predicted in 0.156984 seconds.
baseball bat: 49%
(790.259460, 179.937881) (818.799805, 365.753754)
person: 82%
(587.278687, 249.569534) (836.028809, 788.193970)
sub17_h1_lg_1_103.jpg: Predicted in 0.164001 seconds.
baseball bat: 48%
(790.432007, 182.506134) (818.354309, 365.003113)
person: 81%
(583.118896, 254.216949) (837.320679, 788.616821)
sub17_h1_lg_1_104.jpg: Predicted in 0.157612 seconds.
baseball bat: 48%
(790.211548, 186.166122) (818.442139, 366.459473)
person: 81%
(586.534790, 254.261185) (834.687134, 789.203674)
sub17_h1_lg_1_105.jpg: Predicted in 0.161237 seconds.
baseball bat: 47%
(791.383057, 188.334671) (818.678467, 362.023010)
person: 81%
(581.683105, 252.493530) (834.262939, 789.735657)
sub17_h1_lg_1_106.jpg: Predicted in 0.164324 seconds.
baseball bat: 46%
(790.858643, 186.193192) (817.468689, 362.328430)
person: 81%
(580.291138, 255.295807) (833.018494, 792.253906)
sub17_h1_lg_1_107.jpg: Predicted in 0.158206 seconds.
baseball bat: 44%
(790.599609, 181.022125) (814.654297, 366.604858)
person: 81%
(580.115295, 254.023071) (833.149292, 788.722046)
sub17_h1_lg_1_108.jpg: Predicted in 0.157372 seconds.
baseball bat: 43%
(791.507385, 184.178345) (815.763916, 368.996094)
person: 82%
(577.635559, 254.629257) (835.467285, 790.362244)
sub17_h1_lg_1_109.jpg: Predicted in 0.158356 seconds.
baseball bat: 51%
(789.415344, 184.251465) (813.559692, 376.993988)
person: 82%
(581.854614, 253.258682) (832.724548, 788.223389)
sub17_h1_lg_1_110.jpg: Predicted in 0.155519 seconds.
baseball bat: 56%
(788.171997, 181.520920) (812.178345, 380.951691)
person: 82%
(584.594727, 252.602844) (833.347168, 788.686218)
sub17_h1_lg_1_111.jpg: Predicted in 0.157968 seconds.
baseball bat: 55%
(787.976318, 175.532013) (813.510803, 382.068970)
person: 83%
(582.775208, 256.349274) (833.070740, 786.060120)
sub17_h1_lg_1_112.jpg: Predicted in 0.156582 seconds.
baseball bat: 48%
(788.267151, 183.647308) (814.994568, 372.435028)
person: 82%
(578.921570, 257.549011) (835.941406, 785.460144)
sub17_h1_lg_1_113.jpg: Predicted in 0.158440 seconds.
baseball bat: 54%
(788.900330, 187.175140) (818.566833, 370.067871)
person: 81%
(578.591492, 256.966888) (832.846191, 787.823181)
sub17_h1_lg_1_114.jpg: Predicted in 0.163742 seconds.
baseball bat: 56%
(786.987366, 189.165329) (817.748047, 373.100159)
person: 81%
(581.848022, 257.225098) (831.428345, 789.473572)
sub17_h1_lg_1_115.jpg: Predicted in 0.158343 seconds.
baseball bat: 53%
(786.043274, 186.279617) (818.819580, 373.181213)
person: 80%
(578.295837, 254.272720) (832.057068, 790.665344)
sub17_h1_lg_1_116.jpg: Predicted in 0.155231 seconds.
baseball bat: 53%
(787.205688, 188.088745) (821.950073, 373.117310)
person: 80%
(578.237671, 254.058212) (832.656677, 792.051086)
sub17_h1_lg_1_117.jpg: Predicted in 0.155812 seconds.
baseball bat: 54%
(786.492615, 183.036789) (821.528503, 378.778809)
person: 81%
(578.381348, 254.442047) (833.252869, 792.403870)
sub17_h1_lg_1_118.jpg: Predicted in 0.156763 seconds.
baseball bat: 48%
(788.840027, 188.392975) (819.635437, 372.357025)
person: 80%
(573.822388, 255.305237) (837.160583, 792.763000)
sub17_h1_lg_1_119.jpg: Predicted in 0.157501 seconds.
baseball bat: 49%
(788.892395, 186.627289) (820.088501, 375.706055)
person: 80%
(574.010315, 256.314148) (836.666382, 792.057617)
sub17_h1_lg_1_120.jpg: Predicted in 0.157677 seconds.
baseball bat: 51%
(789.098755, 193.079407) (818.352234, 367.801117)
person: 81%
(576.218750, 259.694519) (838.269775, 784.383362)
sub17_h1_lg_1_121.jpg: Predicted in 0.158115 seconds.
baseball bat: 48%
(790.302979, 195.687103) (818.854309, 364.191437)
person: 81%
(575.227844, 257.984009) (838.703430, 786.770508)
sub17_h1_lg_1_122.jpg: Predicted in 0.156399 seconds.
baseball bat: 51%
(789.300354, 196.405334) (819.913330, 368.567688)
person: 80%
(576.764587, 258.880676) (835.243469, 782.839844)
sub17_h1_lg_1_123.jpg: Predicted in 0.157047 seconds.
baseball bat: 50%
(789.909973, 199.368866) (820.954285, 367.962769)
person: 81%
(577.661072, 258.134918) (833.556274, 789.197083)
sub17_h1_lg_1_124.jpg: Predicted in 0.157480 seconds.
baseball bat: 49%
(790.342346, 204.752518) (821.748718, 369.106201)
person: 80%
(581.251770, 258.073151) (829.702393, 790.814026)
sub17_h1_lg_1_125.jpg: Predicted in 0.168699 seconds.
baseball bat: 41%
(790.722961, 208.816177) (823.120300, 360.737915)
person: 80%
(581.573303, 261.120758) (826.896118, 792.985657)
sub17_h1_lg_1_126.jpg: Predicted in 0.156019 seconds.
baseball bat: 40%
(790.180542, 210.869217) (822.145081, 357.489349)
person: 82%
(580.033508, 258.387848) (828.923279, 793.747498)
sub17_h1_lg_1_127.jpg: Predicted in 0.156720 seconds.
baseball bat: 42%
(790.117493, 207.987656) (822.875183, 355.539825)
person: 82%
(579.873169, 258.508118) (827.924561, 793.009949)
sub17_h1_lg_1_128.jpg: Predicted in 0.156045 seconds.
baseball bat: 48%
(787.313599, 209.758804) (823.489319, 358.960327)
person: 81%
(578.002686, 259.179230) (829.294556, 787.836060)
sub17_h1_lg_1_129.jpg: Predicted in 0.157712 seconds.
baseball bat: 52%
(787.223022, 211.466354) (824.133057, 359.242737)
person: 81%
(578.303284, 259.032562) (830.735901, 790.223572)
sub17_h1_lg_1_130.jpg: Predicted in 0.156876 seconds.
baseball bat: 55%
(785.144104, 213.564438) (823.647400, 359.228729)
person: 81%
(580.192688, 258.549225) (830.239746, 791.317932)
sub17_h1_lg_1_131.jpg: Predicted in 0.156871 seconds.
baseball bat: 54%
(785.189941, 214.321198) (825.267944, 358.760254)
person: 81%
(579.793884, 259.999756) (831.658142, 790.486450)
sub17_h1_lg_1_132.jpg: Predicted in 0.155417 seconds.
baseball bat: 46%
(787.387512, 212.587662) (824.525330, 361.137817)
person: 81%
(586.059631, 265.157654) (824.175476, 789.453003)
sub17_h1_lg_1_133.jpg: Predicted in 0.165646 seconds.
baseball bat: 49%
(787.007080, 212.603058) (823.579895, 360.730682)
person: 81%
(585.098938, 261.903656) (823.914734, 794.515747)
sub17_h1_lg_1_134.jpg: Predicted in 0.156554 seconds.
baseball bat: 47%
(785.148438, 214.814301) (821.884949, 354.258514)
person: 80%
(580.290894, 260.679901) (826.658691, 795.062134)
sub17_h1_lg_1_135.jpg: Predicted in 0.156685 seconds.
baseball bat: 41%
(784.261536, 215.781967) (824.661377, 348.925018)
person: 79%
(586.620972, 258.479675) (818.132629, 795.894836)
sub17_h1_lg_1_136.jpg: Predicted in 0.161155 seconds.
baseball bat: 44%
(785.093933, 212.251511) (824.345886, 354.254120)
person: 81%
(586.144531, 255.528778) (818.475830, 796.762634)
sub17_h1_lg_1_137.jpg: Predicted in 0.154755 seconds.
baseball bat: 46%
(786.698608, 210.252213) (825.807678, 358.001678)
person: 81%
(586.353149, 260.271454) (820.364868, 797.463989)
sub17_h1_lg_1_138.jpg: Predicted in 0.156371 seconds.
baseball bat: 49%
(784.280762, 212.132050) (827.259460, 358.376953)
person: 81%
(588.288879, 260.314026) (817.318420, 796.324524)
sub17_h1_lg_1_139.jpg: Predicted in 0.155923 seconds.
baseball bat: 43%
(784.026245, 215.022873) (828.658875, 359.748932)
person: 81%
(589.506531, 263.082977) (816.939392, 796.677490)
sub17_h1_lg_1_140.jpg: Predicted in 0.155317 seconds.
baseball bat: 52%
(778.454163, 219.613861) (842.248962, 428.350983)
person: 82%
(591.856934, 263.830994) (816.376221, 790.922119)
sub17_h1_lg_1_141.jpg: Predicted in 0.156071 seconds.
baseball bat: 52%
(776.885803, 219.530151) (841.294250, 427.392944)
person: 82%
(588.435547, 263.762787) (821.781616, 794.086365)
sub17_h1_lg_1_142.jpg: Predicted in 0.159460 seconds.
baseball bat: 47%
(774.962585, 220.094345) (842.188721, 426.536987)
person: 82%
(591.144470, 263.477509) (815.772034, 795.526855)
sub17_h1_lg_1_143.jpg: Predicted in 0.157476 seconds.
baseball bat: 36%
(785.908813, 228.822083) (831.842346, 352.281525)
baseball bat: 35%
(763.445190, 248.229523) (847.789062, 407.550751)
person: 79%
(591.235901, 263.190277) (814.241516, 795.394714)
sub17_h1_lg_1_144.jpg: Predicted in 0.155629 seconds.
baseball bat: 40%
(782.979126, 224.165482) (831.953003, 354.566895)
baseball bat: 34%
(758.444763, 252.303558) (850.133118, 401.189606)
person: 78%
(586.643433, 264.856110) (816.631714, 792.672852)
sub17_h1_lg_1_145.jpg: Predicted in 0.155935 seconds.
baseball bat: 38%
(782.435181, 223.420731) (836.461914, 351.599670)
baseball bat: 36%
(751.266846, 258.180267) (860.707947, 393.271454)
person: 77%
(585.458313, 264.346436) (816.891235, 794.593018)
sub17_h1_lg_1_146.jpg: Predicted in 0.157140 seconds.
tennis racket: 33%
(773.122253, 231.976990) (843.434448, 415.417664)
person: 77%
(585.313538, 262.032684) (815.344116, 796.810059)
sub17_h1_lg_1_147.jpg: Predicted in 0.156732 seconds.
baseball bat: 31%
(785.719727, 224.660797) (838.120300, 350.072815)
person: 77%
(585.493530, 260.537079) (814.748779, 795.371887)
sub17_h1_lg_1_148.jpg: Predicted in 0.155913 seconds.
baseball bat: 32%
(782.419556, 223.277435) (834.913635, 351.739441)
tennis racket: 40%
(772.890076, 223.793121) (838.544556, 420.609344)
person: 79%
(586.841797, 261.874451) (814.362122, 794.049866)
sub17_h1_lg_1_149.jpg: Predicted in 0.156110 seconds.
baseball bat: 33%
(786.281677, 224.896194) (838.066040, 344.239838)
tennis racket: 39%
(773.636963, 233.023560) (843.422241, 412.335632)
person: 81%
(587.571289, 262.214569) (813.045471, 793.461914)
sub17_h1_lg_1_150.jpg: Predicted in 0.155938 seconds.
tennis racket: 52%
(772.653320, 232.677582) (844.696533, 410.555847)
person: 82%
(587.213135, 261.468109) (813.382996, 793.151978)
sub17_h1_lg_1_151.jpg: Predicted in 0.155134 seconds.
tennis racket: 53%
(769.954651, 236.894638) (844.630005, 404.677582)
person: 81%
(589.448853, 264.216095) (812.323608, 792.902832)
sub17_h1_lg_1_152.jpg: Predicted in 0.154985 seconds.
tennis racket: 54%
(768.930359, 238.150681) (848.367493, 401.798737)
person: 80%
(591.808289, 268.970001) (807.465088, 793.802002)
sub17_h1_lg_1_153.jpg: Predicted in 0.159110 seconds.
tennis racket: 54%
(766.796631, 245.044952) (845.835510, 397.922089)
person: 78%
(586.910889, 265.365662) (810.574768, 795.369934)
sub17_h1_lg_1_154.jpg: Predicted in 0.156898 seconds.
tennis racket: 42%
(769.040588, 245.329910) (847.344177, 395.764160)
person: 79%
(585.205078, 263.857330) (813.503540, 799.471130)
sub17_h1_lg_1_155.jpg: Predicted in 0.157614 seconds.
tennis racket: 49%
(766.083862, 243.628159) (849.084473, 398.838043)
person: 76%
(590.124817, 265.067322) (808.540527, 799.955444)
sub17_h1_lg_1_156.jpg: Predicted in 0.159324 seconds.
tennis racket: 40%
(769.476013, 243.202225) (848.133118, 399.922821)
person: 77%
(591.119995, 266.683472) (808.334656, 799.018616)
sub17_h1_lg_1_157.jpg: Predicted in 0.156099 seconds.
tennis racket: 48%
(768.751709, 244.008682) (850.988159, 396.507904)
person: 76%
(589.928345, 266.355560) (808.106018, 799.243713)
sub17_h1_lg_1_158.jpg: Predicted in 0.155297 seconds.
tennis racket: 47%
(752.258728, 248.150650) (856.869263, 398.416504)
person: 79%
(591.192688, 263.865479) (807.718018, 797.935852)
sub17_h1_lg_1_159.jpg: Predicted in 0.156803 seconds.
tennis racket: 52%
(766.567688, 251.669342) (852.723389, 388.032318)
person: 78%
(592.507996, 263.976044) (805.452698, 795.851257)
sub17_h1_lg_1_160.jpg: Predicted in 0.155794 seconds.
tennis racket: 51%
(749.658142, 251.591980) (856.847778, 393.367767)
person: 80%
(591.986572, 263.567413) (808.477783, 791.065979)
sub17_h1_lg_1_161.jpg: Predicted in 0.157555 seconds.
tennis racket: 48%
(746.564087, 253.469406) (857.285095, 391.448090)
person: 79%
(591.255005, 265.331818) (808.648743, 791.281616)
sub17_h1_lg_1_162.jpg: Predicted in 0.155970 seconds.
tennis racket: 46%
(747.728577, 252.705185) (856.102417, 395.011047)
person: 77%
(594.181580, 266.591888) (803.848206, 793.792480)
sub17_h1_lg_1_163.jpg: Predicted in 0.156108 seconds.
tennis racket: 54%
(765.190063, 254.819977) (858.676636, 384.623566)
person: 76%
(593.738525, 266.492157) (804.606201, 794.925781)
sub17_h1_lg_1_164.jpg: Predicted in 0.159719 seconds.
tennis racket: 39%
(764.260498, 256.645874) (862.129089, 383.769928)
baseball bat: 32%
(746.573853, 258.284027) (860.573853, 391.773895)
person: 75%
(559.988892, 281.081879) (801.466492, 769.856995)
sub17_h1_lg_1_165.jpg: Predicted in 0.155867 seconds.
baseball bat: 53%
(743.321716, 254.770462) (857.293335, 397.490234)
person: 74%
(591.004639, 267.078003) (807.149658, 796.103882)
sub17_h1_lg_1_166.jpg: Predicted in 0.155807 seconds.
baseball bat: 55%
(743.044983, 255.648392) (857.845215, 394.611206)
person: 74%
(589.536865, 268.464020) (809.040527, 793.723572)
sub17_h1_lg_1_167.jpg: Predicted in 0.157276 seconds.
baseball bat: 52%
(739.295898, 255.248367) (861.374695, 394.460663)
person: 74%
(588.211914, 269.352448) (811.020569, 793.712524)
sub17_h1_lg_1_168.jpg: Predicted in 0.157060 seconds.
baseball bat: 51%
(737.796143, 255.344543) (860.431824, 397.561157)
person: 77%
(590.707764, 269.823456) (809.038147, 788.544373)
sub17_h1_lg_1_169.jpg: Predicted in 0.155999 seconds.
baseball bat: 41%
(738.693298, 257.485077) (865.364014, 395.963654)
person: 76%
(588.138733, 268.923889) (810.216248, 788.742493)
sub17_h1_lg_1_170.jpg: Predicted in 0.156476 seconds.
tennis racket: 49%
(738.468201, 256.728973) (860.504272, 397.008636)
person: 76%
(591.297791, 272.783386) (808.328369, 785.567139)
sub17_h1_lg_1_171.jpg: Predicted in 0.155604 seconds.
tennis racket: 35%
(740.589417, 257.782166) (860.451965, 400.906555)
person: 77%
(593.695312, 272.278503) (804.819092, 787.362793)
sub17_h1_lg_1_172.jpg: Predicted in 0.155864 seconds.
baseball bat: 52%
(737.613220, 257.627563) (863.935852, 403.891785)
person: 76%
(593.615173, 275.880188) (804.933411, 789.466248)
sub17_h1_lg_1_173.jpg: Predicted in 0.155816 seconds.
baseball bat: 53%
(738.599548, 257.464813) (862.546082, 400.299713)
person: 75%
(591.013245, 276.236359) (809.392944, 790.296448)
sub17_h1_lg_1_174.jpg: Predicted in 0.158531 seconds.
baseball bat: 44%
(736.586853, 260.902283) (863.588501, 398.630127)
person: 75%
(587.576721, 274.194275) (811.125183, 791.983093)
sub17_h1_lg_1_175.jpg: Predicted in 0.156639 seconds.
baseball bat: 48%
(735.890259, 262.484650) (866.078247, 400.691406)
person: 77%
(591.452881, 275.014282) (806.250488, 791.049622)
sub17_h1_lg_1_176.jpg: Predicted in 0.157475 seconds.
baseball bat: 57%
(733.888245, 262.227478) (867.606628, 399.530914)
person: 75%
(592.903442, 275.572418) (805.471313, 791.852478)
sub17_h1_lg_1_177.jpg: Predicted in 0.157496 seconds.
baseball bat: 43%
(731.946106, 264.358948) (866.937256, 405.109406)
person: 74%
(594.191467, 275.672546) (803.792419, 792.599365)
sub17_h1_lg_1_178.jpg: Predicted in 0.156553 seconds.
baseball bat: 48%
(732.760681, 268.370117) (870.310913, 402.230682)
person: 74%
(593.124451, 275.571045) (805.671021, 794.870850)
sub17_h1_lg_1_179.jpg: Predicted in 0.167149 seconds.
baseball bat: 47%
(732.757812, 268.659882) (867.211853, 406.930603)
person: 74%
(594.246399, 275.950745) (805.711609, 795.878662)
sub17_h1_lg_1_180.jpg: Predicted in 0.155837 seconds.
baseball bat: 48%
(735.852844, 273.886627) (863.058167, 407.893768)
person: 76%
(595.991272, 275.573242) (803.786560, 790.098389)
sub17_h1_lg_1_181.jpg: Predicted in 0.156290 seconds.
baseball bat: 36%
(738.580139, 276.371002) (862.487366, 407.631104)
person: 76%
(593.479553, 274.995697) (806.597229, 789.671448)
sub17_h1_lg_1_182.jpg: Predicted in 0.161945 seconds.
baseball bat: 38%
(736.092468, 276.459503) (864.775024, 412.796906)
person: 75%
(594.342651, 274.318665) (804.958496, 788.654724)
sub17_h1_lg_1_183.jpg: Predicted in 0.155330 seconds.
baseball bat: 49%
(730.991272, 276.200104) (865.622070, 412.954803)
person: 72%
(596.515198, 274.414551) (803.000366, 793.454468)
sub17_h1_lg_1_184.jpg: Predicted in 0.157764 seconds.
baseball bat: 39%
(730.848694, 277.374146) (864.197388, 407.235931)
person: 71%
(597.354370, 273.424591) (801.128113, 795.561829)
sub17_h1_lg_1_185.jpg: Predicted in 0.155110 seconds.
baseball bat: 50%
(727.992004, 280.066559) (869.275574, 408.194153)
person: 72%
(559.715210, 285.865723) (795.482422, 775.135681)
sub17_h1_lg_1_186.jpg: Predicted in 0.159994 seconds.
baseball bat: 53%
(725.523132, 279.420135) (868.555359, 409.779388)
person: 72%
(556.700562, 284.954041) (796.466553, 776.960205)
sub17_h1_lg_1_187.jpg: Predicted in 0.157754 seconds.
baseball bat: 57%
(723.781250, 284.250305) (869.586487, 407.038635)
person: 70%
(558.522156, 291.028900) (794.092468, 776.123047)
sub17_h1_lg_1_188.jpg: Predicted in 0.156838 seconds.
baseball bat: 59%
(723.241211, 285.652924) (871.074097, 408.907043)
person: 71%
(555.868774, 288.884888) (794.733765, 775.579102)
sub17_h1_lg_1_189.jpg: Predicted in 0.156021 seconds.
baseball bat: 50%
(725.473389, 288.624054) (870.346924, 407.926270)
person: 69%
(597.023804, 272.257019) (803.226624, 796.768005)
sub17_h1_lg_1_190.jpg: Predicted in 0.155084 seconds.
baseball bat: 48%
(726.456360, 291.251221) (871.717163, 411.053467)
person: 71%
(595.515503, 275.654358) (804.410034, 794.245300)
sub17_h1_lg_1_191.jpg: Predicted in 0.155784 seconds.
baseball bat: 57%
(725.329529, 293.588531) (874.859802, 410.693146)
person: 69%
(593.566223, 277.042877) (806.015991, 795.069458)
sub17_h1_lg_1_192.jpg: Predicted in 0.156972 seconds.
baseball bat: 58%
(726.475891, 295.826385) (873.141602, 412.126892)
person: 71%
(557.362122, 290.859955) (792.350708, 777.986938)
sub17_h1_lg_1_193.jpg: Predicted in 0.161528 seconds.
baseball bat: 52%
(726.560059, 295.553864) (875.509949, 410.552826)
person: 73%
(560.834656, 289.863220) (790.498047, 778.578247)
sub17_h1_lg_1_194.jpg: Predicted in 0.156188 seconds.
baseball bat: 49%
(727.791016, 296.952667) (877.368164, 409.466797)
person: 74%
(558.944702, 288.092773) (792.576477, 779.050476)
sub17_h1_lg_1_195.jpg: Predicted in 0.155230 seconds.
baseball bat: 57%
(726.832153, 295.168365) (878.574829, 411.676178)
person: 74%
(557.556152, 287.539978) (790.801086, 779.216064)
sub17_h1_lg_1_196.jpg: Predicted in 0.160762 seconds.
baseball bat: 56%
(722.113159, 296.874542) (883.901550, 414.800964)
person: 74%
(556.906006, 287.880096) (791.613708, 780.713989)
sub17_h1_lg_1_197.jpg: Predicted in 0.161819 seconds.
baseball bat: 58%
(715.508667, 298.557709) (889.076294, 415.407532)
person: 74%
(557.519653, 287.893463) (790.610229, 780.760620)
sub17_h1_lg_1_198.jpg: Predicted in 0.156159 seconds.
baseball bat: 54%
(711.846802, 294.629822) (890.057983, 421.224762)
person: 74%
(560.076294, 289.846832) (790.134583, 778.536133)
sub17_h1_lg_1_199.jpg: Predicted in 0.156443 seconds.
baseball bat: 53%
(710.604248, 299.191284) (890.860291, 418.832306)
person: 74%
(562.722046, 293.282898) (789.385193, 776.793884)
sub17_h1_lg_1_200.jpg: Predicted in 0.166640 seconds.
baseball bat: 44%
(713.285950, 300.765900) (888.848450, 419.551605)
tennis racket: 38%
(650.827332, 313.585724) (861.761658, 443.650970)
person: 72%
(596.860596, 279.446503) (801.496338, 791.925720)
sub17_h1_lg_1_201.jpg: Predicted in 0.156426 seconds.
baseball bat: 49%
(713.358398, 302.360474) (889.025757, 418.091370)
tennis racket: 38%
(652.615662, 313.159485) (864.339111, 445.490356)
person: 74%
(591.376892, 280.282043) (807.231079, 793.738220)
sub17_h1_lg_1_202.jpg: Predicted in 0.158158 seconds.
baseball bat: 33%
(708.919067, 304.633942) (896.633789, 417.948883)
tennis racket: 45%
(648.589294, 312.803802) (870.773926, 446.179138)
person: 72%
(557.417297, 294.377075) (794.040222, 780.545593)
sub17_h1_lg_1_203.jpg: Predicted in 0.157598 seconds.
baseball bat: 48%
(713.878784, 307.060730) (895.091675, 415.564301)
tennis racket: 32%
(690.459900, 321.366974) (915.687073, 432.982208)
person: 76%
(557.535461, 294.474762) (792.429260, 781.207764)
sub17_h1_lg_1_204.jpg: Predicted in 0.156889 seconds.
baseball bat: 35%
(714.646545, 306.738617) (896.397034, 414.686707)
tennis racket: 33%
(645.956909, 316.870026) (872.263794, 443.015411)
person: 76%
(554.405334, 294.774780) (793.168335, 783.077271)
sub17_h1_lg_1_205.jpg: Predicted in 0.161579 seconds.
baseball bat: 30%
(642.946594, 316.853455) (872.283203, 445.073303)
person: 77%
(553.329468, 294.902740) (792.522095, 785.031982)
sub17_h1_lg_1_206.jpg: Predicted in 0.157906 seconds.
baseball bat: 34%
(641.165527, 320.270050) (874.176880, 439.626953)
person: 75%
(558.160889, 290.784668) (795.154968, 786.639954)
sub17_h1_lg_1_207.jpg: Predicted in 0.157261 seconds.
baseball bat: 46%
(640.273499, 322.352417) (876.944214, 440.307465)
person: 77%
(555.224487, 284.263184) (795.150269, 788.513489)
sub17_h1_lg_1_208.jpg: Predicted in 0.156800 seconds.
baseball bat: 50%
(642.191956, 325.934937) (879.661255, 439.852386)
person: 77%
(555.499146, 286.329041) (792.094543, 786.926758)
sub17_h1_lg_1_209.jpg: Predicted in 0.156679 seconds.
baseball bat: 54%
(641.620300, 326.805725) (878.370117, 439.688293)
person: 77%
(559.031189, 287.979401) (791.740601, 787.435547)
sub17_h1_lg_1_210.jpg: Predicted in 0.157341 seconds.
baseball bat: 47%
(650.956604, 326.905518) (873.544006, 444.980225)
person: 76%
(562.014771, 287.726990) (784.657104, 784.497192)
sub17_h1_lg_1_211.jpg: Predicted in 0.156355 seconds.
baseball bat: 51%
(652.568787, 328.889618) (882.420349, 441.222961)
person: 77%
(563.936340, 283.937256) (784.423218, 789.850708)
sub17_h1_lg_1_212.jpg: Predicted in 0.155353 seconds.
baseball bat: 53%
(650.198303, 330.267212) (886.676086, 445.453033)
person: 78%
(559.881104, 285.739166) (786.450684, 789.975403)
sub17_h1_lg_1_213.jpg: Predicted in 0.163018 seconds.
baseball bat: 50%
(650.628906, 330.977356) (887.639709, 451.519592)
person: 80%
(558.993225, 286.189423) (783.407288, 790.855469)
sub17_h1_lg_1_214.jpg: Predicted in 0.158513 seconds.
baseball bat: 52%
(699.730286, 343.642883) (905.230225, 434.210815)
person: 79%
(562.733337, 285.280396) (783.709534, 793.066528)
sub17_h1_lg_1_215.jpg: Predicted in 0.155738 seconds.
baseball bat: 50%
(694.576050, 344.836823) (912.113708, 437.005127)
person: 79%
(561.400391, 284.972137) (783.015808, 792.537354)
sub17_h1_lg_1_216.jpg: Predicted in 0.156527 seconds.
baseball bat: 53%
(691.468323, 345.250977) (915.148193, 435.867493)
person: 80%
(565.752747, 284.270264) (776.994263, 792.548767)
sub17_h1_lg_1_217.jpg: Predicted in 0.155291 seconds.
baseball bat: 52%
(691.061340, 347.241211) (914.982361, 437.224762)
person: 79%
(562.829102, 285.187164) (779.747070, 792.467102)
sub17_h1_lg_1_218.jpg: Predicted in 0.164157 seconds.
baseball bat: 51%
(650.212952, 340.624023) (880.761353, 445.672485)
person: 76%
(567.460022, 286.288177) (774.074280, 786.991577)
sub17_h1_lg_1_219.jpg: Predicted in 0.156281 seconds.
baseball bat: 54%
(641.485413, 345.263397) (882.207214, 452.196472)
person: 78%
(566.637207, 283.945709) (770.967773, 787.422119)
sub17_h1_lg_1_220.jpg: Predicted in 0.158340 seconds.
baseball bat: 56%
(634.426514, 348.020081) (868.244385, 456.880859)
person: 79%
(569.888916, 277.781830) (769.921082, 787.019043)
sub17_h1_lg_1_221.jpg: Predicted in 0.158275 seconds.
baseball bat: 47%
(628.827026, 359.210815) (865.537903, 459.542725)
person: 80%
(569.517517, 276.912750) (767.392883, 786.929382)
sub17_h1_lg_1_222.jpg: Predicted in 0.157723 seconds.
baseball bat: 52%
(630.994568, 362.626404) (869.180298, 460.763794)
person: 81%
(562.201416, 278.629883) (771.179138, 787.304321)
sub17_h1_lg_1_223.jpg: Predicted in 0.157470 seconds.
baseball bat: 45%
(627.895264, 365.680939) (870.430237, 455.770447)
person: 83%
(559.559326, 276.684509) (776.474182, 788.318909)
sub17_h1_lg_1_224.jpg: Predicted in 0.155926 seconds.
baseball bat: 54%
(624.065674, 369.175385) (880.553650, 452.130951)
person: 83%
(561.382690, 275.744049) (783.147034, 790.331482)
sub17_h1_lg_1_225.jpg: Predicted in 0.157826 seconds.
baseball bat: 53%
(617.050598, 373.832245) (882.658081, 455.896454)
person: 82%
(559.097107, 269.991119) (781.435730, 792.026611)
sub17_h1_lg_1_226.jpg: Predicted in 0.159800 seconds.
baseball bat: 43%
(620.175476, 376.040161) (876.350708, 457.993042)
person: 83%
(559.907776, 267.377075) (778.503296, 792.248169)
sub17_h1_lg_1_227.jpg: Predicted in 0.155726 seconds.
tennis racket: 46%
(619.594482, 382.593994) (882.240234, 456.205475)
person: 83%
(557.093323, 269.472443) (783.218079, 789.851379)
sub17_h1_lg_1_228.jpg: Predicted in 0.155485 seconds.
baseball bat: 35%
(618.935608, 384.230927) (881.730103, 455.089264)
person: 84%
(554.993958, 269.869537) (780.199707, 784.749207)
sub17_h1_lg_1_229.jpg: Predicted in 0.157436 seconds.
baseball bat: 47%
(615.409668, 386.229340) (876.317810, 455.226776)
person: 84%
(560.857483, 266.279572) (777.535645, 784.408325)
sub17_h1_lg_1_230.jpg: Predicted in 0.157412 seconds.
baseball bat: 37%
(595.488770, 386.821899) (876.321533, 459.477448)
person: 84%
(561.756653, 265.109985) (769.819153, 782.177307)
sub17_h1_lg_1_231.jpg: Predicted in 0.155927 seconds.
person: 85%
(559.715149, 265.563324) (771.147583, 784.792603)
sub17_h1_lg_1_232.jpg: Predicted in 0.156334 seconds.
person: 85%
(558.459473, 267.106476) (767.972839, 779.939880)
sub17_h1_lg_1_233.jpg: Predicted in 0.158454 seconds.
person: 85%
(559.748840, 265.701782) (766.589783, 781.667542)
sub17_h1_lg_1_234.jpg: Predicted in 0.157291 seconds.
tennis racket: 35%
(593.112671, 419.602997) (871.243286, 466.422821)
person: 85%
(558.189026, 259.157928) (772.966675, 782.761230)
sub17_h1_lg_1_235.jpg: Predicted in 0.156393 seconds.
tennis racket: 33%
(656.044800, 423.474243) (829.493530, 465.538666)
person: 85%
(554.586731, 256.548157) (774.833252, 780.481323)
sub17_h1_lg_1_236.jpg: Predicted in 0.158735 seconds.
tennis racket: 39%
(627.244690, 422.101807) (866.324646, 465.780884)
person: 85%
(553.508850, 253.110840) (774.451355, 784.620972)
sub17_h1_lg_1_237.jpg: Predicted in 0.155725 seconds.
tennis racket: 46%
(614.397217, 424.696136) (879.325806, 465.710663)
person: 85%
(548.025940, 251.113174) (779.328369, 788.252869)
sub17_h1_lg_1_238.jpg: Predicted in 0.155994 seconds.
tennis racket: 49%
(600.151978, 426.806244) (884.552307, 465.206055)
person: 84%
(545.850952, 251.588730) (782.142944, 785.055237)
sub17_h1_lg_1_239.jpg: Predicted in 0.154966 seconds.
tennis racket: 48%
(607.340271, 429.391327) (870.423706, 467.875244)
person: 85%
(545.586914, 257.142761) (783.907898, 781.476501)
sub17_h1_lg_1_240.jpg: Predicted in 0.161159 seconds.
tennis racket: 45%
(613.418579, 428.612701) (852.619629, 467.496033)
person: 84%
(542.103210, 256.771271) (790.299744, 779.045410)
sub17_h1_lg_1_241.jpg: Predicted in 0.155865 seconds.
tennis racket: 31%
(564.155579, 430.954498) (729.420959, 479.935699)
tennis racket: 37%
(609.177856, 431.241791) (843.662903, 466.451263)
person: 84%
(539.664307, 255.872177) (787.700928, 782.138123)
sub17_h1_lg_1_242.jpg: Predicted in 0.158058 seconds.
tennis racket: 31%
(567.440186, 436.830017) (729.407166, 480.105042)
tennis racket: 36%
(622.113770, 436.687897) (839.735107, 470.173492)
person: 84%
(537.304993, 254.580475) (791.000366, 782.646118)
sub17_h1_lg_1_243.jpg: Predicted in 0.157817 seconds.
tennis racket: 30%
(570.703613, 436.018707) (715.591064, 482.320618)
person: 87%
(535.104248, 253.753754) (784.986572, 788.877197)
sub17_h1_lg_1_244.jpg: Predicted in 0.155706 seconds.
tennis racket: 33%
(579.630554, 438.429077) (712.005676, 483.707977)
person: 87%
(531.974548, 254.181290) (792.662903, 785.907471)
sub17_h1_lg_1_245.jpg: Predicted in 0.154826 seconds.
person: 87%
(524.445068, 255.350494) (795.645264, 790.546326)
sub17_h1_lg_1_246.jpg: Predicted in 0.155861 seconds.
person: 88%
(524.204956, 257.645142) (793.775696, 787.847168)
sub17_h1_lg_1_247.jpg: Predicted in 0.156204 seconds.
person: 87%
(528.750366, 256.367035) (791.698547, 789.480347)
sub17_h1_lg_1_248.jpg: Predicted in 0.156845 seconds.
person: 86%
(523.129150, 262.717560) (790.401428, 789.166931)
sub17_h1_lg_1_249.jpg: Predicted in 0.156550 seconds.
sports ball: 31%
(203.724335, 424.287476) (229.544678, 452.157532)
tennis racket: 30%
(646.540588, 452.715302) (774.035156, 496.236877)
person: 86%
(522.141235, 261.771637) (781.661560, 783.002686)
sub17_h1_lg_1_250.jpg: Predicted in 0.156358 seconds.
sports ball: 36%
(204.970383, 426.020294) (229.283310, 453.056396)
person: 85%
(521.714111, 269.849213) (796.321777, 779.947083)
sub17_h1_lg_1_251.jpg: Predicted in 0.157516 seconds.
sports ball: 33%
(204.453659, 426.084381) (226.922226, 452.007538)
person: 85%
(523.186340, 267.055756) (790.638245, 778.096924)
sub17_h1_lg_1_252.jpg: Predicted in 0.165855 seconds.
sports ball: 40%
(205.731735, 428.796875) (229.155502, 453.971191)
tennis racket: 37%
(567.805603, 442.649200) (716.257385, 495.447327)
person: 85%
(519.851196, 259.516083) (794.483826, 777.767212)
sub17_h1_lg_1_253.jpg: Predicted in 0.157501 seconds.
sports ball: 40%
(206.762222, 429.604126) (230.424667, 454.821991)
tennis racket: 43%
(567.645935, 434.413940) (707.141541, 498.299957)
person: 84%
(519.747803, 260.778198) (790.320251, 784.118591)
sub17_h1_lg_1_254.jpg: Predicted in 0.155736 seconds.
sports ball: 38%
(206.109756, 428.758453) (229.757065, 454.093414)
tennis racket: 46%
(570.672668, 435.352234) (715.006042, 500.487518)
person: 85%
(522.009521, 260.391846) (785.940613, 784.380005)
sub17_h1_lg_1_255.jpg: Predicted in 0.156559 seconds.
sports ball: 39%
(205.650452, 430.029785) (230.921585, 456.165314)
tennis racket: 40%
(568.459106, 431.577179) (702.603821, 501.532013)
person: 85%
(518.693359, 262.346344) (783.466553, 784.680664)
sub17_h1_lg_1_256.jpg: Predicted in 0.156530 seconds.
sports ball: 39%
(206.863953, 429.693573) (231.685699, 456.957581)
person: 85%
(519.169006, 265.972107) (780.718384, 784.723694)
sub17_h1_lg_1_257.jpg: Predicted in 0.155963 seconds.
sports ball: 40%
(208.978088, 430.434509) (233.878143, 456.571381)
person: 85%
(516.428406, 271.610321) (779.832092, 782.188110)
sub17_h1_lg_1_258.jpg: Predicted in 0.156755 seconds.
sports ball: 39%
(209.840073, 430.655701) (235.599762, 456.709076)
person: 86%
(515.880737, 268.326111) (781.572754, 786.453247)
sub17_h1_lg_1_259.jpg: Predicted in 0.158834 seconds.
sports ball: 31%
(211.058746, 429.802582) (237.461349, 455.774048)
person: 84%
(520.221130, 265.909698) (771.730042, 785.688354)
sub17_h1_lg_1_260.jpg: Predicted in 0.161969 seconds.
person: 83%
(524.546204, 267.279266) (775.079834, 787.315063)
sub17_h1_lg_1_261.jpg: Predicted in 0.155825 seconds.
person: 82%
(524.549133, 265.622559) (774.201660, 787.909302)
sub17_h1_lg_1_262.jpg: Predicted in 0.157605 seconds.
person: 82%
(529.784241, 267.275299) (776.479309, 793.038391)
sub17_h1_lg_1_263.jpg: Predicted in 0.156543 seconds.
person: 83%
(527.707703, 264.531830) (775.594788, 798.163879)
sub17_h1_lg_1_264.jpg: Predicted in 0.158483 seconds.
person: 81%
(526.377686, 263.036926) (774.915955, 800.592224)
sub17_h1_lg_1_265.jpg: Predicted in 0.157253 seconds.
person: 81%
(525.401062, 261.189301) (772.088562, 795.600586)
sub17_h1_lg_1_266.jpg: Predicted in 0.156929 seconds.
person: 81%
(524.160095, 258.610138) (775.518066, 800.136414)
sub17_h1_lg_1_267.jpg: Predicted in 0.157148 seconds.
person: 82%
(523.032349, 259.270508) (774.768860, 801.245789)
sub17_h1_lg_1_268.jpg: Predicted in 0.156357 seconds.
person: 81%
(527.089722, 259.421051) (775.465515, 797.231018)
sub17_h1_lg_1_269.jpg: Predicted in 0.164802 seconds.
person: 81%
(525.411072, 260.904633) (766.298706, 799.391724)
sub17_h1_lg_1_270.jpg: Predicted in 0.158093 seconds.
sports ball: 35%
(258.451141, 445.770233) (282.725311, 473.053375)
tennis racket: 38%
(547.500854, 468.791901) (619.979919, 564.548096)
person: 80%
(526.891113, 263.614502) (774.568237, 797.643250)
sub17_h1_lg_1_271.jpg: Predicted in 0.165852 seconds.
tennis racket: 56%
(550.684082, 464.823639) (618.329529, 575.586487)
person: 82%
(524.862610, 264.358856) (784.973389, 799.463013)
sub17_h1_lg_1_272.jpg: Predicted in 0.165412 seconds.
tennis racket: 61%
(551.308655, 463.760132) (611.386047, 578.032532)
person: 84%
(522.324707, 265.316040) (792.356201, 797.234497)
sub17_h1_lg_1_273.jpg: Predicted in 0.155523 seconds.
tennis racket: 58%
(553.747620, 462.009155) (603.899841, 588.415222)
person: 85%
(520.786987, 261.478699) (796.358704, 789.028748)
sub17_h1_lg_1_274.jpg: Predicted in 0.166250 seconds.
tennis racket: 61%
(557.121887, 462.527435) (600.149231, 590.444397)
person: 85%
(519.462219, 266.973541) (796.300720, 784.773376)
sub17_h1_lg_1_275.jpg: Predicted in 0.160695 seconds.
tennis racket: 53%
(556.031372, 468.000183) (597.369873, 592.678406)
person: 85%
(510.795563, 269.672119) (797.867310, 782.728027)
sub17_h1_lg_1_276.jpg: Predicted in 0.166821 seconds.
tennis racket: 45%
(549.690796, 468.644287) (588.698975, 599.726746)
person: 86%
(504.716797, 263.666565) (798.488770, 787.488464)
sub17_h1_lg_1_277.jpg: Predicted in 0.157572 seconds.
tennis racket: 36%
(543.098633, 476.058655) (578.962524, 595.150024)
person: 87%
(513.514587, 262.112000) (798.834473, 787.137634)
sub17_h1_lg_1_278.jpg: Predicted in 0.157726 seconds.
tennis racket: 35%
(527.885376, 472.141510) (559.751099, 599.955994)
person: 86%
(512.318726, 269.556030) (793.340332, 781.633484)
sub17_h1_lg_1_279.jpg: Predicted in 0.157224 seconds.
tennis racket: 57%
(503.726440, 456.920898) (536.279785, 612.916931)
person: 86%
(506.448547, 270.627747) (793.874939, 779.901062)
sub17_h1_lg_1_280.jpg: Predicted in 0.156708 seconds.
tennis racket: 63%
(495.504517, 455.935181) (533.524780, 607.643616)
person: 85%
(503.728790, 280.140350) (801.143799, 775.981201)
sub17_h1_lg_1_281.jpg: Predicted in 0.156381 seconds.
tennis racket: 39%
(494.100983, 449.411469) (536.795166, 610.663940)
person: 85%
(504.027130, 282.224426) (806.366394, 777.617676)
sub17_h1_lg_1_282.jpg: Predicted in 0.157288 seconds.
baseball bat: 43%
(488.333710, 448.121490) (536.738098, 614.924011)
person: 85%
(501.310425, 283.272034) (808.846558, 779.717468)
sub17_h1_lg_1_283.jpg: Predicted in 0.158090 seconds.
baseball bat: 35%
(483.660278, 457.360382) (536.199524, 602.754211)
person: 85%
(507.913818, 280.722443) (806.553955, 780.022034)
sub17_h1_lg_1_284.jpg: Predicted in 0.159854 seconds.
sports ball: 31%
(311.442230, 467.849701) (338.926331, 495.389679)
tennis racket: 31%
(472.422363, 471.903351) (545.573608, 585.761108)
baseball bat: 31%
(466.727386, 455.108276) (573.743713, 591.423584)
person: 85%
(502.485687, 278.377441) (809.289978, 783.115295)
sub17_h1_lg_1_285.jpg: Predicted in 0.157696 seconds.
baseball bat: 37%
(459.464417, 457.026611) (579.463867, 592.696350)
person: 85%
(500.754639, 276.634705) (802.678589, 785.490784)
sub17_h1_lg_1_286.jpg: Predicted in 0.155820 seconds.
tennis racket: 38%
(429.819427, 488.411072) (514.078186, 584.156372)
person: 85%
(503.486694, 273.841095) (802.604004, 788.888184)
sub17_h1_lg_1_287.jpg: Predicted in 0.155850 seconds.
tennis racket: 45%
(430.967712, 485.371155) (515.187073, 589.066833)
person: 84%
(510.193420, 273.086761) (801.776367, 786.023010)
sub17_h1_lg_1_288.jpg: Predicted in 0.165433 seconds.
tennis racket: 59%
(431.084961, 483.261139) (516.463013, 591.729919)
baseball bat: 31%
(416.245636, 461.067322) (531.970459, 588.224854)
person: 83%
(512.178833, 275.465332) (801.970215, 784.110413)
sub17_h1_lg_1_289.jpg: Predicted in 0.158290 seconds.
sports ball: 39%
(355.373138, 487.349579) (389.370422, 511.333893)
tennis racket: 48%
(410.798920, 479.356018) (513.446350, 587.421326)
baseball bat: 56%
(410.148987, 463.247620) (528.701111, 585.142029)
person: 84%
(509.058197, 268.260254) (802.269592, 791.974670)
sub17_h1_lg_1_290.jpg: Predicted in 0.158667 seconds.
sports ball: 42%
(357.130280, 487.112823) (392.471771, 513.772827)
baseball bat: 68%
(406.656433, 465.849274) (528.272278, 585.837891)
person: 83%
(504.768127, 269.956787) (807.812744, 789.548950)
sub17_h1_lg_1_291.jpg: Predicted in 0.155839 seconds.
sports ball: 46%
(358.589966, 487.502838) (391.850464, 514.783142)
baseball bat: 75%
(406.031433, 463.246155) (528.867126, 587.196167)
person: 82%
(511.933594, 270.621216) (804.302673, 786.115540)
sub17_h1_lg_1_292.jpg: Predicted in 0.156152 seconds.
sports ball: 52%
(361.516235, 490.090668) (393.243439, 516.720886)
baseball bat: 76%
(401.526031, 462.020630) (530.015015, 585.670044)
person: 82%
(513.621887, 275.768921) (808.083252, 790.226868)
sub17_h1_lg_1_293.jpg: Predicted in 0.155595 seconds.
sports ball: 47%
(365.175903, 491.364136) (394.622620, 517.059570)
baseball bat: 73%
(394.502075, 458.751648) (530.596252, 582.974548)
person: 82%
(516.134521, 275.902527) (803.664551, 787.435181)
sub17_h1_lg_1_294.jpg: Predicted in 0.157464 seconds.
sports ball: 43%
(367.270477, 492.688690) (396.049835, 516.372925)
baseball bat: 74%
(386.381165, 457.852112) (528.156372, 581.596619)
person: 82%
(512.603760, 276.605194) (804.026611, 781.721802)
sub17_h1_lg_1_295.jpg: Predicted in 0.158415 seconds.
sports ball: 46%
(368.475342, 493.292572) (394.726654, 517.477783)
baseball bat: 74%
(381.346954, 458.420563) (528.808838, 579.744263)
person: 82%
(510.902527, 274.940308) (803.755371, 785.150269)
sub17_h1_lg_1_296.jpg: Predicted in 0.155943 seconds.
sports ball: 47%
(369.644104, 495.289520) (396.927460, 519.509399)
baseball bat: 75%
(377.863739, 459.898590) (527.970154, 579.519653)
person: 82%
(509.141113, 273.910919) (803.818481, 783.924622)
sub17_h1_lg_1_297.jpg: Predicted in 0.158936 seconds.
sports ball: 43%
(372.477661, 495.900787) (396.820435, 518.139099)
baseball bat: 76%
(367.209778, 458.999756) (515.804077, 579.180664)
person: 83%
(505.780731, 273.383545) (802.503235, 782.988403)
sub17_h1_lg_1_298.jpg: Predicted in 0.177368 seconds.
sports ball: 35%
(374.391815, 498.971649) (398.119110, 520.387451)
baseball bat: 72%
(359.918488, 455.757904) (516.832275, 575.835327)
person: 83%
(507.867035, 271.356689) (796.807495, 782.209778)
sub17_h1_lg_1_299.jpg: Predicted in 0.164812 seconds.
baseball bat: 71%
(360.588867, 450.655975) (523.058838, 572.844360)
person: 84%
(517.061279, 270.700623) (796.234253, 783.363464)
sub17_h1_lg_1_300.jpg: Predicted in 0.216921 seconds.
baseball bat: 70%
(348.378540, 445.276428) (526.316040, 572.265442)
person: 84%
(525.905151, 272.310120) (794.120483, 782.845520)
sub17_h1_lg_1_301.jpg: Predicted in 0.156874 seconds.
baseball bat: 69%
(339.010040, 445.279053) (521.002380, 569.773254)
person: 83%
(529.501770, 271.609406) (791.690125, 781.018188)
sub17_h1_lg_1_302.jpg: Predicted in 0.156232 seconds.
baseball bat: 69%
(338.207489, 445.218628) (524.139771, 569.515991)
person: 83%
(531.948425, 268.365387) (789.452637, 779.404724)
sub17_h1_lg_1_303.jpg: Predicted in 0.158769 seconds.
baseball bat: 70%
(331.604767, 444.584412) (522.501160, 567.743469)
person: 85%
(523.283875, 272.295288) (790.580994, 780.266602)
sub17_h1_lg_1_304.jpg: Predicted in 0.165048 seconds.
baseball bat: 67%
(331.506775, 446.129608) (524.148743, 567.327393)
person: 84%
(520.975891, 270.897522) (792.378601, 777.272339)
sub17_h1_lg_1_305.jpg: Predicted in 0.156997 seconds.
baseball bat: 68%
(330.975281, 445.815063) (521.987122, 568.940552)
person: 84%
(515.923767, 271.466309) (790.930176, 779.285950)
sub17_h1_lg_1_306.jpg: Predicted in 0.157865 seconds.
baseball bat: 67%
(333.585663, 448.225464) (526.256714, 567.854919)
person: 84%
(511.336090, 273.968475) (790.736816, 778.158142)
sub17_h1_lg_1_307.jpg: Predicted in 0.162192 seconds.
baseball bat: 68%
(336.545349, 448.437683) (528.052612, 566.545288)
person: 85%
(510.302185, 272.499359) (790.024048, 782.357300)
sub17_h1_lg_1_308.jpg: Predicted in 0.158740 seconds.
baseball bat: 68%
(336.799316, 448.957855) (533.754028, 567.219543)
person: 85%
(510.998932, 272.308746) (788.080383, 781.768372)
sub17_h1_lg_1_309.jpg: Predicted in 0.163988 seconds.
baseball bat: 67%
(334.357117, 448.301880) (535.464539, 564.851013)
person: 85%
(508.477997, 266.705627) (789.076172, 779.043762)
sub17_h1_lg_1_310.jpg: Predicted in 0.158642 seconds.
baseball bat: 67%
(334.298035, 447.292358) (538.316650, 560.996704)
person: 85%
(502.576233, 262.399139) (788.701050, 780.694458)
sub17_h1_lg_1_311.jpg: Predicted in 0.157845 seconds.
baseball bat: 67%
(333.526611, 449.706482) (542.563477, 559.856567)
person: 84%
(503.405426, 265.533630) (791.452087, 779.269043)
sub17_h1_lg_1_312.jpg: Predicted in 0.159308 seconds.
baseball bat: 67%
(331.727692, 451.293549) (539.794434, 557.914856)
person: 85%
(505.405273, 261.424500) (789.629822, 777.900635)
sub17_h1_lg_1_313.jpg: Predicted in 0.156495 seconds.
baseball bat: 69%
(334.007507, 453.519806) (537.743530, 556.386169)
person: 85%
(507.227722, 263.144226) (791.034790, 779.277771)
sub17_h1_lg_1_314.jpg: Predicted in 0.160588 seconds.
baseball bat: 71%
(337.530273, 453.533630) (541.730225, 555.238525)
person: 84%
(495.956512, 262.934631) (787.254211, 781.276367)
sub17_h1_lg_1_315.jpg: Predicted in 0.157463 seconds.
baseball bat: 70%
(335.479675, 452.619873) (537.809509, 555.424072)
person: 85%
(497.608185, 264.115204) (790.251587, 780.588745)
sub17_h1_lg_1_316.jpg: Predicted in 0.166834 seconds.
baseball bat: 70%
(332.899902, 453.200256) (541.446167, 553.369995)
person: 85%
(497.419769, 263.299347) (787.188538, 778.721191)
sub17_h1_lg_1_317.jpg: Predicted in 0.155751 seconds.
baseball bat: 70%
(333.255493, 455.480438) (544.756348, 552.698181)
person: 84%
(497.226685, 265.436951) (787.050354, 777.053528)
sub17_h1_lg_1_318.jpg: Predicted in 0.156982 seconds.
baseball bat: 70%
(335.343842, 457.372711) (548.371155, 550.849487)
person: 84%
(496.309448, 264.091492) (786.944031, 776.145142)
sub17_h1_lg_1_319.jpg: Predicted in 0.157362 seconds.
baseball bat: 70%
(330.430664, 455.636017) (548.037964, 548.422791)
person: 83%
(492.245209, 260.526550) (783.257629, 776.599609)
sub17_h1_lg_1_320.jpg: Predicted in 0.160520 seconds.
sports ball: 32%
(320.779083, 467.990265) (357.334381, 495.693817)
baseball bat: 74%
(332.994537, 456.129700) (551.553711, 543.801819)
person: 82%
(492.094879, 260.477722) (785.509521, 775.905334)
sub17_h1_lg_1_321.jpg: Predicted in 0.155776 seconds.
sports ball: 36%
(318.235535, 465.539276) (350.427948, 495.214630)
baseball bat: 73%
(331.455200, 455.137848) (546.453674, 543.566040)
person: 81%
(482.157104, 261.340820) (784.493347, 774.898132)
