sub17_b3_sg_2_001.jpg: Predicted in 0.154268 seconds.
sub17_b3_sg_2_002.jpg: Predicted in 0.153837 seconds.
sub17_b3_sg_2_003.jpg: Predicted in 0.155239 seconds.
sub17_b3_sg_2_004.jpg: Predicted in 0.153481 seconds.
sub17_b3_sg_2_005.jpg: Predicted in 0.156349 seconds.
sub17_b3_sg_2_006.jpg: Predicted in 0.155225 seconds.
sub17_b3_sg_2_007.jpg: Predicted in 0.156709 seconds.
sub17_b3_sg_2_008.jpg: Predicted in 0.155233 seconds.
sub17_b3_sg_2_009.jpg: Predicted in 0.154028 seconds.
sub17_b3_sg_2_010.jpg: Predicted in 0.153605 seconds.
sub17_b3_sg_2_011.jpg: Predicted in 0.154840 seconds.
sub17_b3_sg_2_012.jpg: Predicted in 0.159724 seconds.
sub17_b3_sg_2_013.jpg: Predicted in 0.155149 seconds.
sub17_b3_sg_2_014.jpg: Predicted in 0.154310 seconds.
sub17_b3_sg_2_015.jpg: Predicted in 0.161113 seconds.
sub17_b3_sg_2_016.jpg: Predicted in 0.162996 seconds.
sub17_b3_sg_2_017.jpg: Predicted in 0.154943 seconds.
sub17_b3_sg_2_018.jpg: Predicted in 0.155985 seconds.
sub17_b3_sg_2_019.jpg: Predicted in 0.157156 seconds.
sub17_b3_sg_2_020.jpg: Predicted in 0.154695 seconds.
sub17_b3_sg_2_021.jpg: Predicted in 0.154666 seconds.
sub17_b3_sg_2_022.jpg: Predicted in 0.156752 seconds.
sub17_b3_sg_2_023.jpg: Predicted in 0.154410 seconds.
sub17_b3_sg_2_024.jpg: Predicted in 0.154625 seconds.
sub17_b3_sg_2_025.jpg: Predicted in 0.155446 seconds.
sub17_b3_sg_2_026.jpg: Predicted in 0.155792 seconds.
sub17_b3_sg_2_027.jpg: Predicted in 0.155569 seconds.
sub17_b3_sg_2_028.jpg: Predicted in 0.153933 seconds.
sub17_b3_sg_2_029.jpg: Predicted in 0.154805 seconds.
sub17_b3_sg_2_030.jpg: Predicted in 0.160422 seconds.
sub17_b3_sg_2_031.jpg: Predicted in 0.153182 seconds.
sub17_b3_sg_2_032.jpg: Predicted in 0.155827 seconds.
sub17_b3_sg_2_033.jpg: Predicted in 0.154891 seconds.
sub17_b3_sg_2_034.jpg: Predicted in 0.155828 seconds.
sub17_b3_sg_2_035.jpg: Predicted in 0.155015 seconds.
sub17_b3_sg_2_036.jpg: Predicted in 0.154161 seconds.
sub17_b3_sg_2_037.jpg: Predicted in 0.154586 seconds.
sub17_b3_sg_2_038.jpg: Predicted in 0.154835 seconds.
sub17_b3_sg_2_039.jpg: Predicted in 0.154341 seconds.
sub17_b3_sg_2_040.jpg: Predicted in 0.154344 seconds.
sub17_b3_sg_2_041.jpg: Predicted in 0.156295 seconds.
sub17_b3_sg_2_042.jpg: Predicted in 0.154716 seconds.
sub17_b3_sg_2_043.jpg: Predicted in 0.154867 seconds.
sub17_b3_sg_2_044.jpg: Predicted in 0.155129 seconds.
sub17_b3_sg_2_045.jpg: Predicted in 0.155123 seconds.
sub17_b3_sg_2_046.jpg: Predicted in 0.154709 seconds.
sub17_b3_sg_2_047.jpg: Predicted in 0.156008 seconds.
sub17_b3_sg_2_048.jpg: Predicted in 0.156011 seconds.
sub17_b3_sg_2_049.jpg: Predicted in 0.154879 seconds.
sub17_b3_sg_2_050.jpg: Predicted in 0.154337 seconds.
sub17_b3_sg_2_051.jpg: Predicted in 0.155301 seconds.
sub17_b3_sg_2_052.jpg: Predicted in 0.154771 seconds.
sub17_b3_sg_2_053.jpg: Predicted in 0.157385 seconds.
sub17_b3_sg_2_054.jpg: Predicted in 0.214604 seconds.
sub17_b3_sg_2_055.jpg: Predicted in 0.155557 seconds.
sub17_b3_sg_2_056.jpg: Predicted in 0.156024 seconds.
sub17_b3_sg_2_057.jpg: Predicted in 0.154933 seconds.
sub17_b3_sg_2_058.jpg: Predicted in 0.157047 seconds.
sub17_b3_sg_2_059.jpg: Predicted in 0.156773 seconds.
sub17_b3_sg_2_060.jpg: Predicted in 0.162085 seconds.
sub17_b3_sg_2_061.jpg: Predicted in 0.155355 seconds.
sub17_b3_sg_2_062.jpg: Predicted in 0.156954 seconds.
sub17_b3_sg_2_063.jpg: Predicted in 0.154034 seconds.
sub17_b3_sg_2_064.jpg: Predicted in 0.165891 seconds.
sub17_b3_sg_2_065.jpg: Predicted in 0.156684 seconds.
sub17_b3_sg_2_066.jpg: Predicted in 0.154858 seconds.
sub17_b3_sg_2_067.jpg: Predicted in 0.156713 seconds.
sub17_b3_sg_2_068.jpg: Predicted in 0.156965 seconds.
sub17_b3_sg_2_069.jpg: Predicted in 0.159977 seconds.
sub17_b3_sg_2_070.jpg: Predicted in 0.157708 seconds.
sub17_b3_sg_2_071.jpg: Predicted in 0.157040 seconds.
sub17_b3_sg_2_072.jpg: Predicted in 0.160667 seconds.
sub17_b3_sg_2_073.jpg: Predicted in 0.157582 seconds.
sub17_b3_sg_2_074.jpg: Predicted in 0.157248 seconds.
sub17_b3_sg_2_075.jpg: Predicted in 0.156158 seconds.
sub17_b3_sg_2_076.jpg: Predicted in 0.162726 seconds.
sub17_b3_sg_2_077.jpg: Predicted in 0.164816 seconds.
sub17_b3_sg_2_078.jpg: Predicted in 0.155534 seconds.
sub17_b3_sg_2_079.jpg: Predicted in 0.157011 seconds.
sub17_b3_sg_2_080.jpg: Predicted in 0.155919 seconds.
sub17_b3_sg_2_081.jpg: Predicted in 0.156234 seconds.
sub17_b3_sg_2_082.jpg: Predicted in 0.156024 seconds.
sub17_b3_sg_2_083.jpg: Predicted in 0.155779 seconds.
sub17_b3_sg_2_084.jpg: Predicted in 0.157270 seconds.
sub17_b3_sg_2_085.jpg: Predicted in 0.156985 seconds.
sub17_b3_sg_2_086.jpg: Predicted in 0.198398 seconds.
sub17_b3_sg_2_087.jpg: Predicted in 0.158977 seconds.
sub17_b3_sg_2_088.jpg: Predicted in 0.157751 seconds.
sub17_b3_sg_2_089.jpg: Predicted in 0.155243 seconds.
sub17_b3_sg_2_090.jpg: Predicted in 0.163443 seconds.
sub17_b3_sg_2_091.jpg: Predicted in 0.163597 seconds.
sub17_b3_sg_2_092.jpg: Predicted in 0.156866 seconds.
sub17_b3_sg_2_093.jpg: Predicted in 0.198777 seconds.
sub17_b3_sg_2_094.jpg: Predicted in 0.158426 seconds.
sub17_b3_sg_2_095.jpg: Predicted in 0.156798 seconds.
sub17_b3_sg_2_096.jpg: Predicted in 0.165449 seconds.
sub17_b3_sg_2_097.jpg: Predicted in 0.164638 seconds.
sub17_b3_sg_2_098.jpg: Predicted in 0.159171 seconds.
sub17_b3_sg_2_099.jpg: Predicted in 0.156703 seconds.
sub17_b3_sg_2_100.jpg: Predicted in 0.155625 seconds.
sub17_b3_sg_2_101.jpg: Predicted in 0.157345 seconds.
sub17_b3_sg_2_102.jpg: Predicted in 0.156053 seconds.
sub17_b3_sg_2_103.jpg: Predicted in 0.157996 seconds.
sub17_b3_sg_2_104.jpg: Predicted in 0.156419 seconds.
sub17_b3_sg_2_105.jpg: Predicted in 0.156499 seconds.
sub17_b3_sg_2_106.jpg: Predicted in 0.156072 seconds.
sub17_b3_sg_2_107.jpg: Predicted in 0.155199 seconds.
sub17_b3_sg_2_108.jpg: Predicted in 0.157074 seconds.
sub17_b3_sg_2_109.jpg: Predicted in 0.161201 seconds.
sub17_b3_sg_2_110.jpg: Predicted in 0.154740 seconds.
sub17_b3_sg_2_111.jpg: Predicted in 0.155655 seconds.
sub17_b3_sg_2_112.jpg: Predicted in 0.156104 seconds.
sub17_b3_sg_2_113.jpg: Predicted in 0.157732 seconds.
sub17_b3_sg_2_114.jpg: Predicted in 0.154809 seconds.
sub17_b3_sg_2_115.jpg: Predicted in 0.154308 seconds.
sub17_b3_sg_2_116.jpg: Predicted in 0.156659 seconds.
sub17_b3_sg_2_117.jpg: Predicted in 0.154569 seconds.
sub17_b3_sg_2_118.jpg: Predicted in 0.165332 seconds.
sub17_b3_sg_2_119.jpg: Predicted in 0.156833 seconds.
sub17_b3_sg_2_120.jpg: Predicted in 0.157365 seconds.
sub17_b3_sg_2_121.jpg: Predicted in 0.155205 seconds.
sub17_b3_sg_2_122.jpg: Predicted in 0.157407 seconds.
sub17_b3_sg_2_123.jpg: Predicted in 0.156795 seconds.
sub17_b3_sg_2_124.jpg: Predicted in 0.156450 seconds.
baseball bat: 32%
(852.826599, 5.528551) (987.737976, 173.234177)
sub17_b3_sg_2_125.jpg: Predicted in 0.155088 seconds.
baseball bat: 32%
(848.609436, 6.830353) (989.832336, 173.290726)
sub17_b3_sg_2_126.jpg: Predicted in 0.157826 seconds.
baseball bat: 32%
(848.047180, 6.504220) (989.108582, 172.507996)
sub17_b3_sg_2_127.jpg: Predicted in 0.154918 seconds.
baseball bat: 32%
(847.117371, 7.994681) (990.788208, 171.990753)
sub17_b3_sg_2_128.jpg: Predicted in 0.157934 seconds.
baseball bat: 30%
(847.869263, 7.025629) (989.682495, 172.999466)
sub17_b3_sg_2_129.jpg: Predicted in 0.155106 seconds.
sub17_b3_sg_2_130.jpg: Predicted in 0.156842 seconds.
sub17_b3_sg_2_131.jpg: Predicted in 0.157646 seconds.
sub17_b3_sg_2_132.jpg: Predicted in 0.156580 seconds.
sub17_b3_sg_2_133.jpg: Predicted in 0.155353 seconds.
sub17_b3_sg_2_134.jpg: Predicted in 0.157361 seconds.
sub17_b3_sg_2_135.jpg: Predicted in 0.155545 seconds.
sub17_b3_sg_2_136.jpg: Predicted in 0.155257 seconds.
sub17_b3_sg_2_137.jpg: Predicted in 0.164740 seconds.
sub17_b3_sg_2_138.jpg: Predicted in 0.164806 seconds.
sub17_b3_sg_2_139.jpg: Predicted in 0.156270 seconds.
sub17_b3_sg_2_140.jpg: Predicted in 0.155419 seconds.
sub17_b3_sg_2_141.jpg: Predicted in 0.157493 seconds.
sub17_b3_sg_2_142.jpg: Predicted in 0.157451 seconds.
sub17_b3_sg_2_143.jpg: Predicted in 0.156406 seconds.
sub17_b3_sg_2_144.jpg: Predicted in 0.155062 seconds.
baseball bat: 42%
(314.903809, 198.470398) (329.593353, 325.710724)
sub17_b3_sg_2_145.jpg: Predicted in 0.157390 seconds.
baseball bat: 33%
(308.887146, 153.677246) (329.351959, 262.145508)
baseball bat: 51%
(312.139038, 201.799698) (332.404053, 322.145111)
sub17_b3_sg_2_146.jpg: Predicted in 0.155151 seconds.
baseball bat: 35%
(307.970734, 153.192261) (331.090820, 263.171509)
baseball bat: 56%
(311.292236, 203.617065) (334.895874, 321.980011)
sub17_b3_sg_2_147.jpg: Predicted in 0.158196 seconds.
baseball bat: 41%
(306.178955, 152.213318) (331.291687, 263.583344)
baseball bat: 61%
(308.735413, 204.572845) (334.316193, 322.804108)
sub17_b3_sg_2_148.jpg: Predicted in 0.155365 seconds.
baseball bat: 44%
(303.493713, 151.662308) (331.020294, 263.463104)
baseball bat: 63%
(306.715698, 205.770889) (334.711456, 324.728485)
sub17_b3_sg_2_149.jpg: Predicted in 0.157129 seconds.
baseball bat: 46%
(303.395691, 150.421570) (332.364929, 264.140808)
baseball bat: 65%
(306.800873, 205.904129) (336.113861, 325.373230)
sub17_b3_sg_2_150.jpg: Predicted in 0.157486 seconds.
baseball bat: 48%
(301.717316, 149.953537) (334.734192, 266.573730)
baseball bat: 68%
(304.610504, 207.232986) (338.094971, 325.777863)
sub17_b3_sg_2_151.jpg: Predicted in 0.159193 seconds.
baseball bat: 48%
(300.714783, 148.751587) (334.574371, 267.255005)
baseball bat: 68%
(304.175476, 207.233261) (338.674561, 328.752838)
sub17_b3_sg_2_152.jpg: Predicted in 0.157128 seconds.
baseball bat: 48%
(300.942047, 149.728729) (336.741394, 268.640411)
baseball bat: 69%
(304.393036, 208.483917) (340.903290, 328.283813)
sub17_b3_sg_2_153.jpg: Predicted in 0.156264 seconds.
baseball bat: 47%
(300.329529, 150.008652) (338.842072, 269.652527)
baseball bat: 70%
(303.681152, 208.762177) (342.685577, 328.297241)
sub17_b3_sg_2_154.jpg: Predicted in 0.155871 seconds.
baseball bat: 49%
(299.789185, 151.059219) (342.653442, 270.901337)
baseball bat: 72%
(303.530518, 209.372360) (345.823364, 326.987366)
sub17_b3_sg_2_155.jpg: Predicted in 0.156111 seconds.
baseball bat: 49%
(297.805023, 151.633865) (346.154480, 272.208466)
baseball bat: 74%
(301.057251, 210.282089) (348.752167, 325.984619)
sub17_b3_sg_2_156.jpg: Predicted in 0.157009 seconds.
baseball bat: 48%
(296.937042, 151.796127) (348.974426, 273.340149)
baseball bat: 75%
(299.120941, 211.268127) (351.468964, 327.948212)
sub17_b3_sg_2_157.jpg: Predicted in 0.154148 seconds.
baseball bat: 46%
(296.166534, 152.507721) (354.164185, 274.133636)
baseball bat: 76%
(298.638550, 210.360535) (355.724609, 326.763306)
sub17_b3_sg_2_158.jpg: Predicted in 0.157668 seconds.
baseball bat: 44%
(293.228424, 152.621323) (352.528656, 274.931061)
baseball bat: 76%
(296.277771, 210.304230) (354.897247, 325.848938)
sub17_b3_sg_2_159.jpg: Predicted in 0.156555 seconds.
baseball bat: 42%
(292.585327, 153.904266) (355.929688, 275.217712)
baseball bat: 76%
(294.550751, 210.643234) (356.891510, 325.937286)
sub17_b3_sg_2_160.jpg: Predicted in 0.156669 seconds.
baseball bat: 41%
(290.269257, 153.981812) (357.159637, 276.080963)
baseball bat: 76%
(292.329376, 211.277191) (358.456696, 327.040619)
sub17_b3_sg_2_161.jpg: Predicted in 0.156392 seconds.
baseball bat: 39%
(289.904236, 155.090210) (358.907715, 276.329834)
baseball bat: 76%
(291.136536, 211.279877) (359.420868, 326.980194)
sub17_b3_sg_2_162.jpg: Predicted in 0.155289 seconds.
baseball bat: 36%
(288.238281, 157.711853) (361.819092, 276.915680)
baseball bat: 76%
(288.863037, 212.599396) (361.135345, 326.409943)
sub17_b3_sg_2_163.jpg: Predicted in 0.156339 seconds.
baseball bat: 34%
(287.767120, 158.903107) (363.952179, 279.156738)
baseball bat: 75%
(288.777222, 213.289368) (363.589722, 326.755371)
sub17_b3_sg_2_164.jpg: Predicted in 0.156806 seconds.
baseball bat: 75%
(286.627747, 214.399994) (363.838562, 325.829041)
sub17_b3_sg_2_165.jpg: Predicted in 0.156612 seconds.
baseball bat: 75%
(283.446289, 214.568649) (364.564575, 325.549530)
sub17_b3_sg_2_166.jpg: Predicted in 0.159011 seconds.
baseball bat: 73%
(283.090515, 216.053223) (365.782013, 327.309906)
sub17_b3_sg_2_167.jpg: Predicted in 0.161306 seconds.
baseball bat: 70%
(283.182800, 218.366211) (369.768646, 330.698151)
sub17_b3_sg_2_168.jpg: Predicted in 0.165581 seconds.
baseball bat: 67%
(282.561096, 220.355743) (372.123108, 333.653229)
sub17_b3_sg_2_169.jpg: Predicted in 0.157442 seconds.
baseball bat: 63%
(279.095062, 221.418671) (371.596924, 334.436981)
sub17_b3_sg_2_170.jpg: Predicted in 0.156877 seconds.
baseball bat: 64%
(266.963654, 220.546677) (380.799408, 337.080322)
sub17_b3_sg_2_171.jpg: Predicted in 0.155682 seconds.
baseball bat: 30%
(188.925812, 170.447540) (319.394592, 280.836945)
baseball bat: 65%
(263.740997, 222.363342) (380.659637, 340.018738)
sub17_b3_sg_2_172.jpg: Predicted in 0.155611 seconds.
baseball bat: 36%
(184.786346, 171.430176) (317.671631, 282.409546)
baseball bat: 67%
(262.587982, 223.174820) (381.356415, 342.732178)
sub17_b3_sg_2_173.jpg: Predicted in 0.157077 seconds.
baseball bat: 41%
(181.376694, 173.581070) (316.348511, 284.256470)
baseball bat: 66%
(261.378845, 224.586029) (381.849701, 343.731720)
sub17_b3_sg_2_174.jpg: Predicted in 0.165558 seconds.
baseball bat: 47%
(183.378036, 174.588593) (316.781219, 283.461792)
baseball bat: 67%
(260.026825, 225.471649) (383.579132, 340.563477)
sub17_b3_sg_2_175.jpg: Predicted in 0.156274 seconds.
baseball bat: 49%
(182.226639, 174.777679) (315.490845, 285.705719)
baseball bat: 68%
(259.640564, 225.762634) (384.160187, 342.327606)
sub17_b3_sg_2_176.jpg: Predicted in 0.154509 seconds.
baseball bat: 48%
(173.957275, 176.967316) (314.077728, 285.916016)
baseball bat: 67%
(256.944397, 226.505035) (385.336334, 341.410156)
sub17_b3_sg_2_177.jpg: Predicted in 0.155304 seconds.
baseball bat: 55%
(168.413437, 175.798691) (314.171173, 286.183289)
baseball bat: 69%
(251.501740, 223.941803) (386.260742, 343.217468)
sub17_b3_sg_2_178.jpg: Predicted in 0.156086 seconds.
baseball bat: 60%
(167.947067, 175.900833) (316.920593, 285.665436)
baseball bat: 71%
(248.675858, 223.755112) (387.216400, 341.908997)
sub17_b3_sg_2_179.jpg: Predicted in 0.156289 seconds.
baseball bat: 60%
(164.812500, 176.958755) (316.240326, 287.349304)
baseball bat: 71%
(248.138458, 224.508057) (387.666656, 343.918610)
sub17_b3_sg_2_180.jpg: Predicted in 0.166776 seconds.
baseball bat: 60%
(161.871521, 180.393326) (317.952942, 289.008179)
baseball bat: 71%
(249.501205, 227.561157) (388.890076, 345.908203)
sub17_b3_sg_2_181.jpg: Predicted in 0.155520 seconds.
baseball bat: 61%
(166.390320, 183.400070) (321.894867, 288.995636)
baseball bat: 73%
(251.299561, 229.898697) (388.034851, 345.608887)
sub17_b3_sg_2_182.jpg: Predicted in 0.157818 seconds.
baseball bat: 61%
(164.612228, 186.216766) (322.509125, 288.465424)
baseball bat: 73%
(251.683990, 231.669846) (389.348938, 344.245911)
sub17_b3_sg_2_183.jpg: Predicted in 0.155774 seconds.
baseball bat: 59%
(153.298752, 186.574738) (321.095428, 289.723145)
baseball bat: 73%
(248.316299, 231.676529) (391.083954, 347.067200)
sub17_b3_sg_2_184.jpg: Predicted in 0.154936 seconds.
baseball bat: 57%
(147.254669, 186.772873) (320.149414, 290.860779)
baseball bat: 74%
(245.584900, 231.545609) (393.255341, 347.521515)
sub17_b3_sg_2_185.jpg: Predicted in 0.158558 seconds.
baseball bat: 48%
(141.660934, 188.330078) (316.695160, 291.941162)
baseball bat: 72%
(243.700714, 232.110428) (394.545624, 346.745697)
sub17_b3_sg_2_186.jpg: Predicted in 0.163711 seconds.
baseball bat: 39%
(137.374100, 189.238144) (318.625732, 294.028442)
baseball bat: 72%
(241.661758, 233.714874) (397.330505, 347.328308)
sub17_b3_sg_2_187.jpg: Predicted in 0.163656 seconds.
baseball bat: 70%
(241.464111, 237.192307) (401.921051, 347.428986)
sub17_b3_sg_2_188.jpg: Predicted in 0.165206 seconds.
baseball bat: 65%
(242.854340, 239.168137) (403.261749, 347.409607)
sub17_b3_sg_2_189.jpg: Predicted in 0.156284 seconds.
baseball bat: 60%
(243.795685, 240.215515) (404.369995, 348.395142)
sub17_b3_sg_2_190.jpg: Predicted in 0.157841 seconds.
baseball bat: 60%
(242.994095, 244.389923) (409.037140, 348.412994)
sub17_b3_sg_2_191.jpg: Predicted in 0.155411 seconds.
baseball bat: 60%
(239.063904, 245.798615) (411.253326, 348.771027)
sub17_b3_sg_2_192.jpg: Predicted in 0.156287 seconds.
baseball bat: 59%
(237.516907, 246.096237) (415.218689, 350.296204)
sub17_b3_sg_2_193.jpg: Predicted in 0.157224 seconds.
baseball bat: 40%
(241.578278, 245.249527) (413.897797, 351.155151)
sub17_b3_sg_2_194.jpg: Predicted in 0.156510 seconds.
sub17_b3_sg_2_195.jpg: Predicted in 0.154917 seconds.
baseball bat: 48%
(244.654739, 260.768341) (420.666901, 366.318420)
sub17_b3_sg_2_196.jpg: Predicted in 0.155446 seconds.
baseball bat: 53%
(246.309235, 264.188416) (425.520203, 365.645569)
sub17_b3_sg_2_197.jpg: Predicted in 0.155515 seconds.
baseball bat: 48%
(246.032303, 264.882507) (428.461029, 365.864441)
sub17_b3_sg_2_198.jpg: Predicted in 0.156086 seconds.
baseball bat: 50%
(247.330490, 266.827850) (432.271942, 364.401978)
sub17_b3_sg_2_199.jpg: Predicted in 0.157576 seconds.
baseball bat: 48%
(246.439072, 268.931000) (437.033234, 362.518707)
sub17_b3_sg_2_200.jpg: Predicted in 0.158574 seconds.
baseball bat: 45%
(252.244507, 272.696655) (441.246857, 362.140106)
sub17_b3_sg_2_201.jpg: Predicted in 0.154769 seconds.
baseball bat: 47%
(254.865128, 276.921265) (445.493622, 361.314148)
sub17_b3_sg_2_202.jpg: Predicted in 0.165246 seconds.
baseball bat: 50%
(254.087570, 281.066376) (447.149384, 359.411530)
sub17_b3_sg_2_203.jpg: Predicted in 0.157282 seconds.
baseball bat: 49%
(254.734314, 284.858490) (448.552216, 358.209778)
sub17_b3_sg_2_204.jpg: Predicted in 0.154829 seconds.
baseball bat: 41%
(254.552155, 286.333069) (450.033508, 358.475037)
sub17_b3_sg_2_205.jpg: Predicted in 0.156188 seconds.
baseball bat: 43%
(252.120956, 288.093231) (451.258392, 357.586823)
sub17_b3_sg_2_206.jpg: Predicted in 0.158295 seconds.
baseball bat: 43%
(250.421143, 288.889618) (453.856964, 357.517517)
sub17_b3_sg_2_207.jpg: Predicted in 0.155922 seconds.
sub17_b3_sg_2_208.jpg: Predicted in 0.157345 seconds.
sub17_b3_sg_2_209.jpg: Predicted in 0.159521 seconds.
baseball bat: 36%
(248.530731, 292.491760) (463.955383, 354.622101)
sub17_b3_sg_2_210.jpg: Predicted in 0.156310 seconds.
sub17_b3_sg_2_211.jpg: Predicted in 0.156309 seconds.
sub17_b3_sg_2_212.jpg: Predicted in 0.157618 seconds.
sub17_b3_sg_2_213.jpg: Predicted in 0.155667 seconds.
baseball bat: 30%
(251.178741, 293.828979) (466.595612, 348.018127)
sub17_b3_sg_2_214.jpg: Predicted in 0.157106 seconds.
sub17_b3_sg_2_215.jpg: Predicted in 0.157635 seconds.
sub17_b3_sg_2_216.jpg: Predicted in 0.155389 seconds.
baseball bat: 40%
(256.863922, 307.026520) (466.633453, 349.628204)
sub17_b3_sg_2_217.jpg: Predicted in 0.155728 seconds.
baseball bat: 48%
(260.857788, 311.662689) (463.257141, 350.160187)
sub17_b3_sg_2_218.jpg: Predicted in 0.155932 seconds.
baseball bat: 61%
(257.536133, 316.523865) (465.712311, 351.928741)
sub17_b3_sg_2_219.jpg: Predicted in 0.157858 seconds.
baseball bat: 59%
(258.300110, 319.130371) (464.020660, 352.859741)
sub17_b3_sg_2_220.jpg: Predicted in 0.155828 seconds.
baseball bat: 52%
(253.792480, 322.293365) (463.325684, 352.971924)
sub17_b3_sg_2_221.jpg: Predicted in 0.158434 seconds.
baseball bat: 59%
(253.786255, 327.702515) (471.749084, 352.288330)
sub17_b3_sg_2_222.jpg: Predicted in 0.156539 seconds.
baseball bat: 44%
(253.129013, 329.765869) (474.577209, 351.112000)
sub17_b3_sg_2_223.jpg: Predicted in 0.161445 seconds.
baseball bat: 50%
(253.014801, 333.655396) (477.319122, 353.859589)
sub17_b3_sg_2_224.jpg: Predicted in 0.155363 seconds.
baseball bat: 41%
(249.120132, 337.849396) (477.225861, 355.075012)
sub17_b3_sg_2_225.jpg: Predicted in 0.155471 seconds.
baseball bat: 40%
(250.533691, 343.894653) (476.622925, 356.941254)
sub17_b3_sg_2_226.jpg: Predicted in 0.157454 seconds.
sub17_b3_sg_2_227.jpg: Predicted in 0.158256 seconds.
sub17_b3_sg_2_228.jpg: Predicted in 0.156752 seconds.
sub17_b3_sg_2_229.jpg: Predicted in 0.157674 seconds.
sub17_b3_sg_2_230.jpg: Predicted in 0.159970 seconds.
sub17_b3_sg_2_231.jpg: Predicted in 0.154767 seconds.
sub17_b3_sg_2_232.jpg: Predicted in 0.156753 seconds.
sub17_b3_sg_2_233.jpg: Predicted in 0.155593 seconds.
sub17_b3_sg_2_234.jpg: Predicted in 0.157303 seconds.
sub17_b3_sg_2_235.jpg: Predicted in 0.157138 seconds.
sub17_b3_sg_2_236.jpg: Predicted in 0.166350 seconds.
baseball bat: 55%
(333.995972, 336.035278) (520.590515, 383.181305)
sub17_b3_sg_2_237.jpg: Predicted in 0.155798 seconds.
baseball bat: 59%
(339.255585, 335.108948) (517.626770, 388.007233)
sub17_b3_sg_2_238.jpg: Predicted in 0.155404 seconds.
baseball bat: 51%
(344.209015, 334.427795) (522.006653, 391.291443)
sub17_b3_sg_2_239.jpg: Predicted in 0.166811 seconds.
baseball bat: 54%
(306.442902, 346.382690) (509.038452, 395.640442)
sub17_b3_sg_2_240.jpg: Predicted in 0.157546 seconds.
baseball bat: 59%
(302.842773, 346.077698) (511.521912, 398.650208)
sub17_b3_sg_2_241.jpg: Predicted in 0.155845 seconds.
baseball bat: 53%
(300.990753, 344.580017) (516.225586, 401.586395)
sub17_b3_sg_2_242.jpg: Predicted in 0.155427 seconds.
baseball bat: 34%
(295.415039, 343.734070) (525.033508, 404.955383)
sub17_b3_sg_2_243.jpg: Predicted in 0.155257 seconds.
sub17_b3_sg_2_244.jpg: Predicted in 0.157950 seconds.
sub17_b3_sg_2_245.jpg: Predicted in 0.157507 seconds.
sub17_b3_sg_2_246.jpg: Predicted in 0.157799 seconds.
sub17_b3_sg_2_247.jpg: Predicted in 0.156386 seconds.
sub17_b3_sg_2_248.jpg: Predicted in 0.156826 seconds.
sub17_b3_sg_2_249.jpg: Predicted in 0.156475 seconds.
baseball bat: 38%
(338.405579, 340.531342) (514.364014, 421.194092)
sub17_b3_sg_2_250.jpg: Predicted in 0.157029 seconds.
baseball bat: 54%
(342.390015, 340.573730) (512.358459, 427.235901)
sub17_b3_sg_2_251.jpg: Predicted in 0.157261 seconds.
baseball bat: 68%
(350.137360, 338.802887) (509.128754, 433.993317)
sub17_b3_sg_2_252.jpg: Predicted in 0.157187 seconds.
baseball bat: 67%
(355.606964, 339.096497) (510.950348, 434.909241)
sub17_b3_sg_2_253.jpg: Predicted in 0.156813 seconds.
baseball bat: 66%
(363.136597, 338.837219) (509.424591, 444.333496)
sub17_b3_sg_2_254.jpg: Predicted in 0.157877 seconds.
baseball bat: 70%
(369.641693, 339.290466) (509.826294, 442.407654)
sub17_b3_sg_2_255.jpg: Predicted in 0.158415 seconds.
baseball bat: 60%
(377.244568, 339.437927) (512.091736, 441.426453)
sub17_b3_sg_2_256.jpg: Predicted in 0.157358 seconds.
baseball bat: 60%
(383.333862, 338.582550) (513.618164, 447.312897)
sub17_b3_sg_2_257.jpg: Predicted in 0.157567 seconds.
baseball bat: 67%
(392.389771, 337.752808) (514.004028, 451.799652)
sub17_b3_sg_2_258.jpg: Predicted in 0.157889 seconds.
baseball bat: 67%
(397.285736, 336.925659) (513.514832, 458.637360)
sub17_b3_sg_2_259.jpg: Predicted in 0.155041 seconds.
baseball bat: 66%
(412.584808, 339.003906) (510.921722, 455.572510)
sub17_b3_sg_2_260.jpg: Predicted in 0.155804 seconds.
baseball bat: 70%
(417.205475, 338.282898) (507.649048, 454.783203)
sub17_b3_sg_2_261.jpg: Predicted in 0.157415 seconds.
baseball bat: 63%
(429.265137, 331.260468) (503.775085, 452.085052)
sub17_b3_sg_2_262.jpg: Predicted in 0.157840 seconds.
baseball bat: 72%
(430.992493, 337.251465) (503.733215, 462.676758)
sub17_b3_sg_2_263.jpg: Predicted in 0.156348 seconds.
baseball bat: 71%
(436.108063, 335.480499) (502.380402, 467.016785)
sub17_b3_sg_2_264.jpg: Predicted in 0.157287 seconds.
baseball bat: 73%
(440.394806, 338.299683) (503.471100, 465.706726)
sub17_b3_sg_2_265.jpg: Predicted in 0.158228 seconds.
baseball bat: 70%
(449.675415, 336.244446) (500.186188, 465.081543)
sub17_b3_sg_2_266.jpg: Predicted in 0.156105 seconds.
baseball bat: 69%
(453.891388, 335.959717) (501.595062, 465.028870)
sub17_b3_sg_2_267.jpg: Predicted in 0.157776 seconds.
baseball bat: 69%
(455.543610, 337.551910) (503.900879, 467.425201)
sub17_b3_sg_2_268.jpg: Predicted in 0.162146 seconds.
baseball bat: 67%
(460.233826, 335.101379) (504.577209, 466.620575)
sub17_b3_sg_2_269.jpg: Predicted in 0.156571 seconds.
baseball bat: 36%
(469.234802, 321.679840) (500.079163, 452.873932)
sub17_b3_sg_2_270.jpg: Predicted in 0.156244 seconds.
baseball bat: 38%
(462.045685, 297.578094) (504.868073, 396.442322)
sub17_b3_sg_2_271.jpg: Predicted in 0.155844 seconds.
baseball bat: 32%
(465.802277, 294.663391) (505.899689, 399.581482)
sub17_b3_sg_2_272.jpg: Predicted in 0.155623 seconds.
baseball bat: 32%
(496.132050, 333.695251) (512.740662, 465.147064)
sub17_b3_sg_2_273.jpg: Predicted in 0.159103 seconds.
sub17_b3_sg_2_274.jpg: Predicted in 0.155008 seconds.
baseball bat: 32%
(459.220154, 293.154541) (503.027924, 383.837463)
sub17_b3_sg_2_275.jpg: Predicted in 0.156461 seconds.
sub17_b3_sg_2_276.jpg: Predicted in 0.157306 seconds.
sub17_b3_sg_2_277.jpg: Predicted in 0.157578 seconds.
baseball bat: 36%
(449.941986, 292.423859) (508.420532, 383.555786)
sub17_b3_sg_2_278.jpg: Predicted in 0.155760 seconds.
sub17_b3_sg_2_279.jpg: Predicted in 0.160598 seconds.
baseball bat: 32%
(449.139160, 293.379517) (508.127075, 387.010132)
sub17_b3_sg_2_280.jpg: Predicted in 0.169450 seconds.
sub17_b3_sg_2_281.jpg: Predicted in 0.154675 seconds.
sub17_b3_sg_2_282.jpg: Predicted in 0.165164 seconds.
baseball bat: 36%
(483.063812, 322.221069) (593.946960, 483.924408)
sub17_b3_sg_2_283.jpg: Predicted in 0.157688 seconds.
sub17_b3_sg_2_284.jpg: Predicted in 0.156039 seconds.
baseball bat: 48%
(483.276764, 325.179688) (615.039307, 485.706696)
sub17_b3_sg_2_285.jpg: Predicted in 0.157994 seconds.
baseball bat: 57%
(482.725281, 326.970337) (612.095581, 484.870483)
sub17_b3_sg_2_286.jpg: Predicted in 0.156275 seconds.
baseball bat: 44%
(483.256104, 325.827209) (617.651550, 482.128143)
sub17_b3_sg_2_287.jpg: Predicted in 0.156394 seconds.
sub17_b3_sg_2_288.jpg: Predicted in 0.157032 seconds.
sub17_b3_sg_2_289.jpg: Predicted in 0.157169 seconds.
sub17_b3_sg_2_290.jpg: Predicted in 0.155820 seconds.
sub17_b3_sg_2_291.jpg: Predicted in 0.156337 seconds.
sub17_b3_sg_2_292.jpg: Predicted in 0.157099 seconds.
sub17_b3_sg_2_293.jpg: Predicted in 0.156361 seconds.
sub17_b3_sg_2_294.jpg: Predicted in 0.154514 seconds.
sub17_b3_sg_2_295.jpg: Predicted in 0.162243 seconds.
sub17_b3_sg_2_296.jpg: Predicted in 0.157382 seconds.
sub17_b3_sg_2_297.jpg: Predicted in 0.154765 seconds.
sub17_b3_sg_2_298.jpg: Predicted in 0.155514 seconds.
sub17_b3_sg_2_299.jpg: Predicted in 0.155580 seconds.
sub17_b3_sg_2_300.jpg: Predicted in 0.156000 seconds.
sub17_b3_sg_2_301.jpg: Predicted in 0.155800 seconds.
sub17_b3_sg_2_302.jpg: Predicted in 0.156041 seconds.
sub17_b3_sg_2_303.jpg: Predicted in 0.157253 seconds.
sub17_b3_sg_2_304.jpg: Predicted in 0.158661 seconds.
sub17_b3_sg_2_305.jpg: Predicted in 0.155839 seconds.
sub17_b3_sg_2_306.jpg: Predicted in 0.157564 seconds.
sub17_b3_sg_2_307.jpg: Predicted in 0.156555 seconds.
sub17_b3_sg_2_308.jpg: Predicted in 0.155539 seconds.
sub17_b3_sg_2_309.jpg: Predicted in 0.158139 seconds.
sub17_b3_sg_2_310.jpg: Predicted in 0.155390 seconds.
sub17_b3_sg_2_311.jpg: Predicted in 0.156160 seconds.
sub17_b3_sg_2_312.jpg: Predicted in 0.157434 seconds.
sub17_b3_sg_2_313.jpg: Predicted in 0.155404 seconds.
sub17_b3_sg_2_314.jpg: Predicted in 0.156203 seconds.
sub17_b3_sg_2_315.jpg: Predicted in 0.157180 seconds.
sub17_b3_sg_2_316.jpg: Predicted in 0.157714 seconds.
sub17_b3_sg_2_317.jpg: Predicted in 0.157220 seconds.
sub17_b3_sg_2_318.jpg: Predicted in 0.167829 seconds.
sub17_b3_sg_2_319.jpg: Predicted in 0.155687 seconds.
sub17_b3_sg_2_320.jpg: Predicted in 0.155537 seconds.
sub17_b3_sg_2_321.jpg: Predicted in 0.156357 seconds.
