sub16_h3_sg_2_001.jpg: Predicted in 0.166099 seconds.
baseball bat: 39%
(782.225586, 161.242981) (831.458191, 368.064758)
person: 80%
(616.092163, 213.855316) (869.911072, 790.371826)
sub16_h3_sg_2_002.jpg: Predicted in 0.156967 seconds.
baseball bat: 35%
(793.205688, 159.054153) (826.173462, 286.827698)
baseball bat: 44%
(783.134705, 154.955887) (831.921265, 370.894562)
person: 80%
(611.673767, 210.632370) (874.734619, 792.059265)
sub16_h3_sg_2_003.jpg: Predicted in 0.159140 seconds.
baseball bat: 39%
(785.069092, 163.759964) (831.406128, 362.244202)
person: 80%
(615.274231, 206.500824) (874.290771, 794.396851)
sub16_h3_sg_2_004.jpg: Predicted in 0.162003 seconds.
baseball bat: 49%
(785.853210, 153.119583) (831.154724, 370.627167)
person: 79%
(613.872620, 210.599060) (876.269287, 791.144714)
sub16_h3_sg_2_005.jpg: Predicted in 0.156238 seconds.
baseball bat: 30%
(793.415283, 167.188232) (823.697144, 285.468231)
baseball bat: 44%
(784.019104, 157.432312) (830.360779, 370.228424)
person: 80%
(611.329285, 210.720657) (872.887329, 791.726074)
sub16_h3_sg_2_006.jpg: Predicted in 0.154819 seconds.
baseball bat: 43%
(785.113464, 158.135498) (831.193909, 367.889038)
person: 79%
(611.706238, 215.705322) (871.531067, 786.753601)
sub16_h3_sg_2_007.jpg: Predicted in 0.157833 seconds.
baseball bat: 44%
(783.808655, 158.653915) (831.000427, 372.883331)
person: 80%
(610.168030, 214.565826) (869.167175, 788.849854)
sub16_h3_sg_2_008.jpg: Predicted in 0.155427 seconds.
baseball bat: 45%
(784.855408, 159.129822) (832.941528, 371.244690)
person: 80%
(608.853149, 218.567413) (868.447449, 787.186584)
sub16_h3_sg_2_009.jpg: Predicted in 0.155439 seconds.
baseball bat: 40%
(784.114685, 162.583832) (832.753418, 367.352356)
person: 80%
(611.766418, 215.522171) (868.780579, 788.927795)
sub16_h3_sg_2_010.jpg: Predicted in 0.155623 seconds.
baseball bat: 39%
(784.119141, 165.212158) (832.551575, 366.906067)
person: 81%
(610.076050, 214.694977) (872.588013, 790.917847)
sub16_h3_sg_2_011.jpg: Predicted in 0.155986 seconds.
baseball bat: 41%
(783.887817, 165.289032) (832.388306, 367.132996)
person: 80%
(609.238464, 215.081116) (867.844360, 789.743896)
sub16_h3_sg_2_012.jpg: Predicted in 0.155857 seconds.
baseball bat: 30%
(792.672058, 168.585007) (825.324158, 280.187378)
baseball bat: 42%
(783.149414, 164.616821) (830.916260, 365.048492)
person: 80%
(610.801636, 212.768143) (871.398376, 789.710144)
sub16_h3_sg_2_013.jpg: Predicted in 0.156835 seconds.
baseball bat: 42%
(785.301697, 162.273636) (831.476868, 364.214111)
person: 80%
(615.706970, 210.246185) (871.489075, 790.525146)
sub16_h3_sg_2_014.jpg: Predicted in 0.155879 seconds.
baseball bat: 45%
(785.283569, 160.578400) (832.401794, 366.231262)
person: 80%
(615.546692, 212.317749) (871.634521, 789.026001)
sub16_h3_sg_2_015.jpg: Predicted in 0.156094 seconds.
baseball bat: 49%
(783.314514, 157.756470) (832.144470, 371.043457)
person: 79%
(610.855652, 215.283279) (869.749817, 787.376526)
sub16_h3_sg_2_016.jpg: Predicted in 0.157225 seconds.
baseball bat: 45%
(785.382324, 158.409042) (832.681946, 369.322937)
person: 79%
(610.711060, 211.833618) (867.741821, 790.892639)
sub16_h3_sg_2_017.jpg: Predicted in 0.165425 seconds.
baseball bat: 42%
(785.618103, 163.866180) (833.153564, 367.821716)
person: 80%
(609.259033, 216.972107) (866.886414, 787.428894)
sub16_h3_sg_2_018.jpg: Predicted in 0.157118 seconds.
baseball bat: 38%
(786.042542, 170.341324) (836.011292, 364.658417)
person: 80%
(610.081909, 213.290146) (865.371094, 791.217712)
sub16_h3_sg_2_019.jpg: Predicted in 0.158162 seconds.
baseball bat: 37%
(785.031067, 168.365540) (835.716797, 365.805145)
person: 80%
(608.391174, 215.420502) (865.542664, 788.183594)
sub16_h3_sg_2_020.jpg: Predicted in 0.154962 seconds.
baseball bat: 43%
(784.483948, 163.064575) (834.262817, 367.202332)
person: 79%
(609.555237, 213.256042) (864.849060, 789.381653)
sub16_h3_sg_2_021.jpg: Predicted in 0.155751 seconds.
baseball bat: 44%
(784.847351, 162.990555) (833.664612, 368.347412)
person: 79%
(602.511169, 216.869949) (867.067688, 786.413147)
sub16_h3_sg_2_022.jpg: Predicted in 0.156256 seconds.
baseball bat: 46%
(785.449524, 157.585037) (833.437195, 372.030975)
person: 79%
(604.656372, 212.149475) (867.364502, 789.305725)
sub16_h3_sg_2_023.jpg: Predicted in 0.156961 seconds.
baseball bat: 47%
(783.477844, 151.690430) (829.869812, 378.092896)
person: 80%
(610.062134, 207.682388) (867.185181, 790.462158)
sub16_h3_sg_2_024.jpg: Predicted in 0.155182 seconds.
baseball bat: 50%
(785.381409, 155.340439) (831.701111, 373.523743)
person: 80%
(610.142090, 211.729126) (868.282715, 787.883484)
sub16_h3_sg_2_025.jpg: Predicted in 0.155165 seconds.
baseball bat: 50%
(786.253906, 156.938416) (832.245972, 375.558411)
person: 80%
(608.363464, 215.741989) (866.860229, 787.376221)
sub16_h3_sg_2_026.jpg: Predicted in 0.155636 seconds.
baseball bat: 46%
(787.990234, 157.861847) (832.973938, 374.096161)
person: 80%
(607.290527, 212.471985) (865.980469, 789.940613)
sub16_h3_sg_2_027.jpg: Predicted in 0.155996 seconds.
baseball bat: 42%
(789.619324, 161.335892) (836.555298, 371.688721)
person: 80%
(606.508423, 216.374725) (866.532349, 788.351746)
sub16_h3_sg_2_028.jpg: Predicted in 0.161944 seconds.
baseball bat: 41%
(788.368958, 159.791260) (835.887512, 373.959076)
person: 81%
(604.810181, 215.358353) (869.028931, 789.910034)
sub16_h3_sg_2_029.jpg: Predicted in 0.155080 seconds.
baseball bat: 41%
(788.669617, 156.789108) (834.509521, 375.194550)
person: 80%
(611.295105, 216.192368) (866.296875, 788.964233)
sub16_h3_sg_2_030.jpg: Predicted in 0.164227 seconds.
baseball bat: 40%
(787.096619, 159.628326) (832.855774, 372.326477)
person: 81%
(608.386719, 215.826202) (863.371887, 788.828186)
sub16_h3_sg_2_031.jpg: Predicted in 0.157192 seconds.
baseball bat: 38%
(787.281006, 162.153580) (833.947510, 369.492157)
person: 80%
(606.044312, 214.988068) (865.213318, 788.143250)
sub16_h3_sg_2_032.jpg: Predicted in 0.156148 seconds.
baseball bat: 45%
(787.010437, 157.682236) (832.927612, 372.458649)
person: 79%
(609.427063, 217.530899) (864.683350, 787.134583)
sub16_h3_sg_2_033.jpg: Predicted in 0.155268 seconds.
baseball bat: 46%
(786.981506, 146.009186) (831.510437, 381.552429)
person: 80%
(611.690186, 215.171005) (865.734619, 787.529053)
sub16_h3_sg_2_034.jpg: Predicted in 0.157497 seconds.
baseball bat: 47%
(786.566711, 146.820923) (831.900391, 381.072571)
person: 81%
(608.172241, 212.923935) (869.834351, 789.627502)
sub16_h3_sg_2_035.jpg: Predicted in 0.155364 seconds.
baseball bat: 49%
(789.926331, 151.069046) (833.789490, 378.840424)
person: 80%
(609.825134, 213.209824) (864.007690, 791.489685)
sub16_h3_sg_2_036.jpg: Predicted in 0.155160 seconds.
baseball bat: 46%
(788.560791, 155.414627) (835.183105, 375.514801)
person: 80%
(608.647949, 212.825775) (862.428467, 791.817749)
sub16_h3_sg_2_037.jpg: Predicted in 0.163881 seconds.
baseball bat: 40%
(786.010803, 159.516235) (831.422363, 374.288849)
person: 80%
(609.656860, 216.830231) (861.723450, 788.522949)
sub16_h3_sg_2_038.jpg: Predicted in 0.161608 seconds.
baseball bat: 40%
(787.172241, 156.836914) (833.908081, 372.858215)
person: 80%
(613.198669, 214.519089) (857.538635, 790.304565)
sub16_h3_sg_2_039.jpg: Predicted in 0.163838 seconds.
baseball bat: 40%
(786.617371, 159.503021) (832.354065, 368.903687)
person: 80%
(612.521545, 215.248138) (859.227295, 789.885132)
sub16_h3_sg_2_040.jpg: Predicted in 0.156684 seconds.
baseball bat: 39%
(786.035706, 161.480698) (830.595032, 367.066345)
person: 80%
(611.197083, 214.046814) (861.924683, 789.594238)
sub16_h3_sg_2_041.jpg: Predicted in 0.155662 seconds.
baseball bat: 39%
(786.516663, 165.034866) (832.282776, 364.550720)
person: 79%
(611.575806, 211.553696) (861.578796, 792.532104)
sub16_h3_sg_2_042.jpg: Predicted in 0.157973 seconds.
baseball bat: 41%
(785.800903, 160.428253) (828.685059, 368.550568)
person: 79%
(608.641968, 213.484863) (864.979553, 789.560486)
sub16_h3_sg_2_043.jpg: Predicted in 0.156985 seconds.
baseball bat: 41%
(786.270508, 162.742538) (831.437317, 364.733917)
person: 80%
(606.798889, 212.604706) (864.398438, 789.755249)
sub16_h3_sg_2_044.jpg: Predicted in 0.155515 seconds.
baseball bat: 42%
(786.239746, 160.289597) (832.334351, 369.342590)
person: 80%
(606.598450, 213.222641) (866.380188, 790.376892)
sub16_h3_sg_2_045.jpg: Predicted in 0.157278 seconds.
baseball bat: 45%
(787.154297, 158.797363) (830.498169, 373.570526)
person: 80%
(605.826965, 215.902359) (861.976257, 791.966980)
sub16_h3_sg_2_046.jpg: Predicted in 0.156694 seconds.
baseball bat: 40%
(787.900574, 158.694199) (831.066223, 373.258087)
person: 80%
(606.957275, 217.066650) (862.037476, 792.131042)
sub16_h3_sg_2_047.jpg: Predicted in 0.164772 seconds.
baseball bat: 39%
(786.847046, 169.306015) (831.604187, 363.464722)
person: 79%
(606.798828, 216.822556) (861.055481, 793.518066)
sub16_h3_sg_2_048.jpg: Predicted in 0.165081 seconds.
baseball bat: 37%
(787.880920, 171.503387) (832.053772, 362.407074)
person: 80%
(607.926575, 220.296005) (859.914612, 789.072876)
sub16_h3_sg_2_049.jpg: Predicted in 0.157151 seconds.
baseball bat: 37%
(788.365601, 166.989166) (831.727600, 369.195679)
person: 80%
(610.093506, 217.870911) (862.115356, 792.157166)
sub16_h3_sg_2_050.jpg: Predicted in 0.157238 seconds.
baseball bat: 40%
(788.290588, 163.603790) (830.985413, 370.171265)
person: 80%
(606.437012, 215.307327) (861.551392, 791.209595)
sub16_h3_sg_2_051.jpg: Predicted in 0.158751 seconds.
baseball bat: 38%
(789.563171, 156.426208) (831.084229, 377.715515)
person: 80%
(605.831665, 217.163773) (858.156250, 791.596130)
sub16_h3_sg_2_052.jpg: Predicted in 0.157728 seconds.
baseball bat: 40%
(790.795837, 154.216949) (832.320496, 381.790741)
person: 81%
(608.364441, 217.656296) (861.381226, 789.305054)
sub16_h3_sg_2_053.jpg: Predicted in 0.157762 seconds.
baseball bat: 42%
(790.112183, 152.727188) (830.124512, 382.451843)
person: 81%
(607.757812, 211.153763) (860.315430, 794.076111)
sub16_h3_sg_2_054.jpg: Predicted in 0.155597 seconds.
baseball bat: 45%
(791.379150, 155.062408) (832.093323, 380.560669)
person: 81%
(606.305969, 214.928360) (857.638733, 791.059631)
sub16_h3_sg_2_055.jpg: Predicted in 0.156182 seconds.
baseball bat: 42%
(789.893921, 154.819626) (831.774170, 380.169800)
person: 80%
(611.584961, 216.287872) (859.200867, 792.016907)
sub16_h3_sg_2_056.jpg: Predicted in 0.154721 seconds.
baseball bat: 35%
(787.687622, 156.149429) (830.471985, 379.078308)
person: 80%
(610.732849, 218.686325) (854.951965, 792.231323)
sub16_h3_sg_2_057.jpg: Predicted in 0.155639 seconds.
baseball bat: 32%
(787.535889, 158.253281) (828.874207, 376.156586)
person: 80%
(611.597534, 217.642181) (854.276306, 793.978638)
sub16_h3_sg_2_058.jpg: Predicted in 0.158692 seconds.
baseball bat: 34%
(788.797913, 160.576111) (832.381897, 375.526123)
person: 80%
(610.254822, 216.634583) (855.775757, 794.434631)
sub16_h3_sg_2_059.jpg: Predicted in 0.161001 seconds.
baseball bat: 34%
(790.276611, 162.046829) (831.038208, 374.559967)
person: 80%
(613.407959, 217.583282) (856.782776, 793.834229)
sub16_h3_sg_2_060.jpg: Predicted in 0.155552 seconds.
baseball bat: 33%
(788.072205, 159.011032) (830.232361, 373.546753)
person: 81%
(614.250488, 218.647217) (858.185547, 792.996094)
sub16_h3_sg_2_061.jpg: Predicted in 0.155566 seconds.
baseball bat: 33%
(786.710571, 156.316925) (830.845886, 376.800903)
person: 80%
(615.492432, 217.445068) (854.467896, 792.354919)
sub16_h3_sg_2_062.jpg: Predicted in 0.155239 seconds.
baseball bat: 33%
(788.143188, 153.184433) (830.910950, 378.187347)
person: 81%
(611.466614, 216.417450) (855.403076, 793.035095)
sub16_h3_sg_2_063.jpg: Predicted in 0.157133 seconds.
baseball bat: 42%
(786.804932, 155.048676) (827.908325, 375.732056)
person: 81%
(618.165527, 215.487076) (858.596558, 790.891357)
sub16_h3_sg_2_064.jpg: Predicted in 0.156457 seconds.
baseball bat: 42%
(788.598999, 155.235703) (829.369324, 377.264343)
person: 81%
(615.424744, 215.975281) (859.408813, 792.270386)
sub16_h3_sg_2_065.jpg: Predicted in 0.157716 seconds.
baseball bat: 36%
(788.448242, 157.365067) (831.035278, 375.098389)
person: 81%
(611.879700, 218.477707) (859.380798, 789.552551)
sub16_h3_sg_2_066.jpg: Predicted in 0.156315 seconds.
baseball bat: 38%
(788.614258, 159.359558) (831.166016, 375.754913)
person: 80%
(613.186340, 218.184875) (853.715088, 790.497742)
sub16_h3_sg_2_067.jpg: Predicted in 0.155867 seconds.
baseball bat: 32%
(789.725891, 157.652420) (831.937927, 375.691986)
person: 80%
(613.660950, 219.306610) (851.465698, 792.754211)
sub16_h3_sg_2_068.jpg: Predicted in 0.157564 seconds.
baseball bat: 33%
(787.754028, 154.462830) (829.310059, 379.667023)
person: 81%
(611.308777, 220.044662) (850.959595, 794.709473)
sub16_h3_sg_2_069.jpg: Predicted in 0.156402 seconds.
baseball bat: 32%
(787.490784, 159.320221) (826.905090, 375.254089)
person: 81%
(612.671570, 220.185562) (850.894836, 793.498352)
sub16_h3_sg_2_070.jpg: Predicted in 0.156348 seconds.
baseball bat: 36%
(787.566589, 156.348526) (826.808411, 374.170471)
person: 80%
(616.044617, 216.707108) (850.637329, 794.791626)
sub16_h3_sg_2_071.jpg: Predicted in 0.154626 seconds.
baseball bat: 35%
(786.150818, 153.337677) (826.406677, 375.985046)
person: 80%
(614.306885, 215.895508) (851.058411, 793.006836)
sub16_h3_sg_2_072.jpg: Predicted in 0.155453 seconds.
baseball bat: 41%
(788.132751, 149.399490) (827.908020, 381.591339)
person: 81%
(616.971191, 214.073303) (852.894958, 793.494751)
sub16_h3_sg_2_073.jpg: Predicted in 0.155221 seconds.
baseball bat: 45%
(786.822937, 151.810135) (826.182007, 380.437134)
person: 81%
(616.555054, 216.867447) (851.717163, 792.338440)
sub16_h3_sg_2_074.jpg: Predicted in 0.156328 seconds.
baseball bat: 45%
(788.103088, 153.085861) (827.653748, 378.704773)
person: 81%
(617.678345, 214.522842) (849.641785, 793.188843)
sub16_h3_sg_2_075.jpg: Predicted in 0.155892 seconds.
baseball bat: 44%
(788.597961, 146.835861) (829.629883, 383.883026)
person: 81%
(617.145325, 216.552139) (847.005676, 793.368469)
sub16_h3_sg_2_076.jpg: Predicted in 0.156185 seconds.
baseball bat: 44%
(789.993774, 152.596649) (831.209351, 382.622253)
person: 81%
(615.433411, 210.583038) (847.571960, 798.433655)
sub16_h3_sg_2_077.jpg: Predicted in 0.154563 seconds.
baseball bat: 39%
(790.147705, 159.693405) (831.704895, 373.311768)
person: 80%
(613.305908, 216.860657) (854.251038, 796.636230)
sub16_h3_sg_2_078.jpg: Predicted in 0.156130 seconds.
baseball bat: 39%
(788.736633, 160.082687) (829.529053, 368.727875)
person: 80%
(611.611816, 214.178757) (854.950073, 801.327209)
sub16_h3_sg_2_079.jpg: Predicted in 0.155202 seconds.
baseball bat: 40%
(788.871948, 155.085892) (829.025085, 376.112885)
person: 80%
(612.607117, 213.776993) (854.515686, 799.326782)
sub16_h3_sg_2_080.jpg: Predicted in 0.156413 seconds.
baseball bat: 42%
(788.066528, 152.904922) (827.501587, 377.188416)
person: 81%
(609.850525, 210.663773) (853.332581, 798.828552)
sub16_h3_sg_2_081.jpg: Predicted in 0.157749 seconds.
baseball bat: 39%
(788.587402, 155.681442) (827.844360, 374.055420)
person: 81%
(607.578308, 211.516541) (851.971985, 799.878723)
sub16_h3_sg_2_082.jpg: Predicted in 0.155433 seconds.
baseball bat: 42%
(788.124634, 158.333252) (826.081421, 370.807587)
person: 81%
(610.914062, 214.041565) (854.197021, 798.530640)
sub16_h3_sg_2_083.jpg: Predicted in 0.162021 seconds.
baseball bat: 39%
(787.469177, 158.513885) (829.640198, 372.399536)
person: 81%
(609.885742, 219.756821) (853.703857, 795.202637)
sub16_h3_sg_2_084.jpg: Predicted in 0.155500 seconds.
baseball bat: 40%
(787.053650, 155.884109) (829.672729, 375.593872)
person: 81%
(607.721802, 218.194199) (853.404175, 795.933899)
sub16_h3_sg_2_085.jpg: Predicted in 0.158852 seconds.
baseball bat: 49%
(787.961487, 156.796432) (830.236755, 375.677338)
person: 81%
(606.788513, 215.985703) (851.465149, 794.999573)
sub16_h3_sg_2_086.jpg: Predicted in 0.157309 seconds.
baseball bat: 48%
(788.316467, 156.630051) (831.091797, 375.233490)
person: 81%
(606.204956, 209.349197) (852.384521, 799.500427)
sub16_h3_sg_2_087.jpg: Predicted in 0.155333 seconds.
baseball bat: 49%
(791.536133, 157.603104) (834.362610, 376.428497)
person: 81%
(605.958740, 212.826614) (851.795166, 799.314514)
sub16_h3_sg_2_088.jpg: Predicted in 0.157099 seconds.
baseball bat: 48%
(791.033691, 158.150955) (833.155457, 377.566803)
person: 81%
(606.473145, 214.485428) (851.452087, 798.558044)
sub16_h3_sg_2_089.jpg: Predicted in 0.155087 seconds.
baseball bat: 39%
(791.682190, 163.679276) (835.235718, 373.244598)
person: 81%
(604.515381, 215.654709) (851.595947, 797.454590)
sub16_h3_sg_2_090.jpg: Predicted in 0.158270 seconds.
baseball bat: 36%
(791.106567, 164.670578) (833.680603, 368.038696)
person: 81%
(604.438660, 215.586014) (852.213257, 797.090332)
sub16_h3_sg_2_091.jpg: Predicted in 0.155477 seconds.
baseball bat: 41%
(788.550537, 163.008301) (830.883057, 369.543793)
person: 81%
(602.281555, 219.707108) (850.934265, 792.820740)
sub16_h3_sg_2_092.jpg: Predicted in 0.165220 seconds.
baseball bat: 41%
(789.731140, 155.376526) (830.552673, 376.346985)
person: 82%
(604.191650, 219.535950) (858.200134, 792.592590)
sub16_h3_sg_2_093.jpg: Predicted in 0.156881 seconds.
baseball bat: 41%
(788.706482, 153.462173) (825.094788, 375.944702)
person: 82%
(608.016052, 219.939209) (852.492371, 789.380310)
sub16_h3_sg_2_094.jpg: Predicted in 0.156176 seconds.
baseball bat: 48%
(789.466919, 153.043823) (827.082153, 374.144470)
person: 82%
(614.286682, 219.191010) (857.246948, 791.453979)
sub16_h3_sg_2_095.jpg: Predicted in 0.156114 seconds.
baseball bat: 47%
(791.330566, 153.172379) (832.067078, 375.978027)
person: 82%
(612.140564, 223.012238) (856.587769, 792.224548)
sub16_h3_sg_2_096.jpg: Predicted in 0.155883 seconds.
baseball bat: 50%
(791.313904, 154.596619) (834.160828, 375.151581)
person: 82%
(610.152893, 222.408264) (858.446960, 795.171570)
sub16_h3_sg_2_097.jpg: Predicted in 0.157348 seconds.
baseball bat: 51%
(789.617004, 151.193680) (831.822083, 379.881561)
person: 82%
(607.714783, 224.719269) (857.958435, 791.967529)
sub16_h3_sg_2_098.jpg: Predicted in 0.158018 seconds.
baseball bat: 47%
(788.486389, 155.221039) (830.815063, 376.656006)
person: 82%
(610.038696, 224.989868) (855.405029, 791.369873)
sub16_h3_sg_2_099.jpg: Predicted in 0.154696 seconds.
baseball bat: 48%
(788.244446, 156.661743) (830.331726, 372.159821)
person: 82%
(609.512207, 225.292389) (855.717773, 790.279663)
sub16_h3_sg_2_100.jpg: Predicted in 0.155318 seconds.
baseball bat: 49%
(787.567505, 156.844513) (829.197327, 371.185272)
person: 81%
(613.677368, 224.224899) (853.875427, 790.954346)
sub16_h3_sg_2_101.jpg: Predicted in 0.155200 seconds.
baseball bat: 48%
(788.266541, 157.096375) (828.458313, 371.518829)
person: 81%
(610.612854, 223.253510) (852.580688, 790.459473)
sub16_h3_sg_2_102.jpg: Predicted in 0.157730 seconds.
baseball bat: 47%
(788.584961, 159.012741) (828.386902, 368.898529)
person: 82%
(612.022766, 221.729691) (851.787964, 791.786560)
sub16_h3_sg_2_103.jpg: Predicted in 0.157225 seconds.
baseball bat: 46%
(787.411743, 164.378387) (827.522644, 362.907715)
person: 82%
(617.423035, 223.087723) (854.413208, 791.633484)
sub16_h3_sg_2_104.jpg: Predicted in 0.154791 seconds.
baseball bat: 48%
(786.497742, 165.769058) (829.674133, 361.815491)
person: 82%
(614.851868, 225.838089) (854.596680, 789.821533)
sub16_h3_sg_2_105.jpg: Predicted in 0.155933 seconds.
baseball bat: 48%
(785.560852, 166.981964) (828.165039, 359.635193)
person: 82%
(613.168152, 226.139328) (852.504761, 789.956909)
sub16_h3_sg_2_106.jpg: Predicted in 0.185188 seconds.
baseball bat: 50%
(787.742310, 164.953735) (831.121216, 360.896271)
person: 82%
(612.055664, 224.519608) (851.704407, 790.879944)
sub16_h3_sg_2_107.jpg: Predicted in 0.165207 seconds.
baseball bat: 52%
(787.819336, 162.911743) (833.928223, 360.009583)
person: 81%
(611.790283, 224.106186) (852.067017, 792.462769)
sub16_h3_sg_2_108.jpg: Predicted in 0.156269 seconds.
baseball bat: 47%
(785.679321, 166.648621) (833.031494, 357.327606)
person: 81%
(609.936279, 224.936417) (851.161926, 793.817383)
sub16_h3_sg_2_109.jpg: Predicted in 0.157314 seconds.
baseball bat: 47%
(785.916870, 166.532654) (834.594604, 359.580200)
person: 81%
(608.643311, 227.196762) (851.801208, 792.698975)
sub16_h3_sg_2_110.jpg: Predicted in 0.159906 seconds.
baseball bat: 52%
(784.599487, 164.600189) (835.680969, 360.498108)
person: 82%
(612.025574, 230.787750) (849.099915, 789.312378)
sub16_h3_sg_2_111.jpg: Predicted in 0.157034 seconds.
baseball bat: 49%
(785.250427, 171.267654) (835.028503, 357.666138)
person: 81%
(610.485474, 231.444260) (852.541138, 786.844849)
sub16_h3_sg_2_112.jpg: Predicted in 0.155453 seconds.
baseball bat: 49%
(783.282593, 168.148102) (832.789185, 359.872131)
person: 81%
(610.012146, 226.675705) (849.867310, 790.037231)
sub16_h3_sg_2_113.jpg: Predicted in 0.156193 seconds.
baseball bat: 45%
(784.540222, 175.068573) (837.622437, 355.167572)
person: 81%
(613.041870, 227.181931) (853.055969, 789.610046)
sub16_h3_sg_2_114.jpg: Predicted in 0.155431 seconds.
baseball bat: 43%
(786.695251, 176.309998) (839.049683, 356.319733)
person: 82%
(613.334595, 227.639130) (853.855042, 789.025269)
sub16_h3_sg_2_115.jpg: Predicted in 0.155608 seconds.
baseball bat: 45%
(787.754272, 179.502625) (844.022766, 355.816223)
person: 81%
(610.972595, 231.526276) (853.737915, 789.068909)
sub16_h3_sg_2_116.jpg: Predicted in 0.155511 seconds.
baseball bat: 54%
(785.838806, 176.854584) (841.416321, 352.669617)
person: 81%
(607.939392, 227.718399) (852.112366, 788.883667)
sub16_h3_sg_2_117.jpg: Predicted in 0.156107 seconds.
baseball bat: 56%
(788.113464, 172.321640) (842.914673, 356.353149)
person: 81%
(607.795654, 227.738953) (850.517334, 789.885620)
sub16_h3_sg_2_118.jpg: Predicted in 0.157243 seconds.
baseball bat: 49%
(787.189636, 178.405350) (842.921631, 352.742920)
person: 80%
(604.315613, 225.643616) (849.124634, 793.344727)
sub16_h3_sg_2_119.jpg: Predicted in 0.156784 seconds.
baseball bat: 47%
(787.449219, 182.816315) (843.630920, 348.937317)
person: 80%
(603.150146, 227.464645) (850.353577, 791.384338)
sub16_h3_sg_2_120.jpg: Predicted in 0.156423 seconds.
baseball bat: 49%
(787.341736, 184.253006) (842.910034, 344.268463)
person: 80%
(602.807983, 230.038635) (852.241333, 788.223083)
sub16_h3_sg_2_121.jpg: Predicted in 0.157083 seconds.
baseball bat: 56%
(786.122803, 180.274139) (839.232300, 345.203918)
person: 81%
(603.710999, 227.320175) (850.839783, 787.232056)
sub16_h3_sg_2_122.jpg: Predicted in 0.156978 seconds.
baseball bat: 56%
(783.369507, 174.885880) (835.130554, 349.425659)
person: 80%
(603.431152, 224.923538) (851.973999, 786.323425)
sub16_h3_sg_2_123.jpg: Predicted in 0.165320 seconds.
baseball bat: 52%
(784.726135, 184.645767) (840.024109, 343.717407)
person: 79%
(606.376099, 225.319427) (852.808350, 786.566040)
sub16_h3_sg_2_124.jpg: Predicted in 0.154466 seconds.
baseball bat: 52%
(786.160828, 189.900146) (843.965393, 340.293182)
person: 80%
(603.455505, 231.934280) (854.170532, 782.471436)
sub16_h3_sg_2_125.jpg: Predicted in 0.155358 seconds.
baseball bat: 54%
(789.291626, 187.383286) (847.983337, 344.030884)
person: 80%
(608.825073, 230.940674) (847.072021, 785.190735)
sub16_h3_sg_2_126.jpg: Predicted in 0.157236 seconds.
baseball bat: 52%
(790.909607, 193.420334) (850.313843, 339.003204)
person: 80%
(608.901062, 232.089188) (849.392883, 788.279968)
sub16_h3_sg_2_127.jpg: Predicted in 0.156624 seconds.
baseball bat: 59%
(794.221741, 185.532318) (855.709900, 347.285126)
person: 80%
(606.689575, 234.516022) (848.627197, 788.143555)
sub16_h3_sg_2_128.jpg: Predicted in 0.155568 seconds.
baseball bat: 54%
(792.028870, 191.098541) (853.840698, 341.456940)
person: 79%
(606.431824, 236.086456) (842.902588, 783.948792)
sub16_h3_sg_2_129.jpg: Predicted in 0.157371 seconds.
baseball bat: 48%
(793.499390, 195.385056) (854.455750, 337.487671)
person: 80%
(602.216248, 235.602097) (845.288635, 783.903870)
sub16_h3_sg_2_130.jpg: Predicted in 0.165327 seconds.
baseball bat: 47%
(792.992798, 198.755417) (851.858765, 330.343994)
person: 80%
(603.906494, 235.149673) (840.789551, 782.532227)
sub16_h3_sg_2_131.jpg: Predicted in 0.160250 seconds.
baseball bat: 47%
(794.248474, 200.783905) (855.554382, 329.548004)
person: 79%
(603.582275, 236.573151) (839.333557, 784.834717)
sub16_h3_sg_2_132.jpg: Predicted in 0.157992 seconds.
baseball bat: 48%
(792.388916, 200.710266) (850.273254, 331.780640)
person: 79%
(604.231812, 237.704391) (842.644531, 784.216553)
sub16_h3_sg_2_133.jpg: Predicted in 0.158037 seconds.
baseball bat: 54%
(791.847046, 195.416611) (854.550049, 335.197296)
person: 79%
(606.577332, 238.043427) (841.683899, 779.531433)
sub16_h3_sg_2_134.jpg: Predicted in 0.155459 seconds.
baseball bat: 60%
(792.389099, 192.263794) (857.624756, 337.217804)
person: 79%
(606.588623, 238.956451) (841.890076, 779.491455)
sub16_h3_sg_2_135.jpg: Predicted in 0.156213 seconds.
baseball bat: 57%
(790.605164, 196.447464) (855.825073, 337.044830)
person: 79%
(604.758362, 240.394897) (839.322754, 778.914612)
sub16_h3_sg_2_136.jpg: Predicted in 0.155843 seconds.
baseball bat: 59%
(790.554443, 196.665665) (854.947693, 337.511963)
person: 79%
(605.489624, 240.501373) (838.247986, 779.141235)
sub16_h3_sg_2_137.jpg: Predicted in 0.157214 seconds.
baseball bat: 59%
(791.439087, 199.434952) (857.159241, 338.112030)
person: 79%
(605.589294, 241.743210) (837.121765, 781.116821)
sub16_h3_sg_2_138.jpg: Predicted in 0.157266 seconds.
baseball bat: 55%
(789.623535, 197.490982) (858.996155, 340.346344)
person: 78%
(604.704041, 239.914444) (832.155579, 782.028625)
sub16_h3_sg_2_139.jpg: Predicted in 0.163705 seconds.
baseball bat: 61%
(789.092957, 196.228683) (858.044678, 340.501953)
person: 77%
(607.073242, 245.811554) (831.004883, 781.809875)
sub16_h3_sg_2_140.jpg: Predicted in 0.157762 seconds.
baseball bat: 56%
(787.634766, 196.656342) (856.788879, 338.365112)
person: 79%
(609.779419, 247.244720) (832.627319, 782.356873)
sub16_h3_sg_2_141.jpg: Predicted in 0.156657 seconds.
baseball bat: 59%
(788.630615, 195.798569) (857.019104, 338.934021)
person: 78%
(608.546631, 245.716568) (829.257141, 782.895935)
sub16_h3_sg_2_142.jpg: Predicted in 0.155345 seconds.
baseball bat: 59%
(789.535034, 194.278809) (857.314148, 337.631226)
person: 79%
(608.287903, 245.135757) (832.504211, 781.318604)
sub16_h3_sg_2_143.jpg: Predicted in 0.156895 seconds.
baseball bat: 61%
(793.566467, 198.157440) (854.598938, 338.872253)
person: 81%
(610.679077, 242.494278) (834.401062, 780.590454)
sub16_h3_sg_2_144.jpg: Predicted in 0.157542 seconds.
baseball bat: 60%
(792.157104, 195.909256) (857.646362, 342.272583)
person: 80%
(609.250122, 243.413788) (835.179321, 780.924438)
sub16_h3_sg_2_145.jpg: Predicted in 0.160542 seconds.
baseball bat: 58%
(769.565308, 225.555710) (859.553955, 354.070679)
person: 79%
(606.949707, 246.428604) (834.627441, 780.098633)
sub16_h3_sg_2_146.jpg: Predicted in 0.158696 seconds.
baseball bat: 61%
(768.518799, 225.499451) (859.186584, 355.814545)
person: 78%
(608.145752, 244.002869) (831.229248, 782.959595)
sub16_h3_sg_2_147.jpg: Predicted in 0.159576 seconds.
baseball bat: 62%
(770.689392, 226.125549) (862.045593, 354.381256)
person: 78%
(609.704163, 244.311951) (829.371277, 783.958008)
sub16_h3_sg_2_148.jpg: Predicted in 0.155714 seconds.
baseball bat: 61%
(768.780457, 229.842758) (867.566101, 353.986176)
person: 77%
(610.232239, 245.043732) (826.276550, 787.029175)
sub16_h3_sg_2_149.jpg: Predicted in 0.155795 seconds.
baseball bat: 63%
(765.612976, 231.810364) (864.122131, 356.064972)
person: 77%
(608.049805, 247.665833) (826.952454, 785.866882)
sub16_h3_sg_2_150.jpg: Predicted in 0.157243 seconds.
baseball bat: 61%
(767.162231, 230.257248) (871.115234, 357.005371)
person: 78%
(606.372742, 245.085953) (827.471069, 788.084351)
sub16_h3_sg_2_151.jpg: Predicted in 0.158276 seconds.
baseball bat: 60%
(768.548523, 231.073502) (873.518127, 357.098511)
person: 78%
(604.047302, 244.801331) (826.855530, 786.160095)
sub16_h3_sg_2_152.jpg: Predicted in 0.158192 seconds.
baseball bat: 61%
(774.035095, 229.634567) (873.243347, 360.387573)
person: 77%
(607.035522, 241.757584) (823.834839, 788.023254)
sub16_h3_sg_2_153.jpg: Predicted in 0.157545 seconds.
baseball bat: 60%
(770.957031, 230.232300) (873.922119, 364.615997)
person: 78%
(611.669495, 241.868042) (824.207703, 786.794739)
sub16_h3_sg_2_154.jpg: Predicted in 0.158042 seconds.
baseball bat: 60%
(771.598694, 232.197174) (875.624207, 363.606598)
person: 78%
(608.867126, 240.425079) (824.258362, 787.440063)
sub16_h3_sg_2_155.jpg: Predicted in 0.157489 seconds.
baseball bat: 59%
(770.448425, 233.609467) (871.443237, 364.116974)
person: 78%
(607.787964, 243.957474) (823.346069, 787.515137)
sub16_h3_sg_2_156.jpg: Predicted in 0.156391 seconds.
baseball bat: 59%
(775.307556, 235.401337) (874.419617, 360.584656)
person: 79%
(610.508911, 241.442490) (818.678406, 792.513550)
sub16_h3_sg_2_157.jpg: Predicted in 0.156369 seconds.
baseball bat: 59%
(774.163879, 234.176926) (874.676758, 360.507629)
person: 78%
(610.301941, 244.813324) (817.112000, 790.038696)
sub16_h3_sg_2_158.jpg: Predicted in 0.155694 seconds.
baseball bat: 61%
(769.997620, 236.005646) (874.914368, 359.897797)
person: 79%
(610.373840, 246.607559) (818.758728, 791.385742)
sub16_h3_sg_2_159.jpg: Predicted in 0.158037 seconds.
baseball bat: 65%
(767.428650, 237.931503) (875.159729, 356.959991)
person: 78%
(612.701843, 248.029709) (816.486389, 790.069092)
sub16_h3_sg_2_160.jpg: Predicted in 0.156328 seconds.
baseball bat: 63%
(763.583191, 239.257812) (875.529358, 358.929352)
baseball bat: 31%
(640.511108, 255.636978) (841.472351, 399.733154)
person: 80%
(613.256165, 246.127396) (818.653442, 793.058411)
sub16_h3_sg_2_161.jpg: Predicted in 0.155499 seconds.
baseball bat: 62%
(764.587463, 237.236282) (873.215698, 358.489166)
person: 81%
(610.270874, 245.582077) (820.931824, 789.779968)
sub16_h3_sg_2_162.jpg: Predicted in 0.155826 seconds.
baseball bat: 60%
(766.439087, 238.852341) (876.190613, 357.790344)
person: 80%
(612.467407, 247.072525) (822.657410, 788.390869)
sub16_h3_sg_2_163.jpg: Predicted in 0.157550 seconds.
baseball bat: 57%
(768.669128, 240.306641) (877.087708, 358.190094)
person: 81%
(613.619995, 244.442337) (821.724976, 784.600952)
sub16_h3_sg_2_164.jpg: Predicted in 0.157047 seconds.
baseball bat: 63%
(767.828186, 239.073105) (880.551331, 360.566467)
person: 80%
(610.645142, 247.103043) (820.311157, 786.562866)
sub16_h3_sg_2_165.jpg: Predicted in 0.158535 seconds.
baseball bat: 59%
(766.415466, 239.868668) (879.930542, 360.300598)
person: 80%
(612.432434, 245.519348) (818.895996, 790.320984)
sub16_h3_sg_2_166.jpg: Predicted in 0.156309 seconds.
baseball bat: 60%
(764.492310, 240.175690) (879.256348, 361.054932)
person: 80%
(611.875244, 246.105072) (819.812988, 792.662354)
sub16_h3_sg_2_167.jpg: Predicted in 0.158123 seconds.
baseball bat: 60%
(765.446289, 239.301544) (879.509644, 361.711304)
person: 80%
(612.061462, 248.129852) (820.152710, 792.394287)
sub16_h3_sg_2_168.jpg: Predicted in 0.156308 seconds.
baseball bat: 34%
(796.304932, 230.119324) (871.387207, 340.139587)
baseball bat: 55%
(739.298401, 241.337662) (871.961975, 403.098022)
person: 80%
(609.301331, 247.245621) (817.821594, 796.028503)
sub16_h3_sg_2_169.jpg: Predicted in 0.158153 seconds.
baseball bat: 55%
(760.446106, 242.314407) (879.829590, 359.213745)
baseball bat: 40%
(648.099243, 258.425354) (846.207825, 400.271454)
person: 80%
(610.626160, 250.341125) (819.915955, 791.693237)
sub16_h3_sg_2_170.jpg: Predicted in 0.161681 seconds.
baseball bat: 36%
(797.159729, 234.328720) (873.508789, 337.040436)
baseball bat: 58%
(733.856567, 245.786774) (871.610962, 397.194000)
person: 81%
(613.484375, 248.828964) (819.190063, 794.483521)
sub16_h3_sg_2_171.jpg: Predicted in 0.156544 seconds.
baseball bat: 31%
(792.948914, 235.900192) (874.938965, 338.551697)
baseball bat: 59%
(731.054565, 244.353470) (871.292847, 397.766602)
person: 81%
(614.924744, 250.454636) (817.306213, 795.278320)
sub16_h3_sg_2_172.jpg: Predicted in 0.157437 seconds.
baseball bat: 32%
(791.322388, 237.866669) (874.430786, 341.042572)
baseball bat: 59%
(732.469543, 248.130157) (871.552063, 396.063538)
person: 81%
(612.419739, 253.661346) (819.384583, 797.412109)
sub16_h3_sg_2_173.jpg: Predicted in 0.156875 seconds.
baseball bat: 60%
(730.458130, 249.693008) (870.881775, 395.166687)
person: 81%
(614.017090, 253.265961) (813.629883, 799.250122)
sub16_h3_sg_2_174.jpg: Predicted in 0.155864 seconds.
baseball bat: 60%
(732.609497, 253.006363) (872.193237, 391.223114)
person: 81%
(612.261719, 253.107880) (814.041687, 798.658020)
sub16_h3_sg_2_175.jpg: Predicted in 0.156909 seconds.
baseball bat: 61%
(734.219421, 252.045151) (875.613464, 393.946838)
person: 81%
(610.887634, 254.266693) (814.364258, 798.292969)
sub16_h3_sg_2_176.jpg: Predicted in 0.165196 seconds.
baseball bat: 61%
(734.866882, 254.991058) (879.747864, 391.097290)
person: 81%
(610.947510, 252.270157) (811.645569, 797.940918)
sub16_h3_sg_2_177.jpg: Predicted in 0.157496 seconds.
baseball bat: 60%
(735.337891, 257.335754) (885.334106, 389.557129)
person: 81%
(611.674683, 254.290054) (812.882202, 799.645203)
sub16_h3_sg_2_178.jpg: Predicted in 0.157692 seconds.
baseball bat: 36%
(648.024475, 266.361176) (837.044067, 408.727966)
baseball bat: 59%
(733.951233, 257.763153) (882.533447, 391.492889)
person: 81%
(613.877441, 252.465866) (808.093079, 803.598816)
sub16_h3_sg_2_179.jpg: Predicted in 0.156366 seconds.
baseball bat: 38%
(649.081238, 268.193756) (835.763733, 410.126740)
baseball bat: 58%
(733.682251, 257.721954) (881.118774, 392.823151)
person: 81%
(617.078979, 252.304031) (808.379883, 803.321777)
sub16_h3_sg_2_180.jpg: Predicted in 0.157848 seconds.
baseball bat: 45%
(651.135925, 268.007263) (834.518799, 412.713867)
baseball bat: 59%
(730.524109, 258.790405) (884.394836, 393.614960)
person: 82%
(615.644287, 251.148804) (808.976562, 806.809143)
sub16_h3_sg_2_181.jpg: Predicted in 0.157090 seconds.
baseball bat: 52%
(649.763611, 270.283783) (832.489807, 412.369415)
baseball bat: 59%
(729.169434, 261.739410) (882.648621, 394.534058)
person: 81%
(615.668762, 249.812271) (807.266602, 803.706299)
sub16_h3_sg_2_182.jpg: Predicted in 0.157871 seconds.
baseball bat: 63%
(724.943176, 262.647644) (881.374695, 395.601654)
person: 83%
(617.610779, 249.463730) (802.609863, 802.638916)
sub16_h3_sg_2_183.jpg: Predicted in 0.155702 seconds.
baseball bat: 64%
(719.357666, 265.091064) (885.855164, 400.764526)
person: 82%
(620.244751, 256.963043) (796.693298, 802.352356)
sub16_h3_sg_2_184.jpg: Predicted in 0.155686 seconds.
baseball bat: 65%
(722.072754, 268.215790) (887.693481, 394.577515)
person: 83%
(617.461304, 257.910583) (799.166199, 799.972839)
sub16_h3_sg_2_185.jpg: Predicted in 0.158590 seconds.
baseball bat: 51%
(646.775452, 271.668427) (832.563721, 414.203339)
baseball bat: 65%
(721.592224, 267.611786) (891.505432, 392.471130)
person: 82%
(612.154541, 257.220673) (801.372986, 803.688477)
sub16_h3_sg_2_186.jpg: Predicted in 0.161019 seconds.
baseball bat: 42%
(648.084900, 274.344055) (832.971008, 410.516602)
baseball bat: 62%
(726.024963, 266.506744) (893.102539, 390.048492)
person: 83%
(611.157349, 257.289246) (800.707581, 800.638062)
sub16_h3_sg_2_187.jpg: Predicted in 0.157339 seconds.
baseball bat: 39%
(650.070374, 274.778748) (831.937500, 410.898254)
baseball bat: 59%
(726.310730, 267.563507) (898.259155, 390.375366)
person: 83%
(611.593018, 254.335571) (797.924927, 802.223022)
sub16_h3_sg_2_188.jpg: Predicted in 0.160254 seconds.
baseball bat: 33%
(643.041199, 276.357422) (840.619568, 406.709076)
baseball bat: 59%
(727.505188, 268.179871) (897.946960, 387.568451)
person: 82%
(611.421021, 249.522308) (798.460449, 803.165039)
sub16_h3_sg_2_189.jpg: Predicted in 0.154556 seconds.
baseball bat: 38%
(643.391968, 276.459106) (836.552795, 407.506226)
baseball bat: 60%
(727.610779, 268.937012) (895.749817, 387.681427)
person: 82%
(609.122314, 246.446579) (800.905457, 801.675049)
sub16_h3_sg_2_190.jpg: Predicted in 0.166529 seconds.
baseball bat: 41%
(642.695007, 279.128296) (844.920044, 407.350830)
baseball bat: 58%
(725.070801, 271.449860) (894.812500, 386.554321)
person: 82%
(610.906982, 244.642639) (797.096863, 803.435791)
sub16_h3_sg_2_191.jpg: Predicted in 0.157999 seconds.
baseball bat: 42%
(639.875732, 280.107269) (843.336975, 411.830322)
baseball bat: 57%
(725.615051, 274.166779) (892.616150, 388.957336)
person: 83%
(612.821167, 243.075470) (796.276123, 803.328064)
sub16_h3_sg_2_192.jpg: Predicted in 0.159218 seconds.
baseball bat: 54%
(721.936707, 275.727356) (888.047729, 389.499207)
person: 83%
(611.248291, 243.982742) (798.473511, 802.526062)
sub16_h3_sg_2_193.jpg: Predicted in 0.164238 seconds.
baseball bat: 53%
(719.899902, 279.954498) (888.618652, 397.589966)
person: 83%
(612.750366, 247.360519) (800.204468, 802.402893)
sub16_h3_sg_2_194.jpg: Predicted in 0.156948 seconds.
baseball bat: 56%
(721.651917, 280.504395) (886.397705, 397.583801)
person: 82%
(611.750854, 249.606186) (798.040100, 803.194580)
sub16_h3_sg_2_195.jpg: Predicted in 0.160409 seconds.
baseball bat: 54%
(719.867493, 281.210022) (888.397766, 400.155029)
person: 82%
(608.583618, 247.557114) (801.704346, 807.778320)
sub16_h3_sg_2_196.jpg: Predicted in 0.157489 seconds.
baseball bat: 49%
(639.355347, 287.725708) (827.042847, 412.723480)
baseball bat: 48%
(718.285156, 280.968719) (894.966309, 397.569824)
person: 82%
(608.089417, 249.451874) (803.340454, 805.492615)
sub16_h3_sg_2_197.jpg: Predicted in 0.155676 seconds.
baseball bat: 50%
(645.275635, 284.857727) (835.147461, 419.327850)
person: 81%
(611.244751, 246.941895) (802.912964, 808.353638)
sub16_h3_sg_2_198.jpg: Predicted in 0.156828 seconds.
baseball bat: 54%
(714.976807, 284.444122) (895.740662, 406.433502)
person: 80%
(613.819763, 250.269577) (801.345764, 808.821777)
sub16_h3_sg_2_199.jpg: Predicted in 0.156934 seconds.
baseball bat: 55%
(715.810181, 285.963593) (902.087769, 404.819397)
person: 80%
(609.188843, 251.748138) (801.415100, 807.287292)
sub16_h3_sg_2_200.jpg: Predicted in 0.157881 seconds.
baseball bat: 43%
(646.932678, 288.982971) (824.219543, 416.666229)
baseball bat: 53%
(715.772644, 289.827515) (905.477356, 401.296021)
person: 79%
(610.641052, 255.318451) (802.317200, 805.940735)
sub16_h3_sg_2_201.jpg: Predicted in 0.165311 seconds.
baseball bat: 47%
(713.276245, 290.865295) (904.097107, 404.491791)
person: 79%
(610.455811, 251.376816) (804.488953, 807.917969)
sub16_h3_sg_2_202.jpg: Predicted in 0.157417 seconds.
baseball bat: 54%
(713.750671, 293.784546) (905.019165, 403.982025)
person: 79%
(612.381897, 251.297134) (806.168213, 810.646973)
sub16_h3_sg_2_203.jpg: Predicted in 0.162315 seconds.
baseball bat: 46%
(645.741516, 292.070923) (825.472900, 413.120972)
baseball bat: 49%
(711.643738, 295.217743) (911.565796, 404.508789)
person: 77%
(607.483765, 256.066162) (810.429138, 807.088623)
sub16_h3_sg_2_204.jpg: Predicted in 0.156262 seconds.
baseball bat: 50%
(642.309937, 292.497772) (823.457275, 414.212769)
baseball bat: 45%
(710.184692, 295.841187) (909.353088, 405.011688)
person: 76%
(606.170654, 258.649963) (812.247314, 806.269775)
sub16_h3_sg_2_205.jpg: Predicted in 0.156471 seconds.
baseball bat: 45%
(646.838257, 293.244171) (823.619507, 410.931580)
baseball bat: 49%
(711.160950, 297.143372) (909.710144, 402.039856)
person: 78%
(606.362976, 259.871735) (811.317993, 806.035339)
sub16_h3_sg_2_206.jpg: Predicted in 0.159198 seconds.
baseball bat: 43%
(643.823303, 291.310577) (824.632935, 413.474426)
baseball bat: 41%
(711.750610, 295.867828) (911.615173, 402.388947)
person: 77%
(606.228027, 255.036469) (812.162476, 808.914551)
sub16_h3_sg_2_207.jpg: Predicted in 0.158104 seconds.
baseball bat: 45%
(646.044250, 289.789368) (826.626160, 420.560150)
person: 78%
(605.889893, 254.674911) (811.904297, 811.835388)
sub16_h3_sg_2_208.jpg: Predicted in 0.156083 seconds.
baseball bat: 34%
(645.609802, 289.839142) (829.947144, 424.664764)
tennis racket: 35%
(698.996460, 294.306244) (918.041382, 412.095398)
person: 78%
(606.061096, 256.463928) (811.951294, 813.852661)
sub16_h3_sg_2_209.jpg: Predicted in 0.155186 seconds.
tennis racket: 38%
(696.483093, 294.454010) (923.305298, 411.061127)
person: 78%
(608.201599, 258.981415) (809.760742, 812.828430)
sub16_h3_sg_2_210.jpg: Predicted in 0.165758 seconds.
tennis racket: 34%
(694.531921, 292.604736) (930.844055, 411.768494)
person: 77%
(600.510437, 261.509705) (818.890503, 810.727112)
sub16_h3_sg_2_211.jpg: Predicted in 0.157936 seconds.
person: 79%
(598.843994, 257.972504) (823.067932, 813.298035)
sub16_h3_sg_2_212.jpg: Predicted in 0.156991 seconds.
person: 78%
(600.915771, 258.825745) (821.337219, 813.370422)
sub16_h3_sg_2_213.jpg: Predicted in 0.156083 seconds.
tennis racket: 41%
(628.514954, 317.217041) (839.468872, 449.616180)
person: 76%
(600.235352, 259.620941) (814.522339, 809.832642)
sub16_h3_sg_2_214.jpg: Predicted in 0.156742 seconds.
tennis racket: 42%
(624.538208, 321.400818) (834.202820, 448.704224)
person: 74%
(603.144043, 256.205261) (810.490723, 812.286682)
sub16_h3_sg_2_215.jpg: Predicted in 0.156851 seconds.
person: 74%
(598.598877, 258.581482) (813.561279, 810.763123)
sub16_h3_sg_2_216.jpg: Predicted in 0.156975 seconds.
person: 74%
(559.427979, 271.426331) (792.323120, 784.612488)
sub16_h3_sg_2_217.jpg: Predicted in 0.156791 seconds.
tennis racket: 36%
(611.809814, 337.167755) (835.913879, 449.220459)
person: 72%
(560.394226, 267.903534) (792.538391, 789.346558)
sub16_h3_sg_2_218.jpg: Predicted in 0.156784 seconds.
tennis racket: 33%
(612.117432, 334.792969) (838.418274, 452.159424)
person: 74%
(560.117249, 264.501617) (788.647827, 788.932922)
sub16_h3_sg_2_219.jpg: Predicted in 0.155967 seconds.
tennis racket: 31%
(611.573364, 343.294037) (833.314148, 451.573853)
person: 74%
(564.022949, 266.029694) (785.554199, 789.166199)
sub16_h3_sg_2_220.jpg: Predicted in 0.165202 seconds.
tennis racket: 39%
(609.754883, 343.865875) (837.562927, 450.445068)
person: 76%
(563.863220, 267.208923) (785.954163, 790.908264)
sub16_h3_sg_2_221.jpg: Predicted in 0.157658 seconds.
tennis racket: 52%
(610.866028, 343.485535) (839.533569, 448.047943)
person: 76%
(564.364441, 265.479065) (786.427795, 789.041992)
sub16_h3_sg_2_222.jpg: Predicted in 0.155491 seconds.
tennis racket: 44%
(614.487122, 345.746887) (835.552368, 446.099548)
person: 76%
(564.061829, 267.784180) (787.533936, 786.579346)
sub16_h3_sg_2_223.jpg: Predicted in 0.157266 seconds.
tennis racket: 31%
(615.077881, 348.545227) (836.773804, 442.814819)
person: 78%
(565.616272, 268.811707) (785.643188, 779.842163)
sub16_h3_sg_2_224.jpg: Predicted in 0.157025 seconds.
person: 81%
(561.357727, 267.897614) (787.876160, 783.470520)
sub16_h3_sg_2_225.jpg: Predicted in 0.157800 seconds.
tennis racket: 42%
(623.413269, 350.919250) (849.536743, 441.282776)
person: 79%
(561.223694, 263.504395) (790.103394, 785.451721)
sub16_h3_sg_2_226.jpg: Predicted in 0.163463 seconds.
tennis racket: 45%
(616.602295, 352.764862) (851.641541, 439.860535)
person: 79%
(562.331360, 263.506348) (788.292725, 786.854126)
sub16_h3_sg_2_227.jpg: Predicted in 0.156161 seconds.
tennis racket: 38%
(616.154846, 358.313660) (846.557861, 440.552307)
person: 79%
(561.083252, 265.527344) (785.915955, 788.693054)
sub16_h3_sg_2_228.jpg: Predicted in 0.158303 seconds.
tennis racket: 32%
(612.977112, 360.528259) (851.365234, 437.596497)
person: 80%
(562.261414, 268.566040) (786.787659, 784.769836)
sub16_h3_sg_2_229.jpg: Predicted in 0.157336 seconds.
person: 81%
(558.901367, 273.016632) (788.742249, 787.717834)
sub16_h3_sg_2_230.jpg: Predicted in 0.157892 seconds.
person: 79%
(560.680908, 277.541138) (789.523682, 787.277039)
sub16_h3_sg_2_231.jpg: Predicted in 0.156289 seconds.
baseball bat: 31%
(600.516907, 362.902832) (865.438904, 433.470001)
person: 81%
(556.406067, 273.737823) (793.913452, 785.918701)
sub16_h3_sg_2_232.jpg: Predicted in 0.157430 seconds.
baseball bat: 30%
(598.001709, 366.093079) (867.218506, 430.737488)
person: 79%
(558.482117, 267.076294) (793.089661, 789.176941)
sub16_h3_sg_2_233.jpg: Predicted in 0.183260 seconds.
tennis racket: 46%
(598.866882, 370.447479) (861.057739, 427.596680)
person: 76%
(567.668396, 267.382019) (785.952942, 782.279907)
sub16_h3_sg_2_234.jpg: Predicted in 0.155248 seconds.
tennis racket: 32%
(607.973450, 373.487732) (852.661621, 428.666534)
person: 80%
(562.613831, 269.838196) (786.920593, 784.655334)
sub16_h3_sg_2_235.jpg: Predicted in 0.157529 seconds.
tennis racket: 34%
(603.858215, 381.023285) (853.550964, 432.439148)
person: 80%
(561.109009, 268.927094) (787.653931, 784.145752)
sub16_h3_sg_2_236.jpg: Predicted in 0.156573 seconds.
tennis racket: 36%
(602.705078, 383.106964) (849.648438, 434.154083)
person: 78%
(564.852661, 265.166992) (788.931091, 786.944153)
sub16_h3_sg_2_237.jpg: Predicted in 0.155413 seconds.
person: 80%
(564.090820, 269.321899) (789.332031, 786.429810)
sub16_h3_sg_2_238.jpg: Predicted in 0.168786 seconds.
person: 83%
(559.969666, 268.418854) (787.693787, 784.535706)
sub16_h3_sg_2_239.jpg: Predicted in 0.155434 seconds.
person: 83%
(557.854492, 266.340546) (789.031494, 787.540405)
sub16_h3_sg_2_240.jpg: Predicted in 0.158961 seconds.
person: 85%
(551.508606, 267.908875) (790.997925, 789.936707)
sub16_h3_sg_2_241.jpg: Predicted in 0.161472 seconds.
person: 85%
(550.712952, 266.663544) (790.402466, 789.997559)
sub16_h3_sg_2_242.jpg: Predicted in 0.161383 seconds.
person: 85%
(546.542114, 267.398132) (792.726074, 786.340942)
sub16_h3_sg_2_243.jpg: Predicted in 0.156284 seconds.
person: 85%
(550.723022, 262.476196) (791.406921, 784.226074)
sub16_h3_sg_2_244.jpg: Predicted in 0.157993 seconds.
person: 85%
(550.348816, 261.601013) (790.371826, 783.649780)
sub16_h3_sg_2_245.jpg: Predicted in 0.165994 seconds.
person: 84%
(550.472473, 261.241943) (787.484680, 783.601929)
sub16_h3_sg_2_246.jpg: Predicted in 0.158493 seconds.
person: 85%
(551.195129, 258.467041) (787.239014, 786.604248)
sub16_h3_sg_2_247.jpg: Predicted in 0.154998 seconds.
tennis racket: 33%
(617.239685, 425.613922) (864.193298, 456.750732)
person: 85%
(547.957520, 252.138519) (788.469910, 788.052673)
sub16_h3_sg_2_248.jpg: Predicted in 0.154570 seconds.
tennis racket: 39%
(616.720398, 427.638672) (866.969604, 458.504150)
person: 86%
(542.401550, 252.508621) (789.446167, 786.792969)
sub16_h3_sg_2_249.jpg: Predicted in 0.156062 seconds.
tennis racket: 44%
(605.990479, 427.248993) (870.322083, 458.654175)
person: 86%
(544.289673, 251.988342) (789.875061, 782.967163)
sub16_h3_sg_2_250.jpg: Predicted in 0.155389 seconds.
tennis racket: 43%
(600.280212, 426.994781) (869.018494, 461.999268)
person: 86%
(542.559387, 248.188614) (792.770508, 784.580994)
sub16_h3_sg_2_251.jpg: Predicted in 0.156567 seconds.
tennis racket: 48%
(604.758301, 426.534637) (848.155823, 465.361328)
person: 86%
(542.475159, 244.900055) (791.394775, 785.500977)
sub16_h3_sg_2_252.jpg: Predicted in 0.155383 seconds.
sports ball: 32%
(261.514557, 407.156067) (289.268677, 427.315063)
tennis racket: 49%
(609.015747, 429.733124) (851.883301, 468.606537)
person: 86%
(540.907593, 246.081512) (794.878845, 786.953003)
sub16_h3_sg_2_253.jpg: Predicted in 0.156106 seconds.
tennis racket: 50%
(624.361633, 431.940979) (836.511292, 473.594025)
person: 85%
(540.449463, 245.718628) (795.484558, 785.575073)
sub16_h3_sg_2_254.jpg: Predicted in 0.156017 seconds.
tennis racket: 49%
(628.394104, 434.004944) (832.543396, 476.446075)
person: 85%
(543.129028, 245.158722) (798.088501, 787.570129)
sub16_h3_sg_2_255.jpg: Predicted in 0.155656 seconds.
tennis racket: 40%
(620.044739, 437.481934) (827.958313, 478.270844)
person: 86%
(538.011169, 246.841690) (798.721436, 789.510071)
sub16_h3_sg_2_256.jpg: Predicted in 0.157624 seconds.
tennis racket: 33%
(651.502686, 442.366272) (804.082031, 482.260071)
person: 85%
(544.083008, 249.416992) (796.790710, 788.531128)
sub16_h3_sg_2_257.jpg: Predicted in 0.157081 seconds.
person: 85%
(541.829346, 247.252777) (794.758301, 788.235046)
sub16_h3_sg_2_258.jpg: Predicted in 0.160040 seconds.
tennis racket: 38%
(527.609375, 424.870789) (806.324341, 488.851624)
person: 86%
(543.027588, 235.426804) (796.388489, 794.656555)
sub16_h3_sg_2_259.jpg: Predicted in 0.155666 seconds.
person: 86%
(543.036438, 238.211136) (796.518738, 796.043335)
sub16_h3_sg_2_260.jpg: Predicted in 0.156194 seconds.
person: 87%
(543.367554, 238.094025) (793.757263, 800.266296)
sub16_h3_sg_2_261.jpg: Predicted in 0.157029 seconds.
sports ball: 31%
(301.960510, 414.394562) (327.712311, 432.053864)
person: 87%
(544.804993, 239.880249) (795.492249, 800.640686)
sub16_h3_sg_2_262.jpg: Predicted in 0.158171 seconds.
person: 86%
(543.103882, 234.720566) (797.424683, 801.899658)
sub16_h3_sg_2_263.jpg: Predicted in 0.156947 seconds.
person: 85%
(547.407532, 245.067123) (794.896851, 799.116150)
sub16_h3_sg_2_264.jpg: Predicted in 0.155643 seconds.
person: 85%
(548.773926, 252.884979) (793.873169, 795.757751)
sub16_h3_sg_2_265.jpg: Predicted in 0.156572 seconds.
sports ball: 37%
(299.074768, 422.662598) (324.376892, 451.355499)
skateboard: 53%
(540.043457, 404.972534) (749.957764, 507.498169)
person: 83%
(549.692810, 237.941452) (795.464050, 796.519775)
sub16_h3_sg_2_266.jpg: Predicted in 0.166753 seconds.
sports ball: 43%
(304.134247, 426.490326) (329.989349, 453.571289)
skateboard: 48%
(541.142029, 403.297791) (746.149841, 505.449310)
person: 84%
(550.542175, 241.303665) (794.783447, 798.366516)
sub16_h3_sg_2_267.jpg: Predicted in 0.157107 seconds.
sports ball: 40%
(306.301544, 427.019958) (329.640198, 453.269226)
skateboard: 35%
(539.909607, 406.258087) (743.197083, 508.663971)
person: 84%
(547.087280, 243.551056) (796.235168, 793.778320)
sub16_h3_sg_2_268.jpg: Predicted in 0.157993 seconds.
sports ball: 39%
(309.031372, 428.028809) (331.071320, 453.187622)
person: 84%
(546.899902, 247.637527) (794.329041, 797.909180)
sub16_h3_sg_2_269.jpg: Predicted in 0.156528 seconds.
sports ball: 40%
(309.069824, 428.755646) (331.493073, 454.284698)
person: 84%
(550.905579, 252.359192) (790.887634, 794.233398)
sub16_h3_sg_2_270.jpg: Predicted in 0.155263 seconds.
sports ball: 37%
(312.226868, 426.831543) (334.979309, 453.501953)
person: 84%
(555.202881, 255.590744) (792.148926, 787.665894)
sub16_h3_sg_2_271.jpg: Predicted in 0.163744 seconds.
sports ball: 40%
(320.541779, 427.642975) (344.004974, 453.309265)
person: 84%
(547.784973, 254.735138) (798.725342, 788.770264)
sub16_h3_sg_2_272.jpg: Predicted in 0.165894 seconds.
sports ball: 37%
(335.998444, 424.081055) (359.589539, 451.299744)
person: 82%
(540.675903, 259.849701) (801.741394, 788.344055)
sub16_h3_sg_2_273.jpg: Predicted in 0.157381 seconds.
sports ball: 38%
(346.904999, 426.438690) (371.514557, 454.720032)
person: 81%
(540.396484, 260.361603) (805.719849, 792.168762)
sub16_h3_sg_2_274.jpg: Predicted in 0.157995 seconds.
sports ball: 31%
(352.237976, 428.408844) (375.587128, 456.698669)
person: 83%
(545.104248, 261.292175) (800.426636, 794.231506)
sub16_h3_sg_2_275.jpg: Predicted in 0.155616 seconds.
sports ball: 33%
(356.387390, 432.818909) (379.711243, 458.393860)
person: 84%
(544.533081, 265.325256) (795.701599, 790.635010)
sub16_h3_sg_2_276.jpg: Predicted in 0.157913 seconds.
person: 85%
(548.545105, 264.310944) (794.151733, 789.524414)
sub16_h3_sg_2_277.jpg: Predicted in 0.157028 seconds.
person: 86%
(551.967896, 264.220367) (790.534546, 788.247437)
sub16_h3_sg_2_278.jpg: Predicted in 0.156509 seconds.
person: 86%
(552.306702, 262.777771) (789.986206, 791.318176)
sub16_h3_sg_2_279.jpg: Predicted in 0.155414 seconds.
person: 85%
(549.605652, 265.688385) (791.575073, 796.222900)
sub16_h3_sg_2_280.jpg: Predicted in 0.158872 seconds.
person: 85%
(549.874817, 266.479523) (793.506409, 797.050903)
sub16_h3_sg_2_281.jpg: Predicted in 0.155927 seconds.
tennis racket: 38%
(555.373047, 417.772858) (597.912170, 526.844055)
person: 86%
(552.996216, 260.530151) (799.051331, 796.103149)
sub16_h3_sg_2_282.jpg: Predicted in 0.158104 seconds.
person: 86%
(549.952576, 263.150299) (801.986694, 794.750610)
sub16_h3_sg_2_283.jpg: Predicted in 0.157697 seconds.
person: 87%
(544.440002, 259.241058) (802.663269, 792.864685)
sub16_h3_sg_2_284.jpg: Predicted in 0.155758 seconds.
person: 87%
(541.256470, 256.894958) (805.912720, 793.878174)
sub16_h3_sg_2_285.jpg: Predicted in 0.155142 seconds.
person: 87%
(545.186340, 259.941284) (802.526978, 789.910034)
sub16_h3_sg_2_286.jpg: Predicted in 0.154087 seconds.
person: 86%
(543.911438, 260.729156) (801.946289, 791.271240)
sub16_h3_sg_2_287.jpg: Predicted in 0.156263 seconds.
person: 86%
(544.154602, 259.906586) (803.936218, 792.774414)
sub16_h3_sg_2_288.jpg: Predicted in 0.157091 seconds.
person: 87%
(545.349854, 256.229370) (803.005859, 797.128906)
sub16_h3_sg_2_289.jpg: Predicted in 0.157482 seconds.
sports ball: 31%
(403.925018, 463.743561) (430.094604, 491.412567)
person: 87%
(536.658020, 259.607666) (810.745850, 790.603394)
sub16_h3_sg_2_290.jpg: Predicted in 0.166114 seconds.
baseball bat: 35%
(493.313629, 400.609314) (602.930908, 538.340271)
person: 86%
(531.701660, 261.027374) (812.731018, 792.001404)
sub16_h3_sg_2_291.jpg: Predicted in 0.155543 seconds.
baseball bat: 43%
(480.426331, 400.214264) (598.298340, 534.511292)
person: 86%
(532.136475, 263.791809) (814.396301, 791.738281)
sub16_h3_sg_2_292.jpg: Predicted in 0.155474 seconds.
baseball bat: 39%
(467.448700, 398.168213) (590.165039, 534.054626)
person: 86%
(534.831543, 263.087250) (813.078308, 791.642334)
sub16_h3_sg_2_293.jpg: Predicted in 0.154945 seconds.
tennis racket: 47%
(459.961792, 390.610199) (587.241455, 534.570679)
person: 86%
(529.783875, 268.814453) (820.749695, 790.770630)
sub16_h3_sg_2_294.jpg: Predicted in 0.157077 seconds.
tennis racket: 54%
(453.226593, 389.791595) (590.211853, 536.502991)
person: 86%
(529.370544, 265.386688) (821.017151, 793.398682)
sub16_h3_sg_2_295.jpg: Predicted in 0.158853 seconds.
baseball bat: 39%
(440.690613, 391.623962) (590.105469, 533.672058)
person: 85%
(533.871826, 269.126068) (818.223206, 791.351074)
sub16_h3_sg_2_296.jpg: Predicted in 0.157194 seconds.
baseball bat: 57%
(433.553558, 400.008026) (592.956665, 530.606140)
person: 84%
(534.343384, 264.533539) (816.437439, 794.163269)
sub16_h3_sg_2_297.jpg: Predicted in 0.157518 seconds.
baseball bat: 61%
(427.742584, 397.302643) (597.751953, 532.075378)
person: 85%
(529.285950, 259.379883) (819.849304, 796.398621)
sub16_h3_sg_2_298.jpg: Predicted in 0.156804 seconds.
baseball bat: 47%
(416.835236, 398.254272) (610.505920, 531.207520)
person: 84%
(536.324219, 261.037048) (814.258850, 794.117859)
sub16_h3_sg_2_299.jpg: Predicted in 0.157214 seconds.
baseball bat: 38%
(412.657166, 391.077209) (610.386719, 529.212341)
person: 83%
(535.372375, 259.578552) (814.835938, 795.937866)
sub16_h3_sg_2_300.jpg: Predicted in 0.157504 seconds.
baseball bat: 34%
(403.596771, 392.907623) (610.902039, 531.686768)
person: 83%
(534.020386, 261.921204) (814.980774, 797.433167)
sub16_h3_sg_2_301.jpg: Predicted in 0.156848 seconds.
baseball bat: 47%
(396.993713, 397.905609) (615.077576, 526.699219)
person: 83%
(537.150757, 261.458771) (811.792603, 793.048645)
sub16_h3_sg_2_302.jpg: Predicted in 0.165926 seconds.
baseball bat: 57%
(396.314056, 398.045380) (615.209290, 520.923706)
person: 83%
(531.092224, 257.289062) (814.310608, 794.385803)
sub16_h3_sg_2_303.jpg: Predicted in 0.156393 seconds.
baseball bat: 59%
(395.886169, 399.208801) (613.703491, 524.753296)
person: 84%
(526.937500, 257.184662) (816.822998, 789.684875)
sub16_h3_sg_2_304.jpg: Predicted in 0.159287 seconds.
baseball bat: 60%
(394.750763, 397.766968) (614.361206, 522.795959)
person: 84%
(527.599304, 258.435822) (816.643860, 791.240417)
sub16_h3_sg_2_305.jpg: Predicted in 0.155822 seconds.
baseball bat: 56%
(390.212158, 399.338776) (618.161621, 522.741943)
baseball bat: 37%
(407.716187, 428.903625) (555.204102, 573.412170)
person: 83%
(536.097717, 254.779404) (813.289368, 792.407898)
sub16_h3_sg_2_306.jpg: Predicted in 0.155962 seconds.
baseball bat: 60%
(393.202454, 400.755402) (617.908386, 520.902954)
person: 82%
(541.106873, 252.078873) (808.939392, 793.377808)
sub16_h3_sg_2_307.jpg: Predicted in 0.154816 seconds.
baseball bat: 57%
(394.517029, 402.374329) (617.172363, 518.763123)
person: 82%
(541.729309, 250.810974) (809.514587, 796.629333)
sub16_h3_sg_2_308.jpg: Predicted in 0.166151 seconds.
sports ball: 33%
(406.243042, 464.810181) (453.270752, 495.816986)
baseball bat: 54%
(392.205963, 403.081696) (620.355957, 516.317261)
person: 82%
(541.750305, 254.346893) (810.277283, 797.666382)
sub16_h3_sg_2_309.jpg: Predicted in 0.165364 seconds.
sports ball: 34%
(402.458496, 464.813171) (443.114685, 493.625977)
baseball bat: 47%
(399.422211, 405.291473) (619.767517, 514.031189)
person: 81%
(541.873413, 256.127136) (810.069031, 795.803772)
sub16_h3_sg_2_310.jpg: Predicted in 0.156508 seconds.
sports ball: 33%
(399.479950, 460.666473) (438.129517, 490.217407)
baseball bat: 38%
(396.627502, 405.415863) (621.242676, 515.438721)
person: 81%
(542.000671, 255.782455) (809.801819, 796.288940)
sub16_h3_sg_2_311.jpg: Predicted in 0.157561 seconds.
baseball bat: 44%
(392.840454, 405.847870) (625.157898, 514.954834)
baseball bat: 42%
(388.575439, 435.163818) (561.980347, 570.655884)
person: 82%
(542.332581, 253.649933) (808.916687, 793.817139)
sub16_h3_sg_2_312.jpg: Predicted in 0.155222 seconds.
baseball bat: 46%
(384.345367, 409.171417) (627.863892, 517.759094)
baseball bat: 58%
(394.276154, 429.910461) (553.529907, 572.882690)
person: 81%
(533.568237, 249.131989) (811.334106, 794.627563)
sub16_h3_sg_2_313.jpg: Predicted in 0.155190 seconds.
baseball bat: 55%
(387.318665, 416.234436) (568.304626, 541.250854)
person: 81%
(531.584534, 258.892883) (812.401062, 788.693848)
sub16_h3_sg_2_314.jpg: Predicted in 0.156002 seconds.
baseball bat: 59%
(383.739227, 415.375183) (568.528198, 542.882080)
person: 82%
(529.347595, 256.802490) (812.911926, 791.157227)
sub16_h3_sg_2_315.jpg: Predicted in 0.156506 seconds.
baseball bat: 59%
(386.988464, 430.583191) (557.824097, 571.273315)
person: 82%
(531.036987, 254.501373) (813.722229, 790.232544)
sub16_h3_sg_2_316.jpg: Predicted in 0.156485 seconds.
sports ball: 32%
(359.432617, 436.819183) (387.296753, 464.296326)
baseball bat: 65%
(385.341095, 430.462952) (558.749268, 570.719055)
person: 83%
(524.102173, 252.669937) (817.726562, 796.041382)
sub16_h3_sg_2_317.jpg: Predicted in 0.157359 seconds.
sports ball: 51%
(356.408203, 431.485687) (385.227753, 459.840057)
baseball bat: 65%
(373.944458, 415.100800) (572.670410, 543.501526)
person: 81%
(532.969299, 247.311478) (813.460449, 798.936584)
sub16_h3_sg_2_318.jpg: Predicted in 0.156409 seconds.
sports ball: 51%
(350.555573, 428.124908) (381.558533, 458.090881)
baseball bat: 68%
(377.476807, 415.189880) (569.307373, 543.853821)
person: 81%
(530.994202, 255.440811) (813.335754, 796.484558)
sub16_h3_sg_2_319.jpg: Predicted in 0.158501 seconds.
sports ball: 49%
(334.493469, 426.018707) (364.510803, 453.920563)
baseball bat: 70%
(373.552307, 415.220032) (569.316711, 542.421936)
person: 81%
(531.786926, 251.125595) (813.642761, 799.522156)
sub16_h3_sg_2_320.jpg: Predicted in 0.155677 seconds.
sports ball: 40%
(318.521057, 429.323853) (345.264038, 454.802063)
baseball bat: 72%
(371.918396, 415.328766) (566.832825, 543.009399)
person: 82%
(531.161865, 250.262268) (814.734009, 801.737305)
sub16_h3_sg_2_321.jpg: Predicted in 0.163279 seconds.
sports ball: 44%
(314.637024, 426.480743) (340.606140, 454.282501)
baseball bat: 70%
(369.165100, 413.767242) (564.762695, 542.671082)
person: 82%
(531.269104, 250.565170) (814.655701, 798.277344)
