sub17_b1_lg_1_001.jpg: Predicted in 0.163189 seconds.
sub17_b1_lg_1_002.jpg: Predicted in 0.163611 seconds.
sub17_b1_lg_1_003.jpg: Predicted in 0.154349 seconds.
sub17_b1_lg_1_004.jpg: Predicted in 0.155710 seconds.
sub17_b1_lg_1_005.jpg: Predicted in 0.154711 seconds.
sub17_b1_lg_1_006.jpg: Predicted in 0.155823 seconds.
sub17_b1_lg_1_007.jpg: Predicted in 0.222827 seconds.
sub17_b1_lg_1_008.jpg: Predicted in 0.154616 seconds.
sub17_b1_lg_1_009.jpg: Predicted in 0.153674 seconds.
sub17_b1_lg_1_010.jpg: Predicted in 0.154032 seconds.
sub17_b1_lg_1_011.jpg: Predicted in 0.155209 seconds.
sub17_b1_lg_1_012.jpg: Predicted in 0.154833 seconds.
sub17_b1_lg_1_013.jpg: Predicted in 0.156204 seconds.
sub17_b1_lg_1_014.jpg: Predicted in 0.155056 seconds.
sub17_b1_lg_1_015.jpg: Predicted in 0.153767 seconds.
sub17_b1_lg_1_016.jpg: Predicted in 0.155848 seconds.
sub17_b1_lg_1_017.jpg: Predicted in 0.153951 seconds.
sub17_b1_lg_1_018.jpg: Predicted in 0.154182 seconds.
sub17_b1_lg_1_019.jpg: Predicted in 0.154837 seconds.
sub17_b1_lg_1_020.jpg: Predicted in 0.155254 seconds.
sub17_b1_lg_1_021.jpg: Predicted in 0.155651 seconds.
sub17_b1_lg_1_022.jpg: Predicted in 0.154656 seconds.
sub17_b1_lg_1_023.jpg: Predicted in 0.153524 seconds.
sub17_b1_lg_1_024.jpg: Predicted in 0.156788 seconds.
sub17_b1_lg_1_025.jpg: Predicted in 0.157745 seconds.
sub17_b1_lg_1_026.jpg: Predicted in 0.158583 seconds.
sub17_b1_lg_1_027.jpg: Predicted in 0.154146 seconds.
sub17_b1_lg_1_028.jpg: Predicted in 0.153935 seconds.
sub17_b1_lg_1_029.jpg: Predicted in 0.156403 seconds.
sub17_b1_lg_1_030.jpg: Predicted in 0.155659 seconds.
sub17_b1_lg_1_031.jpg: Predicted in 0.154577 seconds.
sub17_b1_lg_1_032.jpg: Predicted in 0.156944 seconds.
sub17_b1_lg_1_033.jpg: Predicted in 0.155810 seconds.
sub17_b1_lg_1_034.jpg: Predicted in 0.153739 seconds.
sub17_b1_lg_1_035.jpg: Predicted in 0.155483 seconds.
sub17_b1_lg_1_036.jpg: Predicted in 0.156384 seconds.
sub17_b1_lg_1_037.jpg: Predicted in 0.156446 seconds.
sub17_b1_lg_1_038.jpg: Predicted in 0.154542 seconds.
sub17_b1_lg_1_039.jpg: Predicted in 0.156308 seconds.
sub17_b1_lg_1_040.jpg: Predicted in 0.154206 seconds.
sub17_b1_lg_1_041.jpg: Predicted in 0.153981 seconds.
sub17_b1_lg_1_042.jpg: Predicted in 0.155938 seconds.
sub17_b1_lg_1_043.jpg: Predicted in 0.154751 seconds.
sub17_b1_lg_1_044.jpg: Predicted in 0.154369 seconds.
sub17_b1_lg_1_045.jpg: Predicted in 0.155718 seconds.
sub17_b1_lg_1_046.jpg: Predicted in 0.156231 seconds.
sub17_b1_lg_1_047.jpg: Predicted in 0.155655 seconds.
sub17_b1_lg_1_048.jpg: Predicted in 0.157804 seconds.
sub17_b1_lg_1_049.jpg: Predicted in 0.155813 seconds.
sub17_b1_lg_1_050.jpg: Predicted in 0.156354 seconds.
sub17_b1_lg_1_051.jpg: Predicted in 0.155992 seconds.
sub17_b1_lg_1_052.jpg: Predicted in 0.163184 seconds.
sub17_b1_lg_1_053.jpg: Predicted in 0.155593 seconds.
sub17_b1_lg_1_054.jpg: Predicted in 0.156102 seconds.
sub17_b1_lg_1_055.jpg: Predicted in 0.155917 seconds.
sub17_b1_lg_1_056.jpg: Predicted in 0.156663 seconds.
sub17_b1_lg_1_057.jpg: Predicted in 0.153752 seconds.
sub17_b1_lg_1_058.jpg: Predicted in 0.156653 seconds.
sub17_b1_lg_1_059.jpg: Predicted in 0.153791 seconds.
sub17_b1_lg_1_060.jpg: Predicted in 0.156154 seconds.
sub17_b1_lg_1_061.jpg: Predicted in 0.153201 seconds.
sub17_b1_lg_1_062.jpg: Predicted in 0.155385 seconds.
sub17_b1_lg_1_063.jpg: Predicted in 0.154679 seconds.
sub17_b1_lg_1_064.jpg: Predicted in 0.156046 seconds.
sub17_b1_lg_1_065.jpg: Predicted in 0.155802 seconds.
sub17_b1_lg_1_066.jpg: Predicted in 0.156962 seconds.
sub17_b1_lg_1_067.jpg: Predicted in 0.153560 seconds.
sub17_b1_lg_1_068.jpg: Predicted in 0.153999 seconds.
sub17_b1_lg_1_069.jpg: Predicted in 0.156846 seconds.
sub17_b1_lg_1_070.jpg: Predicted in 0.155510 seconds.
sub17_b1_lg_1_071.jpg: Predicted in 0.154942 seconds.
sub17_b1_lg_1_072.jpg: Predicted in 0.154468 seconds.
sub17_b1_lg_1_073.jpg: Predicted in 0.155105 seconds.
sub17_b1_lg_1_074.jpg: Predicted in 0.154027 seconds.
sub17_b1_lg_1_075.jpg: Predicted in 0.157306 seconds.
sub17_b1_lg_1_076.jpg: Predicted in 0.155050 seconds.
sub17_b1_lg_1_077.jpg: Predicted in 0.154259 seconds.
sub17_b1_lg_1_078.jpg: Predicted in 0.156823 seconds.
sub17_b1_lg_1_079.jpg: Predicted in 0.153818 seconds.
sub17_b1_lg_1_080.jpg: Predicted in 0.156782 seconds.
sub17_b1_lg_1_081.jpg: Predicted in 0.156236 seconds.
sub17_b1_lg_1_082.jpg: Predicted in 0.156597 seconds.
sub17_b1_lg_1_083.jpg: Predicted in 0.155646 seconds.
sub17_b1_lg_1_084.jpg: Predicted in 0.156452 seconds.
sub17_b1_lg_1_085.jpg: Predicted in 0.155448 seconds.
sub17_b1_lg_1_086.jpg: Predicted in 0.155808 seconds.
sub17_b1_lg_1_087.jpg: Predicted in 0.155487 seconds.
sub17_b1_lg_1_088.jpg: Predicted in 0.154798 seconds.
sub17_b1_lg_1_089.jpg: Predicted in 0.162975 seconds.
sub17_b1_lg_1_090.jpg: Predicted in 0.154095 seconds.
sub17_b1_lg_1_091.jpg: Predicted in 0.154981 seconds.
sub17_b1_lg_1_092.jpg: Predicted in 0.155209 seconds.
sub17_b1_lg_1_093.jpg: Predicted in 0.155092 seconds.
sub17_b1_lg_1_094.jpg: Predicted in 0.157265 seconds.
sub17_b1_lg_1_095.jpg: Predicted in 0.154899 seconds.
sub17_b1_lg_1_096.jpg: Predicted in 0.154483 seconds.
sub17_b1_lg_1_097.jpg: Predicted in 0.155568 seconds.
sub17_b1_lg_1_098.jpg: Predicted in 0.164875 seconds.
sub17_b1_lg_1_099.jpg: Predicted in 0.155127 seconds.
sub17_b1_lg_1_100.jpg: Predicted in 0.155147 seconds.
sub17_b1_lg_1_101.jpg: Predicted in 0.156237 seconds.
sub17_b1_lg_1_102.jpg: Predicted in 0.154794 seconds.
sub17_b1_lg_1_103.jpg: Predicted in 0.156655 seconds.
sub17_b1_lg_1_104.jpg: Predicted in 0.153583 seconds.
sub17_b1_lg_1_105.jpg: Predicted in 0.155132 seconds.
sub17_b1_lg_1_106.jpg: Predicted in 0.156540 seconds.
sub17_b1_lg_1_107.jpg: Predicted in 0.154798 seconds.
sub17_b1_lg_1_108.jpg: Predicted in 0.156258 seconds.
sub17_b1_lg_1_109.jpg: Predicted in 0.163316 seconds.
sub17_b1_lg_1_110.jpg: Predicted in 0.154878 seconds.
sub17_b1_lg_1_111.jpg: Predicted in 0.154696 seconds.
sub17_b1_lg_1_112.jpg: Predicted in 0.155847 seconds.
sub17_b1_lg_1_113.jpg: Predicted in 0.154571 seconds.
sub17_b1_lg_1_114.jpg: Predicted in 0.157221 seconds.
sub17_b1_lg_1_115.jpg: Predicted in 0.157232 seconds.
sub17_b1_lg_1_116.jpg: Predicted in 0.158306 seconds.
sub17_b1_lg_1_117.jpg: Predicted in 0.157237 seconds.
sub17_b1_lg_1_118.jpg: Predicted in 0.154676 seconds.
sub17_b1_lg_1_119.jpg: Predicted in 0.157001 seconds.
sub17_b1_lg_1_120.jpg: Predicted in 0.157169 seconds.
sub17_b1_lg_1_121.jpg: Predicted in 0.155654 seconds.
sub17_b1_lg_1_122.jpg: Predicted in 0.155863 seconds.
sub17_b1_lg_1_123.jpg: Predicted in 0.154902 seconds.
sub17_b1_lg_1_124.jpg: Predicted in 0.154930 seconds.
sub17_b1_lg_1_125.jpg: Predicted in 0.156472 seconds.
sub17_b1_lg_1_126.jpg: Predicted in 0.154284 seconds.
sub17_b1_lg_1_127.jpg: Predicted in 0.154819 seconds.
sub17_b1_lg_1_128.jpg: Predicted in 0.157876 seconds.
sub17_b1_lg_1_129.jpg: Predicted in 0.157850 seconds.
sub17_b1_lg_1_130.jpg: Predicted in 0.155983 seconds.
sub17_b1_lg_1_131.jpg: Predicted in 0.155805 seconds.
sub17_b1_lg_1_132.jpg: Predicted in 0.155743 seconds.
sub17_b1_lg_1_133.jpg: Predicted in 0.154725 seconds.
sub17_b1_lg_1_134.jpg: Predicted in 0.155785 seconds.
sub17_b1_lg_1_135.jpg: Predicted in 0.154743 seconds.
sub17_b1_lg_1_136.jpg: Predicted in 0.156873 seconds.
sub17_b1_lg_1_137.jpg: Predicted in 0.154681 seconds.
sub17_b1_lg_1_138.jpg: Predicted in 0.154627 seconds.
sub17_b1_lg_1_139.jpg: Predicted in 0.155985 seconds.
sub17_b1_lg_1_140.jpg: Predicted in 0.154566 seconds.
sub17_b1_lg_1_141.jpg: Predicted in 0.154336 seconds.
sub17_b1_lg_1_142.jpg: Predicted in 0.153937 seconds.
sub17_b1_lg_1_143.jpg: Predicted in 0.155002 seconds.
sub17_b1_lg_1_144.jpg: Predicted in 0.154844 seconds.
sub17_b1_lg_1_145.jpg: Predicted in 0.155144 seconds.
sub17_b1_lg_1_146.jpg: Predicted in 0.153678 seconds.
sub17_b1_lg_1_147.jpg: Predicted in 0.154123 seconds.
sub17_b1_lg_1_148.jpg: Predicted in 0.155273 seconds.
baseball bat: 35%
(309.696655, 174.468094) (333.265381, 284.679504)
sub17_b1_lg_1_149.jpg: Predicted in 0.153663 seconds.
baseball bat: 38%
(308.853302, 174.748505) (337.060455, 287.005066)
sub17_b1_lg_1_150.jpg: Predicted in 0.157662 seconds.
baseball bat: 47%
(307.647705, 176.274368) (336.470886, 287.096039)
sub17_b1_lg_1_151.jpg: Predicted in 0.155833 seconds.
baseball bat: 46%
(307.791748, 176.320374) (338.236328, 287.976868)
sub17_b1_lg_1_152.jpg: Predicted in 0.159371 seconds.
baseball bat: 48%
(308.832764, 177.866806) (341.461578, 287.247650)
sub17_b1_lg_1_153.jpg: Predicted in 0.157008 seconds.
baseball bat: 52%
(308.889099, 179.293762) (341.983459, 288.009033)
sub17_b1_lg_1_154.jpg: Predicted in 0.157331 seconds.
baseball bat: 56%
(305.681519, 180.689392) (342.025635, 290.892700)
sub17_b1_lg_1_155.jpg: Predicted in 0.156411 seconds.
baseball bat: 57%
(304.423431, 180.172714) (343.255646, 292.806610)
sub17_b1_lg_1_156.jpg: Predicted in 0.155670 seconds.
baseball bat: 32%
(298.406403, 121.336815) (334.382965, 230.396744)
baseball bat: 59%
(303.470551, 180.427795) (346.559723, 294.553284)
sub17_b1_lg_1_157.jpg: Predicted in 0.157350 seconds.
baseball bat: 31%
(297.832581, 123.741615) (334.295349, 230.619537)
baseball bat: 56%
(302.943237, 180.328400) (346.335327, 294.224518)
sub17_b1_lg_1_158.jpg: Predicted in 0.155562 seconds.
baseball bat: 32%
(295.858368, 123.592720) (333.992737, 229.483566)
baseball bat: 60%
(301.232422, 181.259308) (347.059204, 294.179047)
sub17_b1_lg_1_159.jpg: Predicted in 0.156992 seconds.
baseball bat: 32%
(293.835632, 123.654785) (334.093231, 229.501404)
baseball bat: 62%
(299.586731, 181.584641) (347.955383, 294.492249)
sub17_b1_lg_1_160.jpg: Predicted in 0.156737 seconds.
baseball bat: 64%
(296.974548, 180.195435) (347.575226, 297.038391)
sub17_b1_lg_1_161.jpg: Predicted in 0.157184 seconds.
baseball bat: 62%
(296.453186, 179.625183) (349.261292, 298.324585)
sub17_b1_lg_1_162.jpg: Predicted in 0.160234 seconds.
baseball bat: 62%
(294.946747, 178.781372) (350.001221, 300.044586)
sub17_b1_lg_1_163.jpg: Predicted in 0.160431 seconds.
baseball bat: 57%
(292.745270, 176.670471) (349.534180, 303.438080)
sub17_b1_lg_1_164.jpg: Predicted in 0.156619 seconds.
baseball bat: 54%
(292.848419, 177.160583) (353.814392, 302.963501)
sub17_b1_lg_1_165.jpg: Predicted in 0.162521 seconds.
baseball bat: 52%
(292.850861, 177.124863) (353.360840, 302.717377)
sub17_b1_lg_1_166.jpg: Predicted in 0.156552 seconds.
baseball bat: 47%
(292.320984, 177.669678) (354.588562, 301.344910)
sub17_b1_lg_1_167.jpg: Predicted in 0.155092 seconds.
baseball bat: 33%
(291.140717, 180.486572) (351.774323, 320.085358)
sub17_b1_lg_1_168.jpg: Predicted in 0.155098 seconds.
baseball bat: 42%
(289.394897, 183.385544) (354.032684, 320.328430)
sub17_b1_lg_1_169.jpg: Predicted in 0.156689 seconds.
baseball bat: 47%
(286.397888, 184.360901) (355.858978, 320.557770)
sub17_b1_lg_1_170.jpg: Predicted in 0.156549 seconds.
baseball bat: 44%
(283.567352, 188.151443) (357.327576, 320.716980)
sub17_b1_lg_1_171.jpg: Predicted in 0.156239 seconds.
baseball bat: 49%
(279.632568, 190.463608) (358.353912, 318.973053)
sub17_b1_lg_1_172.jpg: Predicted in 0.156570 seconds.
baseball bat: 54%
(271.296936, 195.083679) (372.446594, 322.504242)
sub17_b1_lg_1_173.jpg: Predicted in 0.166726 seconds.
baseball bat: 57%
(272.145264, 193.617889) (371.296112, 325.032898)
sub17_b1_lg_1_174.jpg: Predicted in 0.156928 seconds.
baseball bat: 54%
(269.992065, 195.292740) (372.703766, 320.471069)
sub17_b1_lg_1_175.jpg: Predicted in 0.154047 seconds.
baseball bat: 60%
(266.112457, 193.298523) (372.514557, 319.639587)
sub17_b1_lg_1_176.jpg: Predicted in 0.164511 seconds.
baseball bat: 56%
(261.589508, 191.062469) (373.757507, 321.148010)
sub17_b1_lg_1_177.jpg: Predicted in 0.160801 seconds.
baseball bat: 56%
(259.519714, 193.820465) (374.301941, 318.237885)
sub17_b1_lg_1_178.jpg: Predicted in 0.154267 seconds.
baseball bat: 59%
(257.511536, 193.870255) (377.444611, 319.640106)
sub17_b1_lg_1_179.jpg: Predicted in 0.157041 seconds.
baseball bat: 62%
(255.916122, 196.149139) (380.248199, 317.630493)
sub17_b1_lg_1_180.jpg: Predicted in 0.155818 seconds.
baseball bat: 66%
(254.938400, 198.017532) (380.605530, 317.310120)
sub17_b1_lg_1_181.jpg: Predicted in 0.156271 seconds.
baseball bat: 33%
(177.057663, 150.959579) (308.011841, 261.260559)
baseball bat: 68%
(254.031921, 199.070526) (381.475739, 318.490448)
sub17_b1_lg_1_182.jpg: Predicted in 0.156223 seconds.
baseball bat: 38%
(178.216171, 153.942703) (311.348602, 263.783142)
baseball bat: 69%
(254.698502, 201.507874) (383.583740, 319.064117)
sub17_b1_lg_1_183.jpg: Predicted in 0.155972 seconds.
baseball bat: 38%
(175.035995, 156.530258) (312.180145, 264.740265)
baseball bat: 68%
(252.858444, 203.216904) (385.414001, 318.375183)
sub17_b1_lg_1_184.jpg: Predicted in 0.163631 seconds.
baseball bat: 40%
(175.639587, 157.564972) (313.054565, 265.043518)
baseball bat: 69%
(253.020111, 204.739212) (386.052795, 316.302124)
sub17_b1_lg_1_185.jpg: Predicted in 0.154873 seconds.
baseball bat: 39%
(168.648422, 160.921188) (312.770752, 267.437653)
baseball bat: 68%
(249.847672, 206.684921) (388.205383, 317.367218)
sub17_b1_lg_1_186.jpg: Predicted in 0.157992 seconds.
baseball bat: 39%
(158.662888, 161.296295) (313.190063, 269.293732)
baseball bat: 67%
(243.676727, 206.243301) (388.535034, 317.640472)
sub17_b1_lg_1_187.jpg: Predicted in 0.154773 seconds.
baseball bat: 43%
(161.238525, 162.796036) (317.337860, 270.150604)
baseball bat: 68%
(241.401489, 208.423584) (388.330414, 316.216034)
sub17_b1_lg_1_188.jpg: Predicted in 0.154290 seconds.
baseball bat: 43%
(157.215958, 168.077728) (317.975403, 271.371857)
baseball bat: 68%
(242.080841, 211.795227) (391.959381, 315.665741)
sub17_b1_lg_1_189.jpg: Predicted in 0.154545 seconds.
baseball bat: 42%
(158.795349, 174.200760) (316.915985, 270.794067)
baseball bat: 68%
(246.548126, 216.738159) (393.808716, 316.244171)
sub17_b1_lg_1_190.jpg: Predicted in 0.155138 seconds.
baseball bat: 45%
(159.737991, 178.804535) (319.692657, 272.239502)
baseball bat: 69%
(246.563248, 219.881531) (397.615295, 315.733856)
sub17_b1_lg_1_191.jpg: Predicted in 0.164474 seconds.
baseball bat: 45%
(158.174454, 179.408600) (319.790802, 274.846985)
baseball bat: 69%
(246.544998, 221.032486) (401.062439, 318.588867)
sub17_b1_lg_1_192.jpg: Predicted in 0.159717 seconds.
baseball bat: 42%
(149.529022, 183.136597) (317.096313, 277.064667)
baseball bat: 67%
(244.724503, 222.312073) (402.679291, 319.463593)
sub17_b1_lg_1_193.jpg: Predicted in 0.156928 seconds.
baseball bat: 42%
(143.170380, 184.385849) (316.869904, 280.301361)
baseball bat: 66%
(239.644745, 220.962906) (404.840881, 320.049438)
sub17_b1_lg_1_194.jpg: Predicted in 0.163868 seconds.
baseball bat: 41%
(139.783310, 187.193863) (317.413452, 280.783539)
baseball bat: 65%
(237.925842, 222.264359) (406.839417, 318.361725)
sub17_b1_lg_1_195.jpg: Predicted in 0.154468 seconds.
baseball bat: 45%
(140.986923, 188.821777) (317.938995, 281.815399)
baseball bat: 64%
(238.061310, 222.409180) (407.912201, 318.791534)
sub17_b1_lg_1_196.jpg: Predicted in 0.156190 seconds.
baseball bat: 47%
(141.900696, 191.258163) (320.848907, 283.289459)
baseball bat: 64%
(243.464111, 225.005325) (413.516022, 321.308380)
sub17_b1_lg_1_197.jpg: Predicted in 0.154882 seconds.
baseball bat: 55%
(144.683334, 189.532135) (319.859161, 285.233673)
baseball bat: 66%
(246.545227, 228.011841) (412.657867, 328.641113)
sub17_b1_lg_1_198.jpg: Predicted in 0.165072 seconds.
baseball bat: 57%
(142.878555, 191.142761) (319.839691, 284.701752)
baseball bat: 65%
(243.880661, 229.293839) (412.477356, 327.204742)
sub17_b1_lg_1_199.jpg: Predicted in 0.158008 seconds.
baseball bat: 59%
(140.666168, 192.278000) (320.636475, 285.129303)
baseball bat: 65%
(244.026093, 230.080826) (417.932220, 328.220398)
sub17_b1_lg_1_200.jpg: Predicted in 0.156707 seconds.
baseball bat: 58%
(137.427429, 193.744171) (320.401123, 285.150696)
baseball bat: 64%
(243.654800, 230.794281) (418.904785, 326.770111)
sub17_b1_lg_1_201.jpg: Predicted in 0.155642 seconds.
baseball bat: 52%
(130.271225, 196.637238) (319.151337, 285.255402)
baseball bat: 62%
(243.864319, 232.779160) (421.782410, 327.256439)
sub17_b1_lg_1_202.jpg: Predicted in 0.156226 seconds.
baseball bat: 42%
(124.254768, 201.081848) (321.769775, 284.816711)
baseball bat: 59%
(243.955658, 234.363892) (425.532562, 323.378113)
sub17_b1_lg_1_203.jpg: Predicted in 0.154554 seconds.
baseball bat: 31%
(123.501900, 201.182968) (321.221375, 285.567841)
baseball bat: 58%
(246.348709, 235.308060) (427.158295, 324.658417)
sub17_b1_lg_1_204.jpg: Predicted in 0.155787 seconds.
baseball bat: 56%
(244.482056, 236.374908) (430.839996, 325.720581)
sub17_b1_lg_1_205.jpg: Predicted in 0.155466 seconds.
baseball bat: 33%
(142.294647, 214.334427) (335.166351, 291.645508)
baseball bat: 55%
(239.690460, 239.431595) (431.162964, 322.773346)
sub17_b1_lg_1_206.jpg: Predicted in 0.154472 seconds.
baseball bat: 31%
(136.154114, 216.681976) (333.897827, 292.649109)
baseball bat: 44%
(238.094193, 240.078079) (432.238159, 321.927399)
sub17_b1_lg_1_207.jpg: Predicted in 0.155774 seconds.
baseball bat: 45%
(239.409073, 245.557465) (435.531097, 325.285217)
sub17_b1_lg_1_208.jpg: Predicted in 0.156174 seconds.
baseball bat: 31%
(239.632172, 245.726151) (437.961212, 326.537659)
sub17_b1_lg_1_209.jpg: Predicted in 0.155780 seconds.
sub17_b1_lg_1_210.jpg: Predicted in 0.165477 seconds.
baseball bat: 30%
(237.133347, 253.233490) (443.517914, 326.645447)
sub17_b1_lg_1_211.jpg: Predicted in 0.156141 seconds.
baseball bat: 36%
(234.063858, 255.922501) (445.622589, 327.105774)
sub17_b1_lg_1_212.jpg: Predicted in 0.155208 seconds.
baseball bat: 31%
(149.225708, 238.902390) (324.248383, 297.403564)
baseball bat: 30%
(261.004181, 255.371399) (419.815308, 319.907837)
sub17_b1_lg_1_213.jpg: Predicted in 0.163405 seconds.
baseball bat: 39%
(144.895905, 243.450989) (330.477783, 297.630676)
baseball bat: 40%
(255.520218, 261.570801) (425.732513, 322.097626)
sub17_b1_lg_1_214.jpg: Predicted in 0.155351 seconds.
baseball bat: 41%
(146.689087, 246.122116) (336.349243, 297.168823)
baseball bat: 44%
(256.249603, 263.192413) (427.692719, 319.643860)
sub17_b1_lg_1_215.jpg: Predicted in 0.157872 seconds.
baseball bat: 32%
(141.388977, 246.109909) (338.194427, 297.070618)
baseball bat: 30%
(259.556976, 263.465912) (428.493866, 318.387299)
sub17_b1_lg_1_216.jpg: Predicted in 0.156932 seconds.
sub17_b1_lg_1_217.jpg: Predicted in 0.155168 seconds.
sub17_b1_lg_1_218.jpg: Predicted in 0.157544 seconds.
sub17_b1_lg_1_219.jpg: Predicted in 0.165013 seconds.
sub17_b1_lg_1_220.jpg: Predicted in 0.157955 seconds.
sub17_b1_lg_1_221.jpg: Predicted in 0.163332 seconds.
sub17_b1_lg_1_222.jpg: Predicted in 0.155695 seconds.
sub17_b1_lg_1_223.jpg: Predicted in 0.155103 seconds.
sub17_b1_lg_1_224.jpg: Predicted in 0.157522 seconds.
sub17_b1_lg_1_225.jpg: Predicted in 0.169232 seconds.
sub17_b1_lg_1_226.jpg: Predicted in 0.156662 seconds.
sub17_b1_lg_1_227.jpg: Predicted in 0.155542 seconds.
sub17_b1_lg_1_228.jpg: Predicted in 0.155360 seconds.
sub17_b1_lg_1_229.jpg: Predicted in 0.155413 seconds.
sub17_b1_lg_1_230.jpg: Predicted in 0.154993 seconds.
sub17_b1_lg_1_231.jpg: Predicted in 0.164644 seconds.
sub17_b1_lg_1_232.jpg: Predicted in 0.164201 seconds.
sub17_b1_lg_1_233.jpg: Predicted in 0.164852 seconds.
sub17_b1_lg_1_234.jpg: Predicted in 0.165348 seconds.
sub17_b1_lg_1_235.jpg: Predicted in 0.157704 seconds.
sub17_b1_lg_1_236.jpg: Predicted in 0.156023 seconds.
sub17_b1_lg_1_237.jpg: Predicted in 0.157504 seconds.
sub17_b1_lg_1_238.jpg: Predicted in 0.155451 seconds.
sub17_b1_lg_1_239.jpg: Predicted in 0.156547 seconds.
sub17_b1_lg_1_240.jpg: Predicted in 0.156808 seconds.
sub17_b1_lg_1_241.jpg: Predicted in 0.158204 seconds.
sub17_b1_lg_1_242.jpg: Predicted in 0.155744 seconds.
sub17_b1_lg_1_243.jpg: Predicted in 0.155031 seconds.
sub17_b1_lg_1_244.jpg: Predicted in 0.156500 seconds.
sub17_b1_lg_1_245.jpg: Predicted in 0.155417 seconds.
baseball bat: 37%
(319.753082, 288.876862) (507.915375, 368.852966)
sub17_b1_lg_1_246.jpg: Predicted in 0.154907 seconds.
baseball bat: 54%
(323.054749, 289.352997) (505.746521, 379.046997)
sub17_b1_lg_1_247.jpg: Predicted in 0.155506 seconds.
baseball bat: 68%
(326.306152, 290.529877) (504.294983, 382.160889)
sub17_b1_lg_1_248.jpg: Predicted in 0.155948 seconds.
baseball bat: 68%
(333.486755, 288.616150) (503.589264, 387.695587)
sub17_b1_lg_1_249.jpg: Predicted in 0.155382 seconds.
baseball bat: 70%
(337.675110, 289.200165) (503.628448, 389.926788)
sub17_b1_lg_1_250.jpg: Predicted in 0.156079 seconds.
baseball bat: 66%
(339.015076, 287.973053) (504.437378, 396.610565)
sub17_b1_lg_1_251.jpg: Predicted in 0.155027 seconds.
baseball bat: 69%
(341.603577, 287.844818) (503.760895, 397.987762)
sub17_b1_lg_1_252.jpg: Predicted in 0.156586 seconds.
baseball bat: 61%
(342.996613, 285.993530) (505.065308, 398.556580)
sub17_b1_lg_1_253.jpg: Predicted in 0.155176 seconds.
baseball bat: 63%
(348.107147, 286.178711) (499.071198, 402.425720)
sub17_b1_lg_1_254.jpg: Predicted in 0.156394 seconds.
baseball bat: 71%
(356.478149, 287.681580) (497.195343, 406.703125)
sub17_b1_lg_1_255.jpg: Predicted in 0.165046 seconds.
baseball bat: 70%
(362.526581, 288.433929) (497.306732, 404.032867)
sub17_b1_lg_1_256.jpg: Predicted in 0.157865 seconds.
baseball bat: 53%
(371.049713, 278.803619) (498.707886, 413.769135)
sub17_b1_lg_1_257.jpg: Predicted in 0.156973 seconds.
baseball bat: 71%
(377.332489, 286.385559) (495.879333, 412.572601)
sub17_b1_lg_1_258.jpg: Predicted in 0.158818 seconds.
baseball bat: 62%
(383.045715, 284.158295) (496.151733, 409.708862)
sub17_b1_lg_1_259.jpg: Predicted in 0.195859 seconds.
baseball bat: 51%
(405.492676, 285.400757) (495.871765, 410.270355)
sub17_b1_lg_1_260.jpg: Predicted in 0.156038 seconds.
baseball bat: 59%
(413.173065, 284.155762) (496.710052, 407.772797)
sub17_b1_lg_1_261.jpg: Predicted in 0.158170 seconds.
baseball bat: 58%
(417.143768, 283.377411) (499.989014, 408.092651)
sub17_b1_lg_1_262.jpg: Predicted in 0.157103 seconds.
baseball bat: 62%
(428.264313, 281.056488) (497.188416, 409.966064)
sub17_b1_lg_1_263.jpg: Predicted in 0.155108 seconds.
baseball bat: 70%
(434.969727, 283.616882) (494.069275, 415.239655)
sub17_b1_lg_1_264.jpg: Predicted in 0.156403 seconds.
baseball bat: 70%
(440.369690, 284.438202) (494.239166, 415.527496)
sub17_b1_lg_1_265.jpg: Predicted in 0.164678 seconds.
baseball bat: 70%
(446.900757, 282.771698) (492.182343, 415.204193)
sub17_b1_lg_1_266.jpg: Predicted in 0.157194 seconds.
baseball bat: 65%
(451.735077, 280.701385) (493.164154, 412.450348)
sub17_b1_lg_1_267.jpg: Predicted in 0.155746 seconds.
baseball bat: 55%
(458.174469, 278.079346) (493.766205, 407.790436)
sub17_b1_lg_1_268.jpg: Predicted in 0.164600 seconds.
sub17_b1_lg_1_269.jpg: Predicted in 0.154804 seconds.
sub17_b1_lg_1_270.jpg: Predicted in 0.162842 seconds.
sub17_b1_lg_1_271.jpg: Predicted in 0.157325 seconds.
sub17_b1_lg_1_272.jpg: Predicted in 0.155812 seconds.
baseball bat: 43%
(480.043213, 285.612030) (515.466370, 414.527008)
sub17_b1_lg_1_273.jpg: Predicted in 0.160696 seconds.
sub17_b1_lg_1_274.jpg: Predicted in 0.156438 seconds.
sub17_b1_lg_1_275.jpg: Predicted in 0.156921 seconds.
baseball bat: 60%
(472.550140, 282.582550) (536.720154, 428.108917)
sub17_b1_lg_1_276.jpg: Predicted in 0.155426 seconds.
baseball bat: 55%
(472.487976, 283.668884) (545.547058, 429.866608)
sub17_b1_lg_1_277.jpg: Predicted in 0.157074 seconds.
baseball bat: 60%
(474.724182, 286.719818) (552.828918, 430.230835)
sub17_b1_lg_1_278.jpg: Predicted in 0.164694 seconds.
baseball bat: 67%
(467.865509, 275.725342) (568.336243, 433.759399)
sub17_b1_lg_1_279.jpg: Predicted in 0.155658 seconds.
baseball bat: 66%
(462.299500, 267.967987) (580.997864, 438.734863)
sub17_b1_lg_1_280.jpg: Predicted in 0.158027 seconds.
baseball bat: 34%
(477.842743, 210.054306) (641.820496, 366.883423)
baseball bat: 73%
(462.245148, 273.494446) (582.353516, 436.384216)
sub17_b1_lg_1_281.jpg: Predicted in 0.170567 seconds.
baseball bat: 30%
(475.276398, 207.308533) (650.965271, 372.340485)
baseball bat: 71%
(458.927795, 267.811462) (592.037231, 438.941681)
sub17_b1_lg_1_282.jpg: Predicted in 0.156830 seconds.
baseball bat: 71%
(459.157623, 269.157654) (595.930786, 437.600403)
sub17_b1_lg_1_283.jpg: Predicted in 0.155364 seconds.
baseball bat: 72%
(458.137939, 270.777283) (603.648315, 434.175201)
sub17_b1_lg_1_284.jpg: Predicted in 0.157962 seconds.
baseball bat: 66%
(457.549103, 270.165619) (615.515564, 433.131958)
sub17_b1_lg_1_285.jpg: Predicted in 0.160757 seconds.
baseball bat: 61%
(457.900482, 266.847443) (627.194031, 434.439209)
sub17_b1_lg_1_286.jpg: Predicted in 0.154259 seconds.
baseball bat: 56%
(458.350464, 270.569946) (638.002258, 431.005859)
sub17_b1_lg_1_287.jpg: Predicted in 0.157526 seconds.
baseball bat: 39%
(456.247406, 268.749969) (647.349670, 428.887634)
sub17_b1_lg_1_288.jpg: Predicted in 0.156430 seconds.
baseball bat: 44%
(456.392487, 273.253113) (648.806030, 426.534180)
sub17_b1_lg_1_289.jpg: Predicted in 0.156382 seconds.
sub17_b1_lg_1_290.jpg: Predicted in 0.157839 seconds.
sub17_b1_lg_1_291.jpg: Predicted in 0.164990 seconds.
sub17_b1_lg_1_292.jpg: Predicted in 0.156916 seconds.
baseball bat: 35%
(453.494873, 279.170319) (667.388733, 417.451813)
sub17_b1_lg_1_293.jpg: Predicted in 0.157686 seconds.
sub17_b1_lg_1_294.jpg: Predicted in 0.155332 seconds.
sub17_b1_lg_1_295.jpg: Predicted in 0.156011 seconds.
baseball bat: 31%
(452.864288, 285.113647) (672.724243, 409.222687)
sub17_b1_lg_1_296.jpg: Predicted in 0.157741 seconds.
sub17_b1_lg_1_297.jpg: Predicted in 0.155854 seconds.
baseball bat: 38%
(455.241302, 291.181824) (674.824036, 406.687775)
sub17_b1_lg_1_298.jpg: Predicted in 0.156767 seconds.
baseball bat: 43%
(455.831360, 290.561646) (676.416199, 404.164276)
sub17_b1_lg_1_299.jpg: Predicted in 0.157674 seconds.
baseball bat: 37%
(458.707916, 292.665009) (679.110596, 400.267303)
sub17_b1_lg_1_300.jpg: Predicted in 0.155804 seconds.
sub17_b1_lg_1_301.jpg: Predicted in 0.156271 seconds.
baseball bat: 40%
(461.857849, 298.358124) (679.061584, 396.148438)
sub17_b1_lg_1_302.jpg: Predicted in 0.156823 seconds.
baseball bat: 41%
(462.832062, 298.989563) (679.543213, 394.214874)
sub17_b1_lg_1_303.jpg: Predicted in 0.157265 seconds.
baseball bat: 32%
(461.276855, 298.837128) (680.503174, 392.311981)
sub17_b1_lg_1_304.jpg: Predicted in 0.155017 seconds.
baseball bat: 31%
(459.187134, 299.206909) (679.709106, 391.383148)
sub17_b1_lg_1_305.jpg: Predicted in 0.156558 seconds.
baseball bat: 31%
(457.906891, 298.929260) (680.274963, 389.604614)
sub17_b1_lg_1_306.jpg: Predicted in 0.155290 seconds.
baseball bat: 32%
(456.337036, 299.702515) (681.583984, 388.944794)
sub17_b1_lg_1_307.jpg: Predicted in 0.155519 seconds.
baseball bat: 32%
(457.794800, 301.563507) (681.854309, 388.256134)
sub17_b1_lg_1_308.jpg: Predicted in 0.158028 seconds.
baseball bat: 32%
(457.515900, 303.668182) (682.581970, 388.625214)
sub17_b1_lg_1_309.jpg: Predicted in 0.156876 seconds.
baseball bat: 33%
(455.772644, 304.159393) (683.982178, 388.762238)
sub17_b1_lg_1_310.jpg: Predicted in 0.157252 seconds.
baseball bat: 32%
(454.983154, 305.288849) (683.177002, 386.400696)
sub17_b1_lg_1_311.jpg: Predicted in 0.158169 seconds.
baseball bat: 34%
(454.578186, 307.149261) (683.180298, 384.912476)
sub17_b1_lg_1_312.jpg: Predicted in 0.155435 seconds.
baseball bat: 36%
(452.750977, 308.216309) (684.822998, 382.927643)
sub17_b1_lg_1_313.jpg: Predicted in 0.154693 seconds.
baseball bat: 33%
(451.212158, 307.348236) (685.918213, 381.904907)
sub17_b1_lg_1_314.jpg: Predicted in 0.154700 seconds.
sub17_b1_lg_1_315.jpg: Predicted in 0.156890 seconds.
sub17_b1_lg_1_316.jpg: Predicted in 0.157164 seconds.
sub17_b1_lg_1_317.jpg: Predicted in 0.157875 seconds.
sub17_b1_lg_1_318.jpg: Predicted in 0.157602 seconds.
sub17_b1_lg_1_319.jpg: Predicted in 0.155764 seconds.
sub17_b1_lg_1_320.jpg: Predicted in 0.155829 seconds.
sub17_b1_lg_1_321.jpg: Predicted in 0.156085 seconds.
