sub25_b2_lg_3_001.jpg: Predicted in 0.154927 seconds.
person: 71%
(425.042542, 126.451851) (713.078186, 573.973511)
sub25_b2_lg_3_002.jpg: Predicted in 0.159343 seconds.
person: 71%
(423.935638, 125.785973) (713.353760, 577.762268)
sub25_b2_lg_3_003.jpg: Predicted in 0.154652 seconds.
person: 70%
(425.024475, 125.008842) (711.415039, 577.799377)
sub25_b2_lg_3_004.jpg: Predicted in 0.156322 seconds.
person: 70%
(425.144562, 127.733398) (711.854797, 574.075134)
sub25_b2_lg_3_005.jpg: Predicted in 0.155449 seconds.
person: 69%
(415.849884, 125.989059) (717.270020, 575.446655)
sub25_b2_lg_3_006.jpg: Predicted in 0.155434 seconds.
person: 68%
(413.400116, 124.075768) (716.396423, 576.819946)
sub25_b2_lg_3_007.jpg: Predicted in 0.154247 seconds.
person: 66%
(414.043854, 123.636292) (717.067688, 577.539612)
sub25_b2_lg_3_008.jpg: Predicted in 0.154001 seconds.
person: 65%
(412.486359, 122.051834) (720.070923, 577.941223)
sub25_b2_lg_3_009.jpg: Predicted in 0.156543 seconds.
person: 64%
(515.221436, 113.351677) (702.994507, 593.943481)
sub25_b2_lg_3_010.jpg: Predicted in 0.161630 seconds.
person: 65%
(422.063568, 121.982933) (716.508057, 582.290161)
sub25_b2_lg_3_011.jpg: Predicted in 0.157729 seconds.
person: 63%
(517.883118, 112.903358) (699.787354, 596.045227)
sub25_b2_lg_3_012.jpg: Predicted in 0.155532 seconds.
person: 65%
(518.685608, 113.058212) (699.808777, 594.536560)
sub25_b2_lg_3_013.jpg: Predicted in 0.163031 seconds.
person: 64%
(430.550751, 121.747566) (709.500427, 578.722229)
sub25_b2_lg_3_014.jpg: Predicted in 0.154099 seconds.
person: 64%
(428.973694, 122.530411) (707.958618, 577.009399)
sub25_b2_lg_3_015.jpg: Predicted in 0.154960 seconds.
person: 61%
(430.184021, 122.819016) (706.427612, 574.147156)
sub25_b2_lg_3_016.jpg: Predicted in 0.155571 seconds.
person: 62%
(431.330048, 122.466255) (702.145996, 572.329956)
sub25_b2_lg_3_017.jpg: Predicted in 0.165289 seconds.
person: 62%
(429.892883, 121.731995) (699.625488, 575.466309)
sub25_b2_lg_3_018.jpg: Predicted in 0.154780 seconds.
person: 62%
(431.047180, 120.470383) (699.189453, 573.377686)
sub25_b2_lg_3_019.jpg: Predicted in 0.154193 seconds.
person: 61%
(430.854034, 118.256287) (700.210510, 573.801880)
sub25_b2_lg_3_020.jpg: Predicted in 0.155881 seconds.
person: 64%
(437.920471, 119.400955) (696.428589, 570.927185)
sub25_b2_lg_3_021.jpg: Predicted in 0.155965 seconds.
person: 65%
(438.932587, 119.930389) (693.832214, 572.726685)
sub25_b2_lg_3_022.jpg: Predicted in 0.154582 seconds.
person: 66%
(437.374084, 118.524933) (695.034119, 575.572632)
sub25_b2_lg_3_023.jpg: Predicted in 0.154739 seconds.
person: 66%
(439.290070, 119.350746) (694.883667, 577.907104)
sub25_b2_lg_3_024.jpg: Predicted in 0.154609 seconds.
person: 66%
(439.584930, 119.496605) (697.518555, 579.626953)
sub25_b2_lg_3_025.jpg: Predicted in 0.156269 seconds.
person: 66%
(440.750671, 119.003082) (698.887329, 579.456848)
sub25_b2_lg_3_026.jpg: Predicted in 0.154728 seconds.
person: 67%
(437.294708, 119.099495) (699.586914, 577.132446)
sub25_b2_lg_3_027.jpg: Predicted in 0.156419 seconds.
person: 68%
(436.727112, 119.662285) (699.870850, 574.999268)
sub25_b2_lg_3_028.jpg: Predicted in 0.155674 seconds.
person: 67%
(435.094604, 117.206169) (698.977356, 575.537964)
sub25_b2_lg_3_029.jpg: Predicted in 0.153837 seconds.
person: 67%
(433.096466, 118.528984) (700.036926, 577.388733)
sub25_b2_lg_3_030.jpg: Predicted in 0.154732 seconds.
person: 68%
(436.671448, 116.557053) (698.282288, 577.422241)
sub25_b2_lg_3_031.jpg: Predicted in 0.155839 seconds.
person: 68%
(438.909943, 116.196632) (699.459351, 577.707153)
sub25_b2_lg_3_032.jpg: Predicted in 0.154842 seconds.
person: 69%
(430.266357, 118.064735) (700.752380, 577.016296)
sub25_b2_lg_3_033.jpg: Predicted in 0.165252 seconds.
person: 70%
(429.391205, 119.627213) (701.045654, 576.133057)
sub25_b2_lg_3_034.jpg: Predicted in 0.155965 seconds.
person: 71%
(431.277405, 119.188454) (699.315308, 572.992615)
sub25_b2_lg_3_035.jpg: Predicted in 0.157525 seconds.
person: 71%
(428.009033, 117.178055) (700.841736, 572.556152)
sub25_b2_lg_3_036.jpg: Predicted in 0.155353 seconds.
person: 72%
(433.187836, 119.234467) (697.729431, 571.681824)
sub25_b2_lg_3_037.jpg: Predicted in 0.156266 seconds.
person: 71%
(433.804565, 120.047783) (698.270325, 572.888428)
sub25_b2_lg_3_038.jpg: Predicted in 0.154519 seconds.
person: 71%
(433.201141, 120.524643) (698.193787, 572.436218)
sub25_b2_lg_3_039.jpg: Predicted in 0.164888 seconds.
person: 70%
(437.863007, 119.172241) (697.205200, 573.093750)
sub25_b2_lg_3_040.jpg: Predicted in 0.154051 seconds.
person: 69%
(438.495239, 117.675400) (694.736450, 574.582947)
sub25_b2_lg_3_041.jpg: Predicted in 0.156193 seconds.
person: 67%
(444.174286, 116.039017) (690.568542, 576.049622)
sub25_b2_lg_3_042.jpg: Predicted in 0.155888 seconds.
person: 67%
(441.351318, 115.855980) (691.138855, 575.105286)
sub25_b2_lg_3_043.jpg: Predicted in 0.154975 seconds.
person: 69%
(443.118042, 116.132141) (691.726990, 572.694824)
sub25_b2_lg_3_044.jpg: Predicted in 0.156065 seconds.
person: 68%
(440.930206, 119.727966) (695.531128, 571.311401)
sub25_b2_lg_3_045.jpg: Predicted in 0.154434 seconds.
person: 67%
(440.233582, 117.590904) (696.368225, 573.941467)
sub25_b2_lg_3_046.jpg: Predicted in 0.156931 seconds.
person: 67%
(441.629456, 114.644958) (695.961548, 574.301270)
sub25_b2_lg_3_047.jpg: Predicted in 0.154241 seconds.
person: 69%
(443.447388, 115.382835) (693.492615, 571.271729)
sub25_b2_lg_3_048.jpg: Predicted in 0.157767 seconds.
person: 68%
(446.560547, 115.657188) (691.262695, 569.264526)
sub25_b2_lg_3_049.jpg: Predicted in 0.154729 seconds.
person: 67%
(446.350037, 115.675262) (691.012695, 569.923706)
sub25_b2_lg_3_050.jpg: Predicted in 0.156492 seconds.
person: 67%
(450.572174, 115.849922) (685.993835, 567.430420)
sub25_b2_lg_3_051.jpg: Predicted in 0.156119 seconds.
person: 68%
(448.925446, 116.627243) (686.810791, 568.737183)
sub25_b2_lg_3_052.jpg: Predicted in 0.155302 seconds.
person: 69%
(446.265594, 116.146637) (690.581543, 567.778809)
sub25_b2_lg_3_053.jpg: Predicted in 0.155850 seconds.
person: 68%
(445.937012, 116.188286) (689.141663, 568.568604)
sub25_b2_lg_3_054.jpg: Predicted in 0.155941 seconds.
person: 67%
(446.581879, 116.739799) (689.944397, 567.034729)
sub25_b2_lg_3_055.jpg: Predicted in 0.156003 seconds.
person: 68%
(444.390747, 118.333076) (693.682129, 568.312317)
sub25_b2_lg_3_056.jpg: Predicted in 0.158139 seconds.
person: 68%
(441.568573, 117.282341) (692.860901, 569.693665)
sub25_b2_lg_3_057.jpg: Predicted in 0.155036 seconds.
person: 70%
(439.131348, 116.965607) (692.934204, 569.629028)
sub25_b2_lg_3_058.jpg: Predicted in 0.153720 seconds.
person: 69%
(440.558594, 119.112465) (692.587402, 569.817688)
sub25_b2_lg_3_059.jpg: Predicted in 0.155839 seconds.
person: 70%
(441.379150, 119.026138) (690.953003, 568.227295)
sub25_b2_lg_3_060.jpg: Predicted in 0.155032 seconds.
person: 70%
(442.376129, 116.675446) (690.301025, 568.160339)
sub25_b2_lg_3_061.jpg: Predicted in 0.160042 seconds.
person: 68%
(444.852661, 117.413834) (687.125061, 569.105286)
sub25_b2_lg_3_062.jpg: Predicted in 0.154423 seconds.
person: 66%
(447.632202, 117.061737) (684.222961, 570.744385)
sub25_b2_lg_3_063.jpg: Predicted in 0.154818 seconds.
person: 67%
(445.150696, 114.460083) (687.495239, 572.338318)
sub25_b2_lg_3_064.jpg: Predicted in 0.153997 seconds.
person: 66%
(443.738678, 113.755775) (689.186401, 570.904480)
sub25_b2_lg_3_065.jpg: Predicted in 0.154538 seconds.
person: 66%
(442.653870, 114.243027) (690.228577, 569.714294)
sub25_b2_lg_3_066.jpg: Predicted in 0.156595 seconds.
person: 66%
(447.175354, 115.181946) (689.356812, 568.828552)
sub25_b2_lg_3_067.jpg: Predicted in 0.155762 seconds.
person: 65%
(447.757080, 114.635017) (689.116943, 569.741882)
sub25_b2_lg_3_068.jpg: Predicted in 0.157659 seconds.
person: 68%
(451.276245, 116.263077) (687.495667, 568.874023)
sub25_b2_lg_3_069.jpg: Predicted in 0.153890 seconds.
person: 66%
(452.161835, 117.898132) (682.976624, 566.857239)
sub25_b2_lg_3_070.jpg: Predicted in 0.156727 seconds.
person: 69%
(451.315033, 120.624542) (684.787781, 566.025208)
sub25_b2_lg_3_071.jpg: Predicted in 0.155058 seconds.
person: 68%
(454.470123, 119.217133) (684.371948, 567.852234)
sub25_b2_lg_3_072.jpg: Predicted in 0.156354 seconds.
person: 70%
(451.989868, 119.314697) (685.445557, 567.704529)
sub25_b2_lg_3_073.jpg: Predicted in 0.155871 seconds.
person: 70%
(454.008911, 121.795746) (683.534363, 566.955811)
sub25_b2_lg_3_074.jpg: Predicted in 0.156732 seconds.
person: 69%
(453.534546, 119.321823) (683.657898, 568.861816)
sub25_b2_lg_3_075.jpg: Predicted in 0.156778 seconds.
person: 68%
(454.645844, 121.297577) (685.808411, 567.096313)
sub25_b2_lg_3_076.jpg: Predicted in 0.154155 seconds.
person: 67%
(455.595886, 118.789505) (686.755859, 569.378662)
sub25_b2_lg_3_077.jpg: Predicted in 0.155717 seconds.
person: 68%
(452.902771, 117.460205) (685.734375, 568.458435)
sub25_b2_lg_3_078.jpg: Predicted in 0.154834 seconds.
person: 66%
(456.152893, 115.662216) (685.215576, 567.208191)
sub25_b2_lg_3_079.jpg: Predicted in 0.157279 seconds.
person: 67%
(455.295624, 114.542130) (684.399414, 566.937683)
sub25_b2_lg_3_080.jpg: Predicted in 0.154707 seconds.
person: 69%
(456.884003, 116.440460) (686.660645, 571.655212)
sub25_b2_lg_3_081.jpg: Predicted in 0.165094 seconds.
person: 70%
(454.482574, 117.442085) (689.408813, 573.211853)
sub25_b2_lg_3_082.jpg: Predicted in 0.156446 seconds.
person: 70%
(450.195038, 120.833038) (692.053284, 571.653748)
sub25_b2_lg_3_083.jpg: Predicted in 0.157250 seconds.
person: 69%
(447.975250, 123.236656) (692.079468, 572.343567)
sub25_b2_lg_3_084.jpg: Predicted in 0.159112 seconds.
person: 69%
(446.353271, 118.667511) (693.665955, 574.907227)
sub25_b2_lg_3_085.jpg: Predicted in 0.154038 seconds.
person: 67%
(447.289612, 119.073418) (689.558777, 571.735474)
sub25_b2_lg_3_086.jpg: Predicted in 0.160114 seconds.
person: 66%
(443.538910, 115.268234) (686.134033, 573.830750)
sub25_b2_lg_3_087.jpg: Predicted in 0.165713 seconds.
person: 65%
(443.888367, 116.231323) (681.017761, 571.804810)
sub25_b2_lg_3_088.jpg: Predicted in 0.157403 seconds.
person: 67%
(443.100220, 117.054298) (682.802063, 574.803284)
sub25_b2_lg_3_089.jpg: Predicted in 0.157550 seconds.
person: 66%
(442.754364, 117.370514) (688.384888, 578.146667)
sub25_b2_lg_3_090.jpg: Predicted in 0.155578 seconds.
person: 64%
(445.504272, 122.409126) (693.404480, 577.634827)
sub25_b2_lg_3_091.jpg: Predicted in 0.155362 seconds.
person: 64%
(450.532166, 125.563217) (692.272095, 574.865967)
sub25_b2_lg_3_092.jpg: Predicted in 0.154130 seconds.
person: 64%
(452.315277, 123.535538) (691.461670, 575.471558)
sub25_b2_lg_3_093.jpg: Predicted in 0.155174 seconds.
person: 65%
(450.202026, 123.360825) (690.568787, 572.968628)
sub25_b2_lg_3_094.jpg: Predicted in 0.155065 seconds.
person: 65%
(445.387024, 118.261192) (695.070129, 578.996887)
sub25_b2_lg_3_095.jpg: Predicted in 0.155586 seconds.
person: 64%
(446.903687, 118.634102) (693.877808, 579.239746)
sub25_b2_lg_3_096.jpg: Predicted in 0.156107 seconds.
person: 65%
(442.853973, 119.049881) (691.448853, 577.383118)
sub25_b2_lg_3_097.jpg: Predicted in 0.155310 seconds.
person: 67%
(446.077209, 118.351410) (688.521118, 576.282288)
sub25_b2_lg_3_098.jpg: Predicted in 0.153285 seconds.
person: 66%
(448.411285, 119.539001) (689.279907, 573.581787)
sub25_b2_lg_3_099.jpg: Predicted in 0.156796 seconds.
person: 67%
(449.582977, 118.753723) (691.199829, 574.635864)
sub25_b2_lg_3_100.jpg: Predicted in 0.156981 seconds.
person: 66%
(448.615784, 113.951561) (690.624329, 575.265259)
sub25_b2_lg_3_101.jpg: Predicted in 0.156304 seconds.
person: 69%
(444.518402, 115.247963) (692.079346, 575.919800)
sub25_b2_lg_3_102.jpg: Predicted in 0.155560 seconds.
person: 67%
(443.093933, 116.564369) (698.299561, 577.291321)
sub25_b2_lg_3_103.jpg: Predicted in 0.159880 seconds.
person: 67%
(437.956299, 113.843468) (696.203918, 581.130676)
sub25_b2_lg_3_104.jpg: Predicted in 0.157565 seconds.
person: 67%
(440.997559, 112.889290) (692.661194, 581.694519)
sub25_b2_lg_3_105.jpg: Predicted in 0.158061 seconds.
person: 67%
(439.869232, 112.572075) (692.455933, 578.918823)
sub25_b2_lg_3_106.jpg: Predicted in 0.155993 seconds.
person: 65%
(441.030640, 115.106918) (693.944885, 578.335815)
sub25_b2_lg_3_107.jpg: Predicted in 0.189284 seconds.
person: 65%
(438.165100, 117.278961) (692.096741, 581.761414)
sub25_b2_lg_3_108.jpg: Predicted in 0.155704 seconds.
person: 67%
(437.228821, 117.462967) (697.076111, 584.451904)
sub25_b2_lg_3_109.jpg: Predicted in 0.156518 seconds.
person: 66%
(439.167572, 119.261360) (698.818115, 586.174500)
sub25_b2_lg_3_110.jpg: Predicted in 0.155346 seconds.
person: 66%
(423.564331, 118.774055) (702.856262, 665.365540)
sub25_b2_lg_3_111.jpg: Predicted in 0.156127 seconds.
person: 68%
(422.734161, 117.914246) (704.823914, 667.366821)
sub25_b2_lg_3_112.jpg: Predicted in 0.154908 seconds.
person: 68%
(419.667938, 120.080948) (700.652100, 664.494141)
sub25_b2_lg_3_113.jpg: Predicted in 0.155798 seconds.
person: 67%
(416.301910, 120.487885) (702.277893, 662.616211)
sub25_b2_lg_3_114.jpg: Predicted in 0.157759 seconds.
person: 67%
(409.790222, 119.119240) (707.892761, 663.569214)
sub25_b2_lg_3_115.jpg: Predicted in 0.164912 seconds.
person: 69%
(415.021423, 119.275070) (708.276306, 663.715515)
sub25_b2_lg_3_116.jpg: Predicted in 0.198299 seconds.
person: 71%
(410.862915, 119.177124) (710.282776, 664.320557)
sub25_b2_lg_3_117.jpg: Predicted in 0.157375 seconds.
person: 72%
(413.351379, 120.647476) (712.663330, 663.651489)
sub25_b2_lg_3_118.jpg: Predicted in 0.157791 seconds.
person: 72%
(418.976105, 122.569633) (707.783081, 664.077759)
sub25_b2_lg_3_119.jpg: Predicted in 0.157096 seconds.
person: 70%
(418.906616, 123.856476) (708.108276, 662.438538)
sub25_b2_lg_3_120.jpg: Predicted in 0.154988 seconds.
person: 71%
(418.415222, 124.509117) (706.308228, 663.781616)
sub25_b2_lg_3_121.jpg: Predicted in 0.155663 seconds.
person: 71%
(416.742889, 126.015022) (706.208618, 663.790222)
sub25_b2_lg_3_122.jpg: Predicted in 0.163641 seconds.
person: 73%
(413.518494, 124.457741) (707.547485, 665.833923)
sub25_b2_lg_3_123.jpg: Predicted in 0.156340 seconds.
person: 75%
(411.504944, 122.423721) (710.605469, 666.994995)
sub25_b2_lg_3_124.jpg: Predicted in 0.165240 seconds.
person: 73%
(416.237915, 121.994064) (707.045166, 665.526184)
sub25_b2_lg_3_125.jpg: Predicted in 0.157315 seconds.
person: 75%
(414.485840, 123.541382) (709.251038, 661.542725)
sub25_b2_lg_3_126.jpg: Predicted in 0.157628 seconds.
person: 74%
(415.961853, 122.439743) (711.094055, 662.178162)
sub25_b2_lg_3_127.jpg: Predicted in 0.154731 seconds.
person: 73%
(415.807648, 118.810150) (711.098389, 664.329773)
sub25_b2_lg_3_128.jpg: Predicted in 0.156392 seconds.
person: 74%
(419.230835, 119.493248) (709.053650, 663.930054)
sub25_b2_lg_3_129.jpg: Predicted in 0.156253 seconds.
person: 76%
(417.092651, 117.165497) (709.219055, 666.015015)
sub25_b2_lg_3_130.jpg: Predicted in 0.156745 seconds.
person: 77%
(415.677643, 119.019485) (709.222473, 667.112610)
sub25_b2_lg_3_131.jpg: Predicted in 0.156053 seconds.
person: 77%
(412.144257, 122.773293) (705.144470, 663.570984)
sub25_b2_lg_3_132.jpg: Predicted in 0.159807 seconds.
person: 76%
(415.903687, 123.709015) (704.089722, 662.472717)
sub25_b2_lg_3_133.jpg: Predicted in 0.163223 seconds.
person: 76%
(413.932037, 123.295120) (702.925659, 662.389587)
sub25_b2_lg_3_134.jpg: Predicted in 0.155681 seconds.
person: 76%
(412.087677, 121.603271) (705.800049, 663.985901)
sub25_b2_lg_3_135.jpg: Predicted in 0.156838 seconds.
person: 76%
(415.223022, 123.452354) (699.683594, 664.558167)
sub25_b2_lg_3_136.jpg: Predicted in 0.155005 seconds.
person: 79%
(410.293671, 123.171761) (699.527161, 663.198120)
sub25_b2_lg_3_137.jpg: Predicted in 0.157219 seconds.
person: 77%
(409.578278, 122.589661) (706.217041, 662.759888)
sub25_b2_lg_3_138.jpg: Predicted in 0.164223 seconds.
person: 79%
(410.740723, 123.445389) (702.002747, 659.897827)
sub25_b2_lg_3_139.jpg: Predicted in 0.156750 seconds.
person: 78%
(412.625427, 123.204567) (702.707886, 659.899780)
sub25_b2_lg_3_140.jpg: Predicted in 0.165679 seconds.
person: 77%
(411.569122, 123.935463) (704.492188, 659.672852)
sub25_b2_lg_3_141.jpg: Predicted in 0.164065 seconds.
person: 78%
(410.952637, 126.532051) (706.956482, 659.699280)
sub25_b2_lg_3_142.jpg: Predicted in 0.164353 seconds.
person: 78%
(412.073303, 126.325249) (708.980713, 659.736694)
sub25_b2_lg_3_143.jpg: Predicted in 0.156147 seconds.
person: 75%
(419.891571, 127.379990) (706.075317, 659.965271)
sub25_b2_lg_3_144.jpg: Predicted in 0.154639 seconds.
person: 76%
(427.094177, 126.062202) (701.763855, 661.581726)
sub25_b2_lg_3_145.jpg: Predicted in 0.155737 seconds.
person: 76%
(425.241364, 124.024841) (701.035889, 661.754944)
sub25_b2_lg_3_146.jpg: Predicted in 0.156014 seconds.
person: 75%
(424.664368, 126.575401) (697.171265, 656.911804)
sub25_b2_lg_3_147.jpg: Predicted in 0.165370 seconds.
person: 76%
(421.683319, 129.161453) (702.112915, 656.811829)
sub25_b2_lg_3_148.jpg: Predicted in 0.154052 seconds.
person: 76%
(423.408875, 125.843117) (699.642334, 657.161926)
sub25_b2_lg_3_149.jpg: Predicted in 0.156702 seconds.
person: 76%
(419.328613, 126.137093) (695.589661, 658.312988)
sub25_b2_lg_3_150.jpg: Predicted in 0.155335 seconds.
person: 76%
(423.039948, 127.661728) (694.714172, 655.732971)
sub25_b2_lg_3_151.jpg: Predicted in 0.161430 seconds.
person: 75%
(421.076996, 128.357224) (697.500671, 657.015137)
sub25_b2_lg_3_152.jpg: Predicted in 0.160189 seconds.
person: 75%
(420.478424, 129.565933) (703.196594, 657.066650)
sub25_b2_lg_3_153.jpg: Predicted in 0.158188 seconds.
person: 74%
(413.568756, 129.531738) (710.182373, 658.338745)
sub25_b2_lg_3_154.jpg: Predicted in 0.164547 seconds.
person: 76%
(418.143768, 129.925995) (702.332886, 656.273560)
sub25_b2_lg_3_155.jpg: Predicted in 0.154287 seconds.
person: 77%
(419.777985, 130.177567) (704.157959, 655.756775)
sub25_b2_lg_3_156.jpg: Predicted in 0.157248 seconds.
person: 76%
(417.809418, 129.897903) (700.381653, 653.224243)
sub25_b2_lg_3_157.jpg: Predicted in 0.158196 seconds.
person: 77%
(420.287567, 125.025490) (704.109558, 654.526611)
sub25_b2_lg_3_158.jpg: Predicted in 0.157637 seconds.
person: 77%
(422.242859, 129.596085) (703.176025, 652.905579)
sub25_b2_lg_3_159.jpg: Predicted in 0.156602 seconds.
person: 78%
(426.124573, 133.973236) (693.344604, 649.500854)
sub25_b2_lg_3_160.jpg: Predicted in 0.155232 seconds.
person: 78%
(427.666077, 131.199234) (695.987244, 648.126526)
sub25_b2_lg_3_161.jpg: Predicted in 0.154983 seconds.
person: 76%
(425.834534, 131.075638) (703.628967, 647.625244)
sub25_b2_lg_3_162.jpg: Predicted in 0.156721 seconds.
person: 77%
(424.508392, 131.106781) (694.550354, 646.725403)
sub25_b2_lg_3_163.jpg: Predicted in 0.154801 seconds.
person: 77%
(422.186737, 129.048111) (696.549377, 647.865479)
sub25_b2_lg_3_164.jpg: Predicted in 0.154999 seconds.
person: 78%
(422.787140, 129.113297) (698.512207, 650.138977)
sub25_b2_lg_3_165.jpg: Predicted in 0.156776 seconds.
person: 77%
(420.418732, 130.359558) (710.170166, 648.781006)
sub25_b2_lg_3_166.jpg: Predicted in 0.155640 seconds.
person: 76%
(421.163330, 131.650970) (708.742065, 647.595642)
sub25_b2_lg_3_167.jpg: Predicted in 0.156135 seconds.
person: 77%
(417.764740, 134.448624) (708.884705, 648.021729)
sub25_b2_lg_3_168.jpg: Predicted in 0.156609 seconds.
person: 76%
(415.573761, 133.459610) (714.899048, 649.828918)
sub25_b2_lg_3_169.jpg: Predicted in 0.155736 seconds.
person: 77%
(417.920258, 135.143707) (707.252808, 647.018494)
sub25_b2_lg_3_170.jpg: Predicted in 0.157023 seconds.
person: 78%
(417.707886, 136.960571) (707.892578, 647.277222)
sub25_b2_lg_3_171.jpg: Predicted in 0.155652 seconds.
person: 77%
(411.834351, 130.875946) (723.348083, 653.117859)
backpack: 31%
(334.164886, 629.377869) (617.894226, 763.367920)
sub25_b2_lg_3_172.jpg: Predicted in 0.157183 seconds.
person: 77%
(415.591980, 131.079239) (724.677307, 652.817322)
backpack: 31%
(334.462585, 629.388428) (617.420044, 763.479248)
sub25_b2_lg_3_173.jpg: Predicted in 0.159662 seconds.
person: 78%
(416.335175, 129.533676) (724.545471, 656.205444)
backpack: 33%
(335.413147, 629.384827) (615.709045, 763.011108)
sub25_b2_lg_3_174.jpg: Predicted in 0.155633 seconds.
person: 79%
(413.585876, 130.750946) (718.283325, 653.808716)
backpack: 33%
(335.482819, 628.982605) (614.346069, 763.339417)
sub25_b2_lg_3_175.jpg: Predicted in 0.154364 seconds.
person: 78%
(415.629822, 133.692596) (719.310242, 651.138550)
backpack: 33%
(336.340454, 628.781494) (613.208496, 762.816162)
sub25_b2_lg_3_176.jpg: Predicted in 0.157238 seconds.
person: 78%
(414.207672, 136.884995) (712.306519, 651.363892)
backpack: 34%
(336.177887, 628.929504) (613.318970, 762.124939)
sub25_b2_lg_3_177.jpg: Predicted in 0.155734 seconds.
person: 78%
(417.366089, 135.943787) (708.036438, 650.177856)
backpack: 34%
(335.552246, 629.538757) (614.279419, 762.399719)
sub25_b2_lg_3_178.jpg: Predicted in 0.155940 seconds.
person: 79%
(412.151215, 135.723785) (715.233337, 651.932312)
backpack: 35%
(334.249542, 629.110107) (615.282288, 762.395508)
sub25_b2_lg_3_179.jpg: Predicted in 0.156081 seconds.
person: 79%
(406.925079, 139.767914) (721.280334, 649.711609)
backpack: 33%
(333.548462, 628.674927) (615.764221, 762.063354)
sub25_b2_lg_3_180.jpg: Predicted in 0.155498 seconds.
tennis racket: 32%
(668.847595, 156.877914) (776.143860, 252.958817)
person: 79%
(412.285004, 141.894180) (717.541504, 649.211060)
backpack: 35%
(332.553406, 628.550598) (616.926514, 762.811768)
sub25_b2_lg_3_181.jpg: Predicted in 0.157260 seconds.
person: 79%
(412.853577, 140.186890) (715.172363, 648.795715)
backpack: 34%
(332.251709, 628.344727) (616.805908, 763.123474)
sub25_b2_lg_3_182.jpg: Predicted in 0.154645 seconds.
person: 80%
(416.615875, 135.776474) (709.622314, 649.571655)
backpack: 32%
(333.008240, 628.398804) (615.585693, 764.193176)
sub25_b2_lg_3_183.jpg: Predicted in 0.156529 seconds.
person: 79%
(416.948059, 133.882141) (705.636780, 649.366577)
backpack: 32%
(333.774261, 628.666260) (614.818420, 763.523865)
sub25_b2_lg_3_184.jpg: Predicted in 0.156767 seconds.
person: 79%
(421.790802, 131.816483) (703.146240, 650.851013)
backpack: 32%
(334.362610, 628.512207) (613.983276, 763.432800)
sub25_b2_lg_3_185.jpg: Predicted in 0.157558 seconds.
person: 79%
(418.423859, 136.669922) (714.257385, 650.805847)
backpack: 33%
(333.726868, 628.379272) (615.114014, 763.825195)
sub25_b2_lg_3_186.jpg: Predicted in 0.154714 seconds.
person: 79%
(413.716553, 136.971237) (714.253357, 648.453369)
backpack: 34%
(333.921875, 628.383789) (615.103455, 763.318176)
sub25_b2_lg_3_187.jpg: Predicted in 0.155272 seconds.
person: 79%
(407.883911, 137.326385) (719.809021, 651.497742)
backpack: 31%
(368.741364, 638.805298) (640.825195, 785.394104)
sub25_b2_lg_3_188.jpg: Predicted in 0.156249 seconds.
person: 79%
(407.692505, 139.366837) (723.443359, 650.612122)
backpack: 30%
(368.433777, 638.191772) (640.981018, 785.632629)
sub25_b2_lg_3_189.jpg: Predicted in 0.155996 seconds.
person: 78%
(409.022308, 136.504578) (726.276855, 654.201843)
sub25_b2_lg_3_190.jpg: Predicted in 0.156373 seconds.
person: 78%
(407.435730, 137.028839) (728.506958, 652.095825)
sub25_b2_lg_3_191.jpg: Predicted in 0.156378 seconds.
person: 76%
(405.245087, 138.230316) (739.899048, 651.629883)
sub25_b2_lg_3_192.jpg: Predicted in 0.157018 seconds.
person: 74%
(412.920258, 133.151978) (726.232117, 654.109497)
sub25_b2_lg_3_193.jpg: Predicted in 0.156680 seconds.
person: 74%
(412.807129, 128.807693) (726.883179, 655.174561)
sub25_b2_lg_3_194.jpg: Predicted in 0.196410 seconds.
person: 73%
(405.075592, 137.446472) (739.483276, 651.277954)
sub25_b2_lg_3_195.jpg: Predicted in 0.155596 seconds.
person: 74%
(414.804840, 133.911301) (721.161743, 654.225159)
sub25_b2_lg_3_196.jpg: Predicted in 0.155962 seconds.
person: 74%
(419.289185, 130.919907) (710.059692, 654.297974)
sub25_b2_lg_3_197.jpg: Predicted in 0.154883 seconds.
person: 74%
(421.423553, 134.868698) (705.532715, 649.257507)
sub25_b2_lg_3_198.jpg: Predicted in 0.155478 seconds.
person: 72%
(424.572510, 137.659241) (709.651062, 644.807312)
sub25_b2_lg_3_199.jpg: Predicted in 0.154706 seconds.
person: 71%
(418.554291, 139.216232) (716.427185, 645.433289)
sub25_b2_lg_3_200.jpg: Predicted in 0.154628 seconds.
sports ball: 41%
(7.119513, 157.105743) (32.468307, 185.426819)
person: 71%
(422.681549, 138.946289) (708.772888, 642.608154)
sub25_b2_lg_3_201.jpg: Predicted in 0.155416 seconds.
person: 73%
(420.932007, 139.325211) (706.929443, 640.563843)
backpack: 30%
(332.969025, 627.692078) (616.439697, 765.432129)
sub25_b2_lg_3_202.jpg: Predicted in 0.154911 seconds.
person: 75%
(414.429504, 142.353348) (714.671753, 643.706116)
backpack: 31%
(331.983093, 627.659302) (617.240234, 764.749329)
sub25_b2_lg_3_203.jpg: Predicted in 0.167418 seconds.
person: 74%
(421.114929, 141.312073) (708.304260, 646.659363)
backpack: 32%
(332.268555, 627.822083) (617.044128, 765.101379)
sub25_b2_lg_3_204.jpg: Predicted in 0.155735 seconds.
baseball bat: 34%
(669.535034, 196.775299) (780.978088, 261.022095)
person: 73%
(423.995239, 143.346359) (703.058533, 645.693420)
backpack: 32%
(332.795990, 627.955078) (616.346924, 764.835083)
sub25_b2_lg_3_205.jpg: Predicted in 0.158187 seconds.
baseball bat: 30%
(666.842224, 199.148880) (779.887634, 260.452942)
person: 74%
(427.491302, 137.472916) (688.535034, 645.562195)
backpack: 31%
(331.942719, 627.432312) (616.596008, 765.069641)
sub25_b2_lg_3_206.jpg: Predicted in 0.156498 seconds.
baseball bat: 32%
(665.846924, 198.043884) (785.468201, 260.194397)
person: 73%
(431.319000, 142.918365) (690.614380, 641.069092)
backpack: 31%
(332.729187, 627.046753) (616.312927, 764.969666)
sub25_b2_lg_3_207.jpg: Predicted in 0.156898 seconds.
baseball bat: 31%
(673.080872, 206.526077) (785.875732, 259.312653)
person: 73%
(434.679871, 146.525192) (692.950623, 642.200928)
backpack: 32%
(333.562012, 627.345886) (615.766357, 764.239136)
sub25_b2_lg_3_208.jpg: Predicted in 0.157179 seconds.
person: 73%
(432.727631, 142.868378) (687.983948, 642.525879)
backpack: 31%
(334.026093, 627.512512) (615.763367, 764.100037)
sub25_b2_lg_3_209.jpg: Predicted in 0.155959 seconds.
person: 75%
(435.315186, 137.146454) (682.905151, 643.473145)
sub25_b2_lg_3_210.jpg: Predicted in 0.158109 seconds.
person: 75%
(437.539825, 144.974258) (686.110779, 638.397583)
sub25_b2_lg_3_211.jpg: Predicted in 0.156070 seconds.
person: 74%
(441.931976, 144.393494) (684.769897, 641.183411)
sub25_b2_lg_3_212.jpg: Predicted in 0.156460 seconds.
person: 74%
(436.890717, 145.402786) (683.929321, 639.902832)
sub25_b2_lg_3_213.jpg: Predicted in 0.156207 seconds.
sports ball: 31%
(47.847271, 162.074539) (80.853973, 187.414886)
person: 73%
(440.088684, 147.888992) (683.066223, 639.417053)
sub25_b2_lg_3_214.jpg: Predicted in 0.159222 seconds.
person: 72%
(438.168213, 144.196503) (681.366089, 642.997498)
sub25_b2_lg_3_215.jpg: Predicted in 0.157490 seconds.
person: 70%
(435.506592, 141.708679) (667.974365, 643.659729)
sub25_b2_lg_3_216.jpg: Predicted in 0.157425 seconds.
person: 69%
(436.967926, 142.304321) (663.741516, 646.585815)
sub25_b2_lg_3_217.jpg: Predicted in 0.157059 seconds.
person: 70%
(440.286102, 143.633865) (664.322327, 645.039368)
sub25_b2_lg_3_218.jpg: Predicted in 0.165693 seconds.
person: 68%
(439.703064, 147.053940) (675.049072, 646.707031)
backpack: 30%
(336.497528, 627.068726) (616.573181, 761.962585)
sub25_b2_lg_3_219.jpg: Predicted in 0.158024 seconds.
person: 69%
(441.787048, 145.278748) (672.338867, 647.498718)
backpack: 31%
(336.613922, 627.106934) (616.406677, 761.980347)
sub25_b2_lg_3_220.jpg: Predicted in 0.155625 seconds.
person: 69%
(435.986206, 146.789307) (673.085449, 646.687622)
backpack: 31%
(336.931213, 626.919128) (616.182556, 761.725464)
sub25_b2_lg_3_221.jpg: Predicted in 0.155343 seconds.
person: 69%
(439.694885, 150.481155) (672.650208, 648.531250)
sub25_b2_lg_3_222.jpg: Predicted in 0.157890 seconds.
person: 68%
(436.889923, 149.087997) (681.029663, 646.880127)
sub25_b2_lg_3_223.jpg: Predicted in 0.160486 seconds.
sports ball: 36%
(60.745766, 186.374359) (90.110893, 209.839462)
person: 69%
(444.693481, 145.316772) (668.901855, 645.314636)
sub25_b2_lg_3_224.jpg: Predicted in 0.156877 seconds.
person: 72%
(442.586578, 141.446503) (671.079102, 645.996399)
backpack: 31%
(335.744476, 627.210693) (616.868835, 762.591675)
sub25_b2_lg_3_225.jpg: Predicted in 0.165829 seconds.
person: 70%
(437.097778, 144.533569) (662.196167, 642.574219)
sub25_b2_lg_3_226.jpg: Predicted in 0.156581 seconds.
person: 70%
(434.885162, 145.065094) (662.726868, 640.929016)
sub25_b2_lg_3_227.jpg: Predicted in 0.157865 seconds.
person: 66%
(436.124481, 146.643417) (657.803955, 641.684204)
sub25_b2_lg_3_228.jpg: Predicted in 0.155500 seconds.
person: 69%
(431.813293, 145.667725) (665.581299, 641.636841)
sub25_b2_lg_3_229.jpg: Predicted in 0.156509 seconds.
person: 70%
(434.733002, 146.071671) (659.616028, 640.026123)
sub25_b2_lg_3_230.jpg: Predicted in 0.158558 seconds.
person: 72%
(432.847687, 143.862793) (662.464661, 641.646057)
sub25_b2_lg_3_231.jpg: Predicted in 0.163576 seconds.
person: 74%
(436.673950, 141.411728) (657.638550, 645.903687)
sub25_b2_lg_3_232.jpg: Predicted in 0.155440 seconds.
person: 76%
(437.520782, 137.676865) (662.018311, 651.141052)
sub25_b2_lg_3_233.jpg: Predicted in 0.156640 seconds.
person: 77%
(439.058136, 136.473541) (653.968628, 650.078491)
sub25_b2_lg_3_234.jpg: Predicted in 0.155678 seconds.
person: 75%
(436.508301, 137.650253) (656.619446, 650.200317)
sub25_b2_lg_3_235.jpg: Predicted in 0.156872 seconds.
person: 75%
(436.653198, 135.957520) (657.172668, 652.562744)
sub25_b2_lg_3_236.jpg: Predicted in 0.157920 seconds.
person: 75%
(439.178467, 138.754517) (658.797058, 648.798035)
sub25_b2_lg_3_237.jpg: Predicted in 0.157793 seconds.
person: 72%
(438.821442, 144.407684) (657.148315, 650.221436)
sub25_b2_lg_3_238.jpg: Predicted in 0.153951 seconds.
person: 72%
(436.332886, 141.263245) (665.739624, 651.187317)
sub25_b2_lg_3_239.jpg: Predicted in 0.154894 seconds.
person: 73%
(434.910736, 138.653442) (671.781677, 649.660034)
sub25_b2_lg_3_240.jpg: Predicted in 0.155171 seconds.
person: 70%
(432.880859, 139.943451) (662.347351, 648.934204)
sub25_b2_lg_3_241.jpg: Predicted in 0.156747 seconds.
person: 67%
(435.385925, 143.590027) (660.746460, 644.858093)
sub25_b2_lg_3_242.jpg: Predicted in 0.154474 seconds.
person: 71%
(437.541504, 143.497894) (669.719543, 644.741699)
sub25_b2_lg_3_243.jpg: Predicted in 0.158096 seconds.
person: 75%
(437.924408, 142.761063) (669.462219, 650.149658)
sub25_b2_lg_3_244.jpg: Predicted in 0.162627 seconds.
person: 77%
(437.939423, 140.875076) (670.337524, 647.254517)
sub25_b2_lg_3_245.jpg: Predicted in 0.163554 seconds.
person: 76%
(439.609131, 146.134109) (668.233032, 645.515991)
sub25_b2_lg_3_246.jpg: Predicted in 0.156592 seconds.
person: 78%
(441.104828, 146.922134) (670.720032, 646.982239)
sub25_b2_lg_3_247.jpg: Predicted in 0.158949 seconds.
person: 74%
(441.676849, 148.198868) (662.304382, 642.989014)
sub25_b2_lg_3_248.jpg: Predicted in 0.165883 seconds.
person: 76%
(439.720520, 144.919235) (666.348206, 642.535156)
sub25_b2_lg_3_249.jpg: Predicted in 0.164626 seconds.
person: 77%
(438.257202, 145.896454) (660.408447, 645.095581)
sub25_b2_lg_3_250.jpg: Predicted in 0.155686 seconds.
person: 78%
(438.896423, 142.742371) (658.370667, 645.000061)
sub25_b2_lg_3_251.jpg: Predicted in 0.164805 seconds.
person: 77%
(439.699127, 140.499756) (658.234863, 648.294067)
sub25_b2_lg_3_252.jpg: Predicted in 0.166065 seconds.
person: 78%
(439.040649, 137.118240) (653.201599, 649.074951)
sub25_b2_lg_3_253.jpg: Predicted in 0.164016 seconds.
person: 78%
(438.963226, 138.925629) (653.486267, 648.630432)
sub25_b2_lg_3_254.jpg: Predicted in 0.157304 seconds.
person: 77%
(438.137299, 141.778229) (656.860779, 646.780396)
sub25_b2_lg_3_255.jpg: Predicted in 0.156067 seconds.
person: 78%
(437.147003, 147.038651) (652.939148, 644.271545)
sub25_b2_lg_3_256.jpg: Predicted in 0.158534 seconds.
person: 77%
(437.012268, 155.037109) (653.636658, 641.058228)
sub25_b2_lg_3_257.jpg: Predicted in 0.158896 seconds.
person: 77%
(435.013916, 151.469086) (651.349182, 639.356384)
sub25_b2_lg_3_258.jpg: Predicted in 0.157250 seconds.
person: 77%
(431.610474, 156.622574) (653.225220, 636.691345)
sub25_b2_lg_3_259.jpg: Predicted in 0.155617 seconds.
person: 76%
(432.313965, 160.868500) (649.698486, 631.580811)
sub25_b2_lg_3_260.jpg: Predicted in 0.157591 seconds.
person: 76%
(428.269653, 158.340118) (648.268311, 629.260193)
sub25_b2_lg_3_261.jpg: Predicted in 0.156205 seconds.
person: 75%
(432.212463, 153.925735) (643.611633, 632.624756)
sub25_b2_lg_3_262.jpg: Predicted in 0.157682 seconds.
person: 77%
(434.496094, 156.421036) (644.231262, 633.900146)
sub25_b2_lg_3_263.jpg: Predicted in 0.155284 seconds.
person: 76%
(431.664062, 157.997711) (641.185364, 632.933899)
sub25_b2_lg_3_264.jpg: Predicted in 0.158671 seconds.
person: 76%
(429.302612, 157.815460) (638.273621, 634.754578)
sub25_b2_lg_3_265.jpg: Predicted in 0.163128 seconds.
person: 76%
(424.302063, 156.912689) (637.666321, 635.170898)
sub25_b2_lg_3_266.jpg: Predicted in 0.163987 seconds.
person: 74%
(428.868988, 156.429718) (629.291626, 635.215271)
sub25_b2_lg_3_267.jpg: Predicted in 0.156374 seconds.
person: 76%
(426.329071, 154.378082) (627.486328, 636.682434)
sub25_b2_lg_3_268.jpg: Predicted in 0.155595 seconds.
person: 77%
(424.947815, 157.063797) (623.594727, 636.895691)
sub25_b2_lg_3_269.jpg: Predicted in 0.157600 seconds.
person: 76%
(421.364380, 155.237442) (627.051392, 638.813721)
sub25_b2_lg_3_270.jpg: Predicted in 0.165719 seconds.
person: 75%
(423.689514, 152.098434) (626.472961, 638.393188)
sub25_b2_lg_3_271.jpg: Predicted in 0.156201 seconds.
person: 75%
(427.334259, 151.567627) (628.261536, 638.195312)
sub25_b2_lg_3_272.jpg: Predicted in 0.157296 seconds.
person: 74%
(428.079010, 145.288223) (627.504578, 639.666321)
sub25_b2_lg_3_273.jpg: Predicted in 0.156314 seconds.
person: 72%
(426.577545, 145.153717) (629.102295, 639.846497)
sub25_b2_lg_3_274.jpg: Predicted in 0.156097 seconds.
person: 73%
(425.769592, 146.608231) (628.295959, 639.899780)
sub25_b2_lg_3_275.jpg: Predicted in 0.158473 seconds.
person: 71%
(428.483795, 144.599564) (629.033508, 641.990234)
sub25_b2_lg_3_276.jpg: Predicted in 0.159711 seconds.
person: 70%
(424.258911, 144.548279) (631.241943, 642.054626)
sub25_b2_lg_3_277.jpg: Predicted in 0.156945 seconds.
person: 72%
(422.018402, 150.191589) (630.580383, 639.567078)
sub25_b2_lg_3_278.jpg: Predicted in 0.165424 seconds.
person: 73%
(423.166809, 146.189453) (634.568726, 643.215149)
sub25_b2_lg_3_279.jpg: Predicted in 0.156191 seconds.
person: 68%
(422.579498, 142.695648) (638.085632, 641.180420)
sub25_b2_lg_3_280.jpg: Predicted in 0.157360 seconds.
person: 67%
(420.697906, 146.972061) (632.785767, 634.257019)
sub25_b2_lg_3_281.jpg: Predicted in 0.164882 seconds.
person: 64%
(424.493958, 145.757370) (631.892700, 637.969238)
sub25_b2_lg_3_282.jpg: Predicted in 0.158105 seconds.
person: 66%
(419.346100, 146.185989) (634.522522, 637.509277)
sub25_b2_lg_3_283.jpg: Predicted in 0.165115 seconds.
person: 61%
(418.067352, 142.706467) (639.936707, 638.373840)
sub25_b2_lg_3_284.jpg: Predicted in 0.158275 seconds.
person: 62%
(417.175903, 138.028854) (640.987183, 639.729736)
sub25_b2_lg_3_285.jpg: Predicted in 0.158691 seconds.
person: 65%
(414.416229, 134.735291) (644.405640, 643.776123)
sub25_b2_lg_3_286.jpg: Predicted in 0.156552 seconds.
person: 65%
(408.981995, 136.973907) (644.274902, 641.653015)
sub25_b2_lg_3_287.jpg: Predicted in 0.166352 seconds.
person: 63%
(412.036713, 144.942001) (642.031677, 636.054016)
sub25_b2_lg_3_288.jpg: Predicted in 0.157718 seconds.
sports ball: 33%
(303.879730, 260.231537) (324.207642, 279.550842)
person: 64%
(403.558899, 137.720612) (646.900757, 641.834351)
sub25_b2_lg_3_289.jpg: Predicted in 0.162406 seconds.
person: 64%
(396.469910, 134.734848) (651.498596, 641.239258)
sub25_b2_lg_3_290.jpg: Predicted in 0.157047 seconds.
sports ball: 31%
(304.096283, 264.821960) (324.090454, 282.273132)
person: 66%
(389.794128, 133.846039) (655.253418, 643.016235)
sub25_b2_lg_3_291.jpg: Predicted in 0.162058 seconds.
person: 67%
(387.682495, 135.344910) (651.159180, 638.774780)
sub25_b2_lg_3_292.jpg: Predicted in 0.164127 seconds.
person: 67%
(384.153900, 136.591370) (652.583679, 638.692566)
sub25_b2_lg_3_293.jpg: Predicted in 0.157790 seconds.
person: 69%
(383.596130, 136.919281) (652.368591, 637.288330)
sub25_b2_lg_3_294.jpg: Predicted in 0.157769 seconds.
sports ball: 32%
(311.627930, 272.706818) (334.270264, 292.831940)
person: 68%
(375.968201, 129.892975) (657.265686, 647.078491)
sub25_b2_lg_3_295.jpg: Predicted in 0.158401 seconds.
person: 68%
(376.215546, 131.838409) (653.577209, 645.586487)
sub25_b2_lg_3_296.jpg: Predicted in 0.155815 seconds.
person: 70%
(371.175995, 137.603592) (651.270508, 641.565247)
sub25_b2_lg_3_297.jpg: Predicted in 0.156334 seconds.
person: 64%
(367.781250, 136.131165) (654.636658, 643.231445)
sub25_b2_lg_3_298.jpg: Predicted in 0.162325 seconds.
person: 64%
(359.517822, 139.721039) (663.303589, 641.773987)
sub25_b2_lg_3_299.jpg: Predicted in 0.155673 seconds.
person: 64%
(354.159119, 150.650208) (667.249939, 633.284424)
sub25_b2_lg_3_300.jpg: Predicted in 0.158491 seconds.
person: 66%
(350.806488, 149.228882) (669.621826, 637.598633)
sub25_b2_lg_3_301.jpg: Predicted in 0.158391 seconds.
person: 67%
(358.514191, 146.821213) (663.290283, 636.931702)
sub25_b2_lg_3_302.jpg: Predicted in 0.155526 seconds.
person: 65%
(319.905945, 157.859421) (631.432312, 541.283264)
sub25_b2_lg_3_303.jpg: Predicted in 0.157160 seconds.
person: 65%
(354.102936, 148.008987) (666.885681, 639.359924)
sub25_b2_lg_3_304.jpg: Predicted in 0.156334 seconds.
person: 65%
(313.207092, 156.959503) (636.409302, 540.817444)
sub25_b2_lg_3_305.jpg: Predicted in 0.155436 seconds.
person: 69%
(312.755524, 156.948715) (634.503540, 542.230835)
sub25_b2_lg_3_306.jpg: Predicted in 0.155215 seconds.
person: 72%
(304.619385, 155.800766) (640.966675, 541.813599)
sub25_b2_lg_3_307.jpg: Predicted in 0.156322 seconds.
person: 67%
(300.646606, 155.453476) (643.425232, 541.373108)
sub25_b2_lg_3_308.jpg: Predicted in 0.157751 seconds.
person: 52%
(294.717102, 157.802750) (646.845764, 537.338135)
sub25_b2_lg_3_309.jpg: Predicted in 0.161463 seconds.
person: 59%
(379.349518, 157.907104) (653.684143, 628.144958)
sub25_b2_lg_3_310.jpg: Predicted in 0.156212 seconds.
person: 53%
(290.261353, 162.120453) (645.284973, 537.232239)
sub25_b2_lg_3_311.jpg: Predicted in 0.155823 seconds.
person: 55%
(374.276154, 162.447495) (659.560669, 624.479492)
sub25_b2_lg_3_312.jpg: Predicted in 0.155927 seconds.
person: 54%
(373.720734, 162.895447) (657.870972, 623.130432)
sub25_b2_lg_3_313.jpg: Predicted in 0.156466 seconds.
person: 53%
(375.374023, 160.970139) (660.761780, 623.298157)
sub25_b2_lg_3_314.jpg: Predicted in 0.157265 seconds.
person: 54%
(374.990265, 162.786011) (657.427490, 620.427063)
sub25_b2_lg_3_315.jpg: Predicted in 0.154812 seconds.
person: 53%
(291.609070, 187.172318) (642.236328, 601.221252)
sub25_b2_lg_3_316.jpg: Predicted in 0.155386 seconds.
person: 53%
(385.103638, 151.476166) (652.738220, 628.184265)
sub25_b2_lg_3_317.jpg: Predicted in 0.156970 seconds.
person: 62%
(386.565460, 149.134903) (652.588379, 627.729065)
sub25_b2_lg_3_318.jpg: Predicted in 0.156114 seconds.
person: 61%
(390.450745, 145.787781) (653.373901, 629.874512)
sub25_b2_lg_3_319.jpg: Predicted in 0.155677 seconds.
person: 64%
(385.636383, 144.279816) (653.388489, 630.253723)
sub25_b2_lg_3_320.jpg: Predicted in 0.155944 seconds.
person: 63%
(390.059082, 143.609482) (653.606812, 630.235596)
sub25_b2_lg_3_321.jpg: Predicted in 0.155227 seconds.
person: 65%
(387.123871, 142.565277) (655.101624, 632.030762)
