sub23_b1_lg_2_001.jpg: Predicted in 0.156311 seconds.
sub23_b1_lg_2_002.jpg: Predicted in 0.160144 seconds.
baseball bat: 30%
(304.206940, 71.486542) (433.561554, 213.886200)
sub23_b1_lg_2_003.jpg: Predicted in 0.153219 seconds.
baseball bat: 37%
(303.817688, 70.075050) (432.806091, 214.149750)
sub23_b1_lg_2_004.jpg: Predicted in 0.154338 seconds.
baseball bat: 37%
(303.384155, 70.045631) (432.624756, 213.291199)
sub23_b1_lg_2_005.jpg: Predicted in 0.153825 seconds.
baseball bat: 39%
(303.973969, 70.297272) (432.530914, 213.688629)
sub23_b1_lg_2_006.jpg: Predicted in 0.164174 seconds.
baseball bat: 42%
(303.468994, 70.397896) (432.726379, 213.612701)
sub23_b1_lg_2_007.jpg: Predicted in 0.158906 seconds.
baseball bat: 36%
(301.980896, 70.954697) (432.937073, 213.518631)
sub23_b1_lg_2_008.jpg: Predicted in 0.155971 seconds.
baseball bat: 41%
(301.704926, 69.265633) (431.647278, 213.688721)
sub23_b1_lg_2_009.jpg: Predicted in 0.154142 seconds.
baseball bat: 39%
(301.474396, 69.464790) (431.712769, 213.536346)
sub23_b1_lg_2_010.jpg: Predicted in 0.158518 seconds.
baseball bat: 41%
(302.743866, 67.366882) (431.567566, 214.291122)
sub23_b1_lg_2_011.jpg: Predicted in 0.155198 seconds.
baseball bat: 40%
(301.926086, 66.956284) (432.487976, 213.522842)
sub23_b1_lg_2_012.jpg: Predicted in 0.168908 seconds.
baseball bat: 42%
(300.738251, 66.985664) (431.003693, 213.508850)
sub23_b1_lg_2_013.jpg: Predicted in 0.163309 seconds.
baseball bat: 41%
(300.848572, 66.919418) (431.307190, 213.347824)
sub23_b1_lg_2_014.jpg: Predicted in 0.156917 seconds.
baseball bat: 44%
(301.554688, 66.889801) (431.307556, 213.012207)
sub23_b1_lg_2_015.jpg: Predicted in 0.161037 seconds.
baseball bat: 42%
(300.839691, 67.271263) (431.049744, 212.617081)
sub23_b1_lg_2_016.jpg: Predicted in 0.163954 seconds.
baseball bat: 38%
(300.913544, 67.290428) (431.203156, 212.909943)
sub23_b1_lg_2_017.jpg: Predicted in 0.154896 seconds.
baseball bat: 39%
(301.164642, 67.895935) (430.000153, 212.655930)
sub23_b1_lg_2_018.jpg: Predicted in 0.157451 seconds.
baseball bat: 35%
(300.597656, 68.810623) (429.842468, 212.673309)
sub23_b1_lg_2_019.jpg: Predicted in 0.157016 seconds.
baseball bat: 33%
(300.313171, 70.272552) (430.072479, 212.112183)
sub23_b1_lg_2_020.jpg: Predicted in 0.156529 seconds.
sub23_b1_lg_2_021.jpg: Predicted in 0.154775 seconds.
baseball bat: 34%
(299.932129, 70.819420) (430.144318, 212.570740)
sub23_b1_lg_2_022.jpg: Predicted in 0.153763 seconds.
baseball bat: 32%
(299.660431, 71.167221) (431.329163, 212.810135)
sub23_b1_lg_2_023.jpg: Predicted in 0.154607 seconds.
sub23_b1_lg_2_024.jpg: Predicted in 0.154333 seconds.
sub23_b1_lg_2_025.jpg: Predicted in 0.154589 seconds.
baseball bat: 32%
(300.761414, 69.275253) (434.398651, 214.055756)
sub23_b1_lg_2_026.jpg: Predicted in 0.155843 seconds.
sub23_b1_lg_2_027.jpg: Predicted in 0.154685 seconds.
sub23_b1_lg_2_028.jpg: Predicted in 0.153630 seconds.
sub23_b1_lg_2_029.jpg: Predicted in 0.154771 seconds.
sub23_b1_lg_2_030.jpg: Predicted in 0.153532 seconds.
sub23_b1_lg_2_031.jpg: Predicted in 0.156682 seconds.
sub23_b1_lg_2_032.jpg: Predicted in 0.159629 seconds.
sub23_b1_lg_2_033.jpg: Predicted in 0.156318 seconds.
sub23_b1_lg_2_034.jpg: Predicted in 0.156661 seconds.
sub23_b1_lg_2_035.jpg: Predicted in 0.154723 seconds.
sub23_b1_lg_2_036.jpg: Predicted in 0.157007 seconds.
sub23_b1_lg_2_037.jpg: Predicted in 0.155829 seconds.
baseball bat: 31%
(301.012360, 68.324120) (434.508209, 215.594040)
sub23_b1_lg_2_038.jpg: Predicted in 0.154287 seconds.
baseball bat: 32%
(301.451172, 68.038445) (436.409241, 214.849655)
sub23_b1_lg_2_039.jpg: Predicted in 0.157491 seconds.
baseball bat: 33%
(300.650696, 67.877045) (436.331726, 215.539536)
sub23_b1_lg_2_040.jpg: Predicted in 0.155802 seconds.
baseball bat: 39%
(301.866486, 67.190300) (436.753052, 214.726990)
sub23_b1_lg_2_041.jpg: Predicted in 0.156268 seconds.
baseball bat: 42%
(302.511993, 66.553001) (436.232666, 214.596603)
sub23_b1_lg_2_042.jpg: Predicted in 0.153679 seconds.
baseball bat: 44%
(303.124451, 66.919670) (436.169128, 214.049042)
sub23_b1_lg_2_043.jpg: Predicted in 0.163422 seconds.
baseball bat: 46%
(303.453857, 66.237625) (435.268738, 214.457336)
sub23_b1_lg_2_044.jpg: Predicted in 0.155169 seconds.
baseball bat: 46%
(302.289764, 65.995483) (434.134186, 215.221832)
sub23_b1_lg_2_045.jpg: Predicted in 0.154746 seconds.
baseball bat: 46%
(301.862854, 66.608253) (434.270050, 214.739136)
sub23_b1_lg_2_046.jpg: Predicted in 0.154666 seconds.
baseball bat: 38%
(299.963776, 69.444565) (436.721497, 213.656448)
sub23_b1_lg_2_047.jpg: Predicted in 0.153087 seconds.
baseball bat: 38%
(299.315460, 69.963089) (436.315491, 213.470428)
sub23_b1_lg_2_048.jpg: Predicted in 0.155553 seconds.
baseball bat: 35%
(299.922180, 70.789246) (436.737823, 213.247437)
sub23_b1_lg_2_049.jpg: Predicted in 0.155263 seconds.
baseball bat: 31%
(299.408905, 72.128586) (437.908356, 212.253235)
sub23_b1_lg_2_050.jpg: Predicted in 0.155515 seconds.
baseball bat: 32%
(299.632080, 72.324944) (438.278931, 211.986572)
sub23_b1_lg_2_051.jpg: Predicted in 0.156107 seconds.
sub23_b1_lg_2_052.jpg: Predicted in 0.156685 seconds.
sub23_b1_lg_2_053.jpg: Predicted in 0.154745 seconds.
sub23_b1_lg_2_054.jpg: Predicted in 0.155978 seconds.
sub23_b1_lg_2_055.jpg: Predicted in 0.156621 seconds.
sub23_b1_lg_2_056.jpg: Predicted in 0.155367 seconds.
sub23_b1_lg_2_057.jpg: Predicted in 0.158488 seconds.
sub23_b1_lg_2_058.jpg: Predicted in 0.155397 seconds.
baseball bat: 31%
(302.032013, 70.355644) (441.032654, 211.839569)
sub23_b1_lg_2_059.jpg: Predicted in 0.154144 seconds.
baseball bat: 36%
(303.130096, 69.620239) (440.876648, 211.863464)
sub23_b1_lg_2_060.jpg: Predicted in 0.156256 seconds.
baseball bat: 34%
(301.939758, 69.744270) (441.098694, 212.401031)
sub23_b1_lg_2_061.jpg: Predicted in 0.153757 seconds.
baseball bat: 38%
(302.485657, 68.797142) (440.783630, 212.827194)
sub23_b1_lg_2_062.jpg: Predicted in 0.155940 seconds.
baseball bat: 42%
(303.096344, 68.498245) (440.857361, 212.240662)
sub23_b1_lg_2_063.jpg: Predicted in 0.155378 seconds.
baseball bat: 44%
(303.064575, 67.949333) (440.700775, 213.282730)
sub23_b1_lg_2_064.jpg: Predicted in 0.161727 seconds.
baseball bat: 47%
(302.710938, 67.782013) (440.693085, 212.467361)
sub23_b1_lg_2_065.jpg: Predicted in 0.154490 seconds.
baseball bat: 49%
(303.416321, 66.965958) (439.973114, 212.567734)
sub23_b1_lg_2_066.jpg: Predicted in 0.155413 seconds.
baseball bat: 51%
(303.562164, 66.516838) (439.792236, 212.713104)
sub23_b1_lg_2_067.jpg: Predicted in 0.154202 seconds.
baseball bat: 53%
(304.384644, 65.540665) (439.156464, 213.040237)
sub23_b1_lg_2_068.jpg: Predicted in 0.154787 seconds.
baseball bat: 54%
(304.969208, 65.043831) (438.701385, 213.089508)
sub23_b1_lg_2_069.jpg: Predicted in 0.156542 seconds.
baseball bat: 56%
(306.381805, 63.907505) (437.955353, 213.622696)
sub23_b1_lg_2_070.jpg: Predicted in 0.156295 seconds.
baseball bat: 56%
(306.601105, 64.339287) (438.653107, 213.621872)
sub23_b1_lg_2_071.jpg: Predicted in 0.156635 seconds.
baseball bat: 56%
(306.887604, 63.951809) (438.533844, 214.073837)
sub23_b1_lg_2_072.jpg: Predicted in 0.165055 seconds.
baseball bat: 56%
(307.160828, 63.792355) (439.839142, 213.717270)
sub23_b1_lg_2_073.jpg: Predicted in 0.153934 seconds.
baseball bat: 56%
(307.105072, 63.976986) (439.733612, 213.686035)
sub23_b1_lg_2_074.jpg: Predicted in 0.154498 seconds.
baseball bat: 56%
(306.734467, 63.930595) (439.333801, 214.088593)
sub23_b1_lg_2_075.jpg: Predicted in 0.155198 seconds.
baseball bat: 55%
(306.545258, 64.349617) (439.264008, 214.402802)
sub23_b1_lg_2_076.jpg: Predicted in 0.153845 seconds.
baseball bat: 56%
(306.858704, 64.559021) (439.001526, 214.195114)
sub23_b1_lg_2_077.jpg: Predicted in 0.156020 seconds.
baseball bat: 56%
(307.705383, 63.527287) (438.272949, 214.737564)
sub23_b1_lg_2_078.jpg: Predicted in 0.154796 seconds.
baseball bat: 56%
(307.960175, 63.180191) (438.610504, 214.641403)
sub23_b1_lg_2_079.jpg: Predicted in 0.155448 seconds.
baseball bat: 59%
(308.644196, 62.513947) (438.170593, 214.617401)
sub23_b1_lg_2_080.jpg: Predicted in 0.155700 seconds.
baseball bat: 61%
(309.632812, 62.608070) (437.561005, 214.289581)
sub23_b1_lg_2_081.jpg: Predicted in 0.156703 seconds.
baseball bat: 60%
(309.792847, 63.067799) (438.271942, 214.044617)
sub23_b1_lg_2_082.jpg: Predicted in 0.157233 seconds.
baseball bat: 58%
(309.960663, 63.330769) (438.593414, 213.381485)
sub23_b1_lg_2_083.jpg: Predicted in 0.164281 seconds.
baseball bat: 57%
(309.988159, 63.343586) (438.849121, 213.182678)
sub23_b1_lg_2_084.jpg: Predicted in 0.154357 seconds.
baseball bat: 58%
(310.416901, 63.358753) (438.928192, 213.163483)
sub23_b1_lg_2_085.jpg: Predicted in 0.156886 seconds.
baseball bat: 58%
(311.180542, 62.985031) (438.566681, 213.215317)
sub23_b1_lg_2_086.jpg: Predicted in 0.155345 seconds.
baseball bat: 58%
(311.469788, 63.074017) (438.383545, 213.730621)
sub23_b1_lg_2_087.jpg: Predicted in 0.164247 seconds.
baseball bat: 58%
(312.222626, 63.088406) (438.739136, 213.496460)
sub23_b1_lg_2_088.jpg: Predicted in 0.165156 seconds.
baseball bat: 57%
(312.745880, 63.082813) (437.891479, 214.532822)
sub23_b1_lg_2_089.jpg: Predicted in 0.157153 seconds.
baseball bat: 55%
(312.095825, 64.454941) (438.220337, 214.107132)
sub23_b1_lg_2_090.jpg: Predicted in 0.165684 seconds.
baseball bat: 55%
(311.713684, 65.823952) (438.200714, 213.905716)
sub23_b1_lg_2_091.jpg: Predicted in 0.155873 seconds.
baseball bat: 57%
(312.277710, 65.529350) (437.687256, 214.364426)
sub23_b1_lg_2_092.jpg: Predicted in 0.154135 seconds.
baseball bat: 55%
(312.498810, 65.651802) (437.916992, 214.435974)
sub23_b1_lg_2_093.jpg: Predicted in 0.162990 seconds.
baseball bat: 57%
(313.272369, 64.885399) (436.704742, 214.612701)
sub23_b1_lg_2_094.jpg: Predicted in 0.154271 seconds.
baseball bat: 54%
(314.114624, 65.263809) (437.809357, 214.626419)
sub23_b1_lg_2_095.jpg: Predicted in 0.155845 seconds.
baseball bat: 57%
(314.758942, 64.310936) (437.614258, 214.803497)
sub23_b1_lg_2_096.jpg: Predicted in 0.180767 seconds.
baseball bat: 58%
(315.753204, 64.224533) (437.896942, 214.742493)
sub23_b1_lg_2_097.jpg: Predicted in 0.155316 seconds.
baseball bat: 60%
(315.662628, 63.610153) (436.946320, 215.031433)
sub23_b1_lg_2_098.jpg: Predicted in 0.155524 seconds.
baseball bat: 60%
(315.676117, 64.339142) (436.970276, 214.763153)
sub23_b1_lg_2_099.jpg: Predicted in 0.154924 seconds.
baseball bat: 60%
(316.184601, 64.876205) (436.833588, 214.957184)
sub23_b1_lg_2_100.jpg: Predicted in 0.153579 seconds.
baseball bat: 60%
(315.260529, 65.563293) (436.933533, 214.817810)
sub23_b1_lg_2_101.jpg: Predicted in 0.162693 seconds.
baseball bat: 57%
(314.607819, 66.521065) (437.282135, 214.820862)
sub23_b1_lg_2_102.jpg: Predicted in 0.155774 seconds.
baseball bat: 56%
(315.208099, 67.178360) (437.860352, 215.644775)
sub23_b1_lg_2_103.jpg: Predicted in 0.155803 seconds.
baseball bat: 56%
(315.616333, 67.496017) (437.373169, 216.245712)
sub23_b1_lg_2_104.jpg: Predicted in 0.163819 seconds.
baseball bat: 59%
(316.169647, 66.846725) (436.946198, 216.885574)
sub23_b1_lg_2_105.jpg: Predicted in 0.155489 seconds.
baseball bat: 59%
(316.113464, 66.618805) (436.981628, 216.899765)
sub23_b1_lg_2_106.jpg: Predicted in 0.156403 seconds.
baseball bat: 60%
(316.253815, 66.785141) (436.929108, 216.640091)
sub23_b1_lg_2_107.jpg: Predicted in 0.154845 seconds.
baseball bat: 62%
(317.047455, 66.371361) (436.560120, 216.754517)
sub23_b1_lg_2_108.jpg: Predicted in 0.157028 seconds.
baseball bat: 63%
(316.811615, 66.059128) (436.567139, 216.806946)
sub23_b1_lg_2_109.jpg: Predicted in 0.159111 seconds.
baseball bat: 64%
(317.496887, 65.101585) (435.492859, 217.559296)
sub23_b1_lg_2_110.jpg: Predicted in 0.157102 seconds.
baseball bat: 66%
(318.569550, 64.530434) (434.801422, 217.655121)
sub23_b1_lg_2_111.jpg: Predicted in 0.154133 seconds.
baseball bat: 68%
(319.442810, 63.611824) (433.832458, 218.254684)
sub23_b1_lg_2_112.jpg: Predicted in 0.157158 seconds.
baseball bat: 68%
(320.143768, 63.165642) (433.219879, 218.412277)
sub23_b1_lg_2_113.jpg: Predicted in 0.156260 seconds.
baseball bat: 70%
(320.980103, 62.748169) (432.491272, 218.941238)
sub23_b1_lg_2_114.jpg: Predicted in 0.155645 seconds.
baseball bat: 70%
(321.752594, 62.670792) (433.089111, 219.045288)
sub23_b1_lg_2_115.jpg: Predicted in 0.154240 seconds.
baseball bat: 70%
(321.429749, 62.566216) (432.775208, 219.106461)
sub23_b1_lg_2_116.jpg: Predicted in 0.155315 seconds.
baseball bat: 70%
(320.669830, 63.338913) (432.860687, 218.242416)
sub23_b1_lg_2_117.jpg: Predicted in 0.154144 seconds.
baseball bat: 70%
(320.412323, 63.275902) (432.047638, 218.994263)
sub23_b1_lg_2_118.jpg: Predicted in 0.156255 seconds.
baseball bat: 69%
(320.344360, 63.643856) (431.630371, 218.717178)
sub23_b1_lg_2_119.jpg: Predicted in 0.155500 seconds.
baseball bat: 69%
(321.871552, 63.288414) (431.045471, 219.423065)
sub23_b1_lg_2_120.jpg: Predicted in 0.163284 seconds.
baseball bat: 70%
(322.964355, 62.701691) (430.831970, 220.347748)
sub23_b1_lg_2_121.jpg: Predicted in 0.154519 seconds.
baseball bat: 70%
(323.275665, 62.594349) (430.377289, 220.798050)
sub23_b1_lg_2_122.jpg: Predicted in 0.155495 seconds.
baseball bat: 70%
(324.947815, 62.065361) (430.075012, 221.983765)
sub23_b1_lg_2_123.jpg: Predicted in 0.157441 seconds.
baseball bat: 71%
(326.224060, 61.620831) (429.366547, 223.182129)
sub23_b1_lg_2_124.jpg: Predicted in 0.156635 seconds.
baseball bat: 71%
(326.866150, 61.715710) (428.497253, 223.639236)
sub23_b1_lg_2_125.jpg: Predicted in 0.155048 seconds.
baseball bat: 70%
(325.799683, 61.767143) (427.757050, 223.512161)
sub23_b1_lg_2_126.jpg: Predicted in 0.156990 seconds.
baseball bat: 70%
(325.447601, 62.045979) (427.208252, 223.286850)
sub23_b1_lg_2_127.jpg: Predicted in 0.156202 seconds.
baseball bat: 69%
(326.154022, 61.651749) (426.788116, 224.092133)
sub23_b1_lg_2_128.jpg: Predicted in 0.154990 seconds.
baseball bat: 69%
(327.375183, 61.362236) (426.924438, 225.184540)
sub23_b1_lg_2_129.jpg: Predicted in 0.155898 seconds.
baseball bat: 66%
(327.571991, 62.310970) (427.350494, 224.867615)
sub23_b1_lg_2_130.jpg: Predicted in 0.154231 seconds.
baseball bat: 64%
(327.604919, 62.923939) (426.074829, 225.369583)
sub23_b1_lg_2_131.jpg: Predicted in 0.153734 seconds.
baseball bat: 63%
(328.222626, 63.405525) (425.910065, 225.189270)
sub23_b1_lg_2_132.jpg: Predicted in 0.159134 seconds.
baseball bat: 59%
(328.766266, 63.336712) (426.445435, 225.828644)
sub23_b1_lg_2_133.jpg: Predicted in 0.157232 seconds.
baseball bat: 58%
(329.458862, 63.151150) (426.289581, 227.151199)
sub23_b1_lg_2_134.jpg: Predicted in 0.161806 seconds.
baseball bat: 59%
(330.128387, 63.115002) (425.048004, 227.781174)
sub23_b1_lg_2_135.jpg: Predicted in 0.156186 seconds.
baseball bat: 54%
(329.392242, 64.355057) (424.795380, 227.978256)
sub23_b1_lg_2_136.jpg: Predicted in 0.156486 seconds.
baseball bat: 53%
(330.367523, 63.861168) (424.066742, 228.742706)
sub23_b1_lg_2_137.jpg: Predicted in 0.155176 seconds.
baseball bat: 52%
(329.323151, 64.522057) (423.298981, 227.310150)
sub23_b1_lg_2_138.jpg: Predicted in 0.154636 seconds.
baseball bat: 48%
(329.880920, 65.195015) (423.224792, 227.119339)
sub23_b1_lg_2_139.jpg: Predicted in 0.154694 seconds.
baseball bat: 44%
(329.858521, 65.423531) (422.418457, 227.980698)
sub23_b1_lg_2_140.jpg: Predicted in 0.157249 seconds.
baseball bat: 40%
(329.776672, 67.400406) (422.560059, 228.793594)
sub23_b1_lg_2_141.jpg: Predicted in 0.156736 seconds.
baseball bat: 42%
(330.306763, 67.162964) (422.260803, 229.528595)
sub23_b1_lg_2_142.jpg: Predicted in 0.164679 seconds.
baseball bat: 41%
(331.502014, 65.768936) (420.019287, 230.230164)
sub23_b1_lg_2_143.jpg: Predicted in 0.157061 seconds.
baseball bat: 38%
(342.767609, 72.215889) (411.713135, 227.339310)
sub23_b1_lg_2_144.jpg: Predicted in 0.156600 seconds.
baseball bat: 38%
(342.143951, 74.054085) (410.325012, 228.940002)
sub23_b1_lg_2_145.jpg: Predicted in 0.155650 seconds.
baseball bat: 41%
(342.146088, 74.622475) (410.649078, 229.533615)
sub23_b1_lg_2_146.jpg: Predicted in 0.155475 seconds.
baseball bat: 39%
(342.297638, 75.866959) (409.314514, 229.786728)
sub23_b1_lg_2_147.jpg: Predicted in 0.164561 seconds.
baseball bat: 37%
(343.291321, 75.853386) (409.710144, 230.329208)
sub23_b1_lg_2_148.jpg: Predicted in 0.156608 seconds.
baseball bat: 40%
(344.476166, 74.295197) (409.001160, 230.560242)
sub23_b1_lg_2_149.jpg: Predicted in 0.153545 seconds.
baseball bat: 42%
(344.090729, 72.188828) (408.281799, 229.191940)
sub23_b1_lg_2_150.jpg: Predicted in 0.154990 seconds.
baseball bat: 42%
(343.438080, 72.697899) (408.388855, 231.058441)
sub23_b1_lg_2_151.jpg: Predicted in 0.155478 seconds.
baseball bat: 42%
(346.469849, 74.031090) (407.260376, 233.488159)
sub23_b1_lg_2_152.jpg: Predicted in 0.163740 seconds.
baseball bat: 43%
(348.757965, 72.498642) (407.509949, 232.440918)
sub23_b1_lg_2_153.jpg: Predicted in 0.157144 seconds.
baseball bat: 38%
(348.448181, 72.780319) (406.044006, 230.048477)
sub23_b1_lg_2_154.jpg: Predicted in 0.155729 seconds.
baseball bat: 37%
(349.742249, 72.722649) (404.881622, 228.604599)
sub23_b1_lg_2_155.jpg: Predicted in 0.164741 seconds.
baseball bat: 47%
(349.889221, 71.595375) (405.088104, 230.291855)
sub23_b1_lg_2_156.jpg: Predicted in 0.154780 seconds.
baseball bat: 44%
(350.778107, 71.501213) (403.887115, 230.372467)
sub23_b1_lg_2_157.jpg: Predicted in 0.157123 seconds.
baseball bat: 48%
(351.001831, 70.993355) (403.557343, 231.705826)
sub23_b1_lg_2_158.jpg: Predicted in 0.156334 seconds.
baseball bat: 42%
(350.247070, 71.903877) (402.795166, 232.803558)
sub23_b1_lg_2_159.jpg: Predicted in 0.155721 seconds.
sub23_b1_lg_2_160.jpg: Predicted in 0.154305 seconds.
sub23_b1_lg_2_161.jpg: Predicted in 0.156474 seconds.
sub23_b1_lg_2_162.jpg: Predicted in 0.155421 seconds.
baseball bat: 31%
(354.183655, 76.916611) (399.630646, 232.425659)
sub23_b1_lg_2_163.jpg: Predicted in 0.200286 seconds.
sub23_b1_lg_2_164.jpg: Predicted in 0.156068 seconds.
sub23_b1_lg_2_165.jpg: Predicted in 0.155097 seconds.
sub23_b1_lg_2_166.jpg: Predicted in 0.155931 seconds.
sub23_b1_lg_2_167.jpg: Predicted in 0.154914 seconds.
baseball bat: 36%
(359.985199, 77.148720) (395.179810, 239.507065)
sub23_b1_lg_2_168.jpg: Predicted in 0.157847 seconds.
sub23_b1_lg_2_169.jpg: Predicted in 0.157261 seconds.
sub23_b1_lg_2_170.jpg: Predicted in 0.156527 seconds.
sub23_b1_lg_2_171.jpg: Predicted in 0.155101 seconds.
sub23_b1_lg_2_172.jpg: Predicted in 0.158062 seconds.
sub23_b1_lg_2_173.jpg: Predicted in 0.162809 seconds.
sub23_b1_lg_2_174.jpg: Predicted in 0.157338 seconds.
sub23_b1_lg_2_175.jpg: Predicted in 0.156708 seconds.
sub23_b1_lg_2_176.jpg: Predicted in 0.155636 seconds.
baseball bat: 35%
(366.722992, 74.329933) (387.934509, 242.032883)
sub23_b1_lg_2_177.jpg: Predicted in 0.155490 seconds.
baseball bat: 44%
(365.826447, 69.239655) (386.864288, 244.405899)
sub23_b1_lg_2_178.jpg: Predicted in 0.157555 seconds.
baseball bat: 30%
(367.544891, 71.791313) (384.727448, 241.734573)
sub23_b1_lg_2_179.jpg: Predicted in 0.155222 seconds.
sub23_b1_lg_2_180.jpg: Predicted in 0.156737 seconds.
sub23_b1_lg_2_181.jpg: Predicted in 0.157759 seconds.
sub23_b1_lg_2_182.jpg: Predicted in 0.157330 seconds.
sub23_b1_lg_2_183.jpg: Predicted in 0.157638 seconds.
sub23_b1_lg_2_184.jpg: Predicted in 0.154990 seconds.
sub23_b1_lg_2_185.jpg: Predicted in 0.155325 seconds.
sub23_b1_lg_2_186.jpg: Predicted in 0.156328 seconds.
sub23_b1_lg_2_187.jpg: Predicted in 0.155586 seconds.
sub23_b1_lg_2_188.jpg: Predicted in 0.156018 seconds.
baseball bat: 41%
(357.535339, 83.157211) (375.880951, 254.934357)
sub23_b1_lg_2_189.jpg: Predicted in 0.155063 seconds.
baseball bat: 36%
(356.571716, 86.072372) (379.258362, 248.496872)
sub23_b1_lg_2_190.jpg: Predicted in 0.156349 seconds.
baseball bat: 39%
(352.594299, 84.451416) (378.912811, 249.994141)
sub23_b1_lg_2_191.jpg: Predicted in 0.157218 seconds.
baseball bat: 47%
(350.791840, 90.667931) (378.704254, 250.363953)
sub23_b1_lg_2_192.jpg: Predicted in 0.154939 seconds.
baseball bat: 41%
(349.024841, 91.073517) (380.272400, 251.013489)
sub23_b1_lg_2_193.jpg: Predicted in 0.155496 seconds.
baseball bat: 32%
(331.204895, 7.488900) (364.958588, 161.461029)
baseball bat: 47%
(345.662872, 94.797447) (384.250549, 252.071198)
sub23_b1_lg_2_194.jpg: Predicted in 0.155841 seconds.
sub23_b1_lg_2_195.jpg: Predicted in 0.155459 seconds.
baseball bat: 31%
(323.173096, 7.156330) (365.116089, 163.322464)
baseball bat: 41%
(338.778900, 94.802185) (387.452728, 251.753937)
sub23_b1_lg_2_196.jpg: Predicted in 0.157549 seconds.
sub23_b1_lg_2_197.jpg: Predicted in 0.155729 seconds.
baseball bat: 31%
(314.324371, 8.412493) (369.391815, 168.811432)
baseball bat: 33%
(328.957092, 89.094666) (389.642914, 258.729492)
sub23_b1_lg_2_198.jpg: Predicted in 0.156588 seconds.
baseball bat: 32%
(310.940887, 6.437212) (369.380981, 171.432816)
sub23_b1_lg_2_199.jpg: Predicted in 0.155982 seconds.
sub23_b1_lg_2_200.jpg: Predicted in 0.165306 seconds.
sub23_b1_lg_2_201.jpg: Predicted in 0.157362 seconds.
baseball bat: 33%
(320.617157, 104.993866) (409.172485, 286.023712)
sub23_b1_lg_2_202.jpg: Predicted in 0.155954 seconds.
baseball bat: 49%
(318.020203, 112.431824) (412.488220, 283.532593)
sub23_b1_lg_2_203.jpg: Predicted in 0.156108 seconds.
baseball bat: 33%
(293.756104, 5.768740) (391.861725, 186.406738)
baseball bat: 52%
(318.274139, 109.159279) (411.571838, 283.187256)
sub23_b1_lg_2_204.jpg: Predicted in 0.155739 seconds.
baseball bat: 31%
(291.988525, 6.257719) (392.392578, 190.317596)
baseball bat: 55%
(317.716125, 109.550880) (412.911774, 283.889648)
sub23_b1_lg_2_205.jpg: Predicted in 0.156908 seconds.
baseball bat: 55%
(315.202576, 116.092728) (416.015015, 281.469116)
sub23_b1_lg_2_206.jpg: Predicted in 0.157743 seconds.
baseball bat: 60%
(314.469055, 116.277367) (417.947693, 282.576538)
sub23_b1_lg_2_207.jpg: Predicted in 0.157038 seconds.
baseball bat: 32%
(295.677948, 9.237796) (402.589264, 196.239304)
baseball bat: 63%
(314.101776, 116.105309) (417.920380, 282.363953)
sub23_b1_lg_2_208.jpg: Predicted in 0.156553 seconds.
baseball bat: 31%
(294.761505, 9.581500) (403.356018, 198.231979)
baseball bat: 62%
(313.363190, 116.080338) (419.370483, 282.419891)
sub23_b1_lg_2_209.jpg: Predicted in 0.157552 seconds.
baseball bat: 33%
(294.120361, 12.383181) (403.658417, 199.603882)
baseball bat: 65%
(312.912140, 116.369034) (418.372253, 281.893341)
sub23_b1_lg_2_210.jpg: Predicted in 0.157108 seconds.
baseball bat: 63%
(310.314636, 117.982544) (419.242950, 279.895233)
sub23_b1_lg_2_211.jpg: Predicted in 0.157083 seconds.
baseball bat: 60%
(306.415833, 126.383850) (425.204254, 277.287262)
sub23_b1_lg_2_212.jpg: Predicted in 0.157334 seconds.
baseball bat: 62%
(306.726471, 124.514061) (424.938477, 278.860809)
sub23_b1_lg_2_213.jpg: Predicted in 0.157221 seconds.
baseball bat: 62%
(305.651031, 123.157677) (425.004120, 279.853302)
sub23_b1_lg_2_214.jpg: Predicted in 0.156340 seconds.
baseball bat: 60%
(302.287903, 126.538742) (427.171326, 278.309509)
sub23_b1_lg_2_215.jpg: Predicted in 0.155956 seconds.
baseball bat: 62%
(300.653809, 126.982666) (427.118958, 274.952759)
sub23_b1_lg_2_216.jpg: Predicted in 0.155380 seconds.
baseball bat: 67%
(300.100403, 128.169739) (428.458191, 274.740021)
sub23_b1_lg_2_217.jpg: Predicted in 0.154824 seconds.
baseball bat: 67%
(298.690948, 130.514999) (429.975647, 276.084198)
sub23_b1_lg_2_218.jpg: Predicted in 0.156012 seconds.
baseball bat: 70%
(295.869507, 132.055145) (433.453766, 274.620422)
sub23_b1_lg_2_219.jpg: Predicted in 0.155062 seconds.
baseball bat: 34%
(340.335236, 63.883186) (487.245697, 201.752823)
baseball bat: 71%
(294.904022, 137.282364) (433.954987, 276.386932)
sub23_b1_lg_2_220.jpg: Predicted in 0.155547 seconds.
baseball bat: 35%
(338.012146, 68.188629) (490.643188, 202.403442)
baseball bat: 72%
(291.092133, 140.876068) (439.379303, 277.480103)
sub23_b1_lg_2_221.jpg: Predicted in 0.154523 seconds.
baseball bat: 68%
(288.867676, 142.111832) (439.851196, 277.185242)
sub23_b1_lg_2_222.jpg: Predicted in 0.155791 seconds.
baseball bat: 64%
(287.054382, 145.465851) (440.619263, 278.472626)
sub23_b1_lg_2_223.jpg: Predicted in 0.155914 seconds.
baseball bat: 64%
(287.660706, 150.762375) (443.746613, 280.783356)
sub23_b1_lg_2_224.jpg: Predicted in 0.156965 seconds.
baseball bat: 62%
(289.042969, 155.386139) (444.827667, 281.345001)
sub23_b1_lg_2_225.jpg: Predicted in 0.155921 seconds.
baseball bat: 62%
(286.147675, 157.953903) (448.444672, 279.360840)
sub23_b1_lg_2_226.jpg: Predicted in 0.156109 seconds.
baseball bat: 61%
(285.021545, 161.464523) (449.402893, 279.479523)
sub23_b1_lg_2_227.jpg: Predicted in 0.156973 seconds.
baseball bat: 45%
(283.585449, 164.544083) (452.930756, 280.125214)
sub23_b1_lg_2_228.jpg: Predicted in 0.155239 seconds.
sub23_b1_lg_2_229.jpg: Predicted in 0.154447 seconds.
sub23_b1_lg_2_230.jpg: Predicted in 0.162748 seconds.
sub23_b1_lg_2_231.jpg: Predicted in 0.156153 seconds.
sub23_b1_lg_2_232.jpg: Predicted in 0.155822 seconds.
sub23_b1_lg_2_233.jpg: Predicted in 0.156906 seconds.
baseball bat: 31%
(268.046143, 177.083832) (457.640503, 274.350739)
sub23_b1_lg_2_234.jpg: Predicted in 0.156342 seconds.
baseball bat: 42%
(266.432373, 178.006317) (455.577301, 272.479614)
sub23_b1_lg_2_235.jpg: Predicted in 0.155172 seconds.
baseball bat: 39%
(257.836914, 178.123840) (458.618073, 268.980316)
sub23_b1_lg_2_236.jpg: Predicted in 0.157223 seconds.
sub23_b1_lg_2_237.jpg: Predicted in 0.158474 seconds.
sub23_b1_lg_2_238.jpg: Predicted in 0.155447 seconds.
sub23_b1_lg_2_239.jpg: Predicted in 0.157000 seconds.
sub23_b1_lg_2_240.jpg: Predicted in 0.157170 seconds.
baseball bat: 36%
(84.881943, 162.242065) (228.562332, 229.309540)
sub23_b1_lg_2_241.jpg: Predicted in 0.155375 seconds.
baseball bat: 32%
(77.419273, 168.734741) (237.268417, 232.472992)
sub23_b1_lg_2_242.jpg: Predicted in 0.157238 seconds.
baseball bat: 32%
(57.338799, 180.273163) (231.543365, 232.422531)
sub23_b1_lg_2_243.jpg: Predicted in 0.155955 seconds.
sub23_b1_lg_2_244.jpg: Predicted in 0.157377 seconds.
sub23_b1_lg_2_245.jpg: Predicted in 0.155893 seconds.
sub23_b1_lg_2_246.jpg: Predicted in 0.155612 seconds.
sub23_b1_lg_2_247.jpg: Predicted in 0.156998 seconds.
baseball bat: 32%
(248.757172, 235.307343) (486.600647, 261.653198)
sub23_b1_lg_2_248.jpg: Predicted in 0.155539 seconds.
baseball bat: 35%
(244.670532, 239.149689) (481.633728, 260.433838)
sub23_b1_lg_2_249.jpg: Predicted in 0.154535 seconds.
baseball bat: 40%
(246.187454, 244.537704) (476.507477, 262.000122)
sub23_b1_lg_2_250.jpg: Predicted in 0.160808 seconds.
baseball bat: 37%
(251.574402, 251.777649) (470.365845, 265.352386)
sub23_b1_lg_2_251.jpg: Predicted in 0.168669 seconds.
sub23_b1_lg_2_252.jpg: Predicted in 0.156171 seconds.
sub23_b1_lg_2_253.jpg: Predicted in 0.157239 seconds.
sub23_b1_lg_2_254.jpg: Predicted in 0.189363 seconds.
sub23_b1_lg_2_255.jpg: Predicted in 0.157229 seconds.
baseball bat: 39%
(301.636383, 259.556458) (543.620544, 276.038452)
sub23_b1_lg_2_256.jpg: Predicted in 0.155764 seconds.
baseball bat: 32%
(109.227974, 252.244171) (372.330597, 272.165405)
baseball bat: 42%
(309.639648, 259.465881) (541.951050, 282.639465)
baseball bat: 35%
(404.992676, 252.047440) (636.050354, 272.130981)
sub23_b1_lg_2_257.jpg: Predicted in 0.158181 seconds.
baseball bat: 31%
(110.126099, 252.253708) (373.047607, 275.754700)
baseball bat: 42%
(311.108948, 261.087677) (544.584412, 288.659912)
sub23_b1_lg_2_258.jpg: Predicted in 0.163349 seconds.
baseball bat: 32%
(109.660477, 250.213257) (374.660919, 277.889282)
baseball bat: 41%
(315.974335, 260.114441) (549.440247, 293.212830)
baseball bat: 31%
(402.897736, 251.643921) (631.115845, 279.897766)
sub23_b1_lg_2_259.jpg: Predicted in 0.156174 seconds.
baseball bat: 49%
(316.749115, 261.085052) (542.989197, 298.093231)
baseball bat: 33%
(399.060791, 251.174500) (634.194153, 282.914490)
sub23_b1_lg_2_260.jpg: Predicted in 0.155714 seconds.
baseball bat: 32%
(234.165649, 254.397583) (465.128784, 294.464111)
baseball bat: 47%
(314.643433, 260.311523) (534.654785, 301.774811)
sub23_b1_lg_2_261.jpg: Predicted in 0.156652 seconds.
baseball bat: 33%
(227.468506, 251.908646) (462.975281, 294.049438)
baseball bat: 52%
(316.291443, 262.757416) (533.152039, 306.409363)
sub23_b1_lg_2_262.jpg: Predicted in 0.154890 seconds.
baseball bat: 49%
(315.737457, 262.178802) (536.944214, 310.905334)
sub23_b1_lg_2_263.jpg: Predicted in 0.157607 seconds.
baseball bat: 41%
(328.746399, 257.759308) (533.059875, 316.722382)
sub23_b1_lg_2_264.jpg: Predicted in 0.156967 seconds.
baseball bat: 48%
(330.568909, 258.428711) (539.147461, 321.532654)
sub23_b1_lg_2_265.jpg: Predicted in 0.155097 seconds.
baseball bat: 58%
(333.956604, 258.825958) (537.693481, 328.605377)
sub23_b1_lg_2_266.jpg: Predicted in 0.156432 seconds.
baseball bat: 64%
(339.856750, 262.589081) (541.196045, 330.436066)
sub23_b1_lg_2_267.jpg: Predicted in 0.154789 seconds.
baseball bat: 67%
(347.356354, 259.914093) (539.519165, 335.156494)
sub23_b1_lg_2_268.jpg: Predicted in 0.156500 seconds.
baseball bat: 68%
(349.019165, 260.605225) (542.466980, 338.102448)
sub23_b1_lg_2_269.jpg: Predicted in 0.166705 seconds.
baseball bat: 66%
(358.635162, 258.850861) (544.945129, 341.864136)
sub23_b1_lg_2_270.jpg: Predicted in 0.156099 seconds.
baseball bat: 64%
(370.191864, 255.660645) (542.012146, 345.177673)
sub23_b1_lg_2_271.jpg: Predicted in 0.165057 seconds.
baseball bat: 59%
(374.463135, 253.174423) (540.783142, 346.757874)
sub23_b1_lg_2_272.jpg: Predicted in 0.155223 seconds.
baseball bat: 61%
(373.840851, 263.617004) (534.526001, 363.649078)
sub23_b1_lg_2_273.jpg: Predicted in 0.155837 seconds.
baseball bat: 70%
(379.677979, 261.641266) (538.243347, 367.279907)
sub23_b1_lg_2_274.jpg: Predicted in 0.157246 seconds.
baseball bat: 31%
(450.208740, 213.177643) (597.925171, 327.071716)
baseball bat: 73%
(393.226288, 260.002838) (537.127014, 367.777130)
sub23_b1_lg_2_275.jpg: Predicted in 0.155221 seconds.
baseball bat: 37%
(452.889862, 212.925049) (598.123840, 330.956909)
baseball bat: 76%
(401.758636, 259.215668) (536.765747, 371.883728)
sub23_b1_lg_2_276.jpg: Predicted in 0.156685 seconds.
baseball bat: 37%
(456.329956, 213.903061) (599.998779, 331.329773)
baseball bat: 75%
(407.152161, 258.937012) (537.858337, 374.062988)
sub23_b1_lg_2_277.jpg: Predicted in 0.156243 seconds.
baseball bat: 31%
(458.676331, 216.864182) (599.351379, 335.035156)
baseball bat: 74%
(413.984344, 258.213440) (537.627136, 377.473480)
sub23_b1_lg_2_278.jpg: Predicted in 0.155230 seconds.
baseball bat: 61%
(418.690033, 260.109009) (538.253540, 373.607544)
sub23_b1_lg_2_279.jpg: Predicted in 0.157357 seconds.
sub23_b1_lg_2_280.jpg: Predicted in 0.165690 seconds.
sub23_b1_lg_2_281.jpg: Predicted in 0.156031 seconds.
baseball bat: 68%
(464.624023, 251.062851) (548.525208, 376.388092)
sub23_b1_lg_2_282.jpg: Predicted in 0.157490 seconds.
baseball bat: 67%
(470.439056, 250.829285) (545.222961, 378.213776)
sub23_b1_lg_2_283.jpg: Predicted in 0.157399 seconds.
baseball bat: 67%
(477.363739, 251.129501) (543.980591, 379.873505)
sub23_b1_lg_2_284.jpg: Predicted in 0.156030 seconds.
baseball bat: 61%
(489.228577, 247.764023) (538.274109, 382.040924)
sub23_b1_lg_2_285.jpg: Predicted in 0.163017 seconds.
baseball bat: 33%
(507.409363, 225.991257) (551.613586, 329.145081)
baseball bat: 55%
(498.059326, 246.325684) (541.828674, 383.791443)
sub23_b1_lg_2_286.jpg: Predicted in 0.155403 seconds.
baseball bat: 42%
(505.011963, 245.833176) (538.809387, 383.837250)
sub23_b1_lg_2_287.jpg: Predicted in 0.164364 seconds.
sub23_b1_lg_2_288.jpg: Predicted in 0.164705 seconds.
sub23_b1_lg_2_289.jpg: Predicted in 0.157410 seconds.
sub23_b1_lg_2_290.jpg: Predicted in 0.156137 seconds.
sub23_b1_lg_2_291.jpg: Predicted in 0.157597 seconds.
sub23_b1_lg_2_292.jpg: Predicted in 0.158302 seconds.
sub23_b1_lg_2_293.jpg: Predicted in 0.157407 seconds.
baseball bat: 41%
(532.488220, 239.818634) (584.636414, 383.192627)
sub23_b1_lg_2_294.jpg: Predicted in 0.157812 seconds.
baseball bat: 41%
(527.726624, 240.028595) (595.874329, 383.992554)
sub23_b1_lg_2_295.jpg: Predicted in 0.165974 seconds.
baseball bat: 36%
(525.682861, 241.843109) (604.003235, 381.243774)
sub23_b1_lg_2_296.jpg: Predicted in 0.159946 seconds.
sub23_b1_lg_2_297.jpg: Predicted in 0.156019 seconds.
sub23_b1_lg_2_298.jpg: Predicted in 0.156524 seconds.
sub23_b1_lg_2_299.jpg: Predicted in 0.156747 seconds.
baseball bat: 45%
(541.342468, 211.772537) (699.375488, 339.384705)
sub23_b1_lg_2_300.jpg: Predicted in 0.156435 seconds.
baseball bat: 60%
(544.610840, 212.347900) (696.087097, 353.334717)
sub23_b1_lg_2_301.jpg: Predicted in 0.158037 seconds.
baseball bat: 61%
(538.374573, 219.862305) (701.644653, 354.883820)
sub23_b1_lg_2_302.jpg: Predicted in 0.157538 seconds.
baseball bat: 61%
(538.085876, 225.082443) (700.592590, 354.965851)
sub23_b1_lg_2_303.jpg: Predicted in 0.155715 seconds.
baseball bat: 55%
(538.070618, 229.101105) (704.308777, 353.008728)
sub23_b1_lg_2_304.jpg: Predicted in 0.156163 seconds.
baseball bat: 41%
(535.559998, 230.307587) (713.348511, 350.675293)
sub23_b1_lg_2_305.jpg: Predicted in 0.158430 seconds.
baseball bat: 43%
(537.022949, 232.817596) (709.790527, 350.894318)
sub23_b1_lg_2_306.jpg: Predicted in 0.162613 seconds.
baseball bat: 42%
(535.984558, 233.949493) (713.891907, 350.158295)
sub23_b1_lg_2_307.jpg: Predicted in 0.157276 seconds.
baseball bat: 32%
(529.769836, 233.370285) (718.766479, 347.142609)
sub23_b1_lg_2_308.jpg: Predicted in 0.158190 seconds.
baseball bat: 38%
(530.366455, 233.782898) (717.184631, 346.642822)
sub23_b1_lg_2_309.jpg: Predicted in 0.156861 seconds.
baseball bat: 46%
(528.575378, 232.629395) (715.036377, 347.659485)
sub23_b1_lg_2_310.jpg: Predicted in 0.157019 seconds.
baseball bat: 41%
(532.631958, 232.884674) (720.503540, 349.008911)
sub23_b1_lg_2_311.jpg: Predicted in 0.158894 seconds.
baseball bat: 50%
(529.766174, 235.118134) (716.940308, 350.197388)
sub23_b1_lg_2_312.jpg: Predicted in 0.155866 seconds.
baseball bat: 51%
(527.660400, 236.188614) (720.756409, 351.510529)
sub23_b1_lg_2_313.jpg: Predicted in 0.157403 seconds.
baseball bat: 37%
(522.556946, 233.571411) (729.347046, 353.014587)
sub23_b1_lg_2_314.jpg: Predicted in 0.155784 seconds.
baseball bat: 34%
(520.980164, 232.192230) (733.206055, 353.908783)
sub23_b1_lg_2_315.jpg: Predicted in 0.155818 seconds.
baseball bat: 42%
(521.390930, 231.630463) (730.531433, 355.205200)
sub23_b1_lg_2_316.jpg: Predicted in 0.157744 seconds.
baseball bat: 45%
(520.549805, 233.150818) (729.986694, 353.865417)
sub23_b1_lg_2_317.jpg: Predicted in 0.165960 seconds.
baseball bat: 45%
(518.721924, 235.409546) (732.247131, 351.826080)
sub23_b1_lg_2_318.jpg: Predicted in 0.156923 seconds.
baseball bat: 39%
(517.257507, 236.169647) (736.112183, 349.719147)
sub23_b1_lg_2_319.jpg: Predicted in 0.157972 seconds.
baseball bat: 41%
(516.090515, 238.552017) (739.432190, 348.415070)
sub23_b1_lg_2_320.jpg: Predicted in 0.156273 seconds.
baseball bat: 45%
(512.123474, 240.868469) (741.114624, 348.705780)
sub23_b1_lg_2_321.jpg: Predicted in 0.166378 seconds.
baseball bat: 42%
(511.358368, 240.463074) (743.625061, 349.038361)
