sub20_b1_lg_3_001.jpg: Predicted in 0.163843 seconds.
sub20_b1_lg_3_002.jpg: Predicted in 0.160830 seconds.
sub20_b1_lg_3_003.jpg: Predicted in 0.154025 seconds.
sub20_b1_lg_3_004.jpg: Predicted in 0.153910 seconds.
sub20_b1_lg_3_005.jpg: Predicted in 0.160919 seconds.
sub20_b1_lg_3_006.jpg: Predicted in 0.156971 seconds.
sub20_b1_lg_3_007.jpg: Predicted in 0.157000 seconds.
sub20_b1_lg_3_008.jpg: Predicted in 0.154375 seconds.
sub20_b1_lg_3_009.jpg: Predicted in 0.156280 seconds.
sub20_b1_lg_3_010.jpg: Predicted in 0.163223 seconds.
sub20_b1_lg_3_011.jpg: Predicted in 0.155668 seconds.
sub20_b1_lg_3_012.jpg: Predicted in 0.156325 seconds.
sub20_b1_lg_3_013.jpg: Predicted in 0.154156 seconds.
sub20_b1_lg_3_014.jpg: Predicted in 0.154067 seconds.
sub20_b1_lg_3_015.jpg: Predicted in 0.154839 seconds.
sub20_b1_lg_3_016.jpg: Predicted in 0.154683 seconds.
sub20_b1_lg_3_017.jpg: Predicted in 0.155221 seconds.
sub20_b1_lg_3_018.jpg: Predicted in 0.156638 seconds.
sub20_b1_lg_3_019.jpg: Predicted in 0.154336 seconds.
sub20_b1_lg_3_020.jpg: Predicted in 0.157452 seconds.
sub20_b1_lg_3_021.jpg: Predicted in 0.156697 seconds.
sub20_b1_lg_3_022.jpg: Predicted in 0.159468 seconds.
sub20_b1_lg_3_023.jpg: Predicted in 0.159834 seconds.
sub20_b1_lg_3_024.jpg: Predicted in 0.156769 seconds.
sub20_b1_lg_3_025.jpg: Predicted in 0.155389 seconds.
sub20_b1_lg_3_026.jpg: Predicted in 0.155016 seconds.
sub20_b1_lg_3_027.jpg: Predicted in 0.153989 seconds.
sub20_b1_lg_3_028.jpg: Predicted in 0.153494 seconds.
sub20_b1_lg_3_029.jpg: Predicted in 0.155508 seconds.
sub20_b1_lg_3_030.jpg: Predicted in 0.155348 seconds.
sub20_b1_lg_3_031.jpg: Predicted in 0.155572 seconds.
sub20_b1_lg_3_032.jpg: Predicted in 0.155983 seconds.
sub20_b1_lg_3_033.jpg: Predicted in 0.153877 seconds.
sub20_b1_lg_3_034.jpg: Predicted in 0.161934 seconds.
sub20_b1_lg_3_035.jpg: Predicted in 0.155313 seconds.
sub20_b1_lg_3_036.jpg: Predicted in 0.156175 seconds.
sub20_b1_lg_3_037.jpg: Predicted in 0.155104 seconds.
sub20_b1_lg_3_038.jpg: Predicted in 0.155688 seconds.
sub20_b1_lg_3_039.jpg: Predicted in 0.154780 seconds.
sub20_b1_lg_3_040.jpg: Predicted in 0.156914 seconds.
sub20_b1_lg_3_041.jpg: Predicted in 0.156071 seconds.
sub20_b1_lg_3_042.jpg: Predicted in 0.155291 seconds.
sub20_b1_lg_3_043.jpg: Predicted in 0.155643 seconds.
sub20_b1_lg_3_044.jpg: Predicted in 0.156339 seconds.
sub20_b1_lg_3_045.jpg: Predicted in 0.155438 seconds.
sub20_b1_lg_3_046.jpg: Predicted in 0.157237 seconds.
sub20_b1_lg_3_047.jpg: Predicted in 0.154572 seconds.
sub20_b1_lg_3_048.jpg: Predicted in 0.157891 seconds.
sub20_b1_lg_3_049.jpg: Predicted in 0.154095 seconds.
sub20_b1_lg_3_050.jpg: Predicted in 0.154665 seconds.
sub20_b1_lg_3_051.jpg: Predicted in 0.156048 seconds.
sub20_b1_lg_3_052.jpg: Predicted in 0.154886 seconds.
sub20_b1_lg_3_053.jpg: Predicted in 0.154424 seconds.
sub20_b1_lg_3_054.jpg: Predicted in 0.153686 seconds.
sub20_b1_lg_3_055.jpg: Predicted in 0.156754 seconds.
sub20_b1_lg_3_056.jpg: Predicted in 0.154191 seconds.
sub20_b1_lg_3_057.jpg: Predicted in 0.155606 seconds.
sub20_b1_lg_3_058.jpg: Predicted in 0.153985 seconds.
sub20_b1_lg_3_059.jpg: Predicted in 0.154188 seconds.
sub20_b1_lg_3_060.jpg: Predicted in 0.155074 seconds.
sub20_b1_lg_3_061.jpg: Predicted in 0.155665 seconds.
sub20_b1_lg_3_062.jpg: Predicted in 0.154824 seconds.
sub20_b1_lg_3_063.jpg: Predicted in 0.154903 seconds.
sub20_b1_lg_3_064.jpg: Predicted in 0.154392 seconds.
sub20_b1_lg_3_065.jpg: Predicted in 0.156463 seconds.
sub20_b1_lg_3_066.jpg: Predicted in 0.156353 seconds.
sub20_b1_lg_3_067.jpg: Predicted in 0.155574 seconds.
sub20_b1_lg_3_068.jpg: Predicted in 0.155893 seconds.
sub20_b1_lg_3_069.jpg: Predicted in 0.154469 seconds.
sub20_b1_lg_3_070.jpg: Predicted in 0.153443 seconds.
sub20_b1_lg_3_071.jpg: Predicted in 0.154773 seconds.
sub20_b1_lg_3_072.jpg: Predicted in 0.163004 seconds.
baseball bat: 30%
(233.189102, 112.662476) (272.718597, 296.706604)
sub20_b1_lg_3_073.jpg: Predicted in 0.157111 seconds.
baseball bat: 31%
(234.536896, 110.335930) (272.812225, 297.061584)
sub20_b1_lg_3_074.jpg: Predicted in 0.155069 seconds.
baseball bat: 35%
(235.583908, 111.227684) (275.076599, 295.899231)
sub20_b1_lg_3_075.jpg: Predicted in 0.155011 seconds.
baseball bat: 33%
(236.574524, 112.520874) (276.763519, 295.452362)
sub20_b1_lg_3_076.jpg: Predicted in 0.156392 seconds.
baseball bat: 33%
(237.999054, 113.280609) (276.096588, 294.136749)
sub20_b1_lg_3_077.jpg: Predicted in 0.155634 seconds.
sub20_b1_lg_3_078.jpg: Predicted in 0.155379 seconds.
sub20_b1_lg_3_079.jpg: Predicted in 0.157505 seconds.
sub20_b1_lg_3_080.jpg: Predicted in 0.162679 seconds.
sub20_b1_lg_3_081.jpg: Predicted in 0.155877 seconds.
sub20_b1_lg_3_082.jpg: Predicted in 0.154757 seconds.
sub20_b1_lg_3_083.jpg: Predicted in 0.155970 seconds.
sub20_b1_lg_3_084.jpg: Predicted in 0.154129 seconds.
sub20_b1_lg_3_085.jpg: Predicted in 0.155468 seconds.
sub20_b1_lg_3_086.jpg: Predicted in 0.156600 seconds.
sub20_b1_lg_3_087.jpg: Predicted in 0.154465 seconds.
sub20_b1_lg_3_088.jpg: Predicted in 0.164907 seconds.
sub20_b1_lg_3_089.jpg: Predicted in 0.154370 seconds.
sub20_b1_lg_3_090.jpg: Predicted in 0.156151 seconds.
sub20_b1_lg_3_091.jpg: Predicted in 0.156752 seconds.
sub20_b1_lg_3_092.jpg: Predicted in 0.156610 seconds.
sub20_b1_lg_3_093.jpg: Predicted in 0.154340 seconds.
sub20_b1_lg_3_094.jpg: Predicted in 0.155830 seconds.
sub20_b1_lg_3_095.jpg: Predicted in 0.153696 seconds.
sub20_b1_lg_3_096.jpg: Predicted in 0.154147 seconds.
sub20_b1_lg_3_097.jpg: Predicted in 0.162417 seconds.
sub20_b1_lg_3_098.jpg: Predicted in 0.155842 seconds.
sub20_b1_lg_3_099.jpg: Predicted in 0.154231 seconds.
sub20_b1_lg_3_100.jpg: Predicted in 0.158798 seconds.
sub20_b1_lg_3_101.jpg: Predicted in 0.154890 seconds.
sub20_b1_lg_3_102.jpg: Predicted in 0.155488 seconds.
sub20_b1_lg_3_103.jpg: Predicted in 0.158210 seconds.
sub20_b1_lg_3_104.jpg: Predicted in 0.155161 seconds.
sub20_b1_lg_3_105.jpg: Predicted in 0.158196 seconds.
sub20_b1_lg_3_106.jpg: Predicted in 0.156762 seconds.
sub20_b1_lg_3_107.jpg: Predicted in 0.155070 seconds.
sub20_b1_lg_3_108.jpg: Predicted in 0.155141 seconds.
sub20_b1_lg_3_109.jpg: Predicted in 0.154058 seconds.
sub20_b1_lg_3_110.jpg: Predicted in 0.156799 seconds.
sub20_b1_lg_3_111.jpg: Predicted in 0.153235 seconds.
sub20_b1_lg_3_112.jpg: Predicted in 0.164396 seconds.
sub20_b1_lg_3_113.jpg: Predicted in 0.162519 seconds.
sub20_b1_lg_3_114.jpg: Predicted in 0.156182 seconds.
sub20_b1_lg_3_115.jpg: Predicted in 0.156254 seconds.
sub20_b1_lg_3_116.jpg: Predicted in 0.155298 seconds.
sub20_b1_lg_3_117.jpg: Predicted in 0.158751 seconds.
sub20_b1_lg_3_118.jpg: Predicted in 0.155915 seconds.
sub20_b1_lg_3_119.jpg: Predicted in 0.157171 seconds.
sub20_b1_lg_3_120.jpg: Predicted in 0.153615 seconds.
sub20_b1_lg_3_121.jpg: Predicted in 0.156183 seconds.
sub20_b1_lg_3_122.jpg: Predicted in 0.155398 seconds.
sub20_b1_lg_3_123.jpg: Predicted in 0.156180 seconds.
sub20_b1_lg_3_124.jpg: Predicted in 0.156877 seconds.
sub20_b1_lg_3_125.jpg: Predicted in 0.156010 seconds.
sub20_b1_lg_3_126.jpg: Predicted in 0.156993 seconds.
sub20_b1_lg_3_127.jpg: Predicted in 0.157004 seconds.
baseball bat: 34%
(225.841858, 162.155548) (249.295441, 292.978271)
sub20_b1_lg_3_128.jpg: Predicted in 0.156727 seconds.
baseball bat: 37%
(223.721878, 162.637299) (249.054764, 295.223358)
sub20_b1_lg_3_129.jpg: Predicted in 0.155677 seconds.
baseball bat: 37%
(221.682709, 163.624329) (248.981125, 296.014984)
sub20_b1_lg_3_130.jpg: Predicted in 0.164797 seconds.
sub20_b1_lg_3_131.jpg: Predicted in 0.161521 seconds.
sub20_b1_lg_3_132.jpg: Predicted in 0.154725 seconds.
sub20_b1_lg_3_133.jpg: Predicted in 0.156278 seconds.
sub20_b1_lg_3_134.jpg: Predicted in 0.155370 seconds.
sub20_b1_lg_3_135.jpg: Predicted in 0.157892 seconds.
sub20_b1_lg_3_136.jpg: Predicted in 0.156591 seconds.
baseball bat: 32%
(210.944611, 186.894867) (257.468628, 345.734955)
sub20_b1_lg_3_137.jpg: Predicted in 0.156366 seconds.
baseball bat: 32%
(210.353928, 187.394119) (258.991425, 347.682159)
sub20_b1_lg_3_138.jpg: Predicted in 0.154280 seconds.
baseball bat: 37%
(205.523987, 181.791702) (259.309692, 348.120728)
sub20_b1_lg_3_139.jpg: Predicted in 0.154797 seconds.
baseball bat: 51%
(199.987167, 172.234070) (259.013824, 354.830536)
sub20_b1_lg_3_140.jpg: Predicted in 0.155572 seconds.
baseball bat: 53%
(198.267517, 172.193848) (260.997589, 354.552460)
sub20_b1_lg_3_141.jpg: Predicted in 0.154688 seconds.
baseball bat: 51%
(194.252136, 170.052948) (261.728973, 352.509033)
sub20_b1_lg_3_142.jpg: Predicted in 0.154460 seconds.
baseball bat: 39%
(186.004822, 171.966919) (266.518951, 359.384552)
sub20_b1_lg_3_143.jpg: Predicted in 0.156914 seconds.
baseball bat: 44%
(185.213745, 173.734802) (266.478210, 358.238312)
sub20_b1_lg_3_144.jpg: Predicted in 0.156877 seconds.
baseball bat: 57%
(185.971329, 175.407913) (268.158325, 360.462433)
sub20_b1_lg_3_145.jpg: Predicted in 0.155392 seconds.
baseball bat: 63%
(187.944763, 178.737045) (269.944305, 364.387482)
sub20_b1_lg_3_146.jpg: Predicted in 0.155568 seconds.
baseball bat: 60%
(182.839401, 185.931137) (272.004639, 359.693298)
sub20_b1_lg_3_147.jpg: Predicted in 0.163402 seconds.
baseball bat: 65%
(184.611221, 182.525772) (271.192017, 364.720154)
sub20_b1_lg_3_148.jpg: Predicted in 0.153731 seconds.
baseball bat: 67%
(183.224060, 182.679626) (271.201691, 364.696472)
sub20_b1_lg_3_149.jpg: Predicted in 0.155385 seconds.
baseball bat: 68%
(182.773361, 181.169250) (271.464996, 365.711578)
sub20_b1_lg_3_150.jpg: Predicted in 0.155510 seconds.
baseball bat: 69%
(181.039902, 183.264236) (274.009644, 369.152710)
sub20_b1_lg_3_151.jpg: Predicted in 0.155278 seconds.
baseball bat: 68%
(178.496445, 191.292358) (276.720306, 369.103119)
sub20_b1_lg_3_152.jpg: Predicted in 0.155136 seconds.
baseball bat: 41%
(121.068024, 126.960464) (235.796249, 286.400024)
baseball bat: 70%
(180.758484, 197.467361) (276.831299, 369.090179)
sub20_b1_lg_3_153.jpg: Predicted in 0.155725 seconds.
baseball bat: 45%
(123.211929, 128.531174) (236.664856, 287.520660)
baseball bat: 70%
(179.535858, 198.846115) (277.721588, 368.871124)
sub20_b1_lg_3_154.jpg: Predicted in 0.157275 seconds.
baseball bat: 46%
(123.719154, 129.410629) (238.648438, 289.509888)
baseball bat: 71%
(178.424652, 198.546967) (280.356079, 368.822968)
sub20_b1_lg_3_155.jpg: Predicted in 0.159530 seconds.
baseball bat: 45%
(118.934875, 130.792084) (240.949921, 293.040588)
baseball bat: 71%
(175.564392, 198.315918) (282.781677, 369.264862)
sub20_b1_lg_3_156.jpg: Predicted in 0.165219 seconds.
baseball bat: 42%
(117.438362, 133.867706) (240.842087, 297.241455)
baseball bat: 71%
(173.456665, 201.478561) (286.456848, 369.833374)
sub20_b1_lg_3_157.jpg: Predicted in 0.162938 seconds.
baseball bat: 40%
(112.470993, 134.654282) (242.334732, 299.795685)
baseball bat: 71%
(170.754333, 201.576096) (288.872314, 370.336853)
sub20_b1_lg_3_158.jpg: Predicted in 0.155886 seconds.
baseball bat: 39%
(105.373734, 137.636673) (242.722046, 300.766510)
baseball bat: 71%
(168.232773, 204.152817) (292.583618, 369.606293)
sub20_b1_lg_3_159.jpg: Predicted in 0.155053 seconds.
baseball bat: 40%
(102.536415, 143.595032) (243.516663, 301.922272)
baseball bat: 71%
(167.664185, 207.102112) (295.385803, 368.335480)
sub20_b1_lg_3_160.jpg: Predicted in 0.154884 seconds.
baseball bat: 43%
(98.241974, 151.121765) (243.621964, 303.280762)
baseball bat: 71%
(166.688614, 211.471329) (298.590576, 365.883301)
sub20_b1_lg_3_161.jpg: Predicted in 0.156901 seconds.
baseball bat: 39%
(91.580208, 156.174759) (244.097198, 305.785950)
baseball bat: 70%
(165.294800, 215.524017) (301.910706, 364.579712)
sub20_b1_lg_3_162.jpg: Predicted in 0.156570 seconds.
baseball bat: 37%
(81.161301, 160.162689) (243.653534, 305.815643)
baseball bat: 68%
(163.658554, 217.519424) (303.149811, 363.798920)
sub20_b1_lg_3_163.jpg: Predicted in 0.165845 seconds.
baseball bat: 31%
(75.074280, 164.079132) (245.989136, 306.486755)
baseball bat: 65%
(160.799316, 221.810745) (308.447845, 361.172455)
sub20_b1_lg_3_164.jpg: Predicted in 0.155541 seconds.
baseball bat: 35%
(71.959976, 167.266830) (243.378891, 303.907379)
baseball bat: 63%
(156.809311, 225.983963) (307.487427, 357.873901)
sub20_b1_lg_3_165.jpg: Predicted in 0.155304 seconds.
baseball bat: 57%
(152.895142, 228.927261) (311.248871, 357.085327)
sub20_b1_lg_3_166.jpg: Predicted in 0.158428 seconds.
baseball bat: 53%
(153.083618, 229.114136) (310.707642, 357.813904)
sub20_b1_lg_3_167.jpg: Predicted in 0.161709 seconds.
baseball bat: 55%
(161.675201, 253.953033) (329.669678, 377.019226)
sub20_b1_lg_3_168.jpg: Predicted in 0.157479 seconds.
baseball bat: 55%
(159.676544, 255.125656) (330.547180, 377.803192)
sub20_b1_lg_3_169.jpg: Predicted in 0.165271 seconds.
baseball bat: 62%
(160.176865, 257.956390) (329.939453, 376.345276)
sub20_b1_lg_3_170.jpg: Predicted in 0.174863 seconds.
baseball bat: 38%
(79.751968, 209.941925) (250.495026, 328.290100)
baseball bat: 64%
(160.313110, 258.195709) (330.878967, 378.268616)
sub20_b1_lg_3_171.jpg: Predicted in 0.157340 seconds.
baseball bat: 45%
(72.825737, 214.692505) (250.213745, 329.593811)
baseball bat: 62%
(156.387344, 261.091034) (334.437836, 377.966766)
sub20_b1_lg_3_172.jpg: Predicted in 0.199985 seconds.
baseball bat: 50%
(66.405182, 216.936676) (256.039886, 331.422241)
baseball bat: 67%
(158.396942, 261.687042) (336.715820, 378.772278)
sub20_b1_lg_3_173.jpg: Predicted in 0.154775 seconds.
baseball bat: 53%
(62.871456, 219.590912) (257.798370, 331.294769)
baseball bat: 67%
(156.897461, 262.728790) (338.999695, 377.622986)
sub20_b1_lg_3_174.jpg: Predicted in 0.155444 seconds.
baseball bat: 53%
(62.027939, 224.126480) (256.159821, 331.582458)
baseball bat: 66%
(155.553772, 264.838440) (340.295563, 376.289154)
sub20_b1_lg_3_175.jpg: Predicted in 0.154827 seconds.
baseball bat: 53%
(60.286209, 225.524826) (255.391525, 331.860626)
baseball bat: 67%
(154.731415, 266.410187) (341.485291, 375.761475)
sub20_b1_lg_3_176.jpg: Predicted in 0.157151 seconds.
baseball bat: 45%
(54.581268, 230.616013) (257.244171, 334.380280)
baseball bat: 67%
(152.909683, 269.868927) (343.153900, 375.282440)
sub20_b1_lg_3_177.jpg: Predicted in 0.165798 seconds.
baseball bat: 39%
(56.758492, 235.618790) (254.227646, 337.852081)
baseball bat: 62%
(152.588760, 270.914368) (342.758728, 375.073975)
sub20_b1_lg_3_178.jpg: Predicted in 0.161538 seconds.
baseball bat: 38%
(51.774158, 236.703049) (252.669586, 337.835052)
baseball bat: 62%
(150.239349, 272.638763) (343.601898, 375.418427)
sub20_b1_lg_3_179.jpg: Predicted in 0.155789 seconds.
baseball bat: 34%
(44.721985, 244.386810) (254.489502, 338.697784)
baseball bat: 61%
(149.782166, 277.782074) (348.504700, 374.894653)
sub20_b1_lg_3_180.jpg: Predicted in 0.158501 seconds.
baseball bat: 32%
(44.909401, 248.193954) (248.963715, 339.843353)
baseball bat: 59%
(150.392059, 279.977875) (346.935669, 375.558380)
sub20_b1_lg_3_181.jpg: Predicted in 0.155553 seconds.
baseball bat: 31%
(44.463634, 249.589584) (245.179672, 340.512238)
baseball bat: 57%
(148.496689, 281.214783) (345.350189, 375.973724)
sub20_b1_lg_3_182.jpg: Predicted in 0.155277 seconds.
baseball bat: 33%
(41.256950, 249.181839) (249.536606, 341.967194)
baseball bat: 64%
(145.892624, 284.626740) (352.036316, 377.783325)
sub20_b1_lg_3_183.jpg: Predicted in 0.160736 seconds.
baseball bat: 31%
(42.272987, 248.738358) (245.936523, 342.399048)
baseball bat: 50%
(145.737823, 280.987579) (345.360077, 376.389191)
sub20_b1_lg_3_184.jpg: Predicted in 0.156580 seconds.
baseball bat: 46%
(148.267609, 281.288086) (341.273590, 374.241272)
sub20_b1_lg_3_185.jpg: Predicted in 0.157167 seconds.
baseball bat: 41%
(147.122284, 284.623566) (340.120331, 372.630035)
sub20_b1_lg_3_186.jpg: Predicted in 0.155967 seconds.
baseball bat: 40%
(149.337219, 289.186310) (339.976746, 374.632935)
sub20_b1_lg_3_187.jpg: Predicted in 0.156754 seconds.
baseball bat: 43%
(155.212112, 297.629639) (338.304718, 375.549469)
sub20_b1_lg_3_188.jpg: Predicted in 0.157371 seconds.
baseball bat: 31%
(173.817291, 299.381683) (316.658020, 371.739441)
sub20_b1_lg_3_189.jpg: Predicted in 0.155684 seconds.
baseball bat: 30%
(74.822731, 294.103943) (231.367798, 350.114929)
baseball bat: 48%
(166.803497, 312.216980) (328.871277, 373.274292)
sub20_b1_lg_3_190.jpg: Predicted in 0.156489 seconds.
baseball bat: 33%
(64.702896, 298.850525) (239.859634, 352.389221)
baseball bat: 54%
(159.235443, 317.278503) (339.633514, 375.653870)
sub20_b1_lg_3_191.jpg: Predicted in 0.155634 seconds.
baseball bat: 36%
(59.575577, 304.659332) (241.948334, 352.413544)
baseball bat: 56%
(158.483566, 321.701385) (344.630035, 373.590607)
sub20_b1_lg_3_192.jpg: Predicted in 0.157001 seconds.
baseball bat: 38%
(53.138664, 309.383942) (244.191681, 353.108459)
baseball bat: 59%
(155.212051, 326.007385) (351.983948, 373.242676)
sub20_b1_lg_3_193.jpg: Predicted in 0.156129 seconds.
baseball bat: 39%
(48.677589, 316.435150) (250.971237, 352.600403)
baseball bat: 60%
(155.180328, 331.952026) (358.407440, 371.634399)
sub20_b1_lg_3_194.jpg: Predicted in 0.157666 seconds.
baseball bat: 39%
(42.439224, 321.730408) (250.560104, 352.563751)
baseball bat: 61%
(151.480087, 336.256897) (361.567444, 369.892303)
sub20_b1_lg_3_195.jpg: Predicted in 0.155090 seconds.
baseball bat: 56%
(155.714142, 340.956024) (359.681641, 368.126709)
sub20_b1_lg_3_196.jpg: Predicted in 0.162453 seconds.
baseball bat: 49%
(158.529083, 343.155670) (353.414246, 368.962433)
sub20_b1_lg_3_197.jpg: Predicted in 0.156936 seconds.
baseball bat: 51%
(154.408142, 350.032074) (359.247894, 370.040833)
sub20_b1_lg_3_198.jpg: Predicted in 0.159606 seconds.
baseball bat: 44%
(157.384277, 353.272186) (353.950104, 368.608246)
sub20_b1_lg_3_199.jpg: Predicted in 0.156462 seconds.
sub20_b1_lg_3_200.jpg: Predicted in 0.155760 seconds.
sub20_b1_lg_3_201.jpg: Predicted in 0.157017 seconds.
sub20_b1_lg_3_202.jpg: Predicted in 0.157502 seconds.
sub20_b1_lg_3_203.jpg: Predicted in 0.158712 seconds.
sub20_b1_lg_3_204.jpg: Predicted in 0.156625 seconds.
sub20_b1_lg_3_205.jpg: Predicted in 0.155459 seconds.
sub20_b1_lg_3_206.jpg: Predicted in 0.154963 seconds.
sub20_b1_lg_3_207.jpg: Predicted in 0.155440 seconds.
sub20_b1_lg_3_208.jpg: Predicted in 0.157119 seconds.
sub20_b1_lg_3_209.jpg: Predicted in 0.155237 seconds.
sub20_b1_lg_3_210.jpg: Predicted in 0.165112 seconds.
sub20_b1_lg_3_211.jpg: Predicted in 0.155093 seconds.
sub20_b1_lg_3_212.jpg: Predicted in 0.157048 seconds.
sub20_b1_lg_3_213.jpg: Predicted in 0.158001 seconds.
sub20_b1_lg_3_214.jpg: Predicted in 0.154585 seconds.
sub20_b1_lg_3_215.jpg: Predicted in 0.161543 seconds.
sub20_b1_lg_3_216.jpg: Predicted in 0.154474 seconds.
sub20_b1_lg_3_217.jpg: Predicted in 0.156025 seconds.
sub20_b1_lg_3_218.jpg: Predicted in 0.154409 seconds.
sub20_b1_lg_3_219.jpg: Predicted in 0.155578 seconds.
sub20_b1_lg_3_220.jpg: Predicted in 0.155381 seconds.
sub20_b1_lg_3_221.jpg: Predicted in 0.157306 seconds.
sub20_b1_lg_3_222.jpg: Predicted in 0.158280 seconds.
sub20_b1_lg_3_223.jpg: Predicted in 0.155094 seconds.
sub20_b1_lg_3_224.jpg: Predicted in 0.161083 seconds.
baseball bat: 35%
(122.959442, 319.171936) (325.659851, 410.071991)
sub20_b1_lg_3_225.jpg: Predicted in 0.155492 seconds.
baseball bat: 34%
(129.679047, 315.063507) (323.718079, 412.623383)
sub20_b1_lg_3_226.jpg: Predicted in 0.155925 seconds.
baseball bat: 31%
(132.743698, 312.270905) (325.822540, 415.325775)
sub20_b1_lg_3_227.jpg: Predicted in 0.156682 seconds.
sub20_b1_lg_3_228.jpg: Predicted in 0.164568 seconds.
sub20_b1_lg_3_229.jpg: Predicted in 0.155731 seconds.
baseball bat: 36%
(151.306580, 304.242065) (345.889862, 422.071533)
sub20_b1_lg_3_230.jpg: Predicted in 0.155376 seconds.
sub20_b1_lg_3_231.jpg: Predicted in 0.156137 seconds.
sub20_b1_lg_3_232.jpg: Predicted in 0.156833 seconds.
sub20_b1_lg_3_233.jpg: Predicted in 0.155187 seconds.
sub20_b1_lg_3_234.jpg: Predicted in 0.156794 seconds.
sub20_b1_lg_3_235.jpg: Predicted in 0.158526 seconds.
sub20_b1_lg_3_236.jpg: Predicted in 0.164328 seconds.
sub20_b1_lg_3_237.jpg: Predicted in 0.157469 seconds.
sub20_b1_lg_3_238.jpg: Predicted in 0.156954 seconds.
sub20_b1_lg_3_239.jpg: Predicted in 0.157099 seconds.
sub20_b1_lg_3_240.jpg: Predicted in 0.156673 seconds.
sub20_b1_lg_3_241.jpg: Predicted in 0.155704 seconds.
sub20_b1_lg_3_242.jpg: Predicted in 0.157978 seconds.
sub20_b1_lg_3_243.jpg: Predicted in 0.166085 seconds.
sub20_b1_lg_3_244.jpg: Predicted in 0.158293 seconds.
sub20_b1_lg_3_245.jpg: Predicted in 0.156270 seconds.
sub20_b1_lg_3_246.jpg: Predicted in 0.155879 seconds.
sub20_b1_lg_3_247.jpg: Predicted in 0.156035 seconds.
sub20_b1_lg_3_248.jpg: Predicted in 0.158395 seconds.
sub20_b1_lg_3_249.jpg: Predicted in 0.155687 seconds.
sub20_b1_lg_3_250.jpg: Predicted in 0.155388 seconds.
sub20_b1_lg_3_251.jpg: Predicted in 0.157805 seconds.
sub20_b1_lg_3_252.jpg: Predicted in 0.157584 seconds.
sub20_b1_lg_3_253.jpg: Predicted in 0.157529 seconds.
sub20_b1_lg_3_254.jpg: Predicted in 0.162051 seconds.
sub20_b1_lg_3_255.jpg: Predicted in 0.154728 seconds.
sub20_b1_lg_3_256.jpg: Predicted in 0.156177 seconds.
sub20_b1_lg_3_257.jpg: Predicted in 0.156297 seconds.
sub20_b1_lg_3_258.jpg: Predicted in 0.153925 seconds.
sub20_b1_lg_3_259.jpg: Predicted in 0.156724 seconds.
sub20_b1_lg_3_260.jpg: Predicted in 0.155954 seconds.
sub20_b1_lg_3_261.jpg: Predicted in 0.157841 seconds.
sub20_b1_lg_3_262.jpg: Predicted in 0.156539 seconds.
sub20_b1_lg_3_263.jpg: Predicted in 0.154573 seconds.
sub20_b1_lg_3_264.jpg: Predicted in 0.156109 seconds.
sub20_b1_lg_3_265.jpg: Predicted in 0.157064 seconds.
sub20_b1_lg_3_266.jpg: Predicted in 0.165519 seconds.
sub20_b1_lg_3_267.jpg: Predicted in 0.159745 seconds.
baseball bat: 33%
(463.206512, 354.246765) (478.515839, 525.627747)
sub20_b1_lg_3_268.jpg: Predicted in 0.154331 seconds.
baseball bat: 36%
(459.895020, 352.498260) (480.652100, 525.108215)
sub20_b1_lg_3_269.jpg: Predicted in 0.156851 seconds.
sub20_b1_lg_3_270.jpg: Predicted in 0.157940 seconds.
baseball bat: 36%
(455.464417, 350.078339) (493.233612, 525.918335)
sub20_b1_lg_3_271.jpg: Predicted in 0.156495 seconds.
baseball bat: 31%
(449.559326, 346.953125) (502.466736, 528.763062)
sub20_b1_lg_3_272.jpg: Predicted in 0.157034 seconds.
sub20_b1_lg_3_273.jpg: Predicted in 0.157411 seconds.
sub20_b1_lg_3_274.jpg: Predicted in 0.157524 seconds.
sub20_b1_lg_3_275.jpg: Predicted in 0.157637 seconds.
sub20_b1_lg_3_276.jpg: Predicted in 0.155134 seconds.
sub20_b1_lg_3_277.jpg: Predicted in 0.157485 seconds.
sub20_b1_lg_3_278.jpg: Predicted in 0.155777 seconds.
baseball bat: 31%
(459.978851, 278.556702) (656.466248, 431.771301)
sub20_b1_lg_3_279.jpg: Predicted in 0.155771 seconds.
sub20_b1_lg_3_280.jpg: Predicted in 0.155253 seconds.
baseball bat: 36%
(469.242615, 277.417328) (654.592163, 433.366119)
sub20_b1_lg_3_281.jpg: Predicted in 0.157607 seconds.
baseball bat: 39%
(473.574738, 274.483002) (654.167725, 433.503662)
sub20_b1_lg_3_282.jpg: Predicted in 0.166032 seconds.
baseball bat: 45%
(472.601990, 277.063080) (657.861328, 433.202454)
sub20_b1_lg_3_283.jpg: Predicted in 0.163452 seconds.
baseball bat: 42%
(474.096222, 275.508240) (657.372375, 432.453644)
sub20_b1_lg_3_284.jpg: Predicted in 0.154819 seconds.
baseball bat: 35%
(475.366760, 274.600403) (653.832703, 432.430511)
sub20_b1_lg_3_285.jpg: Predicted in 0.154559 seconds.
sub20_b1_lg_3_286.jpg: Predicted in 0.154994 seconds.
sub20_b1_lg_3_287.jpg: Predicted in 0.155335 seconds.
sub20_b1_lg_3_288.jpg: Predicted in 0.154301 seconds.
baseball bat: 33%
(520.105713, 281.355042) (713.377014, 421.499542)
sub20_b1_lg_3_289.jpg: Predicted in 0.154513 seconds.
baseball bat: 33%
(521.961548, 282.740326) (718.756104, 420.036133)
sub20_b1_lg_3_290.jpg: Predicted in 0.159100 seconds.
sub20_b1_lg_3_291.jpg: Predicted in 0.165406 seconds.
baseball bat: 31%
(524.403564, 288.833435) (727.728088, 420.393768)
sub20_b1_lg_3_292.jpg: Predicted in 0.156173 seconds.
sub20_b1_lg_3_293.jpg: Predicted in 0.157139 seconds.
sub20_b1_lg_3_294.jpg: Predicted in 0.161484 seconds.
sub20_b1_lg_3_295.jpg: Predicted in 0.156537 seconds.
sub20_b1_lg_3_296.jpg: Predicted in 0.164035 seconds.
sub20_b1_lg_3_297.jpg: Predicted in 0.157562 seconds.
sub20_b1_lg_3_298.jpg: Predicted in 0.158068 seconds.
sub20_b1_lg_3_299.jpg: Predicted in 0.160345 seconds.
sub20_b1_lg_3_300.jpg: Predicted in 0.164969 seconds.
sub20_b1_lg_3_301.jpg: Predicted in 0.164837 seconds.
sub20_b1_lg_3_302.jpg: Predicted in 0.166658 seconds.
sub20_b1_lg_3_303.jpg: Predicted in 0.165785 seconds.
sub20_b1_lg_3_304.jpg: Predicted in 0.160249 seconds.
sub20_b1_lg_3_305.jpg: Predicted in 0.159804 seconds.
sub20_b1_lg_3_306.jpg: Predicted in 0.167426 seconds.
sub20_b1_lg_3_307.jpg: Predicted in 0.165702 seconds.
sub20_b1_lg_3_308.jpg: Predicted in 0.161590 seconds.
sub20_b1_lg_3_309.jpg: Predicted in 0.161932 seconds.
sub20_b1_lg_3_310.jpg: Predicted in 0.157083 seconds.
sub20_b1_lg_3_311.jpg: Predicted in 0.156218 seconds.
sub20_b1_lg_3_312.jpg: Predicted in 0.162478 seconds.
sub20_b1_lg_3_313.jpg: Predicted in 0.157186 seconds.
sub20_b1_lg_3_314.jpg: Predicted in 0.156774 seconds.
sub20_b1_lg_3_315.jpg: Predicted in 0.155774 seconds.
sub20_b1_lg_3_316.jpg: Predicted in 0.156477 seconds.
sub20_b1_lg_3_317.jpg: Predicted in 0.157382 seconds.
sub20_b1_lg_3_318.jpg: Predicted in 0.155569 seconds.
sub20_b1_lg_3_319.jpg: Predicted in 0.156313 seconds.
sub20_b1_lg_3_320.jpg: Predicted in 0.155772 seconds.
sub20_b1_lg_3_321.jpg: Predicted in 0.156974 seconds.
