sub24_b4_sg_3_001.jpg: Predicted in 0.163730 seconds.
sub24_b4_sg_3_002.jpg: Predicted in 0.154583 seconds.
sub24_b4_sg_3_003.jpg: Predicted in 0.156696 seconds.
sub24_b4_sg_3_004.jpg: Predicted in 0.156225 seconds.
sub24_b4_sg_3_005.jpg: Predicted in 0.155472 seconds.
sub24_b4_sg_3_006.jpg: Predicted in 0.155791 seconds.
sub24_b4_sg_3_007.jpg: Predicted in 0.155303 seconds.
sub24_b4_sg_3_008.jpg: Predicted in 0.155925 seconds.
sub24_b4_sg_3_009.jpg: Predicted in 0.154582 seconds.
sub24_b4_sg_3_010.jpg: Predicted in 0.155140 seconds.
sub24_b4_sg_3_011.jpg: Predicted in 0.162011 seconds.
sub24_b4_sg_3_012.jpg: Predicted in 0.156465 seconds.
sub24_b4_sg_3_013.jpg: Predicted in 0.154685 seconds.
sub24_b4_sg_3_014.jpg: Predicted in 0.156115 seconds.
sub24_b4_sg_3_015.jpg: Predicted in 0.155413 seconds.
sub24_b4_sg_3_016.jpg: Predicted in 0.156805 seconds.
sub24_b4_sg_3_017.jpg: Predicted in 0.155560 seconds.
sub24_b4_sg_3_018.jpg: Predicted in 0.163427 seconds.
sub24_b4_sg_3_019.jpg: Predicted in 0.163637 seconds.
sub24_b4_sg_3_020.jpg: Predicted in 0.153862 seconds.
sub24_b4_sg_3_021.jpg: Predicted in 0.155000 seconds.
sub24_b4_sg_3_022.jpg: Predicted in 0.155864 seconds.
sub24_b4_sg_3_023.jpg: Predicted in 0.154470 seconds.
sub24_b4_sg_3_024.jpg: Predicted in 0.156267 seconds.
sub24_b4_sg_3_025.jpg: Predicted in 0.154879 seconds.
sub24_b4_sg_3_026.jpg: Predicted in 0.154151 seconds.
sub24_b4_sg_3_027.jpg: Predicted in 0.155534 seconds.
sub24_b4_sg_3_028.jpg: Predicted in 0.154722 seconds.
sub24_b4_sg_3_029.jpg: Predicted in 0.155593 seconds.
sub24_b4_sg_3_030.jpg: Predicted in 0.154628 seconds.
sub24_b4_sg_3_031.jpg: Predicted in 0.154176 seconds.
sub24_b4_sg_3_032.jpg: Predicted in 0.153994 seconds.
sub24_b4_sg_3_033.jpg: Predicted in 0.156945 seconds.
sub24_b4_sg_3_034.jpg: Predicted in 0.154344 seconds.
sub24_b4_sg_3_035.jpg: Predicted in 0.156228 seconds.
sub24_b4_sg_3_036.jpg: Predicted in 0.157250 seconds.
sub24_b4_sg_3_037.jpg: Predicted in 0.152839 seconds.
sub24_b4_sg_3_038.jpg: Predicted in 0.155844 seconds.
sub24_b4_sg_3_039.jpg: Predicted in 0.155352 seconds.
sub24_b4_sg_3_040.jpg: Predicted in 0.156764 seconds.
sub24_b4_sg_3_041.jpg: Predicted in 0.154845 seconds.
sub24_b4_sg_3_042.jpg: Predicted in 0.155295 seconds.
sub24_b4_sg_3_043.jpg: Predicted in 0.157065 seconds.
sub24_b4_sg_3_044.jpg: Predicted in 0.156648 seconds.
sub24_b4_sg_3_045.jpg: Predicted in 0.156833 seconds.
sub24_b4_sg_3_046.jpg: Predicted in 0.156093 seconds.
sub24_b4_sg_3_047.jpg: Predicted in 0.154717 seconds.
sub24_b4_sg_3_048.jpg: Predicted in 0.155344 seconds.
sub24_b4_sg_3_049.jpg: Predicted in 0.156521 seconds.
sub24_b4_sg_3_050.jpg: Predicted in 0.155828 seconds.
sub24_b4_sg_3_051.jpg: Predicted in 0.155221 seconds.
sub24_b4_sg_3_052.jpg: Predicted in 0.156056 seconds.
sub24_b4_sg_3_053.jpg: Predicted in 0.155836 seconds.
sub24_b4_sg_3_054.jpg: Predicted in 0.154618 seconds.
sub24_b4_sg_3_055.jpg: Predicted in 0.155703 seconds.
sub24_b4_sg_3_056.jpg: Predicted in 0.156379 seconds.
sub24_b4_sg_3_057.jpg: Predicted in 0.155433 seconds.
sub24_b4_sg_3_058.jpg: Predicted in 0.189518 seconds.
sub24_b4_sg_3_059.jpg: Predicted in 0.155201 seconds.
sub24_b4_sg_3_060.jpg: Predicted in 0.156278 seconds.
sub24_b4_sg_3_061.jpg: Predicted in 0.155930 seconds.
sub24_b4_sg_3_062.jpg: Predicted in 0.156608 seconds.
sub24_b4_sg_3_063.jpg: Predicted in 0.156146 seconds.
sub24_b4_sg_3_064.jpg: Predicted in 0.154950 seconds.
sub24_b4_sg_3_065.jpg: Predicted in 0.155830 seconds.
sub24_b4_sg_3_066.jpg: Predicted in 0.154366 seconds.
sub24_b4_sg_3_067.jpg: Predicted in 0.159755 seconds.
sub24_b4_sg_3_068.jpg: Predicted in 0.154693 seconds.
sub24_b4_sg_3_069.jpg: Predicted in 0.156051 seconds.
sub24_b4_sg_3_070.jpg: Predicted in 0.153947 seconds.
sub24_b4_sg_3_071.jpg: Predicted in 0.155578 seconds.
sub24_b4_sg_3_072.jpg: Predicted in 0.153882 seconds.
sub24_b4_sg_3_073.jpg: Predicted in 0.156849 seconds.
sub24_b4_sg_3_074.jpg: Predicted in 0.156148 seconds.
sub24_b4_sg_3_075.jpg: Predicted in 0.156903 seconds.
sub24_b4_sg_3_076.jpg: Predicted in 0.155363 seconds.
sub24_b4_sg_3_077.jpg: Predicted in 0.159519 seconds.
sub24_b4_sg_3_078.jpg: Predicted in 0.155937 seconds.
sub24_b4_sg_3_079.jpg: Predicted in 0.156331 seconds.
sub24_b4_sg_3_080.jpg: Predicted in 0.155554 seconds.
sub24_b4_sg_3_081.jpg: Predicted in 0.155255 seconds.
sub24_b4_sg_3_082.jpg: Predicted in 0.155358 seconds.
sub24_b4_sg_3_083.jpg: Predicted in 0.156009 seconds.
sub24_b4_sg_3_084.jpg: Predicted in 0.155330 seconds.
sub24_b4_sg_3_085.jpg: Predicted in 0.153889 seconds.
sub24_b4_sg_3_086.jpg: Predicted in 0.154482 seconds.
sub24_b4_sg_3_087.jpg: Predicted in 0.155690 seconds.
sub24_b4_sg_3_088.jpg: Predicted in 0.155931 seconds.
sub24_b4_sg_3_089.jpg: Predicted in 0.156114 seconds.
sub24_b4_sg_3_090.jpg: Predicted in 0.173021 seconds.
sub24_b4_sg_3_091.jpg: Predicted in 0.154789 seconds.
sub24_b4_sg_3_092.jpg: Predicted in 0.154329 seconds.
sub24_b4_sg_3_093.jpg: Predicted in 0.155303 seconds.
sub24_b4_sg_3_094.jpg: Predicted in 0.154901 seconds.
sub24_b4_sg_3_095.jpg: Predicted in 0.154498 seconds.
sub24_b4_sg_3_096.jpg: Predicted in 0.155273 seconds.
sub24_b4_sg_3_097.jpg: Predicted in 0.156944 seconds.
sub24_b4_sg_3_098.jpg: Predicted in 0.155956 seconds.
sub24_b4_sg_3_099.jpg: Predicted in 0.155297 seconds.
sub24_b4_sg_3_100.jpg: Predicted in 0.157256 seconds.
sub24_b4_sg_3_101.jpg: Predicted in 0.155033 seconds.
sub24_b4_sg_3_102.jpg: Predicted in 0.154366 seconds.
sub24_b4_sg_3_103.jpg: Predicted in 0.154632 seconds.
sub24_b4_sg_3_104.jpg: Predicted in 0.156092 seconds.
sub24_b4_sg_3_105.jpg: Predicted in 0.155861 seconds.
sub24_b4_sg_3_106.jpg: Predicted in 0.157380 seconds.
sub24_b4_sg_3_107.jpg: Predicted in 0.155468 seconds.
sub24_b4_sg_3_108.jpg: Predicted in 0.163800 seconds.
sub24_b4_sg_3_109.jpg: Predicted in 0.156779 seconds.
sub24_b4_sg_3_110.jpg: Predicted in 0.198059 seconds.
sub24_b4_sg_3_111.jpg: Predicted in 0.154248 seconds.
sub24_b4_sg_3_112.jpg: Predicted in 0.155717 seconds.
sub24_b4_sg_3_113.jpg: Predicted in 0.156261 seconds.
sub24_b4_sg_3_114.jpg: Predicted in 0.156036 seconds.
sub24_b4_sg_3_115.jpg: Predicted in 0.155792 seconds.
sub24_b4_sg_3_116.jpg: Predicted in 0.155546 seconds.
sub24_b4_sg_3_117.jpg: Predicted in 0.156209 seconds.
sub24_b4_sg_3_118.jpg: Predicted in 0.156118 seconds.
sub24_b4_sg_3_119.jpg: Predicted in 0.156415 seconds.
sub24_b4_sg_3_120.jpg: Predicted in 0.155370 seconds.
sub24_b4_sg_3_121.jpg: Predicted in 0.164688 seconds.
sub24_b4_sg_3_122.jpg: Predicted in 0.156266 seconds.
sub24_b4_sg_3_123.jpg: Predicted in 0.155464 seconds.
sub24_b4_sg_3_124.jpg: Predicted in 0.155940 seconds.
sub24_b4_sg_3_125.jpg: Predicted in 0.153446 seconds.
sub24_b4_sg_3_126.jpg: Predicted in 0.153475 seconds.
sub24_b4_sg_3_127.jpg: Predicted in 0.156392 seconds.
sub24_b4_sg_3_128.jpg: Predicted in 0.154394 seconds.
sub24_b4_sg_3_129.jpg: Predicted in 0.157286 seconds.
sub24_b4_sg_3_130.jpg: Predicted in 0.154346 seconds.
sub24_b4_sg_3_131.jpg: Predicted in 0.155291 seconds.
sub24_b4_sg_3_132.jpg: Predicted in 0.155198 seconds.
sub24_b4_sg_3_133.jpg: Predicted in 0.154629 seconds.
sub24_b4_sg_3_134.jpg: Predicted in 0.157459 seconds.
sub24_b4_sg_3_135.jpg: Predicted in 0.161129 seconds.
sub24_b4_sg_3_136.jpg: Predicted in 0.163722 seconds.
sub24_b4_sg_3_137.jpg: Predicted in 0.165820 seconds.
sub24_b4_sg_3_138.jpg: Predicted in 0.156016 seconds.
sub24_b4_sg_3_139.jpg: Predicted in 0.155031 seconds.
sub24_b4_sg_3_140.jpg: Predicted in 0.154159 seconds.
sub24_b4_sg_3_141.jpg: Predicted in 0.161522 seconds.
sub24_b4_sg_3_142.jpg: Predicted in 0.153938 seconds.
sub24_b4_sg_3_143.jpg: Predicted in 0.155702 seconds.
sub24_b4_sg_3_144.jpg: Predicted in 0.157285 seconds.
sub24_b4_sg_3_145.jpg: Predicted in 0.157591 seconds.
sub24_b4_sg_3_146.jpg: Predicted in 0.156058 seconds.
sub24_b4_sg_3_147.jpg: Predicted in 0.155619 seconds.
sub24_b4_sg_3_148.jpg: Predicted in 0.154944 seconds.
sub24_b4_sg_3_149.jpg: Predicted in 0.154322 seconds.
sub24_b4_sg_3_150.jpg: Predicted in 0.156433 seconds.
sub24_b4_sg_3_151.jpg: Predicted in 0.157427 seconds.
sub24_b4_sg_3_152.jpg: Predicted in 0.156966 seconds.
sub24_b4_sg_3_153.jpg: Predicted in 0.155553 seconds.
sub24_b4_sg_3_154.jpg: Predicted in 0.154016 seconds.
sub24_b4_sg_3_155.jpg: Predicted in 0.157595 seconds.
sub24_b4_sg_3_156.jpg: Predicted in 0.154958 seconds.
sub24_b4_sg_3_157.jpg: Predicted in 0.156305 seconds.
sub24_b4_sg_3_158.jpg: Predicted in 0.156381 seconds.
sub24_b4_sg_3_159.jpg: Predicted in 0.155962 seconds.
sub24_b4_sg_3_160.jpg: Predicted in 0.156731 seconds.
sub24_b4_sg_3_161.jpg: Predicted in 0.155163 seconds.
sub24_b4_sg_3_162.jpg: Predicted in 0.155578 seconds.
sub24_b4_sg_3_163.jpg: Predicted in 0.155883 seconds.
sub24_b4_sg_3_164.jpg: Predicted in 0.155893 seconds.
sub24_b4_sg_3_165.jpg: Predicted in 0.156055 seconds.
sub24_b4_sg_3_166.jpg: Predicted in 0.156599 seconds.
sub24_b4_sg_3_167.jpg: Predicted in 0.154243 seconds.
sub24_b4_sg_3_168.jpg: Predicted in 0.154521 seconds.
sub24_b4_sg_3_169.jpg: Predicted in 0.156724 seconds.
sub24_b4_sg_3_170.jpg: Predicted in 0.160634 seconds.
sub24_b4_sg_3_171.jpg: Predicted in 0.153729 seconds.
sub24_b4_sg_3_172.jpg: Predicted in 0.155427 seconds.
sub24_b4_sg_3_173.jpg: Predicted in 0.156232 seconds.
sub24_b4_sg_3_174.jpg: Predicted in 0.154230 seconds.
sub24_b4_sg_3_175.jpg: Predicted in 0.155404 seconds.
sub24_b4_sg_3_176.jpg: Predicted in 0.166244 seconds.
sub24_b4_sg_3_177.jpg: Predicted in 0.156605 seconds.
sub24_b4_sg_3_178.jpg: Predicted in 0.155392 seconds.
sub24_b4_sg_3_179.jpg: Predicted in 0.156543 seconds.
sub24_b4_sg_3_180.jpg: Predicted in 0.156773 seconds.
sub24_b4_sg_3_181.jpg: Predicted in 0.163515 seconds.
sub24_b4_sg_3_182.jpg: Predicted in 0.156279 seconds.
sub24_b4_sg_3_183.jpg: Predicted in 0.155770 seconds.
sub24_b4_sg_3_184.jpg: Predicted in 0.154787 seconds.
sub24_b4_sg_3_185.jpg: Predicted in 0.155614 seconds.
sub24_b4_sg_3_186.jpg: Predicted in 0.156842 seconds.
sub24_b4_sg_3_187.jpg: Predicted in 0.156606 seconds.
sub24_b4_sg_3_188.jpg: Predicted in 0.155274 seconds.
sub24_b4_sg_3_189.jpg: Predicted in 0.158056 seconds.
sub24_b4_sg_3_190.jpg: Predicted in 0.156648 seconds.
sub24_b4_sg_3_191.jpg: Predicted in 0.157007 seconds.
sub24_b4_sg_3_192.jpg: Predicted in 0.156180 seconds.
sub24_b4_sg_3_193.jpg: Predicted in 0.155882 seconds.
sub24_b4_sg_3_194.jpg: Predicted in 0.157508 seconds.
sub24_b4_sg_3_195.jpg: Predicted in 0.161570 seconds.
sub24_b4_sg_3_196.jpg: Predicted in 0.155058 seconds.
sub24_b4_sg_3_197.jpg: Predicted in 0.156793 seconds.
sub24_b4_sg_3_198.jpg: Predicted in 0.156999 seconds.
sub24_b4_sg_3_199.jpg: Predicted in 0.156751 seconds.
sub24_b4_sg_3_200.jpg: Predicted in 0.156316 seconds.
sub24_b4_sg_3_201.jpg: Predicted in 0.156741 seconds.
sub24_b4_sg_3_202.jpg: Predicted in 0.155236 seconds.
sub24_b4_sg_3_203.jpg: Predicted in 0.156415 seconds.
sub24_b4_sg_3_204.jpg: Predicted in 0.158188 seconds.
sub24_b4_sg_3_205.jpg: Predicted in 0.155485 seconds.
sub24_b4_sg_3_206.jpg: Predicted in 0.156678 seconds.
sub24_b4_sg_3_207.jpg: Predicted in 0.156181 seconds.
sub24_b4_sg_3_208.jpg: Predicted in 0.155902 seconds.
sub24_b4_sg_3_209.jpg: Predicted in 0.156646 seconds.
sub24_b4_sg_3_210.jpg: Predicted in 0.157102 seconds.
sub24_b4_sg_3_211.jpg: Predicted in 0.154562 seconds.
sub24_b4_sg_3_212.jpg: Predicted in 0.155313 seconds.
sub24_b4_sg_3_213.jpg: Predicted in 0.154875 seconds.
sub24_b4_sg_3_214.jpg: Predicted in 0.155411 seconds.
sub24_b4_sg_3_215.jpg: Predicted in 0.155631 seconds.
sub24_b4_sg_3_216.jpg: Predicted in 0.155799 seconds.
sub24_b4_sg_3_217.jpg: Predicted in 0.156218 seconds.
sub24_b4_sg_3_218.jpg: Predicted in 0.157719 seconds.
sub24_b4_sg_3_219.jpg: Predicted in 0.169642 seconds.
sub24_b4_sg_3_220.jpg: Predicted in 0.157424 seconds.
sub24_b4_sg_3_221.jpg: Predicted in 0.156735 seconds.
sub24_b4_sg_3_222.jpg: Predicted in 0.165613 seconds.
sub24_b4_sg_3_223.jpg: Predicted in 0.158049 seconds.
sub24_b4_sg_3_224.jpg: Predicted in 0.155119 seconds.
sub24_b4_sg_3_225.jpg: Predicted in 0.165773 seconds.
sub24_b4_sg_3_226.jpg: Predicted in 0.165851 seconds.
sub24_b4_sg_3_227.jpg: Predicted in 0.156167 seconds.
sub24_b4_sg_3_228.jpg: Predicted in 0.157432 seconds.
sub24_b4_sg_3_229.jpg: Predicted in 0.163970 seconds.
sub24_b4_sg_3_230.jpg: Predicted in 0.163488 seconds.
sub24_b4_sg_3_231.jpg: Predicted in 0.157333 seconds.
sub24_b4_sg_3_232.jpg: Predicted in 0.162282 seconds.
sub24_b4_sg_3_233.jpg: Predicted in 0.156395 seconds.
sub24_b4_sg_3_234.jpg: Predicted in 0.163336 seconds.
sub24_b4_sg_3_235.jpg: Predicted in 0.160987 seconds.
sub24_b4_sg_3_236.jpg: Predicted in 0.155457 seconds.
sub24_b4_sg_3_237.jpg: Predicted in 0.163219 seconds.
sub24_b4_sg_3_238.jpg: Predicted in 0.167946 seconds.
sub24_b4_sg_3_239.jpg: Predicted in 0.161329 seconds.
sub24_b4_sg_3_240.jpg: Predicted in 0.164358 seconds.
sub24_b4_sg_3_241.jpg: Predicted in 0.162753 seconds.
sub24_b4_sg_3_242.jpg: Predicted in 0.160438 seconds.
sub24_b4_sg_3_243.jpg: Predicted in 0.160379 seconds.
sub24_b4_sg_3_244.jpg: Predicted in 0.157254 seconds.
sub24_b4_sg_3_245.jpg: Predicted in 0.156873 seconds.
sub24_b4_sg_3_246.jpg: Predicted in 0.154466 seconds.
sub24_b4_sg_3_247.jpg: Predicted in 0.158392 seconds.
sub24_b4_sg_3_248.jpg: Predicted in 0.158466 seconds.
sub24_b4_sg_3_249.jpg: Predicted in 0.159079 seconds.
sub24_b4_sg_3_250.jpg: Predicted in 0.157467 seconds.
sub24_b4_sg_3_251.jpg: Predicted in 0.155668 seconds.
sub24_b4_sg_3_252.jpg: Predicted in 0.156522 seconds.
sub24_b4_sg_3_253.jpg: Predicted in 0.156287 seconds.
sub24_b4_sg_3_254.jpg: Predicted in 0.155961 seconds.
sub24_b4_sg_3_255.jpg: Predicted in 0.155136 seconds.
sub24_b4_sg_3_256.jpg: Predicted in 0.158025 seconds.
sub24_b4_sg_3_257.jpg: Predicted in 0.155706 seconds.
sub24_b4_sg_3_258.jpg: Predicted in 0.155901 seconds.
sub24_b4_sg_3_259.jpg: Predicted in 0.157377 seconds.
sub24_b4_sg_3_260.jpg: Predicted in 0.158352 seconds.
sub24_b4_sg_3_261.jpg: Predicted in 0.156205 seconds.
sub24_b4_sg_3_262.jpg: Predicted in 0.156770 seconds.
sub24_b4_sg_3_263.jpg: Predicted in 0.156062 seconds.
sub24_b4_sg_3_264.jpg: Predicted in 0.155065 seconds.
sub24_b4_sg_3_265.jpg: Predicted in 0.155564 seconds.
sub24_b4_sg_3_266.jpg: Predicted in 0.156258 seconds.
sub24_b4_sg_3_267.jpg: Predicted in 0.155249 seconds.
sub24_b4_sg_3_268.jpg: Predicted in 0.157099 seconds.
sub24_b4_sg_3_269.jpg: Predicted in 0.156117 seconds.
sub24_b4_sg_3_270.jpg: Predicted in 0.156809 seconds.
sub24_b4_sg_3_271.jpg: Predicted in 0.156240 seconds.
sub24_b4_sg_3_272.jpg: Predicted in 0.156255 seconds.
sub24_b4_sg_3_273.jpg: Predicted in 0.155632 seconds.
sub24_b4_sg_3_274.jpg: Predicted in 0.154204 seconds.
sub24_b4_sg_3_275.jpg: Predicted in 0.158090 seconds.
sub24_b4_sg_3_276.jpg: Predicted in 0.157517 seconds.
sub24_b4_sg_3_277.jpg: Predicted in 0.156323 seconds.
sub24_b4_sg_3_278.jpg: Predicted in 0.155558 seconds.
sub24_b4_sg_3_279.jpg: Predicted in 0.155841 seconds.
sub24_b4_sg_3_280.jpg: Predicted in 0.154753 seconds.
sub24_b4_sg_3_281.jpg: Predicted in 0.157502 seconds.
sub24_b4_sg_3_282.jpg: Predicted in 0.154067 seconds.
sub24_b4_sg_3_283.jpg: Predicted in 0.165941 seconds.
sub24_b4_sg_3_284.jpg: Predicted in 0.155520 seconds.
sub24_b4_sg_3_285.jpg: Predicted in 0.155431 seconds.
sub24_b4_sg_3_286.jpg: Predicted in 0.156396 seconds.
sub24_b4_sg_3_287.jpg: Predicted in 0.155501 seconds.
sub24_b4_sg_3_288.jpg: Predicted in 0.156445 seconds.
sub24_b4_sg_3_289.jpg: Predicted in 0.156545 seconds.
sub24_b4_sg_3_290.jpg: Predicted in 0.155681 seconds.
sub24_b4_sg_3_291.jpg: Predicted in 0.156707 seconds.
sub24_b4_sg_3_292.jpg: Predicted in 0.156248 seconds.
sub24_b4_sg_3_293.jpg: Predicted in 0.155469 seconds.
sub24_b4_sg_3_294.jpg: Predicted in 0.156199 seconds.
sub24_b4_sg_3_295.jpg: Predicted in 0.156783 seconds.
sub24_b4_sg_3_296.jpg: Predicted in 0.156101 seconds.
sub24_b4_sg_3_297.jpg: Predicted in 0.156011 seconds.
sub24_b4_sg_3_298.jpg: Predicted in 0.155699 seconds.
sub24_b4_sg_3_299.jpg: Predicted in 0.154169 seconds.
sub24_b4_sg_3_300.jpg: Predicted in 0.155641 seconds.
sub24_b4_sg_3_301.jpg: Predicted in 0.156935 seconds.
sub24_b4_sg_3_302.jpg: Predicted in 0.156293 seconds.
sub24_b4_sg_3_303.jpg: Predicted in 0.155017 seconds.
sub24_b4_sg_3_304.jpg: Predicted in 0.155255 seconds.
sub24_b4_sg_3_305.jpg: Predicted in 0.155110 seconds.
sub24_b4_sg_3_306.jpg: Predicted in 0.157448 seconds.
sub24_b4_sg_3_307.jpg: Predicted in 0.155418 seconds.
sub24_b4_sg_3_308.jpg: Predicted in 0.156096 seconds.
sub24_b4_sg_3_309.jpg: Predicted in 0.157198 seconds.
sub24_b4_sg_3_310.jpg: Predicted in 0.157360 seconds.
sub24_b4_sg_3_311.jpg: Predicted in 0.155953 seconds.
sub24_b4_sg_3_312.jpg: Predicted in 0.156752 seconds.
sub24_b4_sg_3_313.jpg: Predicted in 0.156625 seconds.
sub24_b4_sg_3_314.jpg: Predicted in 0.157598 seconds.
sub24_b4_sg_3_315.jpg: Predicted in 0.157116 seconds.
sub24_b4_sg_3_316.jpg: Predicted in 0.154975 seconds.
sub24_b4_sg_3_317.jpg: Predicted in 0.157279 seconds.
sub24_b4_sg_3_318.jpg: Predicted in 0.154777 seconds.
sub24_b4_sg_3_319.jpg: Predicted in 0.154198 seconds.
sub24_b4_sg_3_320.jpg: Predicted in 0.154372 seconds.
sub24_b4_sg_3_321.jpg: Predicted in 0.157165 seconds.
