sub24_b1_sg_2_001.jpg: Predicted in 0.154155 seconds.
sub24_b1_sg_2_002.jpg: Predicted in 0.156567 seconds.
sub24_b1_sg_2_003.jpg: Predicted in 0.155303 seconds.
sub24_b1_sg_2_004.jpg: Predicted in 0.153354 seconds.
sub24_b1_sg_2_005.jpg: Predicted in 0.179030 seconds.
sub24_b1_sg_2_006.jpg: Predicted in 0.154551 seconds.
sub24_b1_sg_2_007.jpg: Predicted in 0.153509 seconds.
sub24_b1_sg_2_008.jpg: Predicted in 0.154610 seconds.
sub24_b1_sg_2_009.jpg: Predicted in 0.156479 seconds.
sub24_b1_sg_2_010.jpg: Predicted in 0.153678 seconds.
sub24_b1_sg_2_011.jpg: Predicted in 0.154985 seconds.
sub24_b1_sg_2_012.jpg: Predicted in 0.154200 seconds.
sub24_b1_sg_2_013.jpg: Predicted in 0.155402 seconds.
sub24_b1_sg_2_014.jpg: Predicted in 0.153723 seconds.
sub24_b1_sg_2_015.jpg: Predicted in 0.154562 seconds.
sub24_b1_sg_2_016.jpg: Predicted in 0.157453 seconds.
sub24_b1_sg_2_017.jpg: Predicted in 0.154132 seconds.
sub24_b1_sg_2_018.jpg: Predicted in 0.154897 seconds.
sub24_b1_sg_2_019.jpg: Predicted in 0.155129 seconds.
sub24_b1_sg_2_020.jpg: Predicted in 0.154949 seconds.
sub24_b1_sg_2_021.jpg: Predicted in 0.156238 seconds.
sub24_b1_sg_2_022.jpg: Predicted in 0.158167 seconds.
sub24_b1_sg_2_023.jpg: Predicted in 0.160514 seconds.
sub24_b1_sg_2_024.jpg: Predicted in 0.157434 seconds.
sub24_b1_sg_2_025.jpg: Predicted in 0.154813 seconds.
sub24_b1_sg_2_026.jpg: Predicted in 0.155890 seconds.
sub24_b1_sg_2_027.jpg: Predicted in 0.153801 seconds.
sub24_b1_sg_2_028.jpg: Predicted in 0.154091 seconds.
sub24_b1_sg_2_029.jpg: Predicted in 0.154071 seconds.
sub24_b1_sg_2_030.jpg: Predicted in 0.155862 seconds.
sub24_b1_sg_2_031.jpg: Predicted in 0.155591 seconds.
sub24_b1_sg_2_032.jpg: Predicted in 0.161710 seconds.
sub24_b1_sg_2_033.jpg: Predicted in 0.156636 seconds.
sub24_b1_sg_2_034.jpg: Predicted in 0.155028 seconds.
sub24_b1_sg_2_035.jpg: Predicted in 0.154164 seconds.
sub24_b1_sg_2_036.jpg: Predicted in 0.163069 seconds.
sub24_b1_sg_2_037.jpg: Predicted in 0.155341 seconds.
sub24_b1_sg_2_038.jpg: Predicted in 0.169186 seconds.
sub24_b1_sg_2_039.jpg: Predicted in 0.156235 seconds.
sub24_b1_sg_2_040.jpg: Predicted in 0.154214 seconds.
sub24_b1_sg_2_041.jpg: Predicted in 0.154774 seconds.
sub24_b1_sg_2_042.jpg: Predicted in 0.155171 seconds.
sub24_b1_sg_2_043.jpg: Predicted in 0.154930 seconds.
sub24_b1_sg_2_044.jpg: Predicted in 0.167336 seconds.
sub24_b1_sg_2_045.jpg: Predicted in 0.156170 seconds.
sub24_b1_sg_2_046.jpg: Predicted in 0.155379 seconds.
sub24_b1_sg_2_047.jpg: Predicted in 0.155163 seconds.
sub24_b1_sg_2_048.jpg: Predicted in 0.163027 seconds.
sub24_b1_sg_2_049.jpg: Predicted in 0.162888 seconds.
sub24_b1_sg_2_050.jpg: Predicted in 0.154333 seconds.
sub24_b1_sg_2_051.jpg: Predicted in 0.154042 seconds.
sub24_b1_sg_2_052.jpg: Predicted in 0.156254 seconds.
sub24_b1_sg_2_053.jpg: Predicted in 0.154800 seconds.
sub24_b1_sg_2_054.jpg: Predicted in 0.155427 seconds.
sub24_b1_sg_2_055.jpg: Predicted in 0.164603 seconds.
sub24_b1_sg_2_056.jpg: Predicted in 0.156540 seconds.
sub24_b1_sg_2_057.jpg: Predicted in 0.156014 seconds.
sub24_b1_sg_2_058.jpg: Predicted in 0.159443 seconds.
sub24_b1_sg_2_059.jpg: Predicted in 0.155639 seconds.
sub24_b1_sg_2_060.jpg: Predicted in 0.154057 seconds.
sub24_b1_sg_2_061.jpg: Predicted in 0.156832 seconds.
sub24_b1_sg_2_062.jpg: Predicted in 0.154497 seconds.
sub24_b1_sg_2_063.jpg: Predicted in 0.155013 seconds.
sub24_b1_sg_2_064.jpg: Predicted in 0.155394 seconds.
sub24_b1_sg_2_065.jpg: Predicted in 0.154459 seconds.
sub24_b1_sg_2_066.jpg: Predicted in 0.156467 seconds.
sub24_b1_sg_2_067.jpg: Predicted in 0.162016 seconds.
sub24_b1_sg_2_068.jpg: Predicted in 0.155388 seconds.
sub24_b1_sg_2_069.jpg: Predicted in 0.154400 seconds.
sub24_b1_sg_2_070.jpg: Predicted in 0.155178 seconds.
sub24_b1_sg_2_071.jpg: Predicted in 0.155103 seconds.
sub24_b1_sg_2_072.jpg: Predicted in 0.156105 seconds.
sub24_b1_sg_2_073.jpg: Predicted in 0.154483 seconds.
sub24_b1_sg_2_074.jpg: Predicted in 0.154485 seconds.
sub24_b1_sg_2_075.jpg: Predicted in 0.156709 seconds.
sub24_b1_sg_2_076.jpg: Predicted in 0.154463 seconds.
sub24_b1_sg_2_077.jpg: Predicted in 0.154303 seconds.
sub24_b1_sg_2_078.jpg: Predicted in 0.157454 seconds.
sub24_b1_sg_2_079.jpg: Predicted in 0.156267 seconds.
sub24_b1_sg_2_080.jpg: Predicted in 0.156772 seconds.
sub24_b1_sg_2_081.jpg: Predicted in 0.155636 seconds.
sub24_b1_sg_2_082.jpg: Predicted in 0.158206 seconds.
sub24_b1_sg_2_083.jpg: Predicted in 0.155150 seconds.
sub24_b1_sg_2_084.jpg: Predicted in 0.155462 seconds.
sub24_b1_sg_2_085.jpg: Predicted in 0.154804 seconds.
sub24_b1_sg_2_086.jpg: Predicted in 0.154624 seconds.
sub24_b1_sg_2_087.jpg: Predicted in 0.155966 seconds.
sub24_b1_sg_2_088.jpg: Predicted in 0.154684 seconds.
sub24_b1_sg_2_089.jpg: Predicted in 0.155184 seconds.
sub24_b1_sg_2_090.jpg: Predicted in 0.155687 seconds.
sub24_b1_sg_2_091.jpg: Predicted in 0.154330 seconds.
sub24_b1_sg_2_092.jpg: Predicted in 0.155258 seconds.
sub24_b1_sg_2_093.jpg: Predicted in 0.157032 seconds.
sub24_b1_sg_2_094.jpg: Predicted in 0.164763 seconds.
sub24_b1_sg_2_095.jpg: Predicted in 0.155115 seconds.
sub24_b1_sg_2_096.jpg: Predicted in 0.155668 seconds.
sub24_b1_sg_2_097.jpg: Predicted in 0.153988 seconds.
sub24_b1_sg_2_098.jpg: Predicted in 0.156276 seconds.
sub24_b1_sg_2_099.jpg: Predicted in 0.156854 seconds.
sub24_b1_sg_2_100.jpg: Predicted in 0.153877 seconds.
sub24_b1_sg_2_101.jpg: Predicted in 0.155792 seconds.
sub24_b1_sg_2_102.jpg: Predicted in 0.153955 seconds.
sub24_b1_sg_2_103.jpg: Predicted in 0.163906 seconds.
sub24_b1_sg_2_104.jpg: Predicted in 0.156912 seconds.
sub24_b1_sg_2_105.jpg: Predicted in 0.157812 seconds.
sub24_b1_sg_2_106.jpg: Predicted in 0.156004 seconds.
sub24_b1_sg_2_107.jpg: Predicted in 0.157033 seconds.
sub24_b1_sg_2_108.jpg: Predicted in 0.153954 seconds.
sub24_b1_sg_2_109.jpg: Predicted in 0.155007 seconds.
sub24_b1_sg_2_110.jpg: Predicted in 0.153962 seconds.
sub24_b1_sg_2_111.jpg: Predicted in 0.165806 seconds.
sub24_b1_sg_2_112.jpg: Predicted in 0.155233 seconds.
sub24_b1_sg_2_113.jpg: Predicted in 0.154070 seconds.
sub24_b1_sg_2_114.jpg: Predicted in 0.156046 seconds.
sub24_b1_sg_2_115.jpg: Predicted in 0.163435 seconds.
sub24_b1_sg_2_116.jpg: Predicted in 0.156242 seconds.
sub24_b1_sg_2_117.jpg: Predicted in 0.161915 seconds.
sub24_b1_sg_2_118.jpg: Predicted in 0.160345 seconds.
sub24_b1_sg_2_119.jpg: Predicted in 0.157624 seconds.
sub24_b1_sg_2_120.jpg: Predicted in 0.164285 seconds.
sub24_b1_sg_2_121.jpg: Predicted in 0.154885 seconds.
sub24_b1_sg_2_122.jpg: Predicted in 0.155656 seconds.
sub24_b1_sg_2_123.jpg: Predicted in 0.154928 seconds.
sub24_b1_sg_2_124.jpg: Predicted in 0.156613 seconds.
sub24_b1_sg_2_125.jpg: Predicted in 0.156223 seconds.
sub24_b1_sg_2_126.jpg: Predicted in 0.153863 seconds.
sub24_b1_sg_2_127.jpg: Predicted in 0.155221 seconds.
sub24_b1_sg_2_128.jpg: Predicted in 0.156449 seconds.
sub24_b1_sg_2_129.jpg: Predicted in 0.154540 seconds.
sub24_b1_sg_2_130.jpg: Predicted in 0.156446 seconds.
sub24_b1_sg_2_131.jpg: Predicted in 0.156757 seconds.
sub24_b1_sg_2_132.jpg: Predicted in 0.155197 seconds.
sub24_b1_sg_2_133.jpg: Predicted in 0.156534 seconds.
sub24_b1_sg_2_134.jpg: Predicted in 0.155001 seconds.
sub24_b1_sg_2_135.jpg: Predicted in 0.155625 seconds.
sub24_b1_sg_2_136.jpg: Predicted in 0.167494 seconds.
sub24_b1_sg_2_137.jpg: Predicted in 0.156857 seconds.
sub24_b1_sg_2_138.jpg: Predicted in 0.154735 seconds.
sub24_b1_sg_2_139.jpg: Predicted in 0.154299 seconds.
sub24_b1_sg_2_140.jpg: Predicted in 0.160505 seconds.
sub24_b1_sg_2_141.jpg: Predicted in 0.154695 seconds.
sub24_b1_sg_2_142.jpg: Predicted in 0.164214 seconds.
sub24_b1_sg_2_143.jpg: Predicted in 0.156754 seconds.
sub24_b1_sg_2_144.jpg: Predicted in 0.158262 seconds.
sub24_b1_sg_2_145.jpg: Predicted in 0.157671 seconds.
sub24_b1_sg_2_146.jpg: Predicted in 0.153678 seconds.
sub24_b1_sg_2_147.jpg: Predicted in 0.157950 seconds.
sub24_b1_sg_2_148.jpg: Predicted in 0.155932 seconds.
sub24_b1_sg_2_149.jpg: Predicted in 0.156639 seconds.
sub24_b1_sg_2_150.jpg: Predicted in 0.159437 seconds.
sub24_b1_sg_2_151.jpg: Predicted in 0.158021 seconds.
sub24_b1_sg_2_152.jpg: Predicted in 0.163699 seconds.
sub24_b1_sg_2_153.jpg: Predicted in 0.154534 seconds.
sub24_b1_sg_2_154.jpg: Predicted in 0.154042 seconds.
sub24_b1_sg_2_155.jpg: Predicted in 0.157772 seconds.
sub24_b1_sg_2_156.jpg: Predicted in 0.155602 seconds.
sub24_b1_sg_2_157.jpg: Predicted in 0.155387 seconds.
sub24_b1_sg_2_158.jpg: Predicted in 0.155043 seconds.
sub24_b1_sg_2_159.jpg: Predicted in 0.154551 seconds.
sub24_b1_sg_2_160.jpg: Predicted in 0.154781 seconds.
sub24_b1_sg_2_161.jpg: Predicted in 0.156829 seconds.
sub24_b1_sg_2_162.jpg: Predicted in 0.156765 seconds.
sub24_b1_sg_2_163.jpg: Predicted in 0.154433 seconds.
sub24_b1_sg_2_164.jpg: Predicted in 0.154880 seconds.
sub24_b1_sg_2_165.jpg: Predicted in 0.155936 seconds.
sub24_b1_sg_2_166.jpg: Predicted in 0.154927 seconds.
sub24_b1_sg_2_167.jpg: Predicted in 0.154357 seconds.
sub24_b1_sg_2_168.jpg: Predicted in 0.154432 seconds.
sub24_b1_sg_2_169.jpg: Predicted in 0.155710 seconds.
sub24_b1_sg_2_170.jpg: Predicted in 0.157480 seconds.
sub24_b1_sg_2_171.jpg: Predicted in 0.157743 seconds.
sub24_b1_sg_2_172.jpg: Predicted in 0.156506 seconds.
sub24_b1_sg_2_173.jpg: Predicted in 0.165358 seconds.
sub24_b1_sg_2_174.jpg: Predicted in 0.156707 seconds.
sub24_b1_sg_2_175.jpg: Predicted in 0.155135 seconds.
sub24_b1_sg_2_176.jpg: Predicted in 0.154640 seconds.
sub24_b1_sg_2_177.jpg: Predicted in 0.156300 seconds.
sub24_b1_sg_2_178.jpg: Predicted in 0.154613 seconds.
sub24_b1_sg_2_179.jpg: Predicted in 0.164303 seconds.
sub24_b1_sg_2_180.jpg: Predicted in 0.157622 seconds.
sub24_b1_sg_2_181.jpg: Predicted in 0.153808 seconds.
sub24_b1_sg_2_182.jpg: Predicted in 0.157748 seconds.
sub24_b1_sg_2_183.jpg: Predicted in 0.158626 seconds.
sub24_b1_sg_2_184.jpg: Predicted in 0.154388 seconds.
sub24_b1_sg_2_185.jpg: Predicted in 0.155805 seconds.
sub24_b1_sg_2_186.jpg: Predicted in 0.155118 seconds.
sub24_b1_sg_2_187.jpg: Predicted in 0.154527 seconds.
sub24_b1_sg_2_188.jpg: Predicted in 0.155890 seconds.
sub24_b1_sg_2_189.jpg: Predicted in 0.155830 seconds.
sub24_b1_sg_2_190.jpg: Predicted in 0.155416 seconds.
sub24_b1_sg_2_191.jpg: Predicted in 0.156105 seconds.
sub24_b1_sg_2_192.jpg: Predicted in 0.155659 seconds.
sub24_b1_sg_2_193.jpg: Predicted in 0.154866 seconds.
sub24_b1_sg_2_194.jpg: Predicted in 0.155251 seconds.
sub24_b1_sg_2_195.jpg: Predicted in 0.157479 seconds.
sub24_b1_sg_2_196.jpg: Predicted in 0.155859 seconds.
sub24_b1_sg_2_197.jpg: Predicted in 0.157357 seconds.
sub24_b1_sg_2_198.jpg: Predicted in 0.157479 seconds.
sub24_b1_sg_2_199.jpg: Predicted in 0.200786 seconds.
sub24_b1_sg_2_200.jpg: Predicted in 0.155712 seconds.
sub24_b1_sg_2_201.jpg: Predicted in 0.157730 seconds.
sub24_b1_sg_2_202.jpg: Predicted in 0.156477 seconds.
sub24_b1_sg_2_203.jpg: Predicted in 0.156837 seconds.
sub24_b1_sg_2_204.jpg: Predicted in 0.157197 seconds.
sub24_b1_sg_2_205.jpg: Predicted in 0.156058 seconds.
sub24_b1_sg_2_206.jpg: Predicted in 0.156081 seconds.
sub24_b1_sg_2_207.jpg: Predicted in 0.156916 seconds.
sub24_b1_sg_2_208.jpg: Predicted in 0.159075 seconds.
sub24_b1_sg_2_209.jpg: Predicted in 0.157813 seconds.
sub24_b1_sg_2_210.jpg: Predicted in 0.157305 seconds.
sub24_b1_sg_2_211.jpg: Predicted in 0.156445 seconds.
sub24_b1_sg_2_212.jpg: Predicted in 0.154958 seconds.
sub24_b1_sg_2_213.jpg: Predicted in 0.155106 seconds.
sub24_b1_sg_2_214.jpg: Predicted in 0.155070 seconds.
sub24_b1_sg_2_215.jpg: Predicted in 0.155542 seconds.
sub24_b1_sg_2_216.jpg: Predicted in 0.155169 seconds.
sub24_b1_sg_2_217.jpg: Predicted in 0.155675 seconds.
sub24_b1_sg_2_218.jpg: Predicted in 0.154177 seconds.
sub24_b1_sg_2_219.jpg: Predicted in 0.160167 seconds.
sub24_b1_sg_2_220.jpg: Predicted in 0.155582 seconds.
sub24_b1_sg_2_221.jpg: Predicted in 0.155342 seconds.
sub24_b1_sg_2_222.jpg: Predicted in 0.155266 seconds.
sub24_b1_sg_2_223.jpg: Predicted in 0.155367 seconds.
sub24_b1_sg_2_224.jpg: Predicted in 0.163528 seconds.
sub24_b1_sg_2_225.jpg: Predicted in 0.157877 seconds.
sub24_b1_sg_2_226.jpg: Predicted in 0.155306 seconds.
sub24_b1_sg_2_227.jpg: Predicted in 0.156992 seconds.
sub24_b1_sg_2_228.jpg: Predicted in 0.156700 seconds.
sub24_b1_sg_2_229.jpg: Predicted in 0.154866 seconds.
sub24_b1_sg_2_230.jpg: Predicted in 0.162251 seconds.
sub24_b1_sg_2_231.jpg: Predicted in 0.157668 seconds.
sub24_b1_sg_2_232.jpg: Predicted in 0.157091 seconds.
sub24_b1_sg_2_233.jpg: Predicted in 0.159200 seconds.
sub24_b1_sg_2_234.jpg: Predicted in 0.155900 seconds.
sub24_b1_sg_2_235.jpg: Predicted in 0.200349 seconds.
sub24_b1_sg_2_236.jpg: Predicted in 0.157735 seconds.
sub24_b1_sg_2_237.jpg: Predicted in 0.158057 seconds.
sub24_b1_sg_2_238.jpg: Predicted in 0.165385 seconds.
sub24_b1_sg_2_239.jpg: Predicted in 0.157114 seconds.
sub24_b1_sg_2_240.jpg: Predicted in 0.156565 seconds.
sub24_b1_sg_2_241.jpg: Predicted in 0.156306 seconds.
sub24_b1_sg_2_242.jpg: Predicted in 0.155550 seconds.
sub24_b1_sg_2_243.jpg: Predicted in 0.158662 seconds.
sub24_b1_sg_2_244.jpg: Predicted in 0.165331 seconds.
sub24_b1_sg_2_245.jpg: Predicted in 0.155891 seconds.
sub24_b1_sg_2_246.jpg: Predicted in 0.157427 seconds.
sub24_b1_sg_2_247.jpg: Predicted in 0.155779 seconds.
sub24_b1_sg_2_248.jpg: Predicted in 0.156660 seconds.
sub24_b1_sg_2_249.jpg: Predicted in 0.156980 seconds.
sub24_b1_sg_2_250.jpg: Predicted in 0.157614 seconds.
sub24_b1_sg_2_251.jpg: Predicted in 0.156383 seconds.
sub24_b1_sg_2_252.jpg: Predicted in 0.160232 seconds.
sub24_b1_sg_2_253.jpg: Predicted in 0.164900 seconds.
sub24_b1_sg_2_254.jpg: Predicted in 0.157745 seconds.
sub24_b1_sg_2_255.jpg: Predicted in 0.157699 seconds.
sub24_b1_sg_2_256.jpg: Predicted in 0.156459 seconds.
sub24_b1_sg_2_257.jpg: Predicted in 0.155670 seconds.
sub24_b1_sg_2_258.jpg: Predicted in 0.155077 seconds.
sub24_b1_sg_2_259.jpg: Predicted in 0.158011 seconds.
sub24_b1_sg_2_260.jpg: Predicted in 0.156824 seconds.
sub24_b1_sg_2_261.jpg: Predicted in 0.159122 seconds.
sub24_b1_sg_2_262.jpg: Predicted in 0.157904 seconds.
sub24_b1_sg_2_263.jpg: Predicted in 0.155641 seconds.
sub24_b1_sg_2_264.jpg: Predicted in 0.165619 seconds.
sub24_b1_sg_2_265.jpg: Predicted in 0.155220 seconds.
sub24_b1_sg_2_266.jpg: Predicted in 0.165775 seconds.
sub24_b1_sg_2_267.jpg: Predicted in 0.157222 seconds.
sub24_b1_sg_2_268.jpg: Predicted in 0.156737 seconds.
sub24_b1_sg_2_269.jpg: Predicted in 0.155687 seconds.
sub24_b1_sg_2_270.jpg: Predicted in 0.155986 seconds.
sub24_b1_sg_2_271.jpg: Predicted in 0.155466 seconds.
sub24_b1_sg_2_272.jpg: Predicted in 0.155333 seconds.
sub24_b1_sg_2_273.jpg: Predicted in 0.155842 seconds.
sub24_b1_sg_2_274.jpg: Predicted in 0.156924 seconds.
sub24_b1_sg_2_275.jpg: Predicted in 0.156893 seconds.
sub24_b1_sg_2_276.jpg: Predicted in 0.155330 seconds.
sub24_b1_sg_2_277.jpg: Predicted in 0.182469 seconds.
sub24_b1_sg_2_278.jpg: Predicted in 0.155123 seconds.
sub24_b1_sg_2_279.jpg: Predicted in 0.155223 seconds.
sub24_b1_sg_2_280.jpg: Predicted in 0.155562 seconds.
sub24_b1_sg_2_281.jpg: Predicted in 0.157289 seconds.
sub24_b1_sg_2_282.jpg: Predicted in 0.156271 seconds.
sub24_b1_sg_2_283.jpg: Predicted in 0.169252 seconds.
sub24_b1_sg_2_284.jpg: Predicted in 0.155751 seconds.
sub24_b1_sg_2_285.jpg: Predicted in 0.164621 seconds.
sub24_b1_sg_2_286.jpg: Predicted in 0.156781 seconds.
sub24_b1_sg_2_287.jpg: Predicted in 0.158647 seconds.
sub24_b1_sg_2_288.jpg: Predicted in 0.158740 seconds.
sub24_b1_sg_2_289.jpg: Predicted in 0.157363 seconds.
sub24_b1_sg_2_290.jpg: Predicted in 0.163396 seconds.
sub24_b1_sg_2_291.jpg: Predicted in 0.155104 seconds.
sub24_b1_sg_2_292.jpg: Predicted in 0.156755 seconds.
baseball bat: 37%
(459.983124, 243.914948) (491.070953, 332.536316)
sub24_b1_sg_2_293.jpg: Predicted in 0.157260 seconds.
sub24_b1_sg_2_294.jpg: Predicted in 0.155782 seconds.
baseball bat: 46%
(439.672241, 227.776260) (498.956390, 329.171692)
sub24_b1_sg_2_295.jpg: Predicted in 0.157515 seconds.
baseball bat: 63%
(435.484100, 236.391891) (494.561981, 327.930145)
sub24_b1_sg_2_296.jpg: Predicted in 0.165240 seconds.
baseball bat: 62%
(429.493500, 235.336777) (496.527618, 327.473328)
sub24_b1_sg_2_297.jpg: Predicted in 0.156065 seconds.
baseball bat: 50%
(419.292358, 231.924652) (496.600647, 323.217468)
sub24_b1_sg_2_298.jpg: Predicted in 0.161129 seconds.
baseball bat: 31%
(410.756958, 231.287140) (490.297485, 319.060150)
sub24_b1_sg_2_299.jpg: Predicted in 0.155609 seconds.
baseball bat: 33%
(404.535522, 230.971710) (486.951294, 314.772461)
sub24_b1_sg_2_300.jpg: Predicted in 0.154652 seconds.
sub24_b1_sg_2_301.jpg: Predicted in 0.157595 seconds.
sub24_b1_sg_2_302.jpg: Predicted in 0.156127 seconds.
sub24_b1_sg_2_303.jpg: Predicted in 0.163027 seconds.
baseball bat: 35%
(382.207092, 232.412552) (486.216003, 304.853577)
sub24_b1_sg_2_304.jpg: Predicted in 0.156918 seconds.
baseball bat: 35%
(376.972076, 229.627594) (491.333588, 303.663239)
sub24_b1_sg_2_305.jpg: Predicted in 0.158278 seconds.
sub24_b1_sg_2_306.jpg: Predicted in 0.156838 seconds.
baseball bat: 31%
(363.060852, 228.196442) (499.494781, 302.844360)
sub24_b1_sg_2_307.jpg: Predicted in 0.157157 seconds.
sub24_b1_sg_2_308.jpg: Predicted in 0.158691 seconds.
sub24_b1_sg_2_309.jpg: Predicted in 0.156843 seconds.
baseball bat: 43%
(351.642090, 229.688324) (495.967163, 303.105957)
sub24_b1_sg_2_310.jpg: Predicted in 0.157244 seconds.
baseball bat: 42%
(347.610535, 227.660049) (503.454681, 302.460815)
sub24_b1_sg_2_311.jpg: Predicted in 0.158711 seconds.
baseball bat: 36%
(344.923401, 226.651413) (498.584747, 299.208130)
sub24_b1_sg_2_312.jpg: Predicted in 0.157123 seconds.
sub24_b1_sg_2_313.jpg: Predicted in 0.156218 seconds.
sub24_b1_sg_2_314.jpg: Predicted in 0.155742 seconds.
sub24_b1_sg_2_315.jpg: Predicted in 0.157966 seconds.
sub24_b1_sg_2_316.jpg: Predicted in 0.157722 seconds.
sub24_b1_sg_2_317.jpg: Predicted in 0.156007 seconds.
sub24_b1_sg_2_318.jpg: Predicted in 0.157307 seconds.
sub24_b1_sg_2_319.jpg: Predicted in 0.158689 seconds.
sub24_b1_sg_2_320.jpg: Predicted in 0.154872 seconds.
sub24_b1_sg_2_321.jpg: Predicted in 0.156962 seconds.
