sub24_b4_sg_3_001.jpg: Predicted in 0.156594 seconds.
person: 59%
(510.832825, 155.431442) (740.128540, 627.163696)
backpack: 31%
(360.558258, 642.487976) (647.021790, 783.365662)
sub24_b4_sg_3_002.jpg: Predicted in 0.154913 seconds.
person: 59%
(509.728149, 155.756622) (742.732483, 627.888611)
backpack: 31%
(360.067352, 642.478699) (647.413025, 783.452026)
sub24_b4_sg_3_003.jpg: Predicted in 0.153888 seconds.
person: 65%
(510.464325, 151.086472) (740.161011, 630.643250)
backpack: 30%
(330.176819, 630.982300) (613.454773, 762.479004)
sub24_b4_sg_3_004.jpg: Predicted in 0.178102 seconds.
person: 56%
(503.526703, 157.416992) (744.137390, 625.613220)
backpack: 34%
(358.611145, 642.052429) (648.300171, 783.218567)
sub24_b4_sg_3_005.jpg: Predicted in 0.155099 seconds.
person: 58%
(505.555634, 156.647705) (737.182495, 625.325195)
backpack: 37%
(357.057373, 643.605286) (648.931091, 783.743286)
sub24_b4_sg_3_006.jpg: Predicted in 0.154639 seconds.
person: 63%
(511.198975, 155.821396) (731.459900, 627.933167)
person: 31%
(337.382874, 432.479218) (409.268433, 519.415710)
backpack: 37%
(359.665253, 643.588623) (646.965637, 782.533020)
sub24_b4_sg_3_007.jpg: Predicted in 0.156933 seconds.
person: 64%
(511.644623, 155.774445) (731.161072, 627.476807)
person: 32%
(337.214996, 432.404388) (409.897125, 519.845825)
backpack: 37%
(358.768097, 643.648987) (648.082642, 782.481750)
sub24_b4_sg_3_008.jpg: Predicted in 0.154213 seconds.
person: 59%
(511.350647, 157.073944) (731.367188, 625.155945)
person: 33%
(337.127777, 432.338379) (409.346527, 519.656250)
backpack: 35%
(358.811737, 643.058960) (648.127136, 782.950317)
sub24_b4_sg_3_009.jpg: Predicted in 0.156263 seconds.
person: 60%
(510.242310, 155.711823) (730.005188, 626.611694)
person: 33%
(336.156921, 431.058380) (409.890228, 519.996277)
backpack: 34%
(361.098022, 642.190247) (645.951233, 783.200867)
sub24_b4_sg_3_010.jpg: Predicted in 0.156809 seconds.
person: 59%
(509.444885, 158.718735) (730.971130, 622.584595)
person: 34%
(336.334961, 431.320496) (410.139404, 520.012146)
backpack: 34%
(361.700775, 642.626099) (645.294250, 783.411682)
sub24_b4_sg_3_011.jpg: Predicted in 0.155395 seconds.
person: 58%
(512.363647, 136.159775) (737.307068, 571.820679)
person: 32%
(336.500702, 431.531036) (409.501709, 517.973083)
backpack: 35%
(362.965088, 643.343384) (644.087280, 784.884216)
sub24_b4_sg_3_012.jpg: Predicted in 0.155244 seconds.
person: 60%
(512.414062, 156.916946) (730.571899, 624.901367)
backpack: 32%
(362.741760, 644.252014) (645.239929, 784.543274)
sub24_b4_sg_3_013.jpg: Predicted in 0.155816 seconds.
person: 66%
(513.832825, 156.026001) (730.029297, 628.630554)
backpack: 34%
(362.171600, 644.054932) (645.579224, 784.720520)
sub24_b4_sg_3_014.jpg: Predicted in 0.155170 seconds.
person: 67%
(513.604187, 156.791855) (727.867676, 626.335388)
backpack: 33%
(360.507965, 645.246155) (646.306641, 784.431152)
sub24_b4_sg_3_015.jpg: Predicted in 0.156834 seconds.
person: 68%
(511.567688, 157.818466) (727.932739, 626.155334)
backpack: 33%
(359.902283, 644.299194) (647.021729, 784.830200)
sub24_b4_sg_3_016.jpg: Predicted in 0.154792 seconds.
person: 63%
(509.990601, 157.048538) (730.264465, 625.163086)
backpack: 33%
(360.025909, 644.977539) (646.750732, 784.725891)
sub24_b4_sg_3_017.jpg: Predicted in 0.154105 seconds.
person: 66%
(507.416351, 159.627075) (732.789490, 622.418274)
backpack: 33%
(361.379730, 645.316101) (645.672607, 784.923584)
sub24_b4_sg_3_018.jpg: Predicted in 0.158587 seconds.
person: 68%
(508.754181, 162.835434) (730.086914, 620.870178)
backpack: 33%
(363.426575, 645.051208) (644.289795, 784.303711)
sub24_b4_sg_3_019.jpg: Predicted in 0.154789 seconds.
person: 66%
(508.332947, 161.101883) (729.215820, 623.808228)
backpack: 32%
(362.452576, 644.584106) (644.721436, 784.624451)
sub24_b4_sg_3_020.jpg: Predicted in 0.157326 seconds.
person: 65%
(508.761566, 161.411667) (729.266296, 625.447205)
backpack: 33%
(361.674530, 644.449219) (645.192871, 784.757935)
sub24_b4_sg_3_021.jpg: Predicted in 0.157710 seconds.
person: 69%
(511.359558, 162.150162) (724.629822, 621.142639)
backpack: 32%
(363.141083, 645.226135) (644.244385, 784.505737)
sub24_b4_sg_3_022.jpg: Predicted in 0.164759 seconds.
person: 71%
(513.157654, 162.531784) (724.121155, 619.830994)
backpack: 30%
(362.941010, 645.598511) (644.188782, 784.411621)
sub24_b4_sg_3_023.jpg: Predicted in 0.154209 seconds.
person: 71%
(520.932434, 163.164276) (721.648438, 618.685730)
sub24_b4_sg_3_024.jpg: Predicted in 0.155635 seconds.
person: 71%
(518.549988, 166.282684) (725.675781, 616.916992)
sub24_b4_sg_3_025.jpg: Predicted in 0.156458 seconds.
person: 74%
(519.660828, 165.304688) (724.850769, 615.461121)
sub24_b4_sg_3_026.jpg: Predicted in 0.154518 seconds.
person: 74%
(521.789734, 164.745499) (723.730164, 616.520935)
sub24_b4_sg_3_027.jpg: Predicted in 0.155889 seconds.
person: 74%
(519.511108, 164.860031) (725.287048, 615.740662)
sub24_b4_sg_3_028.jpg: Predicted in 0.156188 seconds.
person: 74%
(518.599243, 164.530487) (722.945129, 615.651794)
sub24_b4_sg_3_029.jpg: Predicted in 0.155283 seconds.
person: 74%
(516.413513, 163.463455) (722.422424, 617.172485)
sub24_b4_sg_3_030.jpg: Predicted in 0.155118 seconds.
person: 71%
(515.739868, 158.555511) (724.260010, 623.793945)
sub24_b4_sg_3_031.jpg: Predicted in 0.153934 seconds.
person: 71%
(512.153564, 154.951614) (729.173096, 629.564209)
sub24_b4_sg_3_032.jpg: Predicted in 0.154578 seconds.
person: 70%
(514.045532, 150.980301) (730.212769, 629.465393)
sub24_b4_sg_3_033.jpg: Predicted in 0.163826 seconds.
person: 73%
(516.279297, 152.196472) (727.175476, 627.657410)
sub24_b4_sg_3_034.jpg: Predicted in 0.156028 seconds.
person: 75%
(521.227966, 155.845825) (724.806641, 624.484619)
sub24_b4_sg_3_035.jpg: Predicted in 0.154662 seconds.
person: 76%
(522.183472, 159.459213) (723.678467, 622.726990)
sub24_b4_sg_3_036.jpg: Predicted in 0.165134 seconds.
person: 75%
(521.749756, 158.084900) (723.159729, 622.324402)
sub24_b4_sg_3_037.jpg: Predicted in 0.155163 seconds.
person: 74%
(522.289612, 156.928986) (721.523987, 623.009949)
sub24_b4_sg_3_038.jpg: Predicted in 0.154487 seconds.
person: 75%
(521.135376, 158.446381) (719.829407, 622.095337)
sub24_b4_sg_3_039.jpg: Predicted in 0.156537 seconds.
person: 74%
(519.782593, 157.970306) (718.945618, 623.345398)
sub24_b4_sg_3_040.jpg: Predicted in 0.154918 seconds.
person: 73%
(518.197693, 155.224777) (720.702759, 627.939331)
sub24_b4_sg_3_041.jpg: Predicted in 0.154804 seconds.
person: 74%
(514.353821, 157.759171) (723.133667, 625.328735)
sub24_b4_sg_3_042.jpg: Predicted in 0.163507 seconds.
person: 74%
(513.951172, 160.875534) (720.969177, 624.320984)
sub24_b4_sg_3_043.jpg: Predicted in 0.154653 seconds.
person: 74%
(513.520874, 159.317184) (723.633972, 625.078369)
sub24_b4_sg_3_044.jpg: Predicted in 0.155313 seconds.
person: 74%
(514.293152, 154.280975) (724.293091, 629.794006)
sub24_b4_sg_3_045.jpg: Predicted in 0.154268 seconds.
person: 74%
(514.422180, 156.141312) (723.122070, 626.757751)
sub24_b4_sg_3_046.jpg: Predicted in 0.158940 seconds.
person: 76%
(514.906372, 163.976700) (721.630615, 617.380249)
sub24_b4_sg_3_047.jpg: Predicted in 0.153959 seconds.
person: 75%
(513.924866, 162.753845) (721.594666, 618.969299)
sub24_b4_sg_3_048.jpg: Predicted in 0.155190 seconds.
person: 73%
(510.569946, 159.418701) (723.281067, 621.785217)
sub24_b4_sg_3_049.jpg: Predicted in 0.214472 seconds.
person: 73%
(511.207764, 156.592911) (725.310242, 623.459167)
sub24_b4_sg_3_050.jpg: Predicted in 0.154287 seconds.
person: 71%
(511.318909, 153.605515) (725.653687, 628.653259)
sub24_b4_sg_3_051.jpg: Predicted in 0.156771 seconds.
person: 72%
(510.303070, 157.632523) (725.354309, 626.429199)
sub24_b4_sg_3_052.jpg: Predicted in 0.161907 seconds.
person: 71%
(509.610626, 157.164459) (725.881470, 628.008606)
sub24_b4_sg_3_053.jpg: Predicted in 0.155654 seconds.
person: 72%
(511.979095, 153.823929) (722.407410, 630.807800)
sub24_b4_sg_3_054.jpg: Predicted in 0.155767 seconds.
person: 70%
(511.694824, 157.602173) (722.532654, 627.566650)
sub24_b4_sg_3_055.jpg: Predicted in 0.155784 seconds.
person: 73%
(512.376709, 159.830002) (724.347473, 626.049500)
sub24_b4_sg_3_056.jpg: Predicted in 0.154286 seconds.
person: 72%
(515.831970, 158.107239) (722.831482, 627.559509)
sub24_b4_sg_3_057.jpg: Predicted in 0.156141 seconds.
person: 64%
(513.908630, 159.739044) (722.924561, 627.106812)
sub24_b4_sg_3_058.jpg: Predicted in 0.155988 seconds.
person: 65%
(515.793518, 158.573730) (721.686523, 627.979004)
sub24_b4_sg_3_059.jpg: Predicted in 0.156999 seconds.
person: 71%
(515.358887, 160.067566) (718.825989, 627.484741)
sub24_b4_sg_3_060.jpg: Predicted in 0.154545 seconds.
person: 71%
(514.025635, 159.894043) (718.591309, 628.041870)
sub24_b4_sg_3_061.jpg: Predicted in 0.153872 seconds.
person: 70%
(513.499756, 159.364456) (720.342957, 627.878723)
sub24_b4_sg_3_062.jpg: Predicted in 0.156172 seconds.
person: 70%
(513.590820, 163.295868) (721.124084, 624.164734)
sub24_b4_sg_3_063.jpg: Predicted in 0.155131 seconds.
person: 71%
(514.634216, 160.599548) (718.218689, 629.362549)
sub24_b4_sg_3_064.jpg: Predicted in 0.154690 seconds.
person: 71%
(511.055786, 164.243057) (720.235962, 625.209961)
sub24_b4_sg_3_065.jpg: Predicted in 0.155658 seconds.
person: 70%
(510.648834, 162.206009) (721.319275, 627.383057)
sub24_b4_sg_3_066.jpg: Predicted in 0.154039 seconds.
person: 67%
(510.871246, 157.900024) (722.575256, 627.869995)
sub24_b4_sg_3_067.jpg: Predicted in 0.155463 seconds.
person: 68%
(511.602570, 159.954163) (722.499695, 626.434204)
sub24_b4_sg_3_068.jpg: Predicted in 0.156266 seconds.
person: 74%
(517.988037, 160.558105) (714.868225, 623.578064)
sub24_b4_sg_3_069.jpg: Predicted in 0.154706 seconds.
person: 75%
(520.971191, 162.516525) (712.111145, 623.772644)
sub24_b4_sg_3_070.jpg: Predicted in 0.154379 seconds.
person: 75%
(521.279175, 164.396149) (711.853455, 620.860901)
sub24_b4_sg_3_071.jpg: Predicted in 0.156500 seconds.
person: 75%
(519.816528, 169.827011) (714.065002, 618.581970)
sub24_b4_sg_3_072.jpg: Predicted in 0.163772 seconds.
person: 75%
(517.770142, 168.667267) (717.021179, 619.657776)
sub24_b4_sg_3_073.jpg: Predicted in 0.167827 seconds.
person: 73%
(517.578186, 166.839020) (718.086548, 621.168030)
sub24_b4_sg_3_074.jpg: Predicted in 0.164434 seconds.
person: 75%
(519.805420, 163.573364) (716.021606, 620.705566)
sub24_b4_sg_3_075.jpg: Predicted in 0.156453 seconds.
person: 77%
(520.870056, 163.250183) (713.514160, 621.593689)
sub24_b4_sg_3_076.jpg: Predicted in 0.165015 seconds.
person: 75%
(518.863892, 162.238571) (714.073181, 622.335266)
sub24_b4_sg_3_077.jpg: Predicted in 0.154939 seconds.
person: 73%
(520.706421, 164.626175) (712.092041, 621.372559)
sub24_b4_sg_3_078.jpg: Predicted in 0.156899 seconds.
person: 71%
(522.471375, 164.936874) (711.174927, 621.813721)
sub24_b4_sg_3_079.jpg: Predicted in 0.160287 seconds.
person: 69%
(523.347046, 162.406540) (710.464355, 623.985413)
sub24_b4_sg_3_080.jpg: Predicted in 0.156688 seconds.
person: 74%
(525.364807, 166.350296) (710.281860, 620.844421)
sub24_b4_sg_3_081.jpg: Predicted in 0.155071 seconds.
person: 74%
(524.355347, 165.460709) (710.789612, 620.383240)
sub24_b4_sg_3_082.jpg: Predicted in 0.155136 seconds.
person: 73%
(521.959045, 164.462585) (713.932739, 621.386719)
sub24_b4_sg_3_083.jpg: Predicted in 0.154699 seconds.
person: 74%
(524.081787, 168.254120) (713.697632, 620.231750)
sub24_b4_sg_3_084.jpg: Predicted in 0.154148 seconds.
person: 76%
(524.411255, 167.975922) (716.215942, 621.440308)
sub24_b4_sg_3_085.jpg: Predicted in 0.154952 seconds.
person: 76%
(523.345398, 170.121887) (716.222778, 620.627075)
sub24_b4_sg_3_086.jpg: Predicted in 0.154256 seconds.
person: 76%
(523.239807, 171.824127) (714.860229, 619.531738)
sub24_b4_sg_3_087.jpg: Predicted in 0.155345 seconds.
person: 76%
(520.139282, 172.013977) (717.589417, 618.496521)
sub24_b4_sg_3_088.jpg: Predicted in 0.155015 seconds.
person: 77%
(515.954468, 167.692566) (718.618408, 619.575806)
sub24_b4_sg_3_089.jpg: Predicted in 0.153715 seconds.
person: 77%
(516.938049, 167.052750) (716.882446, 619.922485)
sub24_b4_sg_3_090.jpg: Predicted in 0.156340 seconds.
person: 78%
(516.791260, 166.490799) (716.409302, 620.184753)
sub24_b4_sg_3_091.jpg: Predicted in 0.156738 seconds.
person: 78%
(516.117249, 168.928146) (717.469788, 617.669861)
sub24_b4_sg_3_092.jpg: Predicted in 0.155407 seconds.
person: 77%
(512.695740, 170.859268) (717.558228, 617.720642)
sub24_b4_sg_3_093.jpg: Predicted in 0.156716 seconds.
person: 76%
(510.932922, 173.663361) (717.651733, 616.367004)
sub24_b4_sg_3_094.jpg: Predicted in 0.155073 seconds.
person: 72%
(509.731415, 168.673706) (724.190369, 620.825806)
sub24_b4_sg_3_095.jpg: Predicted in 0.155298 seconds.
person: 74%
(514.766052, 163.767868) (718.969421, 622.922302)
sub24_b4_sg_3_096.jpg: Predicted in 0.156021 seconds.
person: 74%
(515.924744, 163.702042) (718.139160, 626.787720)
sub24_b4_sg_3_097.jpg: Predicted in 0.154508 seconds.
person: 77%
(518.064148, 169.970566) (717.229492, 622.378479)
sub24_b4_sg_3_098.jpg: Predicted in 0.157476 seconds.
person: 77%
(519.588928, 172.217850) (716.056580, 619.196472)
sub24_b4_sg_3_099.jpg: Predicted in 0.153843 seconds.
person: 77%
(521.889160, 172.856812) (714.460327, 617.427490)
sub24_b4_sg_3_100.jpg: Predicted in 0.165068 seconds.
person: 77%
(522.307983, 169.481735) (715.575439, 619.959534)
sub24_b4_sg_3_101.jpg: Predicted in 0.154830 seconds.
person: 77%
(518.514587, 168.608337) (717.362549, 623.335327)
backpack: 30%
(328.923309, 631.574707) (611.370789, 762.872070)
sub24_b4_sg_3_102.jpg: Predicted in 0.155587 seconds.
person: 77%
(517.043884, 168.843430) (716.398926, 623.179382)
sub24_b4_sg_3_103.jpg: Predicted in 0.156517 seconds.
person: 77%
(517.486938, 167.466980) (713.880005, 627.037842)
sub24_b4_sg_3_104.jpg: Predicted in 0.155150 seconds.
person: 77%
(514.330017, 167.941406) (715.518555, 628.566528)
sub24_b4_sg_3_105.jpg: Predicted in 0.153929 seconds.
person: 77%
(518.583557, 174.381012) (710.883423, 622.505310)
sub24_b4_sg_3_106.jpg: Predicted in 0.154475 seconds.
person: 78%
(519.200134, 179.128357) (711.512207, 620.541626)
sub24_b4_sg_3_107.jpg: Predicted in 0.154463 seconds.
person: 79%
(515.949707, 177.070282) (714.744263, 623.990601)
sub24_b4_sg_3_108.jpg: Predicted in 0.154807 seconds.
person: 78%
(518.561218, 176.874359) (712.910645, 626.417419)
sub24_b4_sg_3_109.jpg: Predicted in 0.154991 seconds.
person: 77%
(516.815918, 177.717422) (713.038574, 624.768494)
sub24_b4_sg_3_110.jpg: Predicted in 0.154897 seconds.
person: 77%
(511.807800, 178.229645) (716.031311, 625.841187)
sub24_b4_sg_3_111.jpg: Predicted in 0.156755 seconds.
person: 75%
(507.063934, 173.578094) (719.969666, 632.342896)
sub24_b4_sg_3_112.jpg: Predicted in 0.154946 seconds.
person: 74%
(504.868683, 175.753311) (720.760498, 632.266418)
sub24_b4_sg_3_113.jpg: Predicted in 0.154674 seconds.
person: 73%
(499.419708, 181.032776) (722.662354, 628.151367)
sub24_b4_sg_3_114.jpg: Predicted in 0.154397 seconds.
person: 71%
(498.065155, 178.856796) (724.149963, 630.463928)
sub24_b4_sg_3_115.jpg: Predicted in 0.154667 seconds.
person: 71%
(498.924286, 182.213516) (723.487061, 629.757019)
backpack: 30%
(329.842651, 627.771912) (611.278137, 763.467896)
sub24_b4_sg_3_116.jpg: Predicted in 0.157064 seconds.
person: 72%
(500.966461, 182.734756) (721.258118, 629.388550)
backpack: 32%
(329.733917, 627.691345) (611.735291, 763.736328)
sub24_b4_sg_3_117.jpg: Predicted in 0.156313 seconds.
person: 76%
(509.151825, 182.976822) (717.727905, 631.741516)
backpack: 30%
(329.259003, 626.943542) (612.734070, 764.249878)
sub24_b4_sg_3_118.jpg: Predicted in 0.156571 seconds.
person: 75%
(510.581757, 183.930725) (715.447021, 628.971130)
sub24_b4_sg_3_119.jpg: Predicted in 0.161605 seconds.
person: 75%
(510.338165, 186.025589) (715.412903, 626.451355)
sub24_b4_sg_3_120.jpg: Predicted in 0.156669 seconds.
person: 77%
(507.876160, 184.502167) (720.717346, 629.032593)
sub24_b4_sg_3_121.jpg: Predicted in 0.159015 seconds.
person: 76%
(507.437775, 182.960220) (721.735901, 630.768494)
sub24_b4_sg_3_122.jpg: Predicted in 0.154258 seconds.
person: 75%
(512.811157, 182.402924) (714.247681, 630.751953)
sub24_b4_sg_3_123.jpg: Predicted in 0.156899 seconds.
person: 76%
(508.706207, 183.044388) (716.057068, 628.017273)
sub24_b4_sg_3_124.jpg: Predicted in 0.159587 seconds.
person: 75%
(505.927521, 181.481476) (718.464050, 629.290833)
backpack: 31%
(329.093994, 626.078857) (612.369751, 765.582886)
sub24_b4_sg_3_125.jpg: Predicted in 0.155751 seconds.
person: 74%
(512.540649, 183.872772) (714.290161, 623.190063)
backpack: 31%
(329.704224, 627.089600) (608.508179, 763.093872)
sub24_b4_sg_3_126.jpg: Predicted in 0.157475 seconds.
person: 75%
(508.841614, 180.384186) (717.161560, 626.152466)
backpack: 32%
(329.688477, 626.920532) (608.953552, 762.752075)
sub24_b4_sg_3_127.jpg: Predicted in 0.165639 seconds.
person: 74%
(507.291260, 177.631500) (717.418335, 625.866394)
backpack: 32%
(328.902222, 626.889526) (610.010071, 763.728821)
sub24_b4_sg_3_128.jpg: Predicted in 0.155924 seconds.
person: 72%
(504.645142, 176.099808) (720.522705, 624.688293)
backpack: 32%
(330.527435, 627.303833) (609.413025, 763.665161)
sub24_b4_sg_3_129.jpg: Predicted in 0.158509 seconds.
person: 75%
(506.943115, 178.768341) (717.216370, 620.730835)
backpack: 31%
(330.183594, 627.191650) (609.601013, 763.612793)
sub24_b4_sg_3_130.jpg: Predicted in 0.155481 seconds.
person: 73%
(504.706451, 180.731796) (718.541138, 621.464111)
backpack: 33%
(330.230774, 626.990967) (608.772461, 763.659912)
sub24_b4_sg_3_131.jpg: Predicted in 0.154976 seconds.
person: 73%
(506.610107, 184.509109) (714.114014, 622.288025)
backpack: 34%
(330.166229, 626.451416) (609.523499, 764.471313)
sub24_b4_sg_3_132.jpg: Predicted in 0.154695 seconds.
person: 74%
(503.094177, 176.816208) (717.325684, 627.203735)
backpack: 34%
(330.047607, 626.070618) (609.157471, 764.920532)
sub24_b4_sg_3_133.jpg: Predicted in 0.153972 seconds.
person: 73%
(501.384735, 175.646561) (715.717957, 628.167664)
backpack: 34%
(329.959778, 626.864014) (609.716553, 765.249573)
sub24_b4_sg_3_134.jpg: Predicted in 0.156121 seconds.
person: 73%
(502.360657, 170.962769) (713.903320, 629.506165)
backpack: 34%
(329.397247, 626.703369) (609.957275, 764.778748)
sub24_b4_sg_3_135.jpg: Predicted in 0.156150 seconds.
person: 73%
(506.329529, 168.540527) (710.308411, 629.837524)
backpack: 35%
(329.722900, 626.891174) (609.948853, 764.638977)
sub24_b4_sg_3_136.jpg: Predicted in 0.156252 seconds.
person: 74%
(506.907532, 173.028778) (710.147156, 626.250366)
backpack: 32%
(329.387726, 625.893372) (610.651367, 766.360657)
sub24_b4_sg_3_137.jpg: Predicted in 0.154232 seconds.
person: 75%
(508.296631, 175.424408) (710.456787, 623.846619)
backpack: 31%
(328.751740, 625.669434) (611.258179, 765.457764)
sub24_b4_sg_3_138.jpg: Predicted in 0.155969 seconds.
person: 75%
(508.143829, 178.383942) (710.890503, 623.086609)
backpack: 31%
(328.862427, 625.963562) (610.973083, 765.083069)
sub24_b4_sg_3_139.jpg: Predicted in 0.156321 seconds.
person: 74%
(509.083008, 179.095047) (710.604736, 623.243164)
backpack: 31%
(328.640686, 625.848022) (611.262329, 765.423096)
sub24_b4_sg_3_140.jpg: Predicted in 0.153954 seconds.
person: 75%
(507.762573, 182.587097) (710.937866, 621.404480)
backpack: 32%
(328.106812, 625.123474) (611.510010, 765.352783)
sub24_b4_sg_3_141.jpg: Predicted in 0.154424 seconds.
person: 74%
(507.439178, 183.882935) (711.072510, 619.376831)
backpack: 31%
(328.209229, 625.398926) (611.244812, 765.399780)
sub24_b4_sg_3_142.jpg: Predicted in 0.154646 seconds.
person: 76%
(505.766663, 179.844833) (714.156616, 621.874756)
backpack: 31%
(328.654388, 625.645813) (611.189575, 765.489929)
sub24_b4_sg_3_143.jpg: Predicted in 0.165038 seconds.
person: 76%
(505.796753, 179.861526) (716.193604, 622.089050)
backpack: 30%
(327.988007, 624.967651) (612.403320, 765.619019)
sub24_b4_sg_3_144.jpg: Predicted in 0.157231 seconds.
person: 75%
(503.978668, 175.865479) (713.422668, 625.458679)
sub24_b4_sg_3_145.jpg: Predicted in 0.158232 seconds.
person: 75%
(504.920044, 180.897400) (710.970459, 624.025574)
backpack: 30%
(327.817444, 624.216187) (612.851013, 766.031555)
sub24_b4_sg_3_146.jpg: Predicted in 0.153929 seconds.
person: 76%
(506.586548, 181.326797) (709.308472, 619.346863)
sub24_b4_sg_3_147.jpg: Predicted in 0.155936 seconds.
person: 75%
(505.242096, 183.869583) (710.434875, 619.572327)
sub24_b4_sg_3_148.jpg: Predicted in 0.156860 seconds.
person: 77%
(502.339111, 180.214981) (711.731262, 625.211975)
sub24_b4_sg_3_149.jpg: Predicted in 0.157231 seconds.
person: 78%
(500.586823, 178.593063) (713.403503, 626.888855)
sub24_b4_sg_3_150.jpg: Predicted in 0.154580 seconds.
person: 77%
(500.833405, 178.260880) (711.725281, 622.641602)
sub24_b4_sg_3_151.jpg: Predicted in 0.157276 seconds.
person: 76%
(500.525848, 175.109070) (712.151367, 627.643616)
sub24_b4_sg_3_152.jpg: Predicted in 0.156619 seconds.
person: 75%
(502.014618, 173.032455) (711.032104, 627.789551)
backpack: 30%
(327.115479, 623.338501) (613.549500, 766.091003)
sub24_b4_sg_3_153.jpg: Predicted in 0.154625 seconds.
person: 75%
(500.863586, 176.070953) (712.451538, 629.311768)
sub24_b4_sg_3_154.jpg: Predicted in 0.155623 seconds.
person: 75%
(498.261383, 176.190140) (715.393677, 630.268982)
backpack: 31%
(327.611847, 622.575806) (612.382751, 765.733704)
sub24_b4_sg_3_155.jpg: Predicted in 0.155021 seconds.
person: 76%
(499.980743, 177.903534) (713.840149, 630.240845)
sub24_b4_sg_3_156.jpg: Predicted in 0.154933 seconds.
person: 75%
(501.714142, 177.674362) (715.853088, 631.135803)
backpack: 33%
(327.967468, 622.701843) (612.164307, 763.165649)
sub24_b4_sg_3_157.jpg: Predicted in 0.155622 seconds.
person: 77%
(501.834900, 177.463959) (716.047485, 629.215088)
backpack: 33%
(328.028046, 622.671997) (612.142883, 763.132935)
sub24_b4_sg_3_158.jpg: Predicted in 0.155591 seconds.
person: 76%
(501.667725, 173.299866) (714.919434, 629.683228)
backpack: 32%
(328.272705, 621.906738) (612.422974, 763.751221)
sub24_b4_sg_3_159.jpg: Predicted in 0.157715 seconds.
person: 76%
(502.286011, 176.005676) (716.557495, 631.138672)
backpack: 33%
(328.988098, 622.542419) (611.416321, 763.449341)
sub24_b4_sg_3_160.jpg: Predicted in 0.156280 seconds.
person: 75%
(501.497833, 175.452637) (715.070679, 630.043457)
backpack: 32%
(329.092865, 622.398071) (611.659302, 763.590454)
sub24_b4_sg_3_161.jpg: Predicted in 0.155000 seconds.
person: 75%
(505.544891, 176.734970) (710.014099, 628.264648)
backpack: 31%
(328.955109, 622.419922) (611.197021, 763.882568)
sub24_b4_sg_3_162.jpg: Predicted in 0.154978 seconds.
person: 74%
(507.460144, 177.486664) (708.299561, 628.756653)
backpack: 31%
(327.746613, 622.675110) (612.299622, 764.523682)
sub24_b4_sg_3_163.jpg: Predicted in 0.155224 seconds.
person: 74%
(505.637329, 176.024490) (708.126404, 627.526794)
backpack: 32%
(328.039978, 622.964783) (612.078186, 764.180359)
sub24_b4_sg_3_164.jpg: Predicted in 0.155554 seconds.
person: 75%
(504.257141, 177.123566) (709.010376, 626.707825)
backpack: 31%
(326.879089, 623.465454) (613.224792, 764.381104)
sub24_b4_sg_3_165.jpg: Predicted in 0.155401 seconds.
person: 75%
(505.626312, 181.573364) (709.944885, 625.393982)
backpack: 33%
(327.823395, 623.226562) (611.067688, 764.418579)
sub24_b4_sg_3_166.jpg: Predicted in 0.154292 seconds.
person: 75%
(508.145569, 179.516052) (709.445007, 624.893555)
backpack: 32%
(329.160614, 623.289429) (610.892822, 764.380859)
sub24_b4_sg_3_167.jpg: Predicted in 0.154870 seconds.
person: 75%
(506.878815, 178.838562) (708.442871, 627.002319)
backpack: 31%
(329.900482, 623.630981) (610.283386, 764.520935)
sub24_b4_sg_3_168.jpg: Predicted in 0.157779 seconds.
person: 72%
(508.052765, 175.481964) (705.244934, 628.683105)
backpack: 31%
(329.997559, 623.526550) (610.569824, 764.796875)
sub24_b4_sg_3_169.jpg: Predicted in 0.155251 seconds.
person: 70%
(511.595276, 174.967773) (701.634583, 631.035339)
backpack: 30%
(329.726624, 623.793030) (610.691101, 765.493530)
sub24_b4_sg_3_170.jpg: Predicted in 0.154343 seconds.
person: 70%
(514.811096, 175.492096) (698.865051, 630.185913)
sub24_b4_sg_3_171.jpg: Predicted in 0.157548 seconds.
person: 71%
(514.344788, 178.282135) (700.369080, 629.738464)
sub24_b4_sg_3_172.jpg: Predicted in 0.164194 seconds.
person: 70%
(518.427368, 178.746918) (698.097473, 630.036682)
sub24_b4_sg_3_173.jpg: Predicted in 0.159472 seconds.
person: 71%
(519.907471, 178.336914) (697.994385, 633.329468)
sub24_b4_sg_3_174.jpg: Predicted in 0.156250 seconds.
person: 70%
(522.042236, 177.080658) (698.572388, 636.646545)
sub24_b4_sg_3_175.jpg: Predicted in 0.156698 seconds.
person: 71%
(518.547607, 176.990692) (700.809265, 635.464600)
sub24_b4_sg_3_176.jpg: Predicted in 0.156772 seconds.
person: 71%
(515.758728, 176.919800) (702.732056, 636.436401)
sub24_b4_sg_3_177.jpg: Predicted in 0.157001 seconds.
person: 71%
(514.329651, 175.306488) (700.200562, 635.814758)
sub24_b4_sg_3_178.jpg: Predicted in 0.157270 seconds.
person: 71%
(514.337402, 173.014648) (700.261108, 637.137817)
sub24_b4_sg_3_179.jpg: Predicted in 0.156452 seconds.
person: 71%
(513.677673, 170.392532) (699.757935, 636.124695)
sub24_b4_sg_3_180.jpg: Predicted in 0.157949 seconds.
person: 72%
(511.418549, 170.309952) (700.478210, 634.863525)
sub24_b4_sg_3_181.jpg: Predicted in 0.157342 seconds.
person: 73%
(511.661957, 171.496933) (700.832947, 637.897522)
sub24_b4_sg_3_182.jpg: Predicted in 0.156838 seconds.
person: 73%
(508.720093, 171.246368) (703.853882, 637.774658)
sub24_b4_sg_3_183.jpg: Predicted in 0.157740 seconds.
person: 71%
(510.805817, 170.080566) (699.430115, 640.318115)
sub24_b4_sg_3_184.jpg: Predicted in 0.159367 seconds.
person: 71%
(510.612274, 167.033096) (700.609558, 643.291260)
sub24_b4_sg_3_185.jpg: Predicted in 0.155470 seconds.
person: 69%
(508.709930, 165.315704) (701.711426, 643.745544)
sub24_b4_sg_3_186.jpg: Predicted in 0.161726 seconds.
person: 71%
(509.216522, 170.121674) (702.378357, 637.663818)
sub24_b4_sg_3_187.jpg: Predicted in 0.157333 seconds.
person: 72%
(514.833008, 170.461777) (696.955627, 638.853699)
sub24_b4_sg_3_188.jpg: Predicted in 0.155182 seconds.
sports ball: 34%
(50.936829, 193.882294) (81.796310, 215.036179)
person: 74%
(511.643158, 172.117691) (699.021362, 636.190430)
sub24_b4_sg_3_189.jpg: Predicted in 0.157297 seconds.
sports ball: 34%
(54.924355, 192.394836) (85.641327, 214.300827)
person: 74%
(512.578308, 167.365906) (698.735596, 638.064209)
sub24_b4_sg_3_190.jpg: Predicted in 0.164696 seconds.
sports ball: 33%
(59.540558, 193.551224) (87.477432, 213.515656)
person: 74%
(513.865723, 172.227783) (698.798157, 636.190491)
sub24_b4_sg_3_191.jpg: Predicted in 0.155186 seconds.
sports ball: 35%
(59.510345, 194.628784) (89.241013, 217.087921)
person: 73%
(514.546387, 171.368454) (700.363159, 639.746338)
sub24_b4_sg_3_192.jpg: Predicted in 0.164194 seconds.
sports ball: 32%
(62.366104, 197.950912) (89.087570, 217.501465)
person: 73%
(514.683411, 172.902374) (700.691956, 639.256897)
sub24_b4_sg_3_193.jpg: Predicted in 0.155648 seconds.
person: 72%
(516.699524, 172.289444) (699.647644, 638.977051)
sub24_b4_sg_3_194.jpg: Predicted in 0.157482 seconds.
sports ball: 34%
(66.174286, 199.290848) (90.124733, 216.989517)
person: 73%
(514.970093, 172.487671) (700.587891, 640.442078)
sub24_b4_sg_3_195.jpg: Predicted in 0.154894 seconds.
sports ball: 35%
(68.315933, 203.152100) (90.515404, 220.519089)
person: 72%
(511.872681, 172.206207) (703.249146, 642.801575)
sub24_b4_sg_3_196.jpg: Predicted in 0.155774 seconds.
sports ball: 38%
(68.506317, 205.970352) (93.557472, 223.990662)
person: 71%
(513.525391, 173.092728) (702.885864, 637.991089)
sub24_b4_sg_3_197.jpg: Predicted in 0.154105 seconds.
sports ball: 31%
(66.851028, 206.317871) (90.740250, 225.240891)
person: 70%
(511.105927, 170.810059) (704.083191, 639.473633)
sub24_b4_sg_3_198.jpg: Predicted in 0.157580 seconds.
sports ball: 38%
(67.034775, 208.672958) (94.543198, 229.895874)
person: 69%
(512.425415, 169.187592) (702.325378, 639.017517)
sub24_b4_sg_3_199.jpg: Predicted in 0.156979 seconds.
person: 69%
(510.138855, 172.323654) (702.986816, 637.063721)
sub24_b4_sg_3_200.jpg: Predicted in 0.165925 seconds.
person: 69%
(510.819702, 171.136093) (702.465881, 636.489319)
sub24_b4_sg_3_201.jpg: Predicted in 0.163802 seconds.
person: 71%
(511.009186, 170.173431) (702.202271, 638.135193)
sub24_b4_sg_3_202.jpg: Predicted in 0.157300 seconds.
person: 69%
(516.379395, 166.694504) (698.395020, 640.544067)
sub24_b4_sg_3_203.jpg: Predicted in 0.160047 seconds.
person: 65%
(519.145142, 167.806549) (696.599304, 641.168945)
sub24_b4_sg_3_204.jpg: Predicted in 0.156000 seconds.
person: 67%
(520.438782, 166.219910) (694.477234, 643.715881)
sub24_b4_sg_3_205.jpg: Predicted in 0.157544 seconds.
person: 68%
(521.440979, 167.340012) (691.381592, 641.969360)
sub24_b4_sg_3_206.jpg: Predicted in 0.154950 seconds.
person: 68%
(520.582886, 166.616577) (692.785339, 640.693420)
sub24_b4_sg_3_207.jpg: Predicted in 0.155573 seconds.
person: 68%
(521.685120, 165.314438) (692.410950, 642.396301)
sub24_b4_sg_3_208.jpg: Predicted in 0.156743 seconds.
person: 69%
(522.964966, 167.010620) (691.783630, 641.018555)
sub24_b4_sg_3_209.jpg: Predicted in 0.165255 seconds.
person: 69%
(520.770813, 163.714600) (692.590393, 641.118652)
sub24_b4_sg_3_210.jpg: Predicted in 0.155828 seconds.
person: 69%
(519.385620, 161.981628) (693.674377, 641.363403)
sub24_b4_sg_3_211.jpg: Predicted in 0.157965 seconds.
person: 66%
(522.417419, 165.057281) (692.445557, 636.429504)
sub24_b4_sg_3_212.jpg: Predicted in 0.159391 seconds.
person: 66%
(522.393921, 162.474487) (693.404175, 639.312683)
sub24_b4_sg_3_213.jpg: Predicted in 0.162372 seconds.
person: 67%
(523.297241, 160.537476) (693.163208, 639.132996)
sub24_b4_sg_3_214.jpg: Predicted in 0.165281 seconds.
person: 67%
(523.620789, 160.614044) (693.469360, 638.705383)
sub24_b4_sg_3_215.jpg: Predicted in 0.156003 seconds.
person: 67%
(524.315247, 161.676117) (693.598877, 634.364807)
sub24_b4_sg_3_216.jpg: Predicted in 0.156605 seconds.
person: 66%
(522.757446, 157.882736) (693.921570, 633.392639)
sub24_b4_sg_3_217.jpg: Predicted in 0.154626 seconds.
person: 63%
(448.957489, 147.656326) (694.205627, 637.206909)
sub24_b4_sg_3_218.jpg: Predicted in 0.157916 seconds.
person: 68%
(521.727722, 153.057724) (694.887146, 635.618103)
sub24_b4_sg_3_219.jpg: Predicted in 0.158042 seconds.
person: 70%
(523.706787, 155.633759) (694.319885, 633.123596)
sub24_b4_sg_3_220.jpg: Predicted in 0.162126 seconds.
person: 70%
(523.532166, 154.267426) (693.667603, 638.880676)
sub24_b4_sg_3_221.jpg: Predicted in 0.162001 seconds.
person: 68%
(524.328979, 156.179855) (692.524170, 639.310608)
sub24_b4_sg_3_222.jpg: Predicted in 0.158729 seconds.
person: 68%
(522.795349, 155.706207) (694.094055, 639.121704)
sub24_b4_sg_3_223.jpg: Predicted in 0.165349 seconds.
person: 69%
(522.521423, 161.660889) (694.823303, 635.515930)
sub24_b4_sg_3_224.jpg: Predicted in 0.164742 seconds.
person: 68%
(521.274048, 162.572693) (697.570984, 636.005310)
sub24_b4_sg_3_225.jpg: Predicted in 0.159032 seconds.
person: 65%
(524.563965, 160.343124) (697.640076, 640.792297)
sub24_b4_sg_3_226.jpg: Predicted in 0.155470 seconds.
person: 67%
(521.559387, 160.940964) (698.707153, 643.275208)
sub24_b4_sg_3_227.jpg: Predicted in 0.157774 seconds.
person: 71%
(521.842346, 156.669571) (700.307800, 642.250305)
sub24_b4_sg_3_228.jpg: Predicted in 0.156845 seconds.
person: 70%
(523.009155, 157.091904) (697.023926, 640.416504)
sub24_b4_sg_3_229.jpg: Predicted in 0.158139 seconds.
person: 70%
(523.894104, 157.433502) (698.077942, 635.206726)
sub24_b4_sg_3_230.jpg: Predicted in 0.164231 seconds.
person: 64%
(522.873413, 157.375504) (696.770630, 627.607056)
sub24_b4_sg_3_231.jpg: Predicted in 0.157933 seconds.
person: 62%
(519.756470, 158.969116) (696.341980, 619.790039)
sub24_b4_sg_3_232.jpg: Predicted in 0.161925 seconds.
person: 65%
(519.416260, 159.493591) (695.572998, 620.205139)
sub24_b4_sg_3_233.jpg: Predicted in 0.157426 seconds.
person: 67%
(517.671692, 157.022278) (697.179077, 623.630066)
sub24_b4_sg_3_234.jpg: Predicted in 0.165795 seconds.
person: 61%
(521.972595, 156.172729) (699.459534, 623.903748)
sub24_b4_sg_3_235.jpg: Predicted in 0.155715 seconds.
person: 69%
(517.483032, 156.439789) (697.930725, 624.080200)
sub24_b4_sg_3_236.jpg: Predicted in 0.157219 seconds.
person: 67%
(442.020294, 140.436340) (699.419250, 636.710205)
sub24_b4_sg_3_237.jpg: Predicted in 0.156449 seconds.
person: 68%
(446.488983, 140.828613) (696.683533, 639.421143)
sub24_b4_sg_3_238.jpg: Predicted in 0.155659 seconds.
person: 67%
(449.595642, 136.906296) (693.066467, 643.020142)
sub24_b4_sg_3_239.jpg: Predicted in 0.155093 seconds.
person: 68%
(448.340393, 145.456863) (692.590332, 635.513184)
sub24_b4_sg_3_240.jpg: Predicted in 0.160300 seconds.
person: 68%
(446.071625, 144.244202) (692.560120, 634.263123)
sub24_b4_sg_3_241.jpg: Predicted in 0.155205 seconds.
person: 68%
(518.997742, 153.972702) (690.549316, 632.305725)
sub24_b4_sg_3_242.jpg: Predicted in 0.162700 seconds.
person: 69%
(452.266266, 143.008591) (686.598755, 635.469299)
sub24_b4_sg_3_243.jpg: Predicted in 0.156294 seconds.
person: 71%
(448.925903, 140.573853) (684.779907, 637.936218)
sub24_b4_sg_3_244.jpg: Predicted in 0.157118 seconds.
person: 67%
(436.227509, 145.304733) (695.485229, 634.942505)
sub24_b4_sg_3_245.jpg: Predicted in 0.154489 seconds.
person: 63%
(447.258636, 144.387268) (688.534241, 637.051514)
sub24_b4_sg_3_246.jpg: Predicted in 0.157167 seconds.
person: 58%
(512.636353, 159.502319) (700.319580, 631.377686)
sub24_b4_sg_3_247.jpg: Predicted in 0.155902 seconds.
person: 61%
(512.335022, 160.010117) (702.360596, 632.385315)
sub24_b4_sg_3_248.jpg: Predicted in 0.155867 seconds.
person: 59%
(436.917084, 142.127777) (696.277588, 642.520020)
sub24_b4_sg_3_249.jpg: Predicted in 0.154865 seconds.
person: 53%
(439.111145, 137.895233) (696.849670, 644.514160)
sub24_b4_sg_3_250.jpg: Predicted in 0.157120 seconds.
person: 57%
(444.181458, 136.098770) (688.705811, 648.885193)
sub24_b4_sg_3_251.jpg: Predicted in 0.155509 seconds.
person: 60%
(441.309662, 134.143143) (691.885437, 648.813721)
sub24_b4_sg_3_252.jpg: Predicted in 0.155513 seconds.
person: 64%
(440.884430, 139.689545) (690.763611, 643.242798)
sub24_b4_sg_3_253.jpg: Predicted in 0.155495 seconds.
person: 59%
(448.269714, 147.633987) (687.678528, 638.304016)
sub24_b4_sg_3_254.jpg: Predicted in 0.155316 seconds.
person: 65%
(450.731262, 160.234756) (685.314392, 556.203918)
sub24_b4_sg_3_255.jpg: Predicted in 0.156051 seconds.
person: 64%
(450.973114, 134.245819) (677.430847, 646.787781)
sub24_b4_sg_3_256.jpg: Predicted in 0.154907 seconds.
person: 69%
(456.177124, 157.147827) (682.014954, 549.387207)
sub24_b4_sg_3_257.jpg: Predicted in 0.154949 seconds.
person: 64%
(451.317780, 155.979645) (687.786743, 550.414429)
sub24_b4_sg_3_258.jpg: Predicted in 0.154580 seconds.
person: 67%
(458.119232, 160.896133) (678.956055, 544.970459)
sub24_b4_sg_3_259.jpg: Predicted in 0.159300 seconds.
person: 69%
(453.970978, 159.734573) (684.161926, 550.031372)
sub24_b4_sg_3_260.jpg: Predicted in 0.155921 seconds.
person: 66%
(455.464752, 159.687424) (680.694763, 552.357300)
sub24_b4_sg_3_261.jpg: Predicted in 0.156192 seconds.
person: 68%
(451.878479, 156.811310) (683.213440, 553.391418)
sub24_b4_sg_3_262.jpg: Predicted in 0.158111 seconds.
person: 66%
(450.632080, 154.853577) (680.974060, 551.086243)
sub24_b4_sg_3_263.jpg: Predicted in 0.157431 seconds.
person: 69%
(453.225403, 153.684113) (678.549072, 554.509277)
sub24_b4_sg_3_264.jpg: Predicted in 0.158145 seconds.
person: 66%
(455.079102, 155.561691) (675.044739, 558.890137)
sub24_b4_sg_3_265.jpg: Predicted in 0.157271 seconds.
person: 65%
(444.152618, 155.274033) (686.358643, 559.463379)
sub24_b4_sg_3_266.jpg: Predicted in 0.155842 seconds.
person: 69%
(444.415192, 158.805405) (686.648743, 554.110779)
sub24_b4_sg_3_267.jpg: Predicted in 0.156780 seconds.
person: 70%
(447.087463, 160.521988) (679.680908, 549.859680)
sub24_b4_sg_3_268.jpg: Predicted in 0.160508 seconds.
person: 69%
(450.114441, 159.071533) (680.828003, 551.315918)
sub24_b4_sg_3_269.jpg: Predicted in 0.157577 seconds.
person: 70%
(445.676270, 158.474716) (683.830933, 550.284546)
sub24_b4_sg_3_270.jpg: Predicted in 0.157365 seconds.
person: 60%
(448.640015, 155.926346) (681.388428, 557.524109)
sub24_b4_sg_3_271.jpg: Predicted in 0.163067 seconds.
person: 61%
(454.341064, 159.737503) (679.415283, 555.699951)
sub24_b4_sg_3_272.jpg: Predicted in 0.155867 seconds.
person: 61%
(444.158966, 160.266144) (683.582947, 549.442993)
sub24_b4_sg_3_273.jpg: Predicted in 0.155442 seconds.
person: 60%
(447.096527, 160.484344) (680.492249, 552.630859)
sub24_b4_sg_3_274.jpg: Predicted in 0.156976 seconds.
person: 65%
(445.537201, 155.490112) (681.791809, 630.745422)
sub24_b4_sg_3_275.jpg: Predicted in 0.157322 seconds.
person: 56%
(438.040253, 161.252899) (681.873657, 627.455505)
sub24_b4_sg_3_276.jpg: Predicted in 0.155745 seconds.
person: 41%
(434.093506, 156.836624) (682.546509, 556.312561)
sub24_b4_sg_3_277.jpg: Predicted in 0.157530 seconds.
person: 51%
(443.399078, 157.078522) (682.594788, 559.710022)
sub24_b4_sg_3_278.jpg: Predicted in 0.166207 seconds.
person: 50%
(443.831543, 159.861237) (678.162781, 555.579041)
sub24_b4_sg_3_279.jpg: Predicted in 0.157271 seconds.
person: 50%
(439.847443, 156.025772) (683.956421, 556.752502)
sub24_b4_sg_3_280.jpg: Predicted in 0.174502 seconds.
person: 59%
(437.482056, 150.624084) (683.676270, 638.491943)
sub24_b4_sg_3_281.jpg: Predicted in 0.155508 seconds.
person: 62%
(436.441040, 147.773560) (688.343262, 641.988403)
sub24_b4_sg_3_282.jpg: Predicted in 0.155952 seconds.
person: 65%
(438.763214, 143.059662) (685.381165, 644.729858)
sub24_b4_sg_3_283.jpg: Predicted in 0.159062 seconds.
person: 68%
(448.615845, 149.005844) (685.507385, 642.373535)
sub24_b4_sg_3_284.jpg: Predicted in 0.158432 seconds.
person: 72%
(450.173370, 147.290298) (680.630981, 645.077515)
sub24_b4_sg_3_285.jpg: Predicted in 0.156374 seconds.
person: 73%
(449.303040, 144.203232) (684.465027, 645.771545)
sub24_b4_sg_3_286.jpg: Predicted in 0.165141 seconds.
person: 70%
(448.912109, 153.569656) (683.912354, 644.282227)
sub24_b4_sg_3_287.jpg: Predicted in 0.162646 seconds.
person: 71%
(455.308624, 149.619644) (680.578613, 645.656494)
sub24_b4_sg_3_288.jpg: Predicted in 0.155995 seconds.
person: 64%
(456.147705, 150.306107) (677.072815, 645.779663)
sub24_b4_sg_3_289.jpg: Predicted in 0.154594 seconds.
person: 67%
(455.770691, 145.523956) (681.885620, 649.101501)
sub24_b4_sg_3_290.jpg: Predicted in 0.156111 seconds.
person: 62%
(455.391296, 153.176529) (679.806763, 640.717651)
sub24_b4_sg_3_291.jpg: Predicted in 0.155924 seconds.
person: 50%
(448.465210, 153.058533) (683.599182, 640.709900)
sub24_b4_sg_3_292.jpg: Predicted in 0.156221 seconds.
person: 56%
(442.128815, 150.172379) (690.495239, 641.375610)
sub24_b4_sg_3_293.jpg: Predicted in 0.156759 seconds.
person: 53%
(447.440063, 143.653793) (686.375427, 649.434937)
sub24_b4_sg_3_294.jpg: Predicted in 0.154990 seconds.
person: 67%
(444.289459, 143.276047) (691.078247, 645.065430)
sub24_b4_sg_3_295.jpg: Predicted in 0.231513 seconds.
person: 67%
(433.767670, 150.421616) (698.932068, 642.981140)
sub24_b4_sg_3_296.jpg: Predicted in 0.157231 seconds.
person: 72%
(423.253510, 147.909470) (702.096130, 650.013733)
sub24_b4_sg_3_297.jpg: Predicted in 0.157179 seconds.
person: 61%
(424.516144, 145.789856) (695.484924, 653.494385)
sub24_b4_sg_3_298.jpg: Predicted in 0.157231 seconds.
person: 62%
(428.812225, 152.325363) (692.958191, 643.739319)
sub24_b4_sg_3_299.jpg: Predicted in 0.156720 seconds.
person: 63%
(422.917969, 150.012634) (692.004150, 640.692505)
sub24_b4_sg_3_300.jpg: Predicted in 0.155544 seconds.
person: 72%
(411.707397, 144.527908) (693.423157, 636.311584)
sub24_b4_sg_3_301.jpg: Predicted in 0.155766 seconds.
person: 72%
(406.896942, 168.397324) (689.488342, 552.478821)
sub24_b4_sg_3_302.jpg: Predicted in 0.157290 seconds.
person: 72%
(410.873688, 141.559174) (696.736938, 638.823792)
sub24_b4_sg_3_303.jpg: Predicted in 0.155669 seconds.
person: 72%
(407.601044, 141.859177) (695.365417, 640.751038)
sub24_b4_sg_3_304.jpg: Predicted in 0.156516 seconds.
person: 74%
(405.488312, 143.432358) (695.882812, 643.563293)
sub24_b4_sg_3_305.jpg: Predicted in 0.156590 seconds.
person: 76%
(407.717499, 145.539932) (696.822449, 643.750122)
sub24_b4_sg_3_306.jpg: Predicted in 0.154707 seconds.
person: 74%
(403.931885, 145.613480) (702.694275, 642.293457)
sub24_b4_sg_3_307.jpg: Predicted in 0.156216 seconds.
person: 76%
(411.771637, 146.167725) (698.550110, 645.372314)
sub24_b4_sg_3_308.jpg: Predicted in 0.155622 seconds.
person: 75%
(415.433014, 145.174667) (696.013794, 648.308105)
sub24_b4_sg_3_309.jpg: Predicted in 0.155215 seconds.
person: 71%
(410.691162, 144.907684) (697.232178, 647.164551)
sub24_b4_sg_3_310.jpg: Predicted in 0.156782 seconds.
person: 70%
(419.697937, 146.650818) (697.405273, 649.593872)
sub24_b4_sg_3_311.jpg: Predicted in 0.156518 seconds.
person: 69%
(417.599915, 144.480942) (705.196411, 656.442688)
sub24_b4_sg_3_312.jpg: Predicted in 0.155618 seconds.
person: 65%
(418.017944, 145.138458) (701.973267, 656.685913)
sub24_b4_sg_3_313.jpg: Predicted in 0.172617 seconds.
person: 65%
(408.472382, 145.199036) (704.001770, 656.984985)
sub24_b4_sg_3_314.jpg: Predicted in 0.155573 seconds.
person: 59%
(416.243835, 145.411179) (696.812256, 656.058533)
sub24_b4_sg_3_315.jpg: Predicted in 0.155776 seconds.
person: 59%
(416.444702, 145.461533) (692.019592, 654.854614)
sub24_b4_sg_3_316.jpg: Predicted in 0.155766 seconds.
person: 59%
(418.159515, 146.614410) (685.278687, 652.239685)
sub24_b4_sg_3_317.jpg: Predicted in 0.221083 seconds.
person: 59%
(417.064728, 148.591751) (678.815552, 648.618042)
sub24_b4_sg_3_318.jpg: Predicted in 0.161561 seconds.
person: 57%
(423.449127, 149.002045) (677.862488, 649.493835)
sub24_b4_sg_3_319.jpg: Predicted in 0.155323 seconds.
person: 54%
(429.958374, 150.390762) (680.901978, 649.431946)
sub24_b4_sg_3_320.jpg: Predicted in 0.154452 seconds.
person: 54%
(427.529388, 146.804901) (686.374573, 650.088440)
sub24_b4_sg_3_321.jpg: Predicted in 0.156455 seconds.
person: 51%
(432.378235, 148.991394) (688.615784, 650.843933)
