sub20_b2_sg_1_001.jpg: Predicted in 0.159017 seconds.
sub20_b2_sg_1_002.jpg: Predicted in 0.157948 seconds.
sub20_b2_sg_1_003.jpg: Predicted in 0.158734 seconds.
sub20_b2_sg_1_004.jpg: Predicted in 0.158588 seconds.
sub20_b2_sg_1_005.jpg: Predicted in 0.156518 seconds.
sub20_b2_sg_1_006.jpg: Predicted in 0.157403 seconds.
sub20_b2_sg_1_007.jpg: Predicted in 0.155872 seconds.
sub20_b2_sg_1_008.jpg: Predicted in 0.157275 seconds.
sub20_b2_sg_1_009.jpg: Predicted in 0.157443 seconds.
sub20_b2_sg_1_010.jpg: Predicted in 0.156511 seconds.
sub20_b2_sg_1_011.jpg: Predicted in 0.161607 seconds.
sub20_b2_sg_1_012.jpg: Predicted in 0.156605 seconds.
sub20_b2_sg_1_013.jpg: Predicted in 0.158861 seconds.
sub20_b2_sg_1_014.jpg: Predicted in 0.156540 seconds.
sub20_b2_sg_1_015.jpg: Predicted in 0.158202 seconds.
sub20_b2_sg_1_016.jpg: Predicted in 0.156095 seconds.
sub20_b2_sg_1_017.jpg: Predicted in 0.158013 seconds.
sub20_b2_sg_1_018.jpg: Predicted in 0.156487 seconds.
sub20_b2_sg_1_019.jpg: Predicted in 0.157298 seconds.
sub20_b2_sg_1_020.jpg: Predicted in 0.157229 seconds.
sub20_b2_sg_1_021.jpg: Predicted in 0.156610 seconds.
sub20_b2_sg_1_022.jpg: Predicted in 0.157309 seconds.
sub20_b2_sg_1_023.jpg: Predicted in 0.159660 seconds.
sub20_b2_sg_1_024.jpg: Predicted in 0.166107 seconds.
sub20_b2_sg_1_025.jpg: Predicted in 0.158493 seconds.
sub20_b2_sg_1_026.jpg: Predicted in 0.157065 seconds.
sub20_b2_sg_1_027.jpg: Predicted in 0.157970 seconds.
sub20_b2_sg_1_028.jpg: Predicted in 0.164070 seconds.
sub20_b2_sg_1_029.jpg: Predicted in 0.154615 seconds.
sub20_b2_sg_1_030.jpg: Predicted in 0.158226 seconds.
sub20_b2_sg_1_031.jpg: Predicted in 0.163436 seconds.
sub20_b2_sg_1_032.jpg: Predicted in 0.164624 seconds.
sub20_b2_sg_1_033.jpg: Predicted in 0.158298 seconds.
sub20_b2_sg_1_034.jpg: Predicted in 0.159548 seconds.
sub20_b2_sg_1_035.jpg: Predicted in 0.159773 seconds.
sub20_b2_sg_1_036.jpg: Predicted in 0.163289 seconds.
sub20_b2_sg_1_037.jpg: Predicted in 0.157198 seconds.
sub20_b2_sg_1_038.jpg: Predicted in 0.157362 seconds.
sub20_b2_sg_1_039.jpg: Predicted in 0.158084 seconds.
sub20_b2_sg_1_040.jpg: Predicted in 0.165444 seconds.
sub20_b2_sg_1_041.jpg: Predicted in 0.160462 seconds.
sub20_b2_sg_1_042.jpg: Predicted in 0.157575 seconds.
sub20_b2_sg_1_043.jpg: Predicted in 0.155447 seconds.
sub20_b2_sg_1_044.jpg: Predicted in 0.157454 seconds.
sub20_b2_sg_1_045.jpg: Predicted in 0.158481 seconds.
sub20_b2_sg_1_046.jpg: Predicted in 0.155606 seconds.
sub20_b2_sg_1_047.jpg: Predicted in 0.156584 seconds.
sub20_b2_sg_1_048.jpg: Predicted in 0.156233 seconds.
sub20_b2_sg_1_049.jpg: Predicted in 0.156629 seconds.
sub20_b2_sg_1_050.jpg: Predicted in 0.155907 seconds.
sub20_b2_sg_1_051.jpg: Predicted in 0.156409 seconds.
sub20_b2_sg_1_052.jpg: Predicted in 0.156258 seconds.
sub20_b2_sg_1_053.jpg: Predicted in 0.158711 seconds.
sub20_b2_sg_1_054.jpg: Predicted in 0.155915 seconds.
sub20_b2_sg_1_055.jpg: Predicted in 0.159416 seconds.
sub20_b2_sg_1_056.jpg: Predicted in 0.156469 seconds.
sub20_b2_sg_1_057.jpg: Predicted in 0.165407 seconds.
sub20_b2_sg_1_058.jpg: Predicted in 0.166468 seconds.
sub20_b2_sg_1_059.jpg: Predicted in 0.156594 seconds.
sub20_b2_sg_1_060.jpg: Predicted in 0.158886 seconds.
sub20_b2_sg_1_061.jpg: Predicted in 0.157997 seconds.
sub20_b2_sg_1_062.jpg: Predicted in 0.158269 seconds.
sub20_b2_sg_1_063.jpg: Predicted in 0.187209 seconds.
sub20_b2_sg_1_064.jpg: Predicted in 0.156467 seconds.
sub20_b2_sg_1_065.jpg: Predicted in 0.157644 seconds.
sub20_b2_sg_1_066.jpg: Predicted in 0.157926 seconds.
sub20_b2_sg_1_067.jpg: Predicted in 0.161485 seconds.
sub20_b2_sg_1_068.jpg: Predicted in 0.157758 seconds.
sub20_b2_sg_1_069.jpg: Predicted in 0.156539 seconds.
sub20_b2_sg_1_070.jpg: Predicted in 0.156423 seconds.
sub20_b2_sg_1_071.jpg: Predicted in 0.165999 seconds.
sub20_b2_sg_1_072.jpg: Predicted in 0.156297 seconds.
sub20_b2_sg_1_073.jpg: Predicted in 0.156330 seconds.
sub20_b2_sg_1_074.jpg: Predicted in 0.156232 seconds.
sub20_b2_sg_1_075.jpg: Predicted in 0.157421 seconds.
sub20_b2_sg_1_076.jpg: Predicted in 0.156950 seconds.
sub20_b2_sg_1_077.jpg: Predicted in 0.158421 seconds.
sub20_b2_sg_1_078.jpg: Predicted in 0.156479 seconds.
sub20_b2_sg_1_079.jpg: Predicted in 0.158484 seconds.
sub20_b2_sg_1_080.jpg: Predicted in 0.156942 seconds.
sub20_b2_sg_1_081.jpg: Predicted in 0.158561 seconds.
sub20_b2_sg_1_082.jpg: Predicted in 0.157903 seconds.
sub20_b2_sg_1_083.jpg: Predicted in 0.155575 seconds.
sub20_b2_sg_1_084.jpg: Predicted in 0.158163 seconds.
sub20_b2_sg_1_085.jpg: Predicted in 0.157693 seconds.
sub20_b2_sg_1_086.jpg: Predicted in 0.156847 seconds.
sub20_b2_sg_1_087.jpg: Predicted in 0.156124 seconds.
sub20_b2_sg_1_088.jpg: Predicted in 0.155763 seconds.
sub20_b2_sg_1_089.jpg: Predicted in 0.158298 seconds.
sub20_b2_sg_1_090.jpg: Predicted in 0.155621 seconds.
sub20_b2_sg_1_091.jpg: Predicted in 0.157142 seconds.
sub20_b2_sg_1_092.jpg: Predicted in 0.156634 seconds.
sub20_b2_sg_1_093.jpg: Predicted in 0.159163 seconds.
sub20_b2_sg_1_094.jpg: Predicted in 0.157194 seconds.
sub20_b2_sg_1_095.jpg: Predicted in 0.156239 seconds.
sub20_b2_sg_1_096.jpg: Predicted in 0.155814 seconds.
sub20_b2_sg_1_097.jpg: Predicted in 0.197676 seconds.
sub20_b2_sg_1_098.jpg: Predicted in 0.157932 seconds.
sub20_b2_sg_1_099.jpg: Predicted in 0.157241 seconds.
sub20_b2_sg_1_100.jpg: Predicted in 0.165120 seconds.
sub20_b2_sg_1_101.jpg: Predicted in 0.161113 seconds.
sub20_b2_sg_1_102.jpg: Predicted in 0.156137 seconds.
sub20_b2_sg_1_103.jpg: Predicted in 0.156084 seconds.
sub20_b2_sg_1_104.jpg: Predicted in 0.156852 seconds.
sub20_b2_sg_1_105.jpg: Predicted in 0.157906 seconds.
sub20_b2_sg_1_106.jpg: Predicted in 0.157474 seconds.
sub20_b2_sg_1_107.jpg: Predicted in 0.156568 seconds.
sub20_b2_sg_1_108.jpg: Predicted in 0.156359 seconds.
sub20_b2_sg_1_109.jpg: Predicted in 0.156407 seconds.
sub20_b2_sg_1_110.jpg: Predicted in 0.159201 seconds.
sub20_b2_sg_1_111.jpg: Predicted in 0.157423 seconds.
sub20_b2_sg_1_112.jpg: Predicted in 0.156417 seconds.
sub20_b2_sg_1_113.jpg: Predicted in 0.159746 seconds.
sub20_b2_sg_1_114.jpg: Predicted in 0.156581 seconds.
sub20_b2_sg_1_115.jpg: Predicted in 0.156755 seconds.
sub20_b2_sg_1_116.jpg: Predicted in 0.167170 seconds.
sub20_b2_sg_1_117.jpg: Predicted in 0.157122 seconds.
sub20_b2_sg_1_118.jpg: Predicted in 0.156706 seconds.
sub20_b2_sg_1_119.jpg: Predicted in 0.157543 seconds.
sub20_b2_sg_1_120.jpg: Predicted in 0.167021 seconds.
sub20_b2_sg_1_121.jpg: Predicted in 0.157185 seconds.
sub20_b2_sg_1_122.jpg: Predicted in 0.159829 seconds.
sub20_b2_sg_1_123.jpg: Predicted in 0.162383 seconds.
sub20_b2_sg_1_124.jpg: Predicted in 0.158218 seconds.
sub20_b2_sg_1_125.jpg: Predicted in 0.156950 seconds.
sub20_b2_sg_1_126.jpg: Predicted in 0.157825 seconds.
sub20_b2_sg_1_127.jpg: Predicted in 0.161131 seconds.
sub20_b2_sg_1_128.jpg: Predicted in 0.157711 seconds.
sub20_b2_sg_1_129.jpg: Predicted in 0.157334 seconds.
sub20_b2_sg_1_130.jpg: Predicted in 0.158835 seconds.
baseball bat: 40%
(159.814957, 181.843460) (189.295563, 352.709534)
sub20_b2_sg_1_131.jpg: Predicted in 0.156440 seconds.
baseball bat: 48%
(157.572922, 181.046738) (191.655090, 353.484619)
sub20_b2_sg_1_132.jpg: Predicted in 0.160521 seconds.
baseball bat: 51%
(155.901627, 186.216354) (194.082657, 356.368896)
sub20_b2_sg_1_133.jpg: Predicted in 0.158716 seconds.
baseball bat: 55%
(150.365662, 177.594467) (193.630890, 358.637238)
sub20_b2_sg_1_134.jpg: Predicted in 0.157524 seconds.
baseball bat: 53%
(148.990921, 183.073318) (196.805771, 357.215546)
sub20_b2_sg_1_135.jpg: Predicted in 0.164818 seconds.
baseball bat: 62%
(149.232086, 179.574341) (197.401367, 363.629486)
sub20_b2_sg_1_136.jpg: Predicted in 0.159426 seconds.
baseball bat: 64%
(146.642517, 184.295242) (198.021255, 364.784454)
sub20_b2_sg_1_137.jpg: Predicted in 0.157394 seconds.
baseball bat: 68%
(147.158279, 184.464996) (198.958466, 368.491089)
sub20_b2_sg_1_138.jpg: Predicted in 0.157220 seconds.
baseball bat: 70%
(146.797913, 184.629639) (201.244919, 370.516968)
sub20_b2_sg_1_139.jpg: Predicted in 0.167329 seconds.
baseball bat: 70%
(144.233795, 186.339539) (200.669357, 369.826965)
sub20_b2_sg_1_140.jpg: Predicted in 0.158274 seconds.
baseball bat: 68%
(140.179260, 194.058136) (205.120651, 372.640564)
sub20_b2_sg_1_141.jpg: Predicted in 0.158437 seconds.
baseball bat: 65%
(138.128357, 194.513809) (205.810699, 373.478821)
sub20_b2_sg_1_142.jpg: Predicted in 0.158045 seconds.
baseball bat: 61%
(136.850891, 198.983307) (206.782150, 374.411377)
sub20_b2_sg_1_143.jpg: Predicted in 0.157515 seconds.
baseball bat: 63%
(129.566742, 196.248795) (202.603134, 376.862549)
sub20_b2_sg_1_144.jpg: Predicted in 0.156790 seconds.
baseball bat: 65%
(129.061386, 198.358139) (203.769501, 375.167450)
sub20_b2_sg_1_145.jpg: Predicted in 0.199678 seconds.
baseball bat: 65%
(128.431976, 199.359726) (203.661224, 374.357635)
sub20_b2_sg_1_146.jpg: Predicted in 0.157524 seconds.
baseball bat: 66%
(129.810440, 200.635422) (205.145615, 373.853546)
sub20_b2_sg_1_147.jpg: Predicted in 0.161353 seconds.
baseball bat: 32%
(92.395218, 123.742363) (181.689804, 288.617828)
baseball bat: 66%
(127.792114, 204.017471) (206.937241, 371.458740)
sub20_b2_sg_1_148.jpg: Predicted in 0.156910 seconds.
baseball bat: 34%
(92.010902, 126.271881) (181.795822, 290.478882)
baseball bat: 64%
(127.075897, 204.928726) (206.775574, 371.665192)
sub20_b2_sg_1_149.jpg: Predicted in 0.158058 seconds.
baseball bat: 36%
(92.825218, 127.876640) (182.482483, 292.642578)
baseball bat: 64%
(127.937897, 206.429077) (207.320053, 372.709106)
sub20_b2_sg_1_150.jpg: Predicted in 0.166674 seconds.
baseball bat: 37%
(91.361923, 130.969116) (183.952942, 293.343903)
baseball bat: 63%
(125.801537, 208.351578) (208.005798, 371.051025)
sub20_b2_sg_1_151.jpg: Predicted in 0.165641 seconds.
baseball bat: 37%
(90.677139, 133.086639) (186.448730, 296.134033)
baseball bat: 61%
(123.621941, 209.722046) (208.493164, 371.354950)
sub20_b2_sg_1_152.jpg: Predicted in 0.166854 seconds.
baseball bat: 39%
(90.560844, 132.658401) (186.593842, 297.066864)
baseball bat: 61%
(123.643326, 209.845184) (209.752136, 371.790100)
sub20_b2_sg_1_153.jpg: Predicted in 0.156764 seconds.
baseball bat: 39%
(91.520012, 133.653381) (188.347733, 299.161926)
baseball bat: 60%
(122.805077, 212.536819) (210.101761, 372.343140)
sub20_b2_sg_1_154.jpg: Predicted in 0.157957 seconds.
baseball bat: 37%
(89.532074, 134.228302) (189.810287, 298.407593)
baseball bat: 61%
(118.280548, 213.392120) (210.634933, 371.809509)
sub20_b2_sg_1_155.jpg: Predicted in 0.158869 seconds.
baseball bat: 32%
(87.839645, 134.827560) (191.713547, 299.383270)
baseball bat: 58%
(115.817444, 215.057297) (211.199722, 370.549408)
sub20_b2_sg_1_156.jpg: Predicted in 0.157012 seconds.
baseball bat: 56%
(113.889153, 218.646835) (211.105240, 369.948303)
sub20_b2_sg_1_157.jpg: Predicted in 0.157014 seconds.
baseball bat: 49%
(109.093018, 221.669388) (209.363586, 366.567719)
sub20_b2_sg_1_158.jpg: Predicted in 0.158476 seconds.
baseball bat: 41%
(102.391136, 227.105469) (209.577835, 361.714050)
sub20_b2_sg_1_159.jpg: Predicted in 0.159152 seconds.
sub20_b2_sg_1_160.jpg: Predicted in 0.159089 seconds.
sub20_b2_sg_1_161.jpg: Predicted in 0.157091 seconds.
sub20_b2_sg_1_162.jpg: Predicted in 0.157294 seconds.
baseball bat: 34%
(89.516953, 273.592651) (238.143188, 367.567413)
sub20_b2_sg_1_163.jpg: Predicted in 0.158389 seconds.
baseball bat: 42%
(97.034668, 271.915588) (237.970444, 370.500946)
sub20_b2_sg_1_164.jpg: Predicted in 0.160316 seconds.
baseball bat: 39%
(94.199265, 273.450531) (239.560318, 369.933411)
sub20_b2_sg_1_165.jpg: Predicted in 0.160155 seconds.
baseball bat: 39%
(92.886955, 274.286774) (242.326172, 369.917816)
sub20_b2_sg_1_166.jpg: Predicted in 0.160075 seconds.
baseball bat: 36%
(89.321983, 274.615723) (243.881287, 372.284485)
sub20_b2_sg_1_167.jpg: Predicted in 0.157253 seconds.
baseball bat: 35%
(88.603912, 274.663544) (243.116440, 372.326782)
sub20_b2_sg_1_168.jpg: Predicted in 0.157487 seconds.
baseball bat: 34%
(91.313751, 274.986176) (246.488327, 374.899475)
sub20_b2_sg_1_169.jpg: Predicted in 0.159479 seconds.
sub20_b2_sg_1_170.jpg: Predicted in 0.170770 seconds.
baseball bat: 36%
(92.224792, 276.599152) (250.029800, 378.611938)
sub20_b2_sg_1_171.jpg: Predicted in 0.162740 seconds.
baseball bat: 40%
(99.973373, 277.058929) (248.836517, 379.368408)
sub20_b2_sg_1_172.jpg: Predicted in 0.159378 seconds.
baseball bat: 42%
(136.385605, 289.326416) (297.911530, 384.368286)
sub20_b2_sg_1_173.jpg: Predicted in 0.160248 seconds.
baseball bat: 40%
(139.504333, 289.480286) (299.964661, 384.029602)
sub20_b2_sg_1_174.jpg: Predicted in 0.165849 seconds.
baseball bat: 39%
(144.039810, 291.784760) (302.178772, 384.134918)
sub20_b2_sg_1_175.jpg: Predicted in 0.158844 seconds.
baseball bat: 41%
(146.632584, 295.338318) (301.092010, 383.144226)
sub20_b2_sg_1_176.jpg: Predicted in 0.172147 seconds.
sub20_b2_sg_1_177.jpg: Predicted in 0.165564 seconds.
sub20_b2_sg_1_178.jpg: Predicted in 0.161025 seconds.
sub20_b2_sg_1_179.jpg: Predicted in 0.168274 seconds.
sub20_b2_sg_1_180.jpg: Predicted in 0.157301 seconds.
sub20_b2_sg_1_181.jpg: Predicted in 0.159868 seconds.
sub20_b2_sg_1_182.jpg: Predicted in 0.159199 seconds.
sub20_b2_sg_1_183.jpg: Predicted in 0.159147 seconds.
sub20_b2_sg_1_184.jpg: Predicted in 0.156607 seconds.
sub20_b2_sg_1_185.jpg: Predicted in 0.159648 seconds.
sub20_b2_sg_1_186.jpg: Predicted in 0.168070 seconds.
sub20_b2_sg_1_187.jpg: Predicted in 0.156661 seconds.
baseball bat: 33%
(66.501404, 317.614868) (232.374573, 361.991608)
sub20_b2_sg_1_188.jpg: Predicted in 0.159492 seconds.
sub20_b2_sg_1_189.jpg: Predicted in 0.167303 seconds.
sub20_b2_sg_1_190.jpg: Predicted in 0.158037 seconds.
sub20_b2_sg_1_191.jpg: Predicted in 0.157546 seconds.
sub20_b2_sg_1_192.jpg: Predicted in 0.162253 seconds.
sub20_b2_sg_1_193.jpg: Predicted in 0.158547 seconds.
sub20_b2_sg_1_194.jpg: Predicted in 0.158610 seconds.
sub20_b2_sg_1_195.jpg: Predicted in 0.161978 seconds.
sub20_b2_sg_1_196.jpg: Predicted in 0.158966 seconds.
sub20_b2_sg_1_197.jpg: Predicted in 0.167933 seconds.
sub20_b2_sg_1_198.jpg: Predicted in 0.168145 seconds.
sub20_b2_sg_1_199.jpg: Predicted in 0.159270 seconds.
sub20_b2_sg_1_200.jpg: Predicted in 0.159733 seconds.
sub20_b2_sg_1_201.jpg: Predicted in 0.157275 seconds.
sub20_b2_sg_1_202.jpg: Predicted in 0.158598 seconds.
sub20_b2_sg_1_203.jpg: Predicted in 0.156708 seconds.
sub20_b2_sg_1_204.jpg: Predicted in 0.158468 seconds.
sub20_b2_sg_1_205.jpg: Predicted in 0.156723 seconds.
sub20_b2_sg_1_206.jpg: Predicted in 0.163576 seconds.
sub20_b2_sg_1_207.jpg: Predicted in 0.159078 seconds.
sub20_b2_sg_1_208.jpg: Predicted in 0.159417 seconds.
sub20_b2_sg_1_209.jpg: Predicted in 0.156813 seconds.
sub20_b2_sg_1_210.jpg: Predicted in 0.158198 seconds.
sub20_b2_sg_1_211.jpg: Predicted in 0.159779 seconds.
sub20_b2_sg_1_212.jpg: Predicted in 0.157560 seconds.
sub20_b2_sg_1_213.jpg: Predicted in 0.158567 seconds.
sub20_b2_sg_1_214.jpg: Predicted in 0.156431 seconds.
sub20_b2_sg_1_215.jpg: Predicted in 0.158318 seconds.
sub20_b2_sg_1_216.jpg: Predicted in 0.160069 seconds.
sub20_b2_sg_1_217.jpg: Predicted in 0.160019 seconds.
sub20_b2_sg_1_218.jpg: Predicted in 0.158313 seconds.
sub20_b2_sg_1_219.jpg: Predicted in 0.157115 seconds.
sub20_b2_sg_1_220.jpg: Predicted in 0.159841 seconds.
sub20_b2_sg_1_221.jpg: Predicted in 0.168074 seconds.
sub20_b2_sg_1_222.jpg: Predicted in 0.158594 seconds.
sub20_b2_sg_1_223.jpg: Predicted in 0.159786 seconds.
sub20_b2_sg_1_224.jpg: Predicted in 0.158505 seconds.
sub20_b2_sg_1_225.jpg: Predicted in 0.160371 seconds.
baseball bat: 32%
(252.935913, 273.228699) (400.809601, 421.380280)
sub20_b2_sg_1_226.jpg: Predicted in 0.159559 seconds.
baseball bat: 32%
(253.317078, 271.212189) (400.865753, 422.202606)
sub20_b2_sg_1_227.jpg: Predicted in 0.160278 seconds.
baseball bat: 33%
(258.335236, 271.721558) (401.390045, 422.467499)
sub20_b2_sg_1_228.jpg: Predicted in 0.158353 seconds.
baseball bat: 32%
(259.024384, 267.465546) (399.801697, 423.857635)
sub20_b2_sg_1_229.jpg: Predicted in 0.157465 seconds.
baseball bat: 37%
(256.870056, 266.571014) (401.600494, 423.569000)
sub20_b2_sg_1_230.jpg: Predicted in 0.158077 seconds.
baseball bat: 30%
(201.768402, 273.568146) (325.085175, 424.833649)
baseball bat: 41%
(252.995728, 264.447052) (406.403931, 423.405060)
sub20_b2_sg_1_231.jpg: Predicted in 0.157994 seconds.
baseball bat: 35%
(200.390549, 273.607941) (320.057739, 428.549896)
baseball bat: 38%
(252.954773, 264.143738) (402.393829, 425.933075)
sub20_b2_sg_1_232.jpg: Predicted in 0.157086 seconds.
baseball bat: 32%
(199.487305, 274.308472) (331.768463, 426.774048)
baseball bat: 41%
(249.369751, 263.444092) (411.524017, 425.586395)
sub20_b2_sg_1_233.jpg: Predicted in 0.159902 seconds.
baseball bat: 34%
(185.629791, 279.454803) (333.055969, 425.420044)
sub20_b2_sg_1_234.jpg: Predicted in 0.158597 seconds.
sub20_b2_sg_1_235.jpg: Predicted in 0.160204 seconds.
baseball bat: 31%
(175.139725, 274.072479) (329.901703, 426.095703)
sub20_b2_sg_1_236.jpg: Predicted in 0.158166 seconds.
sub20_b2_sg_1_237.jpg: Predicted in 0.166242 seconds.
sub20_b2_sg_1_238.jpg: Predicted in 0.159115 seconds.
sub20_b2_sg_1_239.jpg: Predicted in 0.159769 seconds.
sub20_b2_sg_1_240.jpg: Predicted in 0.156810 seconds.
sub20_b2_sg_1_241.jpg: Predicted in 0.160137 seconds.
sub20_b2_sg_1_242.jpg: Predicted in 0.159207 seconds.
sub20_b2_sg_1_243.jpg: Predicted in 0.159848 seconds.
sub20_b2_sg_1_244.jpg: Predicted in 0.164502 seconds.
sub20_b2_sg_1_245.jpg: Predicted in 0.157059 seconds.
sub20_b2_sg_1_246.jpg: Predicted in 0.159394 seconds.
sub20_b2_sg_1_247.jpg: Predicted in 0.157307 seconds.
sub20_b2_sg_1_248.jpg: Predicted in 0.155947 seconds.
sub20_b2_sg_1_249.jpg: Predicted in 0.156876 seconds.
sub20_b2_sg_1_250.jpg: Predicted in 0.158731 seconds.
sub20_b2_sg_1_251.jpg: Predicted in 0.158065 seconds.
sub20_b2_sg_1_252.jpg: Predicted in 0.157874 seconds.
sub20_b2_sg_1_253.jpg: Predicted in 0.161204 seconds.
sub20_b2_sg_1_254.jpg: Predicted in 0.159700 seconds.
sub20_b2_sg_1_255.jpg: Predicted in 0.157495 seconds.
sub20_b2_sg_1_256.jpg: Predicted in 0.160303 seconds.
sub20_b2_sg_1_257.jpg: Predicted in 0.158608 seconds.
sub20_b2_sg_1_258.jpg: Predicted in 0.161514 seconds.
sub20_b2_sg_1_259.jpg: Predicted in 0.158677 seconds.
sub20_b2_sg_1_260.jpg: Predicted in 0.157815 seconds.
sub20_b2_sg_1_261.jpg: Predicted in 0.158285 seconds.
baseball bat: 31%
(339.903564, 364.823395) (388.694519, 510.944305)
sub20_b2_sg_1_262.jpg: Predicted in 0.166440 seconds.
sub20_b2_sg_1_263.jpg: Predicted in 0.160111 seconds.
sub20_b2_sg_1_264.jpg: Predicted in 0.157064 seconds.
sub20_b2_sg_1_265.jpg: Predicted in 0.158583 seconds.
sub20_b2_sg_1_266.jpg: Predicted in 0.159553 seconds.
sub20_b2_sg_1_267.jpg: Predicted in 0.158397 seconds.
sub20_b2_sg_1_268.jpg: Predicted in 0.163238 seconds.
sub20_b2_sg_1_269.jpg: Predicted in 0.157701 seconds.
sub20_b2_sg_1_270.jpg: Predicted in 0.159189 seconds.
sub20_b2_sg_1_271.jpg: Predicted in 0.159760 seconds.
sub20_b2_sg_1_272.jpg: Predicted in 0.157891 seconds.
sub20_b2_sg_1_273.jpg: Predicted in 0.159728 seconds.
sub20_b2_sg_1_274.jpg: Predicted in 0.158013 seconds.
sub20_b2_sg_1_275.jpg: Predicted in 0.158027 seconds.
sub20_b2_sg_1_276.jpg: Predicted in 0.157338 seconds.
baseball bat: 32%
(374.097321, 276.991821) (533.815796, 420.655670)
baseball bat: 52%
(357.603973, 324.119019) (482.148224, 482.888123)
sub20_b2_sg_1_277.jpg: Predicted in 0.156913 seconds.
baseball bat: 35%
(369.996277, 281.819702) (538.138000, 418.734009)
baseball bat: 64%
(356.880371, 329.264954) (486.015747, 483.198914)
sub20_b2_sg_1_278.jpg: Predicted in 0.158486 seconds.
baseball bat: 64%
(351.799774, 331.175842) (493.252563, 476.783691)
sub20_b2_sg_1_279.jpg: Predicted in 0.158422 seconds.
baseball bat: 57%
(346.710876, 330.839386) (503.120911, 468.151733)
sub20_b2_sg_1_280.jpg: Predicted in 0.158199 seconds.
baseball bat: 58%
(346.875183, 324.884521) (506.766327, 466.830688)
sub20_b2_sg_1_281.jpg: Predicted in 0.159211 seconds.
baseball bat: 42%
(347.106873, 327.805634) (517.117432, 457.855591)
sub20_b2_sg_1_282.jpg: Predicted in 0.159234 seconds.
sub20_b2_sg_1_283.jpg: Predicted in 0.159908 seconds.
sub20_b2_sg_1_284.jpg: Predicted in 0.158608 seconds.
sub20_b2_sg_1_285.jpg: Predicted in 0.160126 seconds.
sub20_b2_sg_1_286.jpg: Predicted in 0.158272 seconds.
sub20_b2_sg_1_287.jpg: Predicted in 0.167243 seconds.
sub20_b2_sg_1_288.jpg: Predicted in 0.159628 seconds.
sub20_b2_sg_1_289.jpg: Predicted in 0.158254 seconds.
sub20_b2_sg_1_290.jpg: Predicted in 0.157728 seconds.
sub20_b2_sg_1_291.jpg: Predicted in 0.157454 seconds.
baseball bat: 30%
(502.675110, 293.202515) (756.985229, 394.745178)
sub20_b2_sg_1_292.jpg: Predicted in 0.162980 seconds.
sub20_b2_sg_1_293.jpg: Predicted in 0.158908 seconds.
baseball bat: 46%
(504.545380, 300.267365) (750.831726, 395.177826)
sub20_b2_sg_1_294.jpg: Predicted in 0.162511 seconds.
baseball bat: 35%
(500.349823, 310.185516) (760.252686, 391.665192)
sub20_b2_sg_1_295.jpg: Predicted in 0.159280 seconds.
baseball bat: 40%
(506.415710, 309.703430) (756.883362, 391.716553)
sub20_b2_sg_1_296.jpg: Predicted in 0.163428 seconds.
baseball bat: 45%
(518.203491, 310.780853) (757.023865, 390.846283)
sub20_b2_sg_1_297.jpg: Predicted in 0.159176 seconds.
baseball bat: 38%
(516.054260, 316.932983) (761.436890, 384.929596)
sub20_b2_sg_1_298.jpg: Predicted in 0.160709 seconds.
sub20_b2_sg_1_299.jpg: Predicted in 0.159488 seconds.
sub20_b2_sg_1_300.jpg: Predicted in 0.158232 seconds.
baseball bat: 32%
(512.592407, 336.424866) (752.930176, 368.453735)
sub20_b2_sg_1_301.jpg: Predicted in 0.160518 seconds.
sub20_b2_sg_1_302.jpg: Predicted in 0.159086 seconds.
sub20_b2_sg_1_303.jpg: Predicted in 0.160684 seconds.
sub20_b2_sg_1_304.jpg: Predicted in 0.158929 seconds.
sub20_b2_sg_1_305.jpg: Predicted in 0.159916 seconds.
sub20_b2_sg_1_306.jpg: Predicted in 0.158562 seconds.
sub20_b2_sg_1_307.jpg: Predicted in 0.159435 seconds.
sub20_b2_sg_1_308.jpg: Predicted in 0.158015 seconds.
sub20_b2_sg_1_309.jpg: Predicted in 0.156604 seconds.
sub20_b2_sg_1_310.jpg: Predicted in 0.160288 seconds.
sub20_b2_sg_1_311.jpg: Predicted in 0.158207 seconds.
sub20_b2_sg_1_312.jpg: Predicted in 0.164455 seconds.
sub20_b2_sg_1_313.jpg: Predicted in 0.157478 seconds.
sub20_b2_sg_1_314.jpg: Predicted in 0.157240 seconds.
sub20_b2_sg_1_315.jpg: Predicted in 0.157841 seconds.
sub20_b2_sg_1_316.jpg: Predicted in 0.158199 seconds.
sub20_b2_sg_1_317.jpg: Predicted in 0.159209 seconds.
sub20_b2_sg_1_318.jpg: Predicted in 0.158573 seconds.
sub20_b2_sg_1_319.jpg: Predicted in 0.159101 seconds.
sub20_b2_sg_1_320.jpg: Predicted in 0.159806 seconds.
sub20_b2_sg_1_321.jpg: Predicted in 0.159490 seconds.
