sub22_b2_sg_1_001.jpg: Predicted in 0.162632 seconds.
sub22_b2_sg_1_002.jpg: Predicted in 0.155923 seconds.
sub22_b2_sg_1_003.jpg: Predicted in 0.153981 seconds.
sub22_b2_sg_1_004.jpg: Predicted in 0.154531 seconds.
sub22_b2_sg_1_005.jpg: Predicted in 0.156622 seconds.
sub22_b2_sg_1_006.jpg: Predicted in 0.154549 seconds.
sub22_b2_sg_1_007.jpg: Predicted in 0.165065 seconds.
sub22_b2_sg_1_008.jpg: Predicted in 0.157318 seconds.
sub22_b2_sg_1_009.jpg: Predicted in 0.165317 seconds.
sub22_b2_sg_1_010.jpg: Predicted in 0.156453 seconds.
sub22_b2_sg_1_011.jpg: Predicted in 0.157363 seconds.
sub22_b2_sg_1_012.jpg: Predicted in 0.156341 seconds.
sub22_b2_sg_1_013.jpg: Predicted in 0.156985 seconds.
sub22_b2_sg_1_014.jpg: Predicted in 0.155611 seconds.
sub22_b2_sg_1_015.jpg: Predicted in 0.155638 seconds.
sub22_b2_sg_1_016.jpg: Predicted in 0.159204 seconds.
sub22_b2_sg_1_017.jpg: Predicted in 0.164532 seconds.
sub22_b2_sg_1_018.jpg: Predicted in 0.163201 seconds.
sub22_b2_sg_1_019.jpg: Predicted in 0.157801 seconds.
sub22_b2_sg_1_020.jpg: Predicted in 0.164149 seconds.
sub22_b2_sg_1_021.jpg: Predicted in 0.154035 seconds.
sub22_b2_sg_1_022.jpg: Predicted in 0.154322 seconds.
sub22_b2_sg_1_023.jpg: Predicted in 0.154503 seconds.
sub22_b2_sg_1_024.jpg: Predicted in 0.156526 seconds.
sub22_b2_sg_1_025.jpg: Predicted in 0.154878 seconds.
sub22_b2_sg_1_026.jpg: Predicted in 0.164107 seconds.
sub22_b2_sg_1_027.jpg: Predicted in 0.157077 seconds.
sub22_b2_sg_1_028.jpg: Predicted in 0.155013 seconds.
sub22_b2_sg_1_029.jpg: Predicted in 0.154061 seconds.
sub22_b2_sg_1_030.jpg: Predicted in 0.154182 seconds.
sub22_b2_sg_1_031.jpg: Predicted in 0.155817 seconds.
sub22_b2_sg_1_032.jpg: Predicted in 0.154541 seconds.
sub22_b2_sg_1_033.jpg: Predicted in 0.155508 seconds.
sub22_b2_sg_1_034.jpg: Predicted in 0.154080 seconds.
sub22_b2_sg_1_035.jpg: Predicted in 0.157300 seconds.
sub22_b2_sg_1_036.jpg: Predicted in 0.157118 seconds.
sub22_b2_sg_1_037.jpg: Predicted in 0.154813 seconds.
sub22_b2_sg_1_038.jpg: Predicted in 0.154734 seconds.
sub22_b2_sg_1_039.jpg: Predicted in 0.154754 seconds.
sub22_b2_sg_1_040.jpg: Predicted in 0.195543 seconds.
sub22_b2_sg_1_041.jpg: Predicted in 0.155516 seconds.
sub22_b2_sg_1_042.jpg: Predicted in 0.156422 seconds.
sub22_b2_sg_1_043.jpg: Predicted in 0.157383 seconds.
sub22_b2_sg_1_044.jpg: Predicted in 0.156472 seconds.
sub22_b2_sg_1_045.jpg: Predicted in 0.161259 seconds.
sub22_b2_sg_1_046.jpg: Predicted in 0.155749 seconds.
sub22_b2_sg_1_047.jpg: Predicted in 0.154907 seconds.
sub22_b2_sg_1_048.jpg: Predicted in 0.154891 seconds.
sub22_b2_sg_1_049.jpg: Predicted in 0.154732 seconds.
sub22_b2_sg_1_050.jpg: Predicted in 0.154978 seconds.
sub22_b2_sg_1_051.jpg: Predicted in 0.164339 seconds.
sub22_b2_sg_1_052.jpg: Predicted in 0.155692 seconds.
sub22_b2_sg_1_053.jpg: Predicted in 0.154859 seconds.
sub22_b2_sg_1_054.jpg: Predicted in 0.157359 seconds.
sub22_b2_sg_1_055.jpg: Predicted in 0.154808 seconds.
sub22_b2_sg_1_056.jpg: Predicted in 0.154621 seconds.
sub22_b2_sg_1_057.jpg: Predicted in 0.154427 seconds.
sub22_b2_sg_1_058.jpg: Predicted in 0.163155 seconds.
sub22_b2_sg_1_059.jpg: Predicted in 0.155751 seconds.
sub22_b2_sg_1_060.jpg: Predicted in 0.153367 seconds.
sub22_b2_sg_1_061.jpg: Predicted in 0.154820 seconds.
sub22_b2_sg_1_062.jpg: Predicted in 0.154485 seconds.
sub22_b2_sg_1_063.jpg: Predicted in 0.155096 seconds.
sub22_b2_sg_1_064.jpg: Predicted in 0.156223 seconds.
sub22_b2_sg_1_065.jpg: Predicted in 0.153891 seconds.
sub22_b2_sg_1_066.jpg: Predicted in 0.153385 seconds.
sub22_b2_sg_1_067.jpg: Predicted in 0.155088 seconds.
sub22_b2_sg_1_068.jpg: Predicted in 0.154060 seconds.
sub22_b2_sg_1_069.jpg: Predicted in 0.156451 seconds.
sub22_b2_sg_1_070.jpg: Predicted in 0.155663 seconds.
sub22_b2_sg_1_071.jpg: Predicted in 0.156032 seconds.
sub22_b2_sg_1_072.jpg: Predicted in 0.153093 seconds.
sub22_b2_sg_1_073.jpg: Predicted in 0.153530 seconds.
sub22_b2_sg_1_074.jpg: Predicted in 0.154268 seconds.
sub22_b2_sg_1_075.jpg: Predicted in 0.154235 seconds.
sub22_b2_sg_1_076.jpg: Predicted in 0.154528 seconds.
sub22_b2_sg_1_077.jpg: Predicted in 0.165216 seconds.
sub22_b2_sg_1_078.jpg: Predicted in 0.155438 seconds.
sub22_b2_sg_1_079.jpg: Predicted in 0.155294 seconds.
sub22_b2_sg_1_080.jpg: Predicted in 0.155563 seconds.
sub22_b2_sg_1_081.jpg: Predicted in 0.154180 seconds.
sub22_b2_sg_1_082.jpg: Predicted in 0.156263 seconds.
sub22_b2_sg_1_083.jpg: Predicted in 0.154577 seconds.
sub22_b2_sg_1_084.jpg: Predicted in 0.164473 seconds.
sub22_b2_sg_1_085.jpg: Predicted in 0.155590 seconds.
sub22_b2_sg_1_086.jpg: Predicted in 0.155592 seconds.
sub22_b2_sg_1_087.jpg: Predicted in 0.156864 seconds.
sub22_b2_sg_1_088.jpg: Predicted in 0.162935 seconds.
sub22_b2_sg_1_089.jpg: Predicted in 0.155039 seconds.
sub22_b2_sg_1_090.jpg: Predicted in 0.156675 seconds.
sub22_b2_sg_1_091.jpg: Predicted in 0.155837 seconds.
sub22_b2_sg_1_092.jpg: Predicted in 0.156226 seconds.
sub22_b2_sg_1_093.jpg: Predicted in 0.154874 seconds.
sub22_b2_sg_1_094.jpg: Predicted in 0.156097 seconds.
sub22_b2_sg_1_095.jpg: Predicted in 0.156000 seconds.
sub22_b2_sg_1_096.jpg: Predicted in 0.155080 seconds.
sub22_b2_sg_1_097.jpg: Predicted in 0.159099 seconds.
sub22_b2_sg_1_098.jpg: Predicted in 0.154991 seconds.
sub22_b2_sg_1_099.jpg: Predicted in 0.155969 seconds.
sub22_b2_sg_1_100.jpg: Predicted in 0.156354 seconds.
sub22_b2_sg_1_101.jpg: Predicted in 0.154591 seconds.
sub22_b2_sg_1_102.jpg: Predicted in 0.164421 seconds.
sub22_b2_sg_1_103.jpg: Predicted in 0.154704 seconds.
sub22_b2_sg_1_104.jpg: Predicted in 0.154528 seconds.
sub22_b2_sg_1_105.jpg: Predicted in 0.154900 seconds.
sub22_b2_sg_1_106.jpg: Predicted in 0.155597 seconds.
sub22_b2_sg_1_107.jpg: Predicted in 0.155026 seconds.
sub22_b2_sg_1_108.jpg: Predicted in 0.163529 seconds.
sub22_b2_sg_1_109.jpg: Predicted in 0.155999 seconds.
sub22_b2_sg_1_110.jpg: Predicted in 0.162916 seconds.
sub22_b2_sg_1_111.jpg: Predicted in 0.156396 seconds.
sub22_b2_sg_1_112.jpg: Predicted in 0.164955 seconds.
sub22_b2_sg_1_113.jpg: Predicted in 0.156012 seconds.
sub22_b2_sg_1_114.jpg: Predicted in 0.155660 seconds.
sub22_b2_sg_1_115.jpg: Predicted in 0.163029 seconds.
sub22_b2_sg_1_116.jpg: Predicted in 0.159204 seconds.
sub22_b2_sg_1_117.jpg: Predicted in 0.155220 seconds.
sub22_b2_sg_1_118.jpg: Predicted in 0.155592 seconds.
sub22_b2_sg_1_119.jpg: Predicted in 0.156446 seconds.
sub22_b2_sg_1_120.jpg: Predicted in 0.155356 seconds.
sub22_b2_sg_1_121.jpg: Predicted in 0.155963 seconds.
sub22_b2_sg_1_122.jpg: Predicted in 0.156104 seconds.
sub22_b2_sg_1_123.jpg: Predicted in 0.155897 seconds.
sub22_b2_sg_1_124.jpg: Predicted in 0.155448 seconds.
sub22_b2_sg_1_125.jpg: Predicted in 0.156890 seconds.
sub22_b2_sg_1_126.jpg: Predicted in 0.154213 seconds.
sub22_b2_sg_1_127.jpg: Predicted in 0.155479 seconds.
sub22_b2_sg_1_128.jpg: Predicted in 0.155019 seconds.
sub22_b2_sg_1_129.jpg: Predicted in 0.154529 seconds.
sub22_b2_sg_1_130.jpg: Predicted in 0.155853 seconds.
sub22_b2_sg_1_131.jpg: Predicted in 0.156157 seconds.
sub22_b2_sg_1_132.jpg: Predicted in 0.157047 seconds.
sub22_b2_sg_1_133.jpg: Predicted in 0.154817 seconds.
sub22_b2_sg_1_134.jpg: Predicted in 0.154953 seconds.
sub22_b2_sg_1_135.jpg: Predicted in 0.156246 seconds.
sub22_b2_sg_1_136.jpg: Predicted in 0.155965 seconds.
sub22_b2_sg_1_137.jpg: Predicted in 0.164345 seconds.
sub22_b2_sg_1_138.jpg: Predicted in 0.157132 seconds.
sub22_b2_sg_1_139.jpg: Predicted in 0.154988 seconds.
sub22_b2_sg_1_140.jpg: Predicted in 0.160148 seconds.
sub22_b2_sg_1_141.jpg: Predicted in 0.155118 seconds.
sub22_b2_sg_1_142.jpg: Predicted in 0.162795 seconds.
sub22_b2_sg_1_143.jpg: Predicted in 0.155185 seconds.
sub22_b2_sg_1_144.jpg: Predicted in 0.164846 seconds.
sub22_b2_sg_1_145.jpg: Predicted in 0.156640 seconds.
sub22_b2_sg_1_146.jpg: Predicted in 0.157199 seconds.
sub22_b2_sg_1_147.jpg: Predicted in 0.164700 seconds.
sub22_b2_sg_1_148.jpg: Predicted in 0.154492 seconds.
sub22_b2_sg_1_149.jpg: Predicted in 0.153902 seconds.
sub22_b2_sg_1_150.jpg: Predicted in 0.156719 seconds.
sub22_b2_sg_1_151.jpg: Predicted in 0.164683 seconds.
sub22_b2_sg_1_152.jpg: Predicted in 0.155329 seconds.
sub22_b2_sg_1_153.jpg: Predicted in 0.163575 seconds.
sub22_b2_sg_1_154.jpg: Predicted in 0.155353 seconds.
sub22_b2_sg_1_155.jpg: Predicted in 0.155994 seconds.
sub22_b2_sg_1_156.jpg: Predicted in 0.155064 seconds.
sub22_b2_sg_1_157.jpg: Predicted in 0.155122 seconds.
sub22_b2_sg_1_158.jpg: Predicted in 0.155199 seconds.
sub22_b2_sg_1_159.jpg: Predicted in 0.155095 seconds.
sub22_b2_sg_1_160.jpg: Predicted in 0.155973 seconds.
sub22_b2_sg_1_161.jpg: Predicted in 0.156243 seconds.
sub22_b2_sg_1_162.jpg: Predicted in 0.165080 seconds.
sub22_b2_sg_1_163.jpg: Predicted in 0.156443 seconds.
sub22_b2_sg_1_164.jpg: Predicted in 0.165532 seconds.
sub22_b2_sg_1_165.jpg: Predicted in 0.156642 seconds.
sub22_b2_sg_1_166.jpg: Predicted in 0.155834 seconds.
sub22_b2_sg_1_167.jpg: Predicted in 0.164784 seconds.
sub22_b2_sg_1_168.jpg: Predicted in 0.156327 seconds.
sub22_b2_sg_1_169.jpg: Predicted in 0.155467 seconds.
sub22_b2_sg_1_170.jpg: Predicted in 0.154617 seconds.
sub22_b2_sg_1_171.jpg: Predicted in 0.170176 seconds.
sub22_b2_sg_1_172.jpg: Predicted in 0.155012 seconds.
sub22_b2_sg_1_173.jpg: Predicted in 0.155779 seconds.
sub22_b2_sg_1_174.jpg: Predicted in 0.156465 seconds.
sub22_b2_sg_1_175.jpg: Predicted in 0.155547 seconds.
sub22_b2_sg_1_176.jpg: Predicted in 0.155953 seconds.
sub22_b2_sg_1_177.jpg: Predicted in 0.155274 seconds.
sub22_b2_sg_1_178.jpg: Predicted in 0.156004 seconds.
sub22_b2_sg_1_179.jpg: Predicted in 0.157523 seconds.
sub22_b2_sg_1_180.jpg: Predicted in 0.154970 seconds.
sub22_b2_sg_1_181.jpg: Predicted in 0.156209 seconds.
sub22_b2_sg_1_182.jpg: Predicted in 0.154147 seconds.
sub22_b2_sg_1_183.jpg: Predicted in 0.155014 seconds.
sub22_b2_sg_1_184.jpg: Predicted in 0.156160 seconds.
sub22_b2_sg_1_185.jpg: Predicted in 0.155536 seconds.
sub22_b2_sg_1_186.jpg: Predicted in 0.156115 seconds.
sub22_b2_sg_1_187.jpg: Predicted in 0.155847 seconds.
sub22_b2_sg_1_188.jpg: Predicted in 0.154834 seconds.
sub22_b2_sg_1_189.jpg: Predicted in 0.156022 seconds.
sub22_b2_sg_1_190.jpg: Predicted in 0.163092 seconds.
sub22_b2_sg_1_191.jpg: Predicted in 0.156422 seconds.
sub22_b2_sg_1_192.jpg: Predicted in 0.156460 seconds.
sub22_b2_sg_1_193.jpg: Predicted in 0.154570 seconds.
sub22_b2_sg_1_194.jpg: Predicted in 0.156864 seconds.
sub22_b2_sg_1_195.jpg: Predicted in 0.154855 seconds.
sub22_b2_sg_1_196.jpg: Predicted in 0.155096 seconds.
baseball bat: 30%
(210.932343, 223.411118) (321.666718, 311.095642)
sub22_b2_sg_1_197.jpg: Predicted in 0.155856 seconds.
sub22_b2_sg_1_198.jpg: Predicted in 0.154395 seconds.
sub22_b2_sg_1_199.jpg: Predicted in 0.157394 seconds.
sub22_b2_sg_1_200.jpg: Predicted in 0.157821 seconds.
sub22_b2_sg_1_201.jpg: Predicted in 0.157748 seconds.
sub22_b2_sg_1_202.jpg: Predicted in 0.158092 seconds.
sub22_b2_sg_1_203.jpg: Predicted in 0.154643 seconds.
sub22_b2_sg_1_204.jpg: Predicted in 0.156213 seconds.
sub22_b2_sg_1_205.jpg: Predicted in 0.156486 seconds.
sub22_b2_sg_1_206.jpg: Predicted in 0.156628 seconds.
sub22_b2_sg_1_207.jpg: Predicted in 0.155829 seconds.
baseball bat: 37%
(164.209595, 220.600342) (362.862122, 302.184753)
sub22_b2_sg_1_208.jpg: Predicted in 0.156937 seconds.
baseball bat: 45%
(169.923981, 216.868439) (362.072937, 303.468903)
sub22_b2_sg_1_209.jpg: Predicted in 0.155088 seconds.
baseball bat: 38%
(164.932785, 218.972855) (363.391113, 302.506042)
sub22_b2_sg_1_210.jpg: Predicted in 0.157236 seconds.
baseball bat: 38%
(163.519653, 219.528000) (365.011566, 300.836395)
sub22_b2_sg_1_211.jpg: Predicted in 0.156705 seconds.
baseball bat: 44%
(165.070053, 218.912949) (362.537476, 301.300476)
sub22_b2_sg_1_212.jpg: Predicted in 0.156372 seconds.
baseball bat: 55%
(170.506912, 217.107101) (361.860321, 304.657379)
sub22_b2_sg_1_213.jpg: Predicted in 0.157236 seconds.
baseball bat: 33%
(80.023155, 181.158127) (260.583160, 274.927338)
baseball bat: 60%
(182.169678, 214.050140) (360.123444, 309.805542)
sub22_b2_sg_1_214.jpg: Predicted in 0.164825 seconds.
baseball bat: 35%
(83.615707, 178.842194) (261.560913, 275.951080)
baseball bat: 63%
(184.953308, 213.865875) (362.179291, 311.908936)
sub22_b2_sg_1_215.jpg: Predicted in 0.162361 seconds.
baseball bat: 35%
(85.961990, 176.525604) (259.279785, 276.824219)
baseball bat: 61%
(181.666779, 211.306992) (361.288483, 311.255127)
sub22_b2_sg_1_216.jpg: Predicted in 0.157043 seconds.
baseball bat: 39%
(88.461647, 173.701752) (259.038361, 277.636627)
baseball bat: 59%
(179.043564, 210.482147) (360.886200, 312.811554)
sub22_b2_sg_1_217.jpg: Predicted in 0.157451 seconds.
baseball bat: 41%
(87.977028, 168.838516) (260.894745, 276.395294)
baseball bat: 60%
(177.766312, 208.686523) (363.550598, 315.434479)
sub22_b2_sg_1_218.jpg: Predicted in 0.157319 seconds.
baseball bat: 43%
(89.071571, 165.663223) (258.664642, 278.666046)
baseball bat: 64%
(178.260361, 209.559570) (362.280365, 320.792938)
sub22_b2_sg_1_219.jpg: Predicted in 0.155695 seconds.
baseball bat: 42%
(88.329147, 170.507538) (258.944733, 281.605133)
baseball bat: 61%
(177.874313, 210.404282) (363.313110, 319.655396)
sub22_b2_sg_1_220.jpg: Predicted in 0.156556 seconds.
baseball bat: 39%
(83.479881, 178.368362) (261.104004, 283.059570)
baseball bat: 62%
(177.920120, 212.798767) (363.050903, 316.868378)
sub22_b2_sg_1_221.jpg: Predicted in 0.156543 seconds.
baseball bat: 38%
(78.670692, 187.144333) (263.159821, 285.073761)
baseball bat: 61%
(177.533920, 216.661850) (364.942566, 315.193390)
sub22_b2_sg_1_222.jpg: Predicted in 0.156669 seconds.
baseball bat: 39%
(76.984314, 190.778580) (261.799042, 286.175934)
baseball bat: 60%
(176.017838, 217.665970) (364.424774, 312.975922)
sub22_b2_sg_1_223.jpg: Predicted in 0.161724 seconds.
baseball bat: 30%
(71.468620, 197.066010) (262.813293, 286.757050)
baseball bat: 54%
(173.027420, 223.295258) (365.408813, 311.726624)
sub22_b2_sg_1_224.jpg: Predicted in 0.163687 seconds.
baseball bat: 51%
(168.986191, 225.846893) (363.344269, 311.626587)
sub22_b2_sg_1_225.jpg: Predicted in 0.155130 seconds.
baseball bat: 38%
(61.146881, 210.873337) (263.237152, 292.792358)
baseball bat: 50%
(215.844528, 234.728394) (426.729248, 316.944550)
sub22_b2_sg_1_226.jpg: Predicted in 0.157034 seconds.
baseball bat: 52%
(49.695282, 218.100327) (265.074860, 291.045258)
baseball bat: 46%
(218.638992, 241.205185) (432.127075, 316.178925)
sub22_b2_sg_1_227.jpg: Predicted in 0.156559 seconds.
baseball bat: 50%
(45.581978, 223.348694) (264.628174, 290.873444)
baseball bat: 44%
(221.953674, 244.070023) (433.039459, 315.031281)
sub22_b2_sg_1_228.jpg: Predicted in 0.156081 seconds.
baseball bat: 51%
(48.001213, 223.412842) (267.302002, 292.915924)
baseball bat: 49%
(223.781525, 245.163101) (432.157135, 317.605408)
sub22_b2_sg_1_229.jpg: Predicted in 0.190701 seconds.
baseball bat: 52%
(50.589722, 223.922699) (261.750549, 292.696594)
baseball bat: 47%
(220.135788, 248.472443) (428.604980, 319.399750)
sub22_b2_sg_1_230.jpg: Predicted in 0.156144 seconds.
baseball bat: 45%
(52.172882, 225.884720) (256.758881, 293.960571)
baseball bat: 34%
(150.965149, 242.347275) (350.022858, 313.622833)
baseball bat: 41%
(219.826141, 251.979462) (426.965393, 322.425873)
sub22_b2_sg_1_231.jpg: Predicted in 0.158030 seconds.
baseball bat: 43%
(75.564003, 225.858185) (235.120453, 296.977875)
sub22_b2_sg_1_232.jpg: Predicted in 0.154471 seconds.
baseball bat: 46%
(65.091995, 231.405792) (242.367432, 295.441528)
sub22_b2_sg_1_233.jpg: Predicted in 0.156184 seconds.
baseball bat: 47%
(63.441574, 236.106644) (245.616623, 296.114685)
sub22_b2_sg_1_234.jpg: Predicted in 0.155331 seconds.
baseball bat: 49%
(52.261398, 245.156830) (250.167816, 296.877136)
sub22_b2_sg_1_235.jpg: Predicted in 0.156846 seconds.
baseball bat: 48%
(49.263199, 250.411392) (243.213287, 296.715820)
sub22_b2_sg_1_236.jpg: Predicted in 0.158654 seconds.
baseball bat: 47%
(46.672333, 252.896866) (242.330521, 295.961853)
sub22_b2_sg_1_237.jpg: Predicted in 0.157464 seconds.
baseball bat: 43%
(46.816170, 257.320343) (244.099091, 296.825348)
sub22_b2_sg_1_238.jpg: Predicted in 0.156829 seconds.
baseball bat: 44%
(43.137810, 259.640350) (241.663864, 297.115723)
sub22_b2_sg_1_239.jpg: Predicted in 0.156106 seconds.
baseball bat: 42%
(42.026337, 268.129547) (234.870499, 298.656525)
sub22_b2_sg_1_240.jpg: Predicted in 0.156532 seconds.
baseball bat: 42%
(51.397667, 276.673920) (234.019775, 303.654602)
sub22_b2_sg_1_241.jpg: Predicted in 0.155824 seconds.
baseball bat: 50%
(54.346275, 277.776184) (232.608826, 310.893829)
sub22_b2_sg_1_242.jpg: Predicted in 0.160291 seconds.
baseball bat: 46%
(75.097664, 278.112244) (222.915894, 311.878662)
sub22_b2_sg_1_243.jpg: Predicted in 0.157425 seconds.
baseball bat: 41%
(80.603760, 283.667511) (220.893158, 314.711365)
sub22_b2_sg_1_244.jpg: Predicted in 0.154961 seconds.
baseball bat: 33%
(80.275856, 290.476257) (216.502884, 315.103027)
sub22_b2_sg_1_245.jpg: Predicted in 0.157679 seconds.
sub22_b2_sg_1_246.jpg: Predicted in 0.157197 seconds.
sub22_b2_sg_1_247.jpg: Predicted in 0.153958 seconds.
sub22_b2_sg_1_248.jpg: Predicted in 0.166664 seconds.
sub22_b2_sg_1_249.jpg: Predicted in 0.157545 seconds.
sub22_b2_sg_1_250.jpg: Predicted in 0.155020 seconds.
sub22_b2_sg_1_251.jpg: Predicted in 0.157220 seconds.
sub22_b2_sg_1_252.jpg: Predicted in 0.157020 seconds.
baseball bat: 31%
(223.034653, 319.527771) (455.209442, 328.601349)
sub22_b2_sg_1_253.jpg: Predicted in 0.155209 seconds.
baseball bat: 34%
(230.401627, 317.666748) (445.674438, 334.622681)
sub22_b2_sg_1_254.jpg: Predicted in 0.156827 seconds.
baseball bat: 45%
(233.983932, 318.838531) (447.955078, 338.310364)
sub22_b2_sg_1_255.jpg: Predicted in 0.157239 seconds.
baseball bat: 33%
(157.987335, 315.516052) (334.789856, 339.150330)
baseball bat: 49%
(232.116455, 321.162994) (448.779297, 343.041901)
sub22_b2_sg_1_256.jpg: Predicted in 0.154608 seconds.
baseball bat: 35%
(148.707016, 313.975067) (345.168182, 340.294678)
baseball bat: 52%
(234.725815, 320.725250) (447.842407, 346.495422)
sub22_b2_sg_1_257.jpg: Predicted in 0.157920 seconds.
baseball bat: 37%
(156.314438, 313.182465) (331.769257, 344.266693)
baseball bat: 40%
(234.663315, 319.241852) (441.157471, 350.685028)
sub22_b2_sg_1_258.jpg: Predicted in 0.156452 seconds.
baseball bat: 39%
(162.364944, 310.659210) (326.095673, 344.602112)
baseball bat: 32%
(238.868896, 317.170349) (435.323517, 352.793579)
sub22_b2_sg_1_259.jpg: Predicted in 0.155399 seconds.
baseball bat: 39%
(167.921341, 305.402710) (316.348541, 346.982178)
sub22_b2_sg_1_260.jpg: Predicted in 0.157027 seconds.
baseball bat: 39%
(164.978806, 298.420563) (317.513885, 347.391235)
sub22_b2_sg_1_261.jpg: Predicted in 0.156142 seconds.
baseball bat: 40%
(154.964188, 296.990753) (332.040314, 349.137451)
sub22_b2_sg_1_262.jpg: Predicted in 0.157346 seconds.
baseball bat: 38%
(130.084610, 298.401917) (348.759094, 349.183472)
sub22_b2_sg_1_263.jpg: Predicted in 0.157361 seconds.
baseball bat: 38%
(132.918945, 297.964813) (354.301422, 350.999268)
sub22_b2_sg_1_264.jpg: Predicted in 0.155960 seconds.
baseball bat: 33%
(133.447342, 296.922516) (359.757690, 352.391296)
sub22_b2_sg_1_265.jpg: Predicted in 0.157686 seconds.
sub22_b2_sg_1_266.jpg: Predicted in 0.155732 seconds.
sub22_b2_sg_1_267.jpg: Predicted in 0.156992 seconds.
sub22_b2_sg_1_268.jpg: Predicted in 0.157884 seconds.
sub22_b2_sg_1_269.jpg: Predicted in 0.156482 seconds.
sub22_b2_sg_1_270.jpg: Predicted in 0.156747 seconds.
sub22_b2_sg_1_271.jpg: Predicted in 0.157600 seconds.
sub22_b2_sg_1_272.jpg: Predicted in 0.156163 seconds.
sub22_b2_sg_1_273.jpg: Predicted in 0.157400 seconds.
sub22_b2_sg_1_274.jpg: Predicted in 0.156811 seconds.
sub22_b2_sg_1_275.jpg: Predicted in 0.155757 seconds.
sub22_b2_sg_1_276.jpg: Predicted in 0.165385 seconds.
sub22_b2_sg_1_277.jpg: Predicted in 0.156705 seconds.
sub22_b2_sg_1_278.jpg: Predicted in 0.156393 seconds.
sub22_b2_sg_1_279.jpg: Predicted in 0.165265 seconds.
sub22_b2_sg_1_280.jpg: Predicted in 0.157052 seconds.
sub22_b2_sg_1_281.jpg: Predicted in 0.159987 seconds.
sub22_b2_sg_1_282.jpg: Predicted in 0.158490 seconds.
sub22_b2_sg_1_283.jpg: Predicted in 0.155532 seconds.
sub22_b2_sg_1_284.jpg: Predicted in 0.163237 seconds.
sub22_b2_sg_1_285.jpg: Predicted in 0.165196 seconds.
sub22_b2_sg_1_286.jpg: Predicted in 0.156669 seconds.
sub22_b2_sg_1_287.jpg: Predicted in 0.157460 seconds.
sub22_b2_sg_1_288.jpg: Predicted in 0.155342 seconds.
sub22_b2_sg_1_289.jpg: Predicted in 0.164465 seconds.
sub22_b2_sg_1_290.jpg: Predicted in 0.155944 seconds.
sub22_b2_sg_1_291.jpg: Predicted in 0.156476 seconds.
sub22_b2_sg_1_292.jpg: Predicted in 0.155479 seconds.
sub22_b2_sg_1_293.jpg: Predicted in 0.154454 seconds.
sub22_b2_sg_1_294.jpg: Predicted in 0.158729 seconds.
sub22_b2_sg_1_295.jpg: Predicted in 0.157844 seconds.
sub22_b2_sg_1_296.jpg: Predicted in 0.155587 seconds.
sub22_b2_sg_1_297.jpg: Predicted in 0.157030 seconds.
sub22_b2_sg_1_298.jpg: Predicted in 0.156246 seconds.
sub22_b2_sg_1_299.jpg: Predicted in 0.156785 seconds.
sub22_b2_sg_1_300.jpg: Predicted in 0.156111 seconds.
sub22_b2_sg_1_301.jpg: Predicted in 0.164016 seconds.
sub22_b2_sg_1_302.jpg: Predicted in 0.157232 seconds.
sub22_b2_sg_1_303.jpg: Predicted in 0.154864 seconds.
sub22_b2_sg_1_304.jpg: Predicted in 0.155192 seconds.
sub22_b2_sg_1_305.jpg: Predicted in 0.155505 seconds.
sub22_b2_sg_1_306.jpg: Predicted in 0.158237 seconds.
sub22_b2_sg_1_307.jpg: Predicted in 0.155410 seconds.
sub22_b2_sg_1_308.jpg: Predicted in 0.157503 seconds.
sub22_b2_sg_1_309.jpg: Predicted in 0.154815 seconds.
sub22_b2_sg_1_310.jpg: Predicted in 0.156790 seconds.
sub22_b2_sg_1_311.jpg: Predicted in 0.159023 seconds.
sub22_b2_sg_1_312.jpg: Predicted in 0.156542 seconds.
sub22_b2_sg_1_313.jpg: Predicted in 0.163109 seconds.
sub22_b2_sg_1_314.jpg: Predicted in 0.155825 seconds.
sub22_b2_sg_1_315.jpg: Predicted in 0.156713 seconds.
sub22_b2_sg_1_316.jpg: Predicted in 0.164705 seconds.
sub22_b2_sg_1_317.jpg: Predicted in 0.154052 seconds.
sub22_b2_sg_1_318.jpg: Predicted in 0.156926 seconds.
sub22_b2_sg_1_319.jpg: Predicted in 0.155509 seconds.
sub22_b2_sg_1_320.jpg: Predicted in 0.157051 seconds.
sub22_b2_sg_1_321.jpg: Predicted in 0.155800 seconds.
