sub22_b3_lg_3_001.jpg: Predicted in 0.163126 seconds.
person: 31%
(690.624634, 261.026917) (726.177856, 313.478149)
person: 66%
(242.386353, 137.449936) (498.837189, 633.858032)
sub22_b3_lg_3_002.jpg: Predicted in 0.155512 seconds.
person: 31%
(690.092896, 260.665955) (726.028503, 313.438354)
person: 65%
(243.213791, 137.987167) (497.865692, 632.920837)
sub22_b3_lg_3_003.jpg: Predicted in 0.215390 seconds.
person: 31%
(689.979553, 260.481415) (725.910034, 313.379181)
person: 66%
(238.672684, 138.266281) (502.680084, 632.927734)
sub22_b3_lg_3_004.jpg: Predicted in 0.154654 seconds.
person: 34%
(689.721802, 261.182251) (724.302856, 316.159180)
person: 64%
(233.562943, 136.969376) (510.375580, 638.527405)
sub22_b3_lg_3_005.jpg: Predicted in 0.155312 seconds.
person: 34%
(688.869934, 259.794525) (724.068787, 315.641754)
person: 64%
(232.474121, 134.403305) (512.643616, 639.184570)
sub22_b3_lg_3_006.jpg: Predicted in 0.156710 seconds.
person: 34%
(689.178589, 260.915161) (723.816589, 315.234924)
person: 65%
(237.846466, 138.029526) (509.148529, 634.668274)
sub22_b3_lg_3_007.jpg: Predicted in 0.155895 seconds.
person: 34%
(688.639587, 260.466370) (724.676331, 315.403473)
person: 64%
(239.402634, 138.516113) (510.561890, 635.902954)
sub22_b3_lg_3_008.jpg: Predicted in 0.155310 seconds.
person: 34%
(687.208679, 259.581543) (724.526367, 314.981689)
person: 64%
(239.125488, 140.190918) (511.658813, 635.759644)
sub22_b3_lg_3_009.jpg: Predicted in 0.154622 seconds.
person: 34%
(687.368530, 260.467712) (724.751953, 315.319489)
person: 64%
(243.058197, 139.401169) (510.690826, 635.158813)
sub22_b3_lg_3_010.jpg: Predicted in 0.154527 seconds.
person: 33%
(687.831055, 259.782440) (724.857849, 315.819427)
person: 64%
(241.095261, 136.661499) (511.411835, 636.519104)
sub22_b3_lg_3_011.jpg: Predicted in 0.155449 seconds.
person: 34%
(687.891602, 259.816071) (724.994141, 316.154053)
person: 64%
(241.321686, 137.071564) (514.337830, 635.525635)
sub22_b3_lg_3_012.jpg: Predicted in 0.154402 seconds.
person: 34%
(687.905029, 260.828949) (724.752747, 315.674438)
person: 63%
(241.062500, 141.344864) (516.925781, 633.119446)
sub22_b3_lg_3_013.jpg: Predicted in 0.157012 seconds.
person: 33%
(688.009399, 260.912811) (725.411438, 315.779816)
person: 62%
(240.931534, 140.678268) (514.718262, 632.504761)
sub22_b3_lg_3_014.jpg: Predicted in 0.156032 seconds.
person: 33%
(687.587280, 260.574310) (725.361450, 315.602051)
person: 63%
(244.639282, 140.292221) (510.167389, 632.788025)
sub22_b3_lg_3_015.jpg: Predicted in 0.154482 seconds.
person: 33%
(687.899536, 260.901276) (725.810486, 315.105164)
person: 64%
(245.788620, 142.294403) (507.806946, 632.228821)
sub22_b3_lg_3_016.jpg: Predicted in 0.154761 seconds.
person: 32%
(688.404907, 262.658295) (724.817932, 316.005920)
person: 64%
(247.779404, 145.757385) (508.299469, 631.435181)
sub22_b3_lg_3_017.jpg: Predicted in 0.156836 seconds.
baseball bat: 33%
(287.946625, 112.122505) (376.602478, 204.872421)
person: 33%
(688.001038, 262.466034) (725.114685, 315.745026)
person: 64%
(251.714493, 145.966721) (504.377502, 630.435669)
sub22_b3_lg_3_018.jpg: Predicted in 0.155959 seconds.
baseball bat: 31%
(286.625183, 111.854118) (376.141083, 207.438522)
person: 33%
(687.934509, 262.649811) (725.178772, 316.453461)
person: 66%
(246.883072, 146.673676) (505.248657, 628.804321)
sub22_b3_lg_3_019.jpg: Predicted in 0.156195 seconds.
person: 32%
(686.651489, 262.087738) (725.395752, 315.333710)
person: 66%
(247.998291, 147.938782) (505.555389, 628.841370)
sub22_b3_lg_3_020.jpg: Predicted in 0.155289 seconds.
person: 32%
(686.622498, 261.968475) (725.511597, 315.302795)
person: 65%
(247.153061, 149.419708) (508.217651, 628.165466)
sub22_b3_lg_3_021.jpg: Predicted in 0.153815 seconds.
person: 32%
(686.372437, 261.529144) (725.864807, 314.954590)
person: 65%
(245.077835, 146.925598) (509.570221, 629.377991)
sub22_b3_lg_3_022.jpg: Predicted in 0.156672 seconds.
person: 32%
(686.345520, 261.689758) (726.072083, 315.195129)
person: 66%
(247.007935, 147.743683) (505.819519, 629.404053)
sub22_b3_lg_3_023.jpg: Predicted in 0.154805 seconds.
person: 31%
(687.112854, 262.383362) (726.469604, 315.779266)
person: 65%
(244.181213, 151.141769) (507.660583, 628.598328)
sub22_b3_lg_3_024.jpg: Predicted in 0.156516 seconds.
person: 30%
(687.499451, 262.015198) (726.708923, 315.749878)
person: 65%
(248.609375, 147.730637) (506.099121, 631.866638)
sub22_b3_lg_3_025.jpg: Predicted in 0.157757 seconds.
person: 65%
(249.606232, 145.831772) (501.692444, 634.090637)
sub22_b3_lg_3_026.jpg: Predicted in 0.163995 seconds.
person: 64%
(250.612152, 144.268616) (499.279419, 633.243591)
sub22_b3_lg_3_027.jpg: Predicted in 0.153444 seconds.
person: 63%
(249.395737, 144.367599) (500.247681, 632.392700)
sub22_b3_lg_3_028.jpg: Predicted in 0.155165 seconds.
person: 30%
(687.928772, 262.878265) (725.939331, 316.025574)
person: 62%
(247.069061, 141.159653) (503.872650, 633.758667)
sub22_b3_lg_3_029.jpg: Predicted in 0.154776 seconds.
person: 30%
(687.932495, 262.946045) (726.042725, 316.033600)
person: 61%
(246.955627, 139.359146) (508.710205, 635.515808)
sub22_b3_lg_3_030.jpg: Predicted in 0.154807 seconds.
person: 63%
(248.137939, 170.669907) (560.419556, 616.462219)
sub22_b3_lg_3_031.jpg: Predicted in 0.154655 seconds.
person: 31%
(687.592590, 262.349640) (726.478760, 315.193848)
person: 65%
(249.025131, 172.431641) (559.024963, 615.109009)
sub22_b3_lg_3_032.jpg: Predicted in 0.155385 seconds.
person: 31%
(686.442322, 260.471710) (725.337158, 313.177765)
person: 62%
(251.618668, 170.910233) (559.592407, 614.835449)
sub22_b3_lg_3_033.jpg: Predicted in 0.156143 seconds.
person: 31%
(686.813416, 260.689209) (725.481689, 313.540588)
person: 62%
(252.274490, 170.835922) (559.714355, 615.950989)
sub22_b3_lg_3_034.jpg: Predicted in 0.155477 seconds.
person: 32%
(687.117432, 260.539886) (726.651611, 313.877808)
person: 61%
(251.395844, 172.668167) (561.259583, 613.857056)
sub22_b3_lg_3_035.jpg: Predicted in 0.157155 seconds.
person: 31%
(687.189392, 260.632050) (726.173157, 313.737885)
person: 62%
(253.567902, 175.428894) (558.792542, 612.357361)
sub22_b3_lg_3_036.jpg: Predicted in 0.154895 seconds.
person: 32%
(687.066833, 260.268066) (726.356323, 313.882141)
person: 64%
(252.376541, 177.924530) (558.456116, 611.929993)
sub22_b3_lg_3_037.jpg: Predicted in 0.156691 seconds.
person: 32%
(687.203125, 260.522217) (726.006897, 313.916443)
person: 66%
(251.829239, 179.288025) (558.101868, 611.848938)
sub22_b3_lg_3_038.jpg: Predicted in 0.154818 seconds.
person: 32%
(686.964783, 260.960968) (725.756287, 314.287567)
person: 67%
(251.817383, 177.479172) (557.760010, 614.737122)
sub22_b3_lg_3_039.jpg: Predicted in 0.154485 seconds.
person: 31%
(687.141541, 261.208679) (725.382263, 314.190125)
person: 67%
(249.446182, 174.041672) (559.134644, 616.980530)
sub22_b3_lg_3_040.jpg: Predicted in 0.154435 seconds.
person: 31%
(687.302551, 261.234375) (725.749023, 314.206024)
person: 66%
(247.173843, 176.512451) (561.643311, 614.970154)
sub22_b3_lg_3_041.jpg: Predicted in 0.154044 seconds.
person: 31%
(687.455383, 261.051544) (725.998169, 313.844879)
person: 63%
(246.533035, 176.035141) (561.841797, 613.911255)
sub22_b3_lg_3_042.jpg: Predicted in 0.155527 seconds.
person: 31%
(687.555908, 260.634186) (726.555908, 314.131439)
person: 64%
(247.633347, 174.964905) (560.095337, 614.167236)
sub22_b3_lg_3_043.jpg: Predicted in 0.157437 seconds.
person: 30%
(688.127686, 260.805511) (727.234558, 313.666779)
person: 67%
(246.491028, 173.249954) (562.209167, 616.080200)
sub22_b3_lg_3_044.jpg: Predicted in 0.155339 seconds.
person: 68%
(248.546539, 170.982010) (560.277466, 614.984802)
sub22_b3_lg_3_045.jpg: Predicted in 0.153354 seconds.
person: 70%
(251.073700, 168.706802) (558.036804, 617.166321)
sub22_b3_lg_3_046.jpg: Predicted in 0.157327 seconds.
person: 68%
(249.760559, 167.939377) (559.091980, 617.486816)
sub22_b3_lg_3_047.jpg: Predicted in 0.156693 seconds.
person: 70%
(249.098541, 168.125458) (559.429993, 617.195496)
sub22_b3_lg_3_048.jpg: Predicted in 0.156066 seconds.
person: 70%
(250.695160, 169.954849) (558.182556, 615.976135)
sub22_b3_lg_3_049.jpg: Predicted in 0.161488 seconds.
person: 71%
(249.950836, 171.430893) (558.003296, 614.409119)
sub22_b3_lg_3_050.jpg: Predicted in 0.157543 seconds.
person: 72%
(250.442688, 172.836014) (557.950989, 614.105347)
sub22_b3_lg_3_051.jpg: Predicted in 0.179368 seconds.
person: 73%
(252.096008, 174.035782) (556.620056, 613.508606)
sub22_b3_lg_3_052.jpg: Predicted in 0.162755 seconds.
person: 71%
(249.880905, 171.383591) (558.948364, 613.399536)
sub22_b3_lg_3_053.jpg: Predicted in 0.154866 seconds.
person: 69%
(250.216064, 172.200607) (558.123901, 613.418579)
sub22_b3_lg_3_054.jpg: Predicted in 0.157039 seconds.
person: 30%
(687.466064, 261.025940) (726.173157, 314.281128)
person: 68%
(251.101440, 175.858734) (558.024109, 612.073730)
sub22_b3_lg_3_055.jpg: Predicted in 0.156735 seconds.
person: 66%
(252.108612, 176.116867) (558.115112, 612.150208)
sub22_b3_lg_3_056.jpg: Predicted in 0.158251 seconds.
person: 67%
(253.099136, 179.634262) (556.394287, 609.981628)
sub22_b3_lg_3_057.jpg: Predicted in 0.157057 seconds.
person: 30%
(687.213867, 260.890808) (726.156311, 314.787292)
person: 67%
(254.277939, 178.503922) (555.011169, 610.599731)
sub22_b3_lg_3_058.jpg: Predicted in 0.160322 seconds.
person: 67%
(254.252472, 178.575378) (554.807861, 609.504089)
sub22_b3_lg_3_059.jpg: Predicted in 0.154923 seconds.
person: 68%
(254.762604, 178.388550) (553.687927, 610.042419)
sub22_b3_lg_3_060.jpg: Predicted in 0.163996 seconds.
person: 30%
(687.387695, 261.891449) (725.665588, 314.533905)
person: 68%
(255.642944, 178.926727) (553.173584, 610.043884)
sub22_b3_lg_3_061.jpg: Predicted in 0.163546 seconds.
person: 67%
(255.979767, 179.271866) (552.852661, 610.242126)
sub22_b3_lg_3_062.jpg: Predicted in 0.157799 seconds.
person: 68%
(255.883240, 176.859589) (553.542053, 609.887451)
sub22_b3_lg_3_063.jpg: Predicted in 0.155293 seconds.
person: 69%
(256.609833, 172.196106) (552.533569, 608.737732)
sub22_b3_lg_3_064.jpg: Predicted in 0.157164 seconds.
person: 31%
(687.141907, 261.662201) (726.894226, 314.825714)
person: 69%
(255.664810, 174.596054) (553.817139, 610.843079)
sub22_b3_lg_3_065.jpg: Predicted in 0.155659 seconds.
person: 31%
(687.069153, 261.466736) (727.180420, 314.595398)
person: 71%
(254.408447, 172.484894) (555.250488, 612.529724)
sub22_b3_lg_3_066.jpg: Predicted in 0.155334 seconds.
person: 30%
(687.079529, 261.504883) (727.082336, 314.550201)
person: 72%
(253.445587, 173.335129) (557.567627, 611.527466)
sub22_b3_lg_3_067.jpg: Predicted in 0.155922 seconds.
person: 30%
(687.093750, 261.778290) (726.537231, 314.803192)
person: 74%
(252.425629, 177.538925) (558.283936, 609.946716)
sub22_b3_lg_3_068.jpg: Predicted in 0.153537 seconds.
person: 30%
(687.060425, 261.592651) (726.762207, 314.836334)
person: 74%
(250.873383, 176.651077) (560.579163, 610.049744)
sub22_b3_lg_3_069.jpg: Predicted in 0.156172 seconds.
person: 75%
(251.079239, 178.074829) (559.153076, 610.064941)
sub22_b3_lg_3_070.jpg: Predicted in 0.156011 seconds.
person: 75%
(251.536469, 179.999207) (558.441467, 609.233765)
sub22_b3_lg_3_071.jpg: Predicted in 0.157168 seconds.
person: 75%
(254.512741, 179.729172) (554.319824, 609.898560)
sub22_b3_lg_3_072.jpg: Predicted in 0.156971 seconds.
person: 75%
(252.911377, 178.107574) (555.911377, 609.401184)
sub22_b3_lg_3_073.jpg: Predicted in 0.165719 seconds.
person: 74%
(253.216507, 175.718857) (556.095703, 609.483032)
sub22_b3_lg_3_074.jpg: Predicted in 0.154022 seconds.
person: 74%
(251.717575, 174.957779) (557.959778, 609.806885)
sub22_b3_lg_3_075.jpg: Predicted in 0.155647 seconds.
person: 73%
(250.935104, 174.418457) (559.138123, 609.230835)
sub22_b3_lg_3_076.jpg: Predicted in 0.157103 seconds.
person: 73%
(250.456619, 174.014023) (560.838684, 611.836365)
sub22_b3_lg_3_077.jpg: Predicted in 0.156399 seconds.
person: 71%
(251.925171, 176.695923) (560.722168, 610.835938)
sub22_b3_lg_3_078.jpg: Predicted in 0.155174 seconds.
person: 70%
(250.572266, 179.668640) (563.951294, 610.989380)
sub22_b3_lg_3_079.jpg: Predicted in 0.154398 seconds.
person: 72%
(249.389633, 175.695770) (564.084412, 613.799011)
sub22_b3_lg_3_080.jpg: Predicted in 0.154156 seconds.
person: 74%
(249.792862, 173.708221) (562.596741, 616.134216)
sub22_b3_lg_3_081.jpg: Predicted in 0.156718 seconds.
person: 74%
(247.935150, 176.075455) (564.469849, 614.984009)
sub22_b3_lg_3_082.jpg: Predicted in 0.154813 seconds.
person: 72%
(246.904053, 173.341537) (565.490723, 614.103821)
sub22_b3_lg_3_083.jpg: Predicted in 0.156415 seconds.
person: 71%
(249.548447, 173.883957) (564.528015, 612.785828)
sub22_b3_lg_3_084.jpg: Predicted in 0.156215 seconds.
person: 72%
(255.677567, 174.576065) (557.944031, 613.441345)
sub22_b3_lg_3_085.jpg: Predicted in 0.155838 seconds.
person: 71%
(259.066040, 173.797516) (554.880493, 612.737244)
sub22_b3_lg_3_086.jpg: Predicted in 0.156201 seconds.
person: 72%
(254.912857, 173.744827) (558.219299, 611.046570)
sub22_b3_lg_3_087.jpg: Predicted in 0.155990 seconds.
person: 71%
(256.467224, 173.816162) (556.677612, 612.151428)
sub22_b3_lg_3_088.jpg: Predicted in 0.164382 seconds.
person: 71%
(258.404327, 171.800568) (556.236145, 613.906433)
sub22_b3_lg_3_089.jpg: Predicted in 0.155721 seconds.
person: 72%
(260.216095, 172.954147) (553.965454, 614.200134)
sub22_b3_lg_3_090.jpg: Predicted in 0.154677 seconds.
person: 71%
(258.400177, 169.902756) (555.797363, 614.986877)
sub22_b3_lg_3_091.jpg: Predicted in 0.155884 seconds.
person: 70%
(255.591217, 169.041626) (558.637146, 615.975830)
sub22_b3_lg_3_092.jpg: Predicted in 0.155515 seconds.
person: 69%
(254.293365, 169.633774) (560.850891, 615.127747)
sub22_b3_lg_3_093.jpg: Predicted in 0.156532 seconds.
person: 69%
(253.569183, 168.235016) (560.237305, 616.571350)
sub22_b3_lg_3_094.jpg: Predicted in 0.165885 seconds.
person: 31%
(688.414490, 262.449219) (726.194275, 316.475159)
person: 69%
(256.699280, 162.767715) (557.176453, 617.500427)
sub22_b3_lg_3_095.jpg: Predicted in 0.155346 seconds.
person: 31%
(688.680420, 262.121277) (726.170654, 316.548462)
person: 69%
(256.461395, 165.009613) (555.736389, 616.807739)
sub22_b3_lg_3_096.jpg: Predicted in 0.156479 seconds.
person: 31%
(689.128235, 262.887512) (726.088928, 317.300415)
person: 68%
(255.950180, 168.330414) (557.634399, 614.041077)
sub22_b3_lg_3_097.jpg: Predicted in 0.155580 seconds.
person: 32%
(689.000793, 262.427765) (726.225342, 317.280426)
person: 68%
(256.043396, 167.891815) (557.312134, 615.066223)
sub22_b3_lg_3_098.jpg: Predicted in 0.154847 seconds.
person: 32%
(688.851501, 262.519775) (726.302917, 317.479767)
person: 69%
(256.585999, 170.059845) (556.547119, 614.809631)
sub22_b3_lg_3_099.jpg: Predicted in 0.156526 seconds.
person: 32%
(688.790649, 262.582153) (725.733276, 317.193268)
person: 68%
(255.614410, 168.419724) (556.353577, 614.973328)
sub22_b3_lg_3_100.jpg: Predicted in 0.155921 seconds.
person: 32%
(688.535034, 262.607697) (725.579956, 317.087799)
person: 68%
(256.204071, 166.809891) (554.876953, 616.004944)
sub22_b3_lg_3_101.jpg: Predicted in 0.156974 seconds.
person: 32%
(688.236877, 261.983459) (725.763977, 316.739105)
person: 68%
(256.502411, 168.519302) (557.479919, 615.158203)
sub22_b3_lg_3_102.jpg: Predicted in 0.157804 seconds.
person: 32%
(688.527710, 262.360352) (725.776611, 316.893707)
person: 68%
(254.235306, 168.044632) (559.144226, 616.360596)
sub22_b3_lg_3_103.jpg: Predicted in 0.156683 seconds.
person: 32%
(688.522949, 262.782013) (725.933411, 316.135590)
person: 68%
(252.131378, 171.259659) (560.132568, 614.745117)
sub22_b3_lg_3_104.jpg: Predicted in 0.155398 seconds.
person: 32%
(688.455750, 263.037903) (725.699097, 315.946259)
person: 70%
(252.380035, 172.446152) (559.398315, 614.180908)
sub22_b3_lg_3_105.jpg: Predicted in 0.156245 seconds.
person: 32%
(688.114136, 263.021362) (725.593628, 315.775208)
person: 70%
(251.317123, 171.742889) (560.307434, 613.974243)
sub22_b3_lg_3_106.jpg: Predicted in 0.156220 seconds.
person: 32%
(688.323364, 263.469482) (725.108948, 316.066864)
person: 68%
(250.958527, 169.217514) (560.669800, 615.777283)
sub22_b3_lg_3_107.jpg: Predicted in 0.163698 seconds.
person: 31%
(688.851196, 263.147614) (725.455872, 315.756348)
person: 68%
(252.962204, 169.386597) (560.521057, 614.740784)
sub22_b3_lg_3_108.jpg: Predicted in 0.157015 seconds.
person: 30%
(688.840881, 262.583710) (725.995972, 315.443726)
person: 68%
(252.482956, 170.084198) (561.723145, 615.423279)
sub22_b3_lg_3_109.jpg: Predicted in 0.154747 seconds.
person: 31%
(688.485840, 262.420441) (725.691223, 315.588837)
person: 69%
(252.292252, 172.891144) (561.340881, 614.480774)
sub22_b3_lg_3_110.jpg: Predicted in 0.154651 seconds.
person: 32%
(688.571777, 262.587799) (725.532227, 315.387970)
person: 70%
(251.418564, 174.013565) (562.554993, 615.342957)
sub22_b3_lg_3_111.jpg: Predicted in 0.157065 seconds.
person: 31%
(688.859741, 262.357208) (725.457458, 315.319275)
person: 71%
(252.064560, 173.732681) (564.990051, 615.928345)
sub22_b3_lg_3_112.jpg: Predicted in 0.156923 seconds.
person: 31%
(688.881409, 262.851959) (725.269897, 315.739777)
person: 72%
(251.597672, 173.968338) (565.158020, 616.690491)
sub22_b3_lg_3_113.jpg: Predicted in 0.155699 seconds.
person: 31%
(688.833618, 262.553467) (725.059509, 315.239471)
person: 70%
(251.058563, 173.084045) (565.506653, 617.456238)
sub22_b3_lg_3_114.jpg: Predicted in 0.155675 seconds.
person: 30%
(689.007141, 262.400452) (725.392395, 314.927612)
person: 69%
(253.453522, 176.640030) (564.730469, 618.081055)
sub22_b3_lg_3_115.jpg: Predicted in 0.156146 seconds.
person: 30%
(689.090210, 262.766418) (725.188049, 315.271698)
person: 69%
(256.320251, 176.394730) (563.303345, 618.228271)
sub22_b3_lg_3_116.jpg: Predicted in 0.159405 seconds.
person: 31%
(689.157043, 263.125305) (724.860779, 315.443115)
person: 68%
(255.694229, 176.021454) (561.351990, 618.723755)
sub22_b3_lg_3_117.jpg: Predicted in 0.156121 seconds.
person: 31%
(688.987061, 263.011536) (724.726013, 315.398712)
person: 68%
(255.821930, 174.117737) (560.386475, 618.311157)
sub22_b3_lg_3_118.jpg: Predicted in 0.154580 seconds.
person: 30%
(689.494324, 262.560516) (725.345947, 315.080719)
person: 67%
(253.903214, 173.500244) (563.304688, 618.878662)
sub22_b3_lg_3_119.jpg: Predicted in 0.155560 seconds.
person: 66%
(253.393784, 174.989441) (564.711304, 618.004639)
sub22_b3_lg_3_120.jpg: Predicted in 0.154248 seconds.
person: 30%
(689.423828, 262.151337) (725.332153, 314.699493)
person: 67%
(252.897018, 177.173187) (563.271729, 618.152588)
sub22_b3_lg_3_121.jpg: Predicted in 0.154532 seconds.
person: 66%
(255.531631, 179.388458) (561.906860, 618.141296)
sub22_b3_lg_3_122.jpg: Predicted in 0.158279 seconds.
person: 65%
(255.975739, 175.558884) (561.775635, 619.351257)
sub22_b3_lg_3_123.jpg: Predicted in 0.156312 seconds.
person: 64%
(257.168884, 178.069092) (560.372253, 618.514526)
sub22_b3_lg_3_124.jpg: Predicted in 0.156231 seconds.
person: 64%
(257.305756, 178.489014) (561.626038, 620.037842)
sub22_b3_lg_3_125.jpg: Predicted in 0.156249 seconds.
person: 67%
(255.557571, 183.386810) (562.185547, 620.058899)
sub22_b3_lg_3_126.jpg: Predicted in 0.154617 seconds.
person: 68%
(256.070740, 182.956345) (562.397217, 619.068054)
sub22_b3_lg_3_127.jpg: Predicted in 0.154975 seconds.
person: 67%
(254.660217, 184.317322) (564.848389, 617.820068)
sub22_b3_lg_3_128.jpg: Predicted in 0.155484 seconds.
person: 66%
(255.117783, 185.614487) (564.351807, 614.648254)
sub22_b3_lg_3_129.jpg: Predicted in 0.155133 seconds.
person: 67%
(256.697449, 183.393021) (562.868652, 615.814636)
sub22_b3_lg_3_130.jpg: Predicted in 0.157497 seconds.
person: 65%
(258.861267, 179.629333) (563.448608, 615.314575)
sub22_b3_lg_3_131.jpg: Predicted in 0.157158 seconds.
person: 65%
(257.270813, 177.318710) (564.551697, 614.561523)
sub22_b3_lg_3_132.jpg: Predicted in 0.157172 seconds.
person: 65%
(256.685425, 172.549515) (563.761108, 615.789429)
sub22_b3_lg_3_133.jpg: Predicted in 0.155522 seconds.
person: 30%
(687.768005, 260.869751) (723.766418, 312.967438)
person: 66%
(256.816681, 174.431473) (563.849731, 614.110352)
sub22_b3_lg_3_134.jpg: Predicted in 0.174622 seconds.
person: 30%
(688.473083, 261.170929) (723.823059, 313.888672)
person: 67%
(258.384857, 173.870132) (561.121521, 612.877014)
sub22_b3_lg_3_135.jpg: Predicted in 0.154410 seconds.
person: 30%
(688.352905, 261.222168) (724.029907, 313.702301)
person: 69%
(257.201599, 174.342438) (562.382751, 614.291443)
sub22_b3_lg_3_136.jpg: Predicted in 0.155800 seconds.
person: 67%
(256.406036, 178.033661) (562.276733, 613.902466)
sub22_b3_lg_3_137.jpg: Predicted in 0.155165 seconds.
person: 30%
(687.903687, 261.081177) (724.348206, 313.454346)
person: 67%
(253.659607, 178.043457) (563.447632, 612.163940)
sub22_b3_lg_3_138.jpg: Predicted in 0.158804 seconds.
person: 30%
(688.365479, 261.481018) (723.936157, 313.807037)
person: 65%
(254.680771, 179.278397) (563.834839, 610.848206)
sub22_b3_lg_3_139.jpg: Predicted in 0.155622 seconds.
person: 30%
(688.394714, 261.184937) (724.196533, 313.759857)
person: 65%
(254.006058, 179.472931) (565.598755, 612.219849)
sub22_b3_lg_3_140.jpg: Predicted in 0.155868 seconds.
person: 68%
(252.813995, 183.140060) (566.210815, 611.352661)
sub22_b3_lg_3_141.jpg: Predicted in 0.157070 seconds.
person: 70%
(252.594589, 180.212830) (564.211243, 613.540344)
sub22_b3_lg_3_142.jpg: Predicted in 0.158371 seconds.
person: 31%
(687.506042, 260.572327) (724.235901, 313.453217)
person: 71%
(253.737793, 179.134918) (560.701904, 615.874390)
sub22_b3_lg_3_143.jpg: Predicted in 0.155508 seconds.
person: 31%
(687.663330, 260.705902) (723.863464, 313.654480)
person: 71%
(253.234772, 179.750778) (561.459900, 615.545349)
sub22_b3_lg_3_144.jpg: Predicted in 0.155878 seconds.
person: 30%
(687.903198, 261.108582) (723.840881, 313.403076)
person: 69%
(254.387772, 181.758545) (559.635986, 613.850281)
sub22_b3_lg_3_145.jpg: Predicted in 0.155683 seconds.
person: 30%
(687.451904, 261.059906) (723.879578, 313.546082)
person: 68%
(253.761719, 182.189392) (561.654846, 612.184998)
sub22_b3_lg_3_146.jpg: Predicted in 0.157130 seconds.
person: 30%
(687.273438, 260.391693) (723.945557, 313.130371)
person: 68%
(253.838989, 181.180618) (562.516357, 610.477600)
sub22_b3_lg_3_147.jpg: Predicted in 0.155005 seconds.
person: 31%
(687.085815, 259.739899) (724.527649, 313.272125)
person: 71%
(253.823151, 180.593994) (562.678101, 611.970093)
sub22_b3_lg_3_148.jpg: Predicted in 0.157202 seconds.
person: 30%
(687.350952, 259.564514) (724.609497, 312.910095)
person: 72%
(254.695160, 182.673340) (561.583679, 612.487427)
sub22_b3_lg_3_149.jpg: Predicted in 0.163941 seconds.
person: 31%
(687.513184, 259.793549) (724.272400, 313.238159)
person: 70%
(254.840881, 182.362778) (560.649414, 612.309143)
sub22_b3_lg_3_150.jpg: Predicted in 0.158162 seconds.
person: 30%
(687.878235, 260.285522) (724.266113, 313.513611)
person: 67%
(256.323151, 182.275482) (561.870239, 612.176453)
sub22_b3_lg_3_151.jpg: Predicted in 0.158548 seconds.
person: 30%
(688.178955, 260.467194) (723.736145, 313.910828)
person: 67%
(257.884766, 182.133408) (560.302856, 612.373840)
sub22_b3_lg_3_152.jpg: Predicted in 0.165184 seconds.
person: 68%
(258.224609, 182.402008) (561.094788, 610.930298)
sub22_b3_lg_3_153.jpg: Predicted in 0.163573 seconds.
person: 67%
(260.194214, 182.945923) (560.862366, 609.975037)
sub22_b3_lg_3_154.jpg: Predicted in 0.165404 seconds.
person: 67%
(261.006317, 183.407242) (559.039856, 610.174500)
sub22_b3_lg_3_155.jpg: Predicted in 0.158221 seconds.
person: 67%
(260.974548, 182.767242) (558.497437, 612.876953)
sub22_b3_lg_3_156.jpg: Predicted in 0.154810 seconds.
person: 30%
(687.572998, 261.519531) (725.019165, 314.659546)
person: 72%
(258.052185, 182.465714) (557.741638, 612.402588)
sub22_b3_lg_3_157.jpg: Predicted in 0.157436 seconds.
person: 30%
(687.982178, 261.785522) (724.996643, 314.455688)
person: 72%
(257.817169, 182.347458) (556.595276, 613.982666)
sub22_b3_lg_3_158.jpg: Predicted in 0.157710 seconds.
person: 31%
(688.059326, 262.474976) (724.746155, 315.263031)
person: 70%
(259.397858, 180.225372) (554.492310, 616.532410)
sub22_b3_lg_3_159.jpg: Predicted in 0.155428 seconds.
person: 30%
(688.767151, 262.644165) (724.756104, 315.140411)
person: 68%
(258.681641, 180.025864) (556.644104, 615.879761)
sub22_b3_lg_3_160.jpg: Predicted in 0.155913 seconds.
person: 68%
(261.101715, 178.909927) (556.179199, 615.846313)
sub22_b3_lg_3_161.jpg: Predicted in 0.156154 seconds.
person: 67%
(261.202850, 175.484085) (555.289001, 617.204346)
sub22_b3_lg_3_162.jpg: Predicted in 0.156232 seconds.
person: 68%
(263.206665, 174.859207) (553.523621, 617.644592)
sub22_b3_lg_3_163.jpg: Predicted in 0.155444 seconds.
person: 69%
(262.053345, 175.667480) (554.702332, 616.883972)
sub22_b3_lg_3_164.jpg: Predicted in 0.156151 seconds.
person: 71%
(261.838135, 177.819733) (553.781067, 616.688293)
sub22_b3_lg_3_165.jpg: Predicted in 0.156621 seconds.
person: 73%
(259.685974, 176.698547) (554.501648, 619.001221)
sub22_b3_lg_3_166.jpg: Predicted in 0.156866 seconds.
person: 73%
(260.748535, 173.572037) (553.362610, 620.042053)
sub22_b3_lg_3_167.jpg: Predicted in 0.156525 seconds.
person: 73%
(258.685852, 171.268158) (555.002136, 621.967468)
sub22_b3_lg_3_168.jpg: Predicted in 0.155737 seconds.
person: 72%
(262.173920, 170.023041) (552.447266, 621.278564)
sub22_b3_lg_3_169.jpg: Predicted in 0.155782 seconds.
person: 74%
(261.693085, 172.727509) (552.299683, 619.921509)
sub22_b3_lg_3_170.jpg: Predicted in 0.156651 seconds.
person: 30%
(688.980469, 261.909454) (724.830078, 313.986572)
person: 73%
(262.685364, 172.106766) (552.785767, 618.503113)
sub22_b3_lg_3_171.jpg: Predicted in 0.158396 seconds.
person: 72%
(263.309814, 168.817139) (552.920105, 617.118713)
sub22_b3_lg_3_172.jpg: Predicted in 0.156656 seconds.
person: 71%
(266.081940, 171.748901) (550.407227, 617.087891)
sub22_b3_lg_3_173.jpg: Predicted in 0.155689 seconds.
person: 71%
(267.668701, 171.781631) (548.665710, 617.142456)
sub22_b3_lg_3_174.jpg: Predicted in 0.165491 seconds.
person: 71%
(270.870178, 172.502258) (546.725769, 617.482849)
sub22_b3_lg_3_175.jpg: Predicted in 0.155789 seconds.
person: 71%
(275.677307, 175.057098) (544.018127, 615.646118)
sub22_b3_lg_3_176.jpg: Predicted in 0.158189 seconds.
person: 73%
(275.977631, 174.936935) (543.368408, 616.801392)
sub22_b3_lg_3_177.jpg: Predicted in 0.188031 seconds.
person: 72%
(272.398651, 175.340988) (545.268860, 618.181824)
sub22_b3_lg_3_178.jpg: Predicted in 0.154529 seconds.
person: 70%
(270.917511, 173.372055) (546.563354, 618.614319)
sub22_b3_lg_3_179.jpg: Predicted in 0.156780 seconds.
person: 69%
(276.963593, 172.461151) (539.989868, 617.088440)
sub22_b3_lg_3_180.jpg: Predicted in 0.157921 seconds.
person: 67%
(279.462677, 167.320587) (538.850159, 619.752014)
sub22_b3_lg_3_181.jpg: Predicted in 0.155406 seconds.
person: 67%
(280.943420, 164.848969) (538.633972, 620.303955)
sub22_b3_lg_3_182.jpg: Predicted in 0.157227 seconds.
person: 68%
(276.787292, 165.742874) (542.710144, 620.895081)
sub22_b3_lg_3_183.jpg: Predicted in 0.156609 seconds.
person: 69%
(276.214935, 169.099518) (543.724060, 620.251709)
sub22_b3_lg_3_184.jpg: Predicted in 0.154748 seconds.
baseball bat: 30%
(173.373215, 136.650558) (338.943451, 277.319824)
person: 69%
(281.855103, 169.311478) (538.728516, 620.330750)
sub22_b3_lg_3_185.jpg: Predicted in 0.155996 seconds.
baseball bat: 32%
(168.235611, 134.843552) (341.511169, 283.259918)
person: 69%
(279.734009, 169.689392) (541.337769, 621.564575)
sub22_b3_lg_3_186.jpg: Predicted in 0.155956 seconds.
person: 68%
(281.501129, 169.151550) (538.924194, 621.074890)
sub22_b3_lg_3_187.jpg: Predicted in 0.155287 seconds.
person: 67%
(278.012146, 167.397003) (541.241638, 620.399048)
sub22_b3_lg_3_188.jpg: Predicted in 0.154371 seconds.
person: 67%
(280.455627, 167.243927) (540.460205, 619.991699)
sub22_b3_lg_3_189.jpg: Predicted in 0.155317 seconds.
person: 68%
(278.853638, 170.702148) (541.151917, 619.909058)
sub22_b3_lg_3_190.jpg: Predicted in 0.155380 seconds.
person: 67%
(249.983963, 163.386490) (499.313446, 629.954651)
sub22_b3_lg_3_191.jpg: Predicted in 0.165228 seconds.
person: 66%
(280.616333, 166.925507) (540.180969, 619.530334)
sub22_b3_lg_3_192.jpg: Predicted in 0.156322 seconds.
person: 66%
(282.018982, 168.360611) (537.738647, 617.042236)
sub22_b3_lg_3_193.jpg: Predicted in 0.156680 seconds.
person: 67%
(248.911621, 162.754654) (496.318481, 628.975159)
sub22_b3_lg_3_194.jpg: Predicted in 0.162311 seconds.
person: 67%
(281.468353, 168.542450) (540.146790, 620.540710)
sub22_b3_lg_3_195.jpg: Predicted in 0.166804 seconds.
person: 66%
(279.949585, 170.706314) (541.396301, 618.451721)
sub22_b3_lg_3_196.jpg: Predicted in 0.157070 seconds.
tennis racket: 30%
(155.909775, 148.412888) (336.223083, 282.679169)
person: 67%
(282.000366, 168.126205) (542.759155, 619.822571)
sub22_b3_lg_3_197.jpg: Predicted in 0.155982 seconds.
person: 67%
(286.210968, 167.945221) (539.226562, 619.416077)
sub22_b3_lg_3_198.jpg: Predicted in 0.161426 seconds.
baseball bat: 31%
(154.273956, 146.135834) (336.111359, 285.414368)
person: 68%
(285.050720, 168.519012) (539.825989, 618.755493)
sub22_b3_lg_3_199.jpg: Predicted in 0.162199 seconds.
tennis racket: 35%
(155.567627, 146.531708) (340.169800, 284.367279)
person: 68%
(287.522003, 171.816422) (536.999084, 616.935669)
sub22_b3_lg_3_200.jpg: Predicted in 0.155377 seconds.
tennis racket: 31%
(155.937393, 145.037994) (335.697418, 283.250793)
person: 68%
(285.557800, 173.011368) (539.009399, 616.102112)
sub22_b3_lg_3_201.jpg: Predicted in 0.155678 seconds.
person: 65%
(247.142502, 165.834808) (495.978668, 627.140076)
sub22_b3_lg_3_202.jpg: Predicted in 0.156937 seconds.
tennis racket: 32%
(154.820618, 147.505020) (335.152893, 280.739563)
person: 66%
(289.297882, 168.282837) (535.426758, 614.642456)
sub22_b3_lg_3_203.jpg: Predicted in 0.160571 seconds.
person: 66%
(289.457703, 171.369522) (535.681030, 614.730286)
sub22_b3_lg_3_204.jpg: Predicted in 0.156431 seconds.
person: 65%
(289.024414, 173.542160) (538.265625, 612.368835)
sub22_b3_lg_3_205.jpg: Predicted in 0.158860 seconds.
baseball bat: 30%
(150.435776, 151.013260) (334.190186, 274.312134)
person: 66%
(290.141357, 170.313507) (536.750183, 614.751282)
sub22_b3_lg_3_206.jpg: Predicted in 0.158509 seconds.
baseball bat: 37%
(147.670502, 153.364014) (343.084229, 277.142792)
person: 65%
(292.412964, 172.681046) (535.910156, 614.238831)
sub22_b3_lg_3_207.jpg: Predicted in 0.156940 seconds.
person: 66%
(302.388336, 179.518890) (531.665955, 617.074890)
sub22_b3_lg_3_208.jpg: Predicted in 0.158635 seconds.
person: 67%
(302.802124, 179.404541) (531.072998, 616.638977)
sub22_b3_lg_3_209.jpg: Predicted in 0.157331 seconds.
person: 64%
(299.261017, 187.726776) (538.263245, 613.400940)
sub22_b3_lg_3_210.jpg: Predicted in 0.157317 seconds.
tennis racket: 37%
(144.654724, 153.466385) (340.552734, 283.816925)
person: 64%
(302.799561, 186.757309) (534.891541, 614.336182)
sub22_b3_lg_3_211.jpg: Predicted in 0.157642 seconds.
tennis racket: 35%
(134.620117, 157.513458) (345.133423, 285.756744)
person: 64%
(302.840881, 187.887711) (532.006897, 615.236328)
sub22_b3_lg_3_212.jpg: Predicted in 0.154754 seconds.
tennis racket: 31%
(128.139481, 163.127930) (351.952820, 287.342651)
person: 64%
(304.688141, 186.722656) (527.955261, 614.878174)
sub22_b3_lg_3_213.jpg: Predicted in 0.156429 seconds.
person: 65%
(303.989899, 185.530884) (527.119019, 613.807861)
sub22_b3_lg_3_214.jpg: Predicted in 0.156606 seconds.
person: 66%
(305.239197, 189.255234) (527.879517, 612.743164)
sub22_b3_lg_3_215.jpg: Predicted in 0.155155 seconds.
person: 66%
(300.025970, 189.295288) (530.657959, 613.824097)
sub22_b3_lg_3_216.jpg: Predicted in 0.156882 seconds.
person: 69%
(299.876953, 184.687729) (529.948303, 612.275940)
sub22_b3_lg_3_217.jpg: Predicted in 0.158187 seconds.
person: 69%
(298.219025, 188.159805) (533.391357, 611.242432)
sub22_b3_lg_3_218.jpg: Predicted in 0.161950 seconds.
person: 30%
(688.700073, 267.081818) (720.461609, 316.559479)
person: 67%
(303.096832, 185.718124) (528.207581, 608.176453)
sub22_b3_lg_3_219.jpg: Predicted in 0.164452 seconds.
person: 30%
(688.419678, 266.478424) (720.852295, 316.246277)
person: 68%
(302.441589, 187.099548) (528.061279, 607.638062)
sub22_b3_lg_3_220.jpg: Predicted in 0.157556 seconds.
person: 30%
(688.422363, 265.956299) (721.404602, 316.342224)
person: 68%
(302.630737, 187.175018) (525.726501, 609.109192)
sub22_b3_lg_3_221.jpg: Predicted in 0.162091 seconds.
person: 30%
(688.333069, 266.082031) (721.779053, 316.511749)
person: 68%
(302.322968, 187.166428) (523.904358, 609.753418)
sub22_b3_lg_3_222.jpg: Predicted in 0.155261 seconds.
person: 32%
(687.952637, 265.796326) (721.235596, 317.111542)
person: 66%
(300.979065, 187.995941) (525.932556, 609.525146)
sub22_b3_lg_3_223.jpg: Predicted in 0.155549 seconds.
person: 30%
(687.614807, 264.800873) (721.339050, 316.079987)
person: 66%
(301.452301, 184.735229) (523.743835, 608.973267)
sub22_b3_lg_3_224.jpg: Predicted in 0.164252 seconds.
person: 30%
(687.949402, 264.187531) (722.015503, 315.524475)
person: 66%
(293.561737, 178.666611) (531.774719, 608.914124)
sub22_b3_lg_3_225.jpg: Predicted in 0.157297 seconds.
person: 30%
(688.242798, 264.982117) (722.062683, 316.216614)
person: 65%
(296.486603, 179.226013) (530.646362, 607.755249)
sub22_b3_lg_3_226.jpg: Predicted in 0.164966 seconds.
person: 32%
(688.646362, 265.633301) (722.708313, 317.032043)
person: 65%
(289.681183, 179.702026) (539.370605, 607.961548)
sub22_b3_lg_3_227.jpg: Predicted in 0.157724 seconds.
person: 32%
(688.223328, 264.751343) (722.834534, 316.845428)
person: 67%
(291.673737, 176.868225) (536.310303, 608.889282)
sub22_b3_lg_3_228.jpg: Predicted in 0.156263 seconds.
person: 31%
(688.400574, 264.261841) (723.109558, 316.156769)
person: 68%
(285.994598, 173.896317) (538.211243, 608.650574)
sub22_b3_lg_3_229.jpg: Predicted in 0.157895 seconds.
person: 30%
(688.210510, 265.070435) (722.777039, 315.979401)
person: 67%
(291.480652, 176.834366) (532.281799, 609.681030)
sub22_b3_lg_3_230.jpg: Predicted in 0.156175 seconds.
person: 30%
(688.263916, 264.348297) (723.427551, 315.502899)
person: 66%
(293.735809, 177.648376) (533.734802, 610.140076)
sub22_b3_lg_3_231.jpg: Predicted in 0.163594 seconds.
person: 30%
(688.633667, 264.674774) (723.070740, 315.772766)
person: 67%
(294.099976, 177.790787) (535.449524, 610.970337)
sub22_b3_lg_3_232.jpg: Predicted in 0.155695 seconds.
person: 66%
(296.421692, 175.483948) (535.567200, 611.481628)
sub22_b3_lg_3_233.jpg: Predicted in 0.162777 seconds.
person: 68%
(287.890289, 171.334198) (539.246460, 613.318909)
sub22_b3_lg_3_234.jpg: Predicted in 0.156565 seconds.
person: 68%
(284.510315, 173.938416) (544.265076, 611.039368)
sub22_b3_lg_3_235.jpg: Predicted in 0.156221 seconds.
person: 68%
(282.948853, 172.631241) (545.777588, 610.735535)
sub22_b3_lg_3_236.jpg: Predicted in 0.156404 seconds.
person: 70%
(288.488312, 170.050766) (540.553345, 611.424866)
sub22_b3_lg_3_237.jpg: Predicted in 0.156884 seconds.
person: 68%
(276.588440, 176.880295) (544.998718, 611.260132)
sub22_b3_lg_3_238.jpg: Predicted in 0.156506 seconds.
person: 64%
(296.707001, 178.736191) (531.424011, 612.345215)
sub22_b3_lg_3_239.jpg: Predicted in 0.156307 seconds.
sports ball: 38%
(417.233063, 238.263550) (463.313354, 278.971405)
person: 57%
(281.740967, 177.262878) (541.140137, 612.237366)
sub22_b3_lg_3_240.jpg: Predicted in 0.155496 seconds.
sports ball: 31%
(416.145935, 238.341873) (462.339783, 279.361053)
person: 64%
(286.470245, 175.602722) (535.457214, 612.657715)
sub22_b3_lg_3_241.jpg: Predicted in 0.156398 seconds.
sports ball: 35%
(423.655701, 239.126831) (469.476624, 278.379486)
person: 63%
(283.415192, 172.571594) (536.571350, 612.822815)
sub22_b3_lg_3_242.jpg: Predicted in 0.156033 seconds.
sports ball: 35%
(424.948578, 237.874878) (469.303131, 276.048950)
person: 61%
(272.228394, 170.689224) (543.404968, 611.372375)
sub22_b3_lg_3_243.jpg: Predicted in 0.156907 seconds.
sports ball: 34%
(431.034607, 237.700104) (474.504120, 277.665161)
person: 64%
(287.046143, 172.282028) (531.466797, 611.656738)
sub22_b3_lg_3_244.jpg: Predicted in 0.156748 seconds.
sports ball: 35%
(434.473419, 237.095352) (476.308960, 276.821625)
person: 61%
(282.110138, 168.948074) (536.459229, 610.279480)
sub22_b3_lg_3_245.jpg: Predicted in 0.167896 seconds.
sports ball: 36%
(438.207306, 236.931870) (478.883972, 274.789124)
person: 64%
(278.843689, 173.972229) (537.471313, 607.493286)
sub22_b3_lg_3_246.jpg: Predicted in 0.158257 seconds.
person: 68%
(283.577362, 175.592178) (533.470764, 606.934326)
sub22_b3_lg_3_247.jpg: Predicted in 0.156069 seconds.
person: 70%
(286.379791, 174.698685) (532.420105, 607.180908)
sub22_b3_lg_3_248.jpg: Predicted in 0.157297 seconds.
person: 70%
(281.730072, 174.020477) (536.515076, 606.569946)
sub22_b3_lg_3_249.jpg: Predicted in 0.157869 seconds.
person: 65%
(288.598145, 173.645065) (531.895874, 607.736877)
sub22_b3_lg_3_250.jpg: Predicted in 0.157358 seconds.
person: 66%
(282.990234, 174.980576) (534.297363, 608.018433)
sub22_b3_lg_3_251.jpg: Predicted in 0.157666 seconds.
person: 66%
(286.175690, 181.602310) (531.253723, 607.242554)
sub22_b3_lg_3_252.jpg: Predicted in 0.157645 seconds.
person: 67%
(281.157074, 171.154541) (534.479675, 608.532043)
sub22_b3_lg_3_253.jpg: Predicted in 0.158217 seconds.
person: 30%
(690.059509, 262.354065) (724.345520, 314.852020)
person: 68%
(278.879211, 177.558548) (536.316406, 608.679688)
sub22_b3_lg_3_254.jpg: Predicted in 0.155228 seconds.
person: 68%
(278.521790, 176.964493) (536.394165, 607.960938)
sub22_b3_lg_3_255.jpg: Predicted in 0.157148 seconds.
person: 31%
(691.037170, 266.208221) (723.728455, 317.586273)
person: 68%
(274.585144, 176.801208) (539.427917, 608.484253)
sub22_b3_lg_3_256.jpg: Predicted in 0.157710 seconds.
person: 31%
(690.676758, 266.361877) (722.660217, 317.879425)
person: 68%
(275.017639, 178.012390) (539.430054, 607.794739)
sub22_b3_lg_3_257.jpg: Predicted in 0.156556 seconds.
person: 68%
(271.714722, 173.858902) (541.202087, 609.848022)
sub22_b3_lg_3_258.jpg: Predicted in 0.158965 seconds.
person: 68%
(270.007385, 180.497604) (542.808655, 608.587341)
sub22_b3_lg_3_259.jpg: Predicted in 0.155514 seconds.
person: 70%
(271.803009, 188.832977) (539.168823, 610.298401)
sub22_b3_lg_3_260.jpg: Predicted in 0.155890 seconds.
person: 70%
(271.698883, 192.085693) (537.832520, 608.279846)
sub22_b3_lg_3_261.jpg: Predicted in 0.156847 seconds.
person: 71%
(272.999786, 195.021362) (537.162964, 608.959351)
sub22_b3_lg_3_262.jpg: Predicted in 0.155742 seconds.
person: 71%
(268.778961, 197.407837) (540.666687, 611.008972)
sub22_b3_lg_3_263.jpg: Predicted in 0.157035 seconds.
person: 72%
(273.677216, 197.702209) (538.609985, 613.387878)
sub22_b3_lg_3_264.jpg: Predicted in 0.157224 seconds.
person: 72%
(281.213684, 198.249634) (532.733154, 611.754395)
sub22_b3_lg_3_265.jpg: Predicted in 0.157532 seconds.
person: 74%
(284.257324, 196.440094) (531.524475, 611.172241)
sub22_b3_lg_3_266.jpg: Predicted in 0.156116 seconds.
person: 75%
(291.417236, 198.146469) (528.856445, 610.597900)
sub22_b3_lg_3_267.jpg: Predicted in 0.165751 seconds.
person: 76%
(301.090302, 201.866867) (527.050476, 610.549500)
sub22_b3_lg_3_268.jpg: Predicted in 0.157535 seconds.
person: 76%
(301.947418, 198.996277) (529.807068, 607.699280)
sub22_b3_lg_3_269.jpg: Predicted in 0.158091 seconds.
person: 75%
(307.301453, 199.593536) (530.917114, 606.296814)
sub22_b3_lg_3_270.jpg: Predicted in 0.158519 seconds.
person: 75%
(302.574249, 196.492676) (531.893005, 607.033936)
sub22_b3_lg_3_271.jpg: Predicted in 0.158459 seconds.
person: 74%
(303.401154, 198.811676) (536.212708, 606.272583)
sub22_b3_lg_3_272.jpg: Predicted in 0.156953 seconds.
person: 75%
(305.790833, 198.681229) (537.522461, 606.618591)
sub22_b3_lg_3_273.jpg: Predicted in 0.166342 seconds.
person: 74%
(305.287720, 189.490753) (534.025269, 605.350220)
sub22_b3_lg_3_274.jpg: Predicted in 0.158148 seconds.
person: 72%
(304.524780, 188.598511) (536.189270, 607.193909)
sub22_b3_lg_3_275.jpg: Predicted in 0.157837 seconds.
person: 70%
(307.410461, 188.609451) (536.374878, 604.407471)
sub22_b3_lg_3_276.jpg: Predicted in 0.156313 seconds.
person: 69%
(299.903778, 184.898849) (540.240540, 603.858398)
sub22_b3_lg_3_277.jpg: Predicted in 0.155098 seconds.
person: 67%
(302.741455, 187.058609) (535.936279, 607.269287)
sub22_b3_lg_3_278.jpg: Predicted in 0.157323 seconds.
person: 70%
(298.695374, 176.508835) (533.714905, 604.691223)
sub22_b3_lg_3_279.jpg: Predicted in 0.156900 seconds.
person: 30%
(686.210632, 261.819977) (725.887329, 317.426453)
person: 73%
(291.301544, 178.210144) (540.181458, 604.116760)
sub22_b3_lg_3_280.jpg: Predicted in 0.156845 seconds.
person: 30%
(683.223633, 258.691620) (724.580750, 313.798523)
person: 76%
(291.524902, 172.394562) (539.361572, 603.187500)
sub22_b3_lg_3_281.jpg: Predicted in 0.157377 seconds.
person: 31%
(682.388794, 257.147308) (725.079895, 314.257721)
person: 77%
(295.274658, 171.686890) (536.225769, 603.644104)
sub22_b3_lg_3_282.jpg: Predicted in 0.165431 seconds.
person: 75%
(297.738892, 173.390457) (533.903503, 603.161194)
sub22_b3_lg_3_283.jpg: Predicted in 0.155224 seconds.
person: 73%
(296.818817, 177.182098) (538.617371, 603.525024)
sub22_b3_lg_3_284.jpg: Predicted in 0.155371 seconds.
person: 73%
(302.783142, 175.279694) (533.668396, 605.740723)
sub22_b3_lg_3_285.jpg: Predicted in 0.157737 seconds.
person: 73%
(304.610840, 175.108505) (533.947388, 605.691223)
sub22_b3_lg_3_286.jpg: Predicted in 0.155938 seconds.
person: 75%
(304.202972, 177.875610) (537.481567, 603.769470)
sub22_b3_lg_3_287.jpg: Predicted in 0.155632 seconds.
person: 75%
(302.696045, 179.842285) (540.842224, 602.835083)
sub22_b3_lg_3_288.jpg: Predicted in 0.156518 seconds.
person: 30%
(686.535400, 262.711487) (721.951233, 313.628052)
person: 76%
(300.630280, 176.227921) (539.902588, 603.197144)
sub22_b3_lg_3_289.jpg: Predicted in 0.158419 seconds.
person: 30%
(686.924316, 262.082428) (722.400391, 313.259491)
person: 75%
(307.284607, 177.762192) (547.641602, 603.832336)
sub22_b3_lg_3_290.jpg: Predicted in 0.154754 seconds.
person: 32%
(687.001160, 263.297668) (720.916809, 312.326599)
person: 75%
(304.538208, 183.669586) (543.058350, 603.744934)
sub22_b3_lg_3_291.jpg: Predicted in 0.156110 seconds.
person: 33%
(686.774841, 264.358795) (720.682556, 312.008240)
person: 76%
(295.561584, 180.903671) (549.029602, 601.265869)
sub22_b3_lg_3_292.jpg: Predicted in 0.158182 seconds.
person: 33%
(686.524841, 264.927887) (720.385071, 312.570740)
person: 74%
(292.041138, 177.493073) (553.002747, 600.612244)
sub22_b3_lg_3_293.jpg: Predicted in 0.156158 seconds.
person: 33%
(686.833008, 265.078217) (721.095947, 314.867065)
person: 74%
(292.227875, 175.700790) (552.805298, 600.175781)
sub22_b3_lg_3_294.jpg: Predicted in 0.157548 seconds.
person: 31%
(685.506226, 265.163086) (719.566528, 315.248688)
person: 73%
(291.649017, 165.437500) (566.391724, 601.086792)
sub22_b3_lg_3_295.jpg: Predicted in 0.154988 seconds.
person: 32%
(685.340271, 265.142670) (719.026917, 313.070404)
person: 75%
(293.152222, 164.049652) (558.111145, 602.050781)
sub22_b3_lg_3_296.jpg: Predicted in 0.157884 seconds.
person: 34%
(685.598938, 264.607208) (720.271423, 314.338135)
person: 74%
(285.295166, 165.237473) (567.309448, 601.118347)
sub22_b3_lg_3_297.jpg: Predicted in 0.157308 seconds.
person: 34%
(684.339417, 261.675659) (720.861206, 313.615356)
person: 75%
(284.845276, 168.220596) (582.948669, 597.355713)
sub22_b3_lg_3_298.jpg: Predicted in 0.155609 seconds.
person: 36%
(683.814087, 262.401398) (719.674683, 312.870453)
person: 76%
(286.335815, 170.589355) (575.396118, 596.524963)
sub22_b3_lg_3_299.jpg: Predicted in 0.158685 seconds.
person: 35%
(684.945557, 263.845795) (719.625061, 313.798218)
person: 76%
(281.676208, 171.720581) (575.033997, 596.314514)
sub22_b3_lg_3_300.jpg: Predicted in 0.156236 seconds.
person: 35%
(685.111450, 264.271790) (720.127502, 315.547058)
person: 77%
(275.770203, 170.601227) (592.008850, 596.459290)
sub22_b3_lg_3_301.jpg: Predicted in 0.156422 seconds.
person: 35%
(685.221008, 264.925354) (719.075867, 313.733704)
person: 77%
(270.601349, 167.399857) (591.419189, 597.094788)
sub22_b3_lg_3_302.jpg: Predicted in 0.157335 seconds.
person: 35%
(683.361267, 261.420074) (718.257385, 311.520599)
person: 79%
(260.664001, 167.653107) (600.776733, 596.156494)
sub22_b3_lg_3_303.jpg: Predicted in 0.155731 seconds.
person: 34%
(684.043945, 262.713379) (717.929932, 311.929993)
person: 79%
(255.599442, 165.348892) (604.234314, 596.631592)
sub22_b3_lg_3_304.jpg: Predicted in 0.167696 seconds.
person: 34%
(683.471924, 262.897583) (717.875916, 312.411957)
person: 78%
(263.581329, 163.006287) (598.481140, 598.051270)
sub22_b3_lg_3_305.jpg: Predicted in 0.158843 seconds.
person: 32%
(682.000549, 262.211456) (716.749451, 310.691010)
person: 78%
(264.720520, 164.440948) (578.991394, 597.073608)
sub22_b3_lg_3_306.jpg: Predicted in 0.156626 seconds.
person: 31%
(681.084167, 259.306519) (715.904846, 306.927307)
person: 78%
(268.577972, 163.385254) (580.407776, 597.712097)
sub22_b3_lg_3_307.jpg: Predicted in 0.159851 seconds.
person: 33%
(684.210510, 261.941833) (716.312561, 309.533630)
person: 78%
(261.511597, 160.496185) (584.455505, 600.454102)
sub22_b3_lg_3_308.jpg: Predicted in 0.155698 seconds.
person: 32%
(684.293396, 263.674927) (716.378784, 311.425964)
person: 77%
(263.754272, 163.480331) (574.102417, 598.612427)
sub22_b3_lg_3_309.jpg: Predicted in 0.159613 seconds.
person: 76%
(265.364716, 160.617523) (563.066650, 599.069031)
sub22_b3_lg_3_310.jpg: Predicted in 0.157662 seconds.
person: 76%
(266.742798, 159.284592) (560.245300, 599.537476)
sub22_b3_lg_3_311.jpg: Predicted in 0.167092 seconds.
person: 30%
(683.503601, 261.228882) (722.075134, 313.587463)
person: 76%
(264.559692, 158.696198) (562.439087, 598.988770)
sub22_b3_lg_3_312.jpg: Predicted in 0.157138 seconds.
person: 31%
(684.800415, 263.608551) (722.936401, 316.345367)
person: 75%
(265.058990, 158.299942) (564.217834, 599.929138)
sub22_b3_lg_3_313.jpg: Predicted in 0.162071 seconds.
person: 33%
(678.448730, 259.512329) (722.887939, 312.229034)
person: 75%
(269.773376, 160.011917) (559.643982, 598.913635)
sub22_b3_lg_3_314.jpg: Predicted in 0.157994 seconds.
person: 77%
(268.238129, 156.156204) (561.418457, 602.302856)
sub22_b3_lg_3_315.jpg: Predicted in 0.164206 seconds.
person: 78%
(270.729675, 157.441574) (555.016846, 601.204346)
sub22_b3_lg_3_316.jpg: Predicted in 0.155724 seconds.
person: 76%
(267.871460, 154.358215) (554.607422, 603.896729)
sub22_b3_lg_3_317.jpg: Predicted in 0.156678 seconds.
person: 75%
(266.102509, 153.241180) (557.570068, 605.039673)
sub22_b3_lg_3_318.jpg: Predicted in 0.155615 seconds.
person: 76%
(272.145386, 154.822510) (553.715454, 603.313599)
sub22_b3_lg_3_319.jpg: Predicted in 0.157420 seconds.
person: 77%
(270.540131, 150.652725) (552.668030, 605.008118)
sub22_b3_lg_3_320.jpg: Predicted in 0.163872 seconds.
person: 75%
(270.415527, 149.630219) (552.466187, 606.133179)
sub22_b3_lg_3_321.jpg: Predicted in 0.157254 seconds.
person: 76%
(269.627167, 151.784897) (553.868530, 604.078552)
