sub22_b4_sg_2_001.jpg: Predicted in 0.154131 seconds.
person: 44%
(226.074966, 148.987991) (468.201385, 634.847046)
sub22_b4_sg_2_002.jpg: Predicted in 0.154813 seconds.
person: 42%
(224.709000, 150.315125) (467.324463, 633.115723)
sub22_b4_sg_2_003.jpg: Predicted in 0.154254 seconds.
person: 40%
(226.621445, 148.368576) (469.645477, 633.511047)
sub22_b4_sg_2_004.jpg: Predicted in 0.153422 seconds.
person: 31%
(696.355957, 261.400970) (730.152954, 324.238983)
person: 35%
(228.133072, 148.945282) (473.182770, 634.932983)
sub22_b4_sg_2_005.jpg: Predicted in 0.155758 seconds.
person: 31%
(696.533569, 261.755493) (730.113464, 324.537964)
person: 35%
(227.701019, 147.559998) (472.096802, 635.138611)
sub22_b4_sg_2_006.jpg: Predicted in 0.155688 seconds.
person: 38%
(229.840256, 145.019287) (473.045410, 635.588379)
sub22_b4_sg_2_007.jpg: Predicted in 0.154480 seconds.
person: 38%
(226.946060, 147.936676) (473.673920, 633.427368)
sub22_b4_sg_2_008.jpg: Predicted in 0.155043 seconds.
person: 41%
(224.437576, 145.846985) (473.495178, 633.932739)
sub22_b4_sg_2_009.jpg: Predicted in 0.156762 seconds.
person: 40%
(225.243652, 146.684052) (475.322968, 634.147034)
sub22_b4_sg_2_010.jpg: Predicted in 0.153766 seconds.
person: 40%
(228.392517, 149.701599) (474.189728, 634.594238)
sub22_b4_sg_2_011.jpg: Predicted in 0.154700 seconds.
person: 40%
(226.713791, 148.916321) (475.417175, 635.047668)
sub22_b4_sg_2_012.jpg: Predicted in 0.153966 seconds.
person: 40%
(226.062027, 148.707489) (476.915344, 634.341980)
sub22_b4_sg_2_013.jpg: Predicted in 0.155501 seconds.
person: 30%
(695.767944, 261.542877) (729.392395, 322.743988)
person: 38%
(229.290070, 147.246048) (477.989288, 635.056213)
sub22_b4_sg_2_014.jpg: Predicted in 0.155299 seconds.
person: 38%
(226.817444, 145.476990) (478.779480, 636.424377)
sub22_b4_sg_2_015.jpg: Predicted in 0.154646 seconds.
person: 41%
(226.375717, 144.207214) (478.864777, 634.987305)
sub22_b4_sg_2_016.jpg: Predicted in 0.154170 seconds.
person: 46%
(229.222672, 148.326294) (480.200714, 634.099792)
sub22_b4_sg_2_017.jpg: Predicted in 0.153404 seconds.
person: 46%
(230.303818, 145.541519) (480.774597, 635.912354)
sub22_b4_sg_2_018.jpg: Predicted in 0.153353 seconds.
person: 48%
(230.804962, 142.728333) (482.981598, 635.253174)
sub22_b4_sg_2_019.jpg: Predicted in 0.157166 seconds.
person: 49%
(232.911636, 143.218185) (481.121124, 631.036743)
sub22_b4_sg_2_020.jpg: Predicted in 0.155633 seconds.
person: 48%
(232.098450, 143.042511) (478.562347, 631.064392)
sub22_b4_sg_2_021.jpg: Predicted in 0.155240 seconds.
person: 49%
(231.537292, 143.875977) (479.153870, 631.895752)
sub22_b4_sg_2_022.jpg: Predicted in 0.156908 seconds.
person: 51%
(233.631378, 144.952255) (478.838348, 631.562073)
sub22_b4_sg_2_023.jpg: Predicted in 0.154637 seconds.
person: 51%
(232.155960, 145.116562) (481.538269, 630.913086)
sub22_b4_sg_2_024.jpg: Predicted in 0.155901 seconds.
person: 54%
(231.317810, 148.826416) (482.620697, 628.590027)
sub22_b4_sg_2_025.jpg: Predicted in 0.163925 seconds.
person: 54%
(230.981308, 149.399139) (481.967896, 628.574829)
sub22_b4_sg_2_026.jpg: Predicted in 0.154599 seconds.
person: 54%
(227.982605, 154.129211) (482.123199, 625.769226)
sub22_b4_sg_2_027.jpg: Predicted in 0.164968 seconds.
person: 55%
(226.066223, 154.309891) (483.734589, 625.614258)
sub22_b4_sg_2_028.jpg: Predicted in 0.155661 seconds.
person: 55%
(227.041656, 150.402924) (484.385956, 628.572937)
sub22_b4_sg_2_029.jpg: Predicted in 0.164391 seconds.
person: 54%
(225.262009, 150.966293) (481.071228, 627.777527)
sub22_b4_sg_2_030.jpg: Predicted in 0.156285 seconds.
person: 54%
(223.865067, 151.997238) (478.885559, 627.391296)
sub22_b4_sg_2_031.jpg: Predicted in 0.155388 seconds.
person: 54%
(222.587418, 149.811935) (478.787476, 629.662598)
sub22_b4_sg_2_032.jpg: Predicted in 0.153012 seconds.
person: 31%
(692.474365, 257.644104) (731.388855, 324.837128)
person: 51%
(226.885239, 150.253464) (479.635742, 629.347656)
sub22_b4_sg_2_033.jpg: Predicted in 0.153178 seconds.
person: 31%
(691.979675, 257.736084) (730.842285, 325.132111)
person: 52%
(225.586288, 151.029129) (478.621094, 629.310486)
sub22_b4_sg_2_034.jpg: Predicted in 0.154860 seconds.
person: 47%
(226.614532, 149.013016) (477.737579, 630.715515)
sub22_b4_sg_2_035.jpg: Predicted in 0.154615 seconds.
person: 30%
(692.485962, 258.110962) (730.882874, 324.456360)
person: 46%
(229.125153, 150.269012) (474.153503, 630.174255)
sub22_b4_sg_2_036.jpg: Predicted in 0.156074 seconds.
person: 48%
(229.870941, 152.964325) (473.263977, 628.484741)
sub22_b4_sg_2_037.jpg: Predicted in 0.154710 seconds.
person: 48%
(228.400726, 153.447769) (474.552368, 628.522278)
sub22_b4_sg_2_038.jpg: Predicted in 0.154100 seconds.
person: 48%
(229.144104, 154.628784) (473.717987, 627.213318)
sub22_b4_sg_2_039.jpg: Predicted in 0.154188 seconds.
person: 49%
(229.686401, 156.193283) (472.784302, 627.200745)
sub22_b4_sg_2_040.jpg: Predicted in 0.154854 seconds.
person: 50%
(227.732346, 150.624634) (477.093475, 630.174500)
sub22_b4_sg_2_041.jpg: Predicted in 0.157105 seconds.
person: 52%
(229.849030, 150.987213) (475.635590, 629.030701)
sub22_b4_sg_2_042.jpg: Predicted in 0.163642 seconds.
person: 50%
(229.230301, 152.213333) (474.171265, 627.923645)
sub22_b4_sg_2_043.jpg: Predicted in 0.154620 seconds.
person: 51%
(229.020203, 156.517120) (474.999573, 624.073059)
sub22_b4_sg_2_044.jpg: Predicted in 0.163276 seconds.
person: 52%
(227.588333, 159.252411) (475.462799, 622.441833)
sub22_b4_sg_2_045.jpg: Predicted in 0.161853 seconds.
person: 57%
(233.492111, 160.555984) (476.259460, 621.207886)
sub22_b4_sg_2_046.jpg: Predicted in 0.163735 seconds.
person: 57%
(234.967468, 164.725616) (477.338531, 619.513794)
sub22_b4_sg_2_047.jpg: Predicted in 0.157383 seconds.
person: 58%
(231.847015, 166.281769) (479.047302, 617.721863)
sub22_b4_sg_2_048.jpg: Predicted in 0.164859 seconds.
person: 58%
(233.458588, 166.440231) (478.246948, 617.097656)
sub22_b4_sg_2_049.jpg: Predicted in 0.156305 seconds.
person: 57%
(231.508713, 166.219238) (480.431213, 617.780212)
sub22_b4_sg_2_050.jpg: Predicted in 0.154706 seconds.
person: 57%
(229.909241, 165.607361) (479.443176, 617.574036)
sub22_b4_sg_2_051.jpg: Predicted in 0.155587 seconds.
person: 57%
(232.271408, 164.206238) (481.467834, 618.311646)
sub22_b4_sg_2_052.jpg: Predicted in 0.159817 seconds.
person: 58%
(234.618561, 162.861771) (480.618866, 618.312500)
sub22_b4_sg_2_053.jpg: Predicted in 0.166352 seconds.
person: 58%
(233.826447, 164.700775) (480.508484, 616.686768)
sub22_b4_sg_2_054.jpg: Predicted in 0.156477 seconds.
person: 59%
(236.109909, 163.715576) (481.618439, 617.148987)
sub22_b4_sg_2_055.jpg: Predicted in 0.155194 seconds.
person: 61%
(238.538010, 163.865479) (482.527130, 619.504333)
sub22_b4_sg_2_056.jpg: Predicted in 0.164631 seconds.
person: 60%
(239.729340, 162.994690) (481.874054, 619.555542)
sub22_b4_sg_2_057.jpg: Predicted in 0.156941 seconds.
person: 60%
(240.111176, 165.537003) (483.561401, 618.367310)
sub22_b4_sg_2_058.jpg: Predicted in 0.156814 seconds.
person: 59%
(241.271652, 167.467834) (486.027069, 618.295837)
sub22_b4_sg_2_059.jpg: Predicted in 0.153961 seconds.
person: 60%
(241.579376, 170.705109) (487.160767, 617.386536)
sub22_b4_sg_2_060.jpg: Predicted in 0.154505 seconds.
person: 62%
(241.644516, 171.924423) (486.925964, 618.180542)
sub22_b4_sg_2_061.jpg: Predicted in 0.155068 seconds.
person: 62%
(240.449310, 170.624924) (489.441650, 619.962830)
sub22_b4_sg_2_062.jpg: Predicted in 0.154241 seconds.
person: 63%
(239.649185, 169.415710) (487.644958, 619.764587)
sub22_b4_sg_2_063.jpg: Predicted in 0.155615 seconds.
person: 64%
(240.712250, 163.645935) (492.261749, 620.165344)
sub22_b4_sg_2_064.jpg: Predicted in 0.154891 seconds.
person: 63%
(239.040085, 164.091415) (493.413757, 621.217346)
sub22_b4_sg_2_065.jpg: Predicted in 0.155176 seconds.
person: 63%
(239.974808, 162.090820) (489.965973, 620.087341)
sub22_b4_sg_2_066.jpg: Predicted in 0.155028 seconds.
person: 62%
(240.471222, 160.237457) (490.786102, 619.488464)
sub22_b4_sg_2_067.jpg: Predicted in 0.162196 seconds.
person: 62%
(244.212280, 163.009644) (490.645264, 617.624817)
sub22_b4_sg_2_068.jpg: Predicted in 0.164843 seconds.
person: 62%
(243.766907, 161.463211) (492.238495, 618.653687)
sub22_b4_sg_2_069.jpg: Predicted in 0.157202 seconds.
person: 63%
(242.523392, 162.018463) (493.351990, 619.760803)
sub22_b4_sg_2_070.jpg: Predicted in 0.157527 seconds.
person: 64%
(241.240173, 162.135284) (490.389404, 619.510498)
sub22_b4_sg_2_071.jpg: Predicted in 0.156784 seconds.
person: 66%
(241.310577, 163.381104) (492.698669, 618.593872)
sub22_b4_sg_2_072.jpg: Predicted in 0.154406 seconds.
person: 68%
(240.890518, 164.502533) (490.258698, 617.756531)
sub22_b4_sg_2_073.jpg: Predicted in 0.154253 seconds.
person: 66%
(244.430634, 166.437408) (485.136261, 617.215210)
sub22_b4_sg_2_074.jpg: Predicted in 0.155811 seconds.
person: 66%
(243.292892, 170.130280) (487.729218, 616.585449)
sub22_b4_sg_2_075.jpg: Predicted in 0.157008 seconds.
person: 66%
(244.234940, 168.661957) (486.182007, 617.165955)
sub22_b4_sg_2_076.jpg: Predicted in 0.154166 seconds.
person: 65%
(242.683685, 165.181854) (488.106171, 618.896667)
sub22_b4_sg_2_077.jpg: Predicted in 0.155633 seconds.
person: 65%
(240.592941, 163.885071) (489.705200, 619.837646)
sub22_b4_sg_2_078.jpg: Predicted in 0.157841 seconds.
person: 64%
(241.447876, 160.442657) (490.749756, 619.357910)
sub22_b4_sg_2_079.jpg: Predicted in 0.154892 seconds.
person: 63%
(243.449661, 159.178787) (489.169983, 619.500854)
sub22_b4_sg_2_080.jpg: Predicted in 0.164555 seconds.
person: 64%
(244.185211, 164.651077) (489.213074, 618.241638)
sub22_b4_sg_2_081.jpg: Predicted in 0.154373 seconds.
person: 63%
(242.030243, 160.866959) (490.866791, 621.029175)
sub22_b4_sg_2_082.jpg: Predicted in 0.155119 seconds.
person: 62%
(241.657013, 160.166718) (491.593353, 622.365601)
sub22_b4_sg_2_083.jpg: Predicted in 0.156119 seconds.
person: 62%
(244.446289, 159.309738) (490.497498, 621.803528)
sub22_b4_sg_2_084.jpg: Predicted in 0.155520 seconds.
person: 62%
(244.234421, 159.430283) (488.220032, 620.672546)
sub22_b4_sg_2_085.jpg: Predicted in 0.156090 seconds.
person: 64%
(246.797958, 159.186508) (488.705353, 619.685547)
sub22_b4_sg_2_086.jpg: Predicted in 0.155262 seconds.
person: 63%
(246.912979, 157.965805) (490.436249, 619.693420)
sub22_b4_sg_2_087.jpg: Predicted in 0.155009 seconds.
person: 62%
(246.912064, 159.863968) (489.186951, 618.735535)
sub22_b4_sg_2_088.jpg: Predicted in 0.164889 seconds.
person: 62%
(248.914062, 157.478302) (487.514313, 619.990845)
sub22_b4_sg_2_089.jpg: Predicted in 0.154689 seconds.
person: 62%
(251.541122, 156.745026) (484.988037, 621.253967)
sub22_b4_sg_2_090.jpg: Predicted in 0.157496 seconds.
person: 62%
(251.582672, 157.754227) (485.728058, 619.482605)
sub22_b4_sg_2_091.jpg: Predicted in 0.156139 seconds.
person: 64%
(250.002762, 158.299515) (487.390045, 619.372681)
sub22_b4_sg_2_092.jpg: Predicted in 0.155244 seconds.
person: 65%
(247.893005, 158.870102) (492.688568, 618.224609)
sub22_b4_sg_2_093.jpg: Predicted in 0.154721 seconds.
person: 65%
(250.155106, 160.068970) (491.554016, 618.429443)
sub22_b4_sg_2_094.jpg: Predicted in 0.154356 seconds.
person: 65%
(255.729965, 159.995056) (488.029114, 618.834595)
sub22_b4_sg_2_095.jpg: Predicted in 0.154221 seconds.
person: 65%
(254.324326, 157.904083) (490.448853, 619.301270)
sub22_b4_sg_2_096.jpg: Predicted in 0.154635 seconds.
person: 62%
(252.801880, 155.398987) (492.020203, 620.863647)
sub22_b4_sg_2_097.jpg: Predicted in 0.154799 seconds.
person: 62%
(251.832138, 153.769211) (488.830719, 622.389404)
sub22_b4_sg_2_098.jpg: Predicted in 0.154374 seconds.
person: 61%
(251.688293, 151.136307) (488.195282, 623.534485)
sub22_b4_sg_2_099.jpg: Predicted in 0.156513 seconds.
person: 62%
(251.421829, 153.938843) (489.682068, 622.767212)
sub22_b4_sg_2_100.jpg: Predicted in 0.154556 seconds.
person: 61%
(254.220093, 154.466385) (488.794067, 622.725891)
sub22_b4_sg_2_101.jpg: Predicted in 0.155223 seconds.
person: 60%
(254.137741, 156.819839) (488.289856, 623.981689)
sub22_b4_sg_2_102.jpg: Predicted in 0.159843 seconds.
person: 62%
(252.897339, 160.443665) (491.680450, 622.821167)
sub22_b4_sg_2_103.jpg: Predicted in 0.156160 seconds.
person: 64%
(250.015228, 163.539673) (494.310944, 621.504578)
sub22_b4_sg_2_104.jpg: Predicted in 0.154654 seconds.
person: 65%
(251.496307, 164.901550) (493.867462, 621.254883)
sub22_b4_sg_2_105.jpg: Predicted in 0.156627 seconds.
person: 65%
(251.897705, 162.405533) (492.257874, 621.787231)
sub22_b4_sg_2_106.jpg: Predicted in 0.154720 seconds.
person: 66%
(250.354599, 165.681763) (492.621643, 621.233704)
sub22_b4_sg_2_107.jpg: Predicted in 0.155201 seconds.
person: 65%
(250.242279, 164.794159) (492.499725, 621.696838)
sub22_b4_sg_2_108.jpg: Predicted in 0.154978 seconds.
person: 65%
(248.557983, 163.365723) (492.969971, 622.651733)
sub22_b4_sg_2_109.jpg: Predicted in 0.155309 seconds.
person: 65%
(250.328476, 163.739304) (492.249878, 622.007935)
sub22_b4_sg_2_110.jpg: Predicted in 0.154099 seconds.
person: 66%
(252.216614, 163.951874) (489.401367, 620.302612)
sub22_b4_sg_2_111.jpg: Predicted in 0.154836 seconds.
person: 65%
(251.402039, 162.982864) (487.563324, 621.236084)
sub22_b4_sg_2_112.jpg: Predicted in 0.155177 seconds.
person: 66%
(253.690903, 167.379684) (487.187561, 619.291931)
sub22_b4_sg_2_113.jpg: Predicted in 0.154062 seconds.
person: 66%
(252.298141, 169.344788) (488.668274, 620.420227)
sub22_b4_sg_2_114.jpg: Predicted in 0.156854 seconds.
person: 67%
(251.923279, 174.707336) (490.628754, 617.663574)
sub22_b4_sg_2_115.jpg: Predicted in 0.154258 seconds.
person: 66%
(254.628723, 176.631470) (490.696960, 615.723145)
sub22_b4_sg_2_116.jpg: Predicted in 0.157012 seconds.
person: 65%
(252.648224, 175.164154) (492.880249, 615.933228)
sub22_b4_sg_2_117.jpg: Predicted in 0.157484 seconds.
person: 65%
(251.951935, 173.894073) (491.805542, 615.372314)
sub22_b4_sg_2_118.jpg: Predicted in 0.155044 seconds.
person: 66%
(252.519058, 176.867584) (492.413177, 613.543213)
sub22_b4_sg_2_119.jpg: Predicted in 0.154927 seconds.
person: 66%
(248.787369, 174.282486) (492.474304, 615.908752)
sub22_b4_sg_2_120.jpg: Predicted in 0.155015 seconds.
person: 65%
(246.203857, 172.887726) (495.391144, 616.890747)
sub22_b4_sg_2_121.jpg: Predicted in 0.158391 seconds.
person: 64%
(246.769745, 172.594360) (495.436218, 618.631470)
sub22_b4_sg_2_122.jpg: Predicted in 0.164248 seconds.
person: 66%
(250.704407, 172.712616) (493.280060, 619.217590)
sub22_b4_sg_2_123.jpg: Predicted in 0.154974 seconds.
person: 67%
(253.871048, 176.848129) (492.708313, 619.139160)
sub22_b4_sg_2_124.jpg: Predicted in 0.154798 seconds.
person: 67%
(254.880432, 175.761963) (494.887177, 619.511292)
sub22_b4_sg_2_125.jpg: Predicted in 0.158321 seconds.
person: 67%
(255.171829, 176.963715) (498.182281, 619.630615)
sub22_b4_sg_2_126.jpg: Predicted in 0.156488 seconds.
person: 66%
(256.383331, 180.187820) (497.233002, 618.117859)
sub22_b4_sg_2_127.jpg: Predicted in 0.155863 seconds.
person: 64%
(256.520782, 181.593399) (497.869934, 620.065735)
sub22_b4_sg_2_128.jpg: Predicted in 0.170441 seconds.
person: 63%
(257.775299, 178.613068) (496.629974, 620.477905)
sub22_b4_sg_2_129.jpg: Predicted in 0.164310 seconds.
person: 62%
(269.745819, 188.557693) (555.624207, 612.479492)
sub22_b4_sg_2_130.jpg: Predicted in 0.154259 seconds.
person: 61%
(257.456787, 173.835373) (496.737701, 620.661499)
sub22_b4_sg_2_131.jpg: Predicted in 0.156063 seconds.
person: 63%
(255.951019, 171.659973) (496.701111, 621.774475)
sub22_b4_sg_2_132.jpg: Predicted in 0.154929 seconds.
person: 62%
(256.226868, 169.938614) (497.427673, 620.230286)
sub22_b4_sg_2_133.jpg: Predicted in 0.155089 seconds.
person: 66%
(254.517502, 171.353012) (498.869873, 619.510071)
sub22_b4_sg_2_134.jpg: Predicted in 0.155435 seconds.
person: 68%
(254.333618, 174.072937) (498.449432, 618.281006)
sub22_b4_sg_2_135.jpg: Predicted in 0.165853 seconds.
person: 66%
(254.637299, 176.074814) (496.484009, 616.920471)
sub22_b4_sg_2_136.jpg: Predicted in 0.155146 seconds.
person: 64%
(252.948227, 179.004959) (498.497864, 617.425903)
sub22_b4_sg_2_137.jpg: Predicted in 0.154687 seconds.
person: 63%
(253.292343, 181.023315) (499.091156, 619.869263)
sub22_b4_sg_2_138.jpg: Predicted in 0.163079 seconds.
person: 62%
(252.653702, 181.804901) (499.129120, 622.159546)
sub22_b4_sg_2_139.jpg: Predicted in 0.156456 seconds.
person: 62%
(260.177917, 188.264542) (564.196899, 616.744324)
sub22_b4_sg_2_140.jpg: Predicted in 0.154845 seconds.
person: 63%
(255.694946, 186.949951) (495.690338, 619.250244)
sub22_b4_sg_2_141.jpg: Predicted in 0.165785 seconds.
person: 62%
(262.962158, 189.412338) (561.759827, 613.198425)
sub22_b4_sg_2_142.jpg: Predicted in 0.157139 seconds.
person: 61%
(254.260239, 185.973770) (495.435425, 617.851990)
sub22_b4_sg_2_143.jpg: Predicted in 0.165316 seconds.
person: 62%
(255.325653, 186.330002) (494.812439, 617.707581)
sub22_b4_sg_2_144.jpg: Predicted in 0.156582 seconds.
person: 64%
(257.370239, 191.056702) (493.237274, 615.534790)
sub22_b4_sg_2_145.jpg: Predicted in 0.158031 seconds.
person: 63%
(256.690125, 190.275955) (493.833496, 615.471558)
sub22_b4_sg_2_146.jpg: Predicted in 0.160372 seconds.
person: 61%
(263.794647, 194.905441) (559.573486, 609.832581)
sub22_b4_sg_2_147.jpg: Predicted in 0.155700 seconds.
person: 61%
(251.452042, 190.963318) (498.744202, 615.517273)
sub22_b4_sg_2_148.jpg: Predicted in 0.157637 seconds.
person: 61%
(260.323639, 198.765808) (565.968689, 609.030273)
sub22_b4_sg_2_149.jpg: Predicted in 0.154685 seconds.
person: 61%
(257.213348, 199.028152) (569.771912, 611.907654)
sub22_b4_sg_2_150.jpg: Predicted in 0.155326 seconds.
person: 60%
(258.259857, 201.324005) (569.203674, 610.481140)
sub22_b4_sg_2_151.jpg: Predicted in 0.165730 seconds.
person: 60%
(256.219482, 201.178604) (574.094849, 612.026917)
sub22_b4_sg_2_152.jpg: Predicted in 0.157121 seconds.
person: 61%
(255.832855, 199.448318) (574.857056, 612.806580)
sub22_b4_sg_2_153.jpg: Predicted in 0.157288 seconds.
person: 61%
(256.218231, 196.323181) (572.522583, 613.493469)
sub22_b4_sg_2_154.jpg: Predicted in 0.155401 seconds.
person: 59%
(259.863129, 194.021637) (568.890564, 613.922363)
sub22_b4_sg_2_155.jpg: Predicted in 0.154812 seconds.
person: 60%
(259.214630, 194.882965) (569.264221, 614.148438)
sub22_b4_sg_2_156.jpg: Predicted in 0.155040 seconds.
person: 61%
(257.101044, 199.024658) (568.680115, 614.406799)
sub22_b4_sg_2_157.jpg: Predicted in 0.155172 seconds.
person: 59%
(259.353485, 196.908066) (564.558655, 613.572998)
sub22_b4_sg_2_158.jpg: Predicted in 0.154845 seconds.
person: 59%
(263.927399, 196.152878) (560.203735, 613.734985)
sub22_b4_sg_2_159.jpg: Predicted in 0.161990 seconds.
person: 59%
(264.099976, 196.067566) (563.593262, 612.813599)
sub22_b4_sg_2_160.jpg: Predicted in 0.154140 seconds.
person: 60%
(265.522644, 195.450134) (562.523193, 612.588013)
sub22_b4_sg_2_161.jpg: Predicted in 0.156882 seconds.
person: 60%
(261.804413, 195.304703) (566.268311, 614.952454)
sub22_b4_sg_2_162.jpg: Predicted in 0.155959 seconds.
person: 59%
(266.952728, 192.100403) (561.366882, 614.317810)
sub22_b4_sg_2_163.jpg: Predicted in 0.157105 seconds.
person: 59%
(262.054626, 191.614395) (566.943481, 614.887268)
sub22_b4_sg_2_164.jpg: Predicted in 0.156050 seconds.
person: 59%
(262.401886, 189.086182) (564.975525, 617.162781)
sub22_b4_sg_2_165.jpg: Predicted in 0.154038 seconds.
person: 58%
(265.642273, 189.438980) (561.718018, 615.386108)
sub22_b4_sg_2_166.jpg: Predicted in 0.155163 seconds.
person: 59%
(263.078705, 190.223602) (565.790405, 616.193298)
sub22_b4_sg_2_167.jpg: Predicted in 0.157679 seconds.
person: 59%
(264.263550, 190.172318) (562.268982, 616.148743)
sub22_b4_sg_2_168.jpg: Predicted in 0.155706 seconds.
person: 59%
(267.042755, 191.412170) (557.443726, 614.807007)
sub22_b4_sg_2_169.jpg: Predicted in 0.155146 seconds.
person: 60%
(267.673889, 189.906769) (556.042053, 614.379822)
sub22_b4_sg_2_170.jpg: Predicted in 0.156104 seconds.
person: 59%
(268.187836, 188.336319) (555.401855, 615.130310)
sub22_b4_sg_2_171.jpg: Predicted in 0.157384 seconds.
person: 59%
(268.081329, 189.798996) (556.210266, 613.392761)
sub22_b4_sg_2_172.jpg: Predicted in 0.158047 seconds.
person: 61%
(266.459412, 185.207504) (556.532898, 612.250488)
sub22_b4_sg_2_173.jpg: Predicted in 0.155419 seconds.
person: 59%
(266.564575, 184.665344) (557.957092, 612.016357)
sub22_b4_sg_2_174.jpg: Predicted in 0.154869 seconds.
person: 60%
(268.697449, 190.428040) (560.185852, 609.371765)
sub22_b4_sg_2_175.jpg: Predicted in 0.155410 seconds.
person: 59%
(270.506805, 187.707001) (554.291687, 610.985535)
sub22_b4_sg_2_176.jpg: Predicted in 0.158373 seconds.
person: 60%
(269.247314, 190.702560) (556.816895, 610.026794)
sub22_b4_sg_2_177.jpg: Predicted in 0.157026 seconds.
person: 59%
(273.180634, 192.758987) (555.903625, 609.354431)
sub22_b4_sg_2_178.jpg: Predicted in 0.155643 seconds.
person: 57%
(273.100220, 193.472427) (557.452087, 608.621948)
sub22_b4_sg_2_179.jpg: Predicted in 0.155296 seconds.
person: 55%
(275.151093, 190.876038) (555.268677, 610.516113)
sub22_b4_sg_2_180.jpg: Predicted in 0.154707 seconds.
person: 57%
(272.813110, 191.938858) (556.951233, 610.118591)
sub22_b4_sg_2_181.jpg: Predicted in 0.155141 seconds.
person: 56%
(275.953430, 190.097397) (552.546936, 610.118591)
sub22_b4_sg_2_182.jpg: Predicted in 0.156896 seconds.
person: 52%
(278.729492, 187.496475) (549.494934, 611.062744)
sub22_b4_sg_2_183.jpg: Predicted in 0.153921 seconds.
person: 53%
(281.250641, 187.846542) (547.715210, 614.341187)
sub22_b4_sg_2_184.jpg: Predicted in 0.162846 seconds.
person: 57%
(280.144409, 184.730530) (545.269653, 614.799866)
sub22_b4_sg_2_185.jpg: Predicted in 0.157529 seconds.
person: 57%
(279.373962, 180.241440) (545.314209, 616.171814)
sub22_b4_sg_2_186.jpg: Predicted in 0.163175 seconds.
person: 57%
(280.002167, 183.584305) (546.419128, 617.477722)
sub22_b4_sg_2_187.jpg: Predicted in 0.156698 seconds.
person: 59%
(280.351257, 182.762024) (545.833984, 618.903381)
sub22_b4_sg_2_188.jpg: Predicted in 0.156876 seconds.
person: 58%
(273.838379, 179.923965) (550.572693, 618.411133)
sub22_b4_sg_2_189.jpg: Predicted in 0.155446 seconds.
person: 59%
(273.510986, 179.809860) (550.171265, 618.018799)
sub22_b4_sg_2_190.jpg: Predicted in 0.157575 seconds.
person: 58%
(276.023132, 181.285217) (549.585510, 618.615662)
sub22_b4_sg_2_191.jpg: Predicted in 0.156347 seconds.
person: 57%
(276.018677, 186.828476) (551.231018, 617.115723)
sub22_b4_sg_2_192.jpg: Predicted in 0.160845 seconds.
person: 56%
(277.135345, 184.491730) (549.126404, 617.268677)
sub22_b4_sg_2_193.jpg: Predicted in 0.164744 seconds.
person: 57%
(273.611389, 184.963959) (552.676758, 616.617310)
sub22_b4_sg_2_194.jpg: Predicted in 0.157016 seconds.
person: 57%
(262.985229, 151.327179) (475.374451, 642.634460)
sub22_b4_sg_2_195.jpg: Predicted in 0.156480 seconds.
person: 55%
(268.562073, 187.806351) (558.444580, 616.346069)
sub22_b4_sg_2_196.jpg: Predicted in 0.155201 seconds.
person: 57%
(270.599609, 191.569946) (557.790649, 613.188721)
sub22_b4_sg_2_197.jpg: Predicted in 0.161181 seconds.
person: 58%
(267.961395, 193.075638) (561.505798, 611.702087)
sub22_b4_sg_2_198.jpg: Predicted in 0.156668 seconds.
person: 55%
(263.961182, 191.204193) (562.990662, 612.584839)
sub22_b4_sg_2_199.jpg: Predicted in 0.155499 seconds.
person: 57%
(262.998962, 195.779343) (564.423279, 611.692139)
sub22_b4_sg_2_200.jpg: Predicted in 0.156189 seconds.
person: 58%
(261.308258, 195.855881) (568.453979, 612.432190)
sub22_b4_sg_2_201.jpg: Predicted in 0.157201 seconds.
person: 57%
(265.176941, 199.330444) (568.621643, 611.285828)
sub22_b4_sg_2_202.jpg: Predicted in 0.158486 seconds.
person: 56%
(266.195496, 196.282654) (566.738892, 611.891968)
sub22_b4_sg_2_203.jpg: Predicted in 0.160877 seconds.
person: 56%
(263.766022, 196.667725) (569.227417, 612.547058)
sub22_b4_sg_2_204.jpg: Predicted in 0.158203 seconds.
person: 57%
(262.606506, 192.878754) (569.982971, 613.549377)
sub22_b4_sg_2_205.jpg: Predicted in 0.156138 seconds.
person: 56%
(266.478790, 188.549881) (564.963379, 613.863403)
sub22_b4_sg_2_206.jpg: Predicted in 0.162043 seconds.
person: 56%
(267.478882, 186.202621) (566.888428, 615.228394)
sub22_b4_sg_2_207.jpg: Predicted in 0.156360 seconds.
person: 59%
(265.799896, 192.901062) (570.901306, 612.140808)
sub22_b4_sg_2_208.jpg: Predicted in 0.159296 seconds.
person: 57%
(262.271271, 186.895920) (570.834961, 613.979736)
sub22_b4_sg_2_209.jpg: Predicted in 0.157194 seconds.
person: 59%
(261.660461, 195.015961) (575.476074, 611.124756)
sub22_b4_sg_2_210.jpg: Predicted in 0.155010 seconds.
person: 59%
(262.232880, 195.988846) (575.116150, 610.214539)
sub22_b4_sg_2_211.jpg: Predicted in 0.164260 seconds.
person: 59%
(258.924713, 189.260651) (578.777344, 610.514587)
sub22_b4_sg_2_212.jpg: Predicted in 0.181654 seconds.
person: 62%
(256.953308, 195.105911) (579.673279, 607.082458)
sub22_b4_sg_2_213.jpg: Predicted in 0.159246 seconds.
person: 62%
(263.067932, 195.583206) (577.251892, 607.361450)
sub22_b4_sg_2_214.jpg: Predicted in 0.156465 seconds.
person: 59%
(262.001007, 194.402664) (576.569458, 608.840759)
sub22_b4_sg_2_215.jpg: Predicted in 0.155378 seconds.
person: 59%
(264.808563, 188.295883) (572.794800, 610.847412)
sub22_b4_sg_2_216.jpg: Predicted in 0.156887 seconds.
person: 57%
(271.668274, 190.093948) (565.314697, 612.619080)
sub22_b4_sg_2_217.jpg: Predicted in 0.155559 seconds.
person: 55%
(272.402222, 191.254349) (567.645996, 610.272949)
sub22_b4_sg_2_218.jpg: Predicted in 0.157466 seconds.
person: 54%
(284.787292, 192.846329) (556.849426, 609.832336)
sub22_b4_sg_2_219.jpg: Predicted in 0.155132 seconds.
person: 52%
(285.732666, 190.588623) (552.355652, 611.122192)
sub22_b4_sg_2_220.jpg: Predicted in 0.154842 seconds.
person: 52%
(281.973022, 191.368393) (555.393555, 610.773254)
sub22_b4_sg_2_221.jpg: Predicted in 0.157354 seconds.
person: 48%
(286.040314, 188.421249) (549.249817, 612.485413)
sub22_b4_sg_2_222.jpg: Predicted in 0.155769 seconds.
person: 50%
(288.805634, 189.307861) (547.937683, 614.365723)
sub22_b4_sg_2_223.jpg: Predicted in 0.155246 seconds.
person: 49%
(283.719208, 183.047821) (554.977417, 613.960999)
sub22_b4_sg_2_224.jpg: Predicted in 0.155696 seconds.
person: 47%
(282.790894, 186.567001) (553.162842, 613.973267)
sub22_b4_sg_2_225.jpg: Predicted in 0.167278 seconds.
person: 45%
(284.010193, 185.347672) (552.418213, 615.679077)
sub22_b4_sg_2_226.jpg: Predicted in 0.154949 seconds.
person: 48%
(278.126495, 184.804916) (555.634644, 616.846069)
sub22_b4_sg_2_227.jpg: Predicted in 0.157338 seconds.
person: 49%
(275.707367, 187.368423) (559.151184, 614.872742)
sub22_b4_sg_2_228.jpg: Predicted in 0.166186 seconds.
person: 48%
(277.882477, 188.071823) (558.118774, 615.193665)
sub22_b4_sg_2_229.jpg: Predicted in 0.154500 seconds.
person: 46%
(281.229736, 188.515854) (560.010864, 615.195007)
sub22_b4_sg_2_230.jpg: Predicted in 0.155681 seconds.
person: 47%
(281.616211, 187.600845) (559.429871, 615.228699)
sub22_b4_sg_2_231.jpg: Predicted in 0.157018 seconds.
person: 40%
(283.145874, 185.947006) (562.187927, 614.780640)
sub22_b4_sg_2_232.jpg: Predicted in 0.154873 seconds.
person: 48%
(276.848175, 188.506607) (565.010132, 614.888977)
sub22_b4_sg_2_233.jpg: Predicted in 0.156561 seconds.
person: 43%
(276.484924, 188.095001) (563.185364, 616.810120)
sub22_b4_sg_2_234.jpg: Predicted in 0.155251 seconds.
person: 41%
(279.197754, 189.981583) (564.659119, 617.126465)
sub22_b4_sg_2_235.jpg: Predicted in 0.156498 seconds.
person: 43%
(288.193878, 194.688385) (558.675659, 616.170837)
sub22_b4_sg_2_236.jpg: Predicted in 0.156748 seconds.
person: 43%
(290.254578, 186.429947) (554.917786, 617.564331)
sub22_b4_sg_2_237.jpg: Predicted in 0.157317 seconds.
person: 39%
(286.854309, 184.273575) (556.534119, 618.704956)
sub22_b4_sg_2_238.jpg: Predicted in 0.157166 seconds.
person: 40%
(285.084259, 184.761688) (555.827637, 618.906799)
sub22_b4_sg_2_239.jpg: Predicted in 0.155662 seconds.
person: 38%
(288.942932, 176.765411) (552.682922, 620.902771)
sub22_b4_sg_2_240.jpg: Predicted in 0.157976 seconds.
person: 46%
(237.615936, 162.486526) (490.553772, 631.993469)
sub22_b4_sg_2_241.jpg: Predicted in 0.157618 seconds.
person: 43%
(280.707275, 172.848038) (556.076782, 621.006531)
sub22_b4_sg_2_242.jpg: Predicted in 0.157227 seconds.
person: 47%
(280.437256, 173.997314) (557.477112, 618.940002)
sub22_b4_sg_2_243.jpg: Predicted in 0.155527 seconds.
person: 45%
(281.037872, 173.818344) (558.438354, 619.384216)
sub22_b4_sg_2_244.jpg: Predicted in 0.155212 seconds.
person: 46%
(238.645645, 163.714523) (493.127411, 625.011658)
sub22_b4_sg_2_245.jpg: Predicted in 0.154954 seconds.
person: 51%
(271.729187, 175.397781) (563.262268, 616.488403)
sub22_b4_sg_2_246.jpg: Predicted in 0.156821 seconds.
person: 52%
(264.104126, 178.026276) (572.028809, 617.505737)
sub22_b4_sg_2_247.jpg: Predicted in 0.156440 seconds.
person: 55%
(266.453735, 183.988495) (572.371033, 612.772217)
sub22_b4_sg_2_248.jpg: Predicted in 0.156102 seconds.
person: 52%
(263.575897, 186.870453) (574.987671, 615.275818)
sub22_b4_sg_2_249.jpg: Predicted in 0.156164 seconds.
person: 57%
(260.328217, 193.143845) (574.136902, 614.362549)
sub22_b4_sg_2_250.jpg: Predicted in 0.156881 seconds.
person: 57%
(258.377258, 192.640564) (573.454346, 613.963135)
sub22_b4_sg_2_251.jpg: Predicted in 0.155891 seconds.
person: 56%
(260.346527, 191.173035) (570.541931, 612.774719)
sub22_b4_sg_2_252.jpg: Predicted in 0.156405 seconds.
person: 59%
(261.069122, 190.223770) (568.217041, 610.269592)
sub22_b4_sg_2_253.jpg: Predicted in 0.156338 seconds.
person: 59%
(259.142120, 195.438736) (571.313171, 609.808472)
sub22_b4_sg_2_254.jpg: Predicted in 0.154815 seconds.
person: 60%
(263.642944, 198.570679) (571.161682, 611.537231)
sub22_b4_sg_2_255.jpg: Predicted in 0.156886 seconds.
person: 62%
(262.797485, 192.540192) (563.816467, 610.938782)
sub22_b4_sg_2_256.jpg: Predicted in 0.157256 seconds.
person: 62%
(229.301270, 185.407990) (501.027771, 618.099609)
sub22_b4_sg_2_257.jpg: Predicted in 0.158123 seconds.
person: 64%
(226.267273, 184.145493) (500.548370, 618.496826)
sub22_b4_sg_2_258.jpg: Predicted in 0.164204 seconds.
person: 65%
(252.952698, 197.814346) (570.619263, 608.501343)
sub22_b4_sg_2_259.jpg: Predicted in 0.157042 seconds.
person: 67%
(235.220474, 189.872070) (504.049469, 621.083374)
sub22_b4_sg_2_260.jpg: Predicted in 0.155947 seconds.
person: 30%
(689.666931, 256.823883) (731.037903, 325.624634)
person: 63%
(258.821533, 193.554230) (565.408142, 610.308899)
sub22_b4_sg_2_261.jpg: Predicted in 0.155629 seconds.
person: 30%
(688.262207, 257.383362) (731.661499, 325.003754)
person: 67%
(268.441528, 188.514160) (557.969788, 611.673523)
sub22_b4_sg_2_262.jpg: Predicted in 0.155109 seconds.
person: 69%
(261.441772, 200.540421) (561.807617, 607.770935)
sub22_b4_sg_2_263.jpg: Predicted in 0.155483 seconds.
person: 69%
(274.323730, 200.240234) (553.021240, 608.030701)
sub22_b4_sg_2_264.jpg: Predicted in 0.155678 seconds.
person: 72%
(275.069183, 200.078766) (559.772095, 608.850647)
sub22_b4_sg_2_265.jpg: Predicted in 0.156987 seconds.
person: 72%
(276.225433, 198.714279) (551.931091, 606.751892)
sub22_b4_sg_2_266.jpg: Predicted in 0.162726 seconds.
person: 71%
(266.347534, 195.526306) (558.116150, 605.255432)
sub22_b4_sg_2_267.jpg: Predicted in 0.157089 seconds.
person: 71%
(266.407776, 189.723938) (562.487793, 606.375732)
sub22_b4_sg_2_268.jpg: Predicted in 0.160401 seconds.
person: 72%
(268.705292, 190.231583) (562.331787, 609.210632)
sub22_b4_sg_2_269.jpg: Predicted in 0.157654 seconds.
person: 66%
(267.965973, 187.532181) (564.028015, 608.645508)
sub22_b4_sg_2_270.jpg: Predicted in 0.159735 seconds.
person: 65%
(272.069000, 186.274811) (559.573364, 608.963562)
sub22_b4_sg_2_271.jpg: Predicted in 0.158190 seconds.
person: 65%
(270.813354, 181.265976) (560.886169, 609.149719)
sub22_b4_sg_2_272.jpg: Predicted in 0.156044 seconds.
person: 67%
(274.170288, 178.664734) (553.019653, 608.067627)
sub22_b4_sg_2_273.jpg: Predicted in 0.156734 seconds.
person: 67%
(271.960602, 181.043274) (552.349854, 605.549561)
sub22_b4_sg_2_274.jpg: Predicted in 0.157589 seconds.
person: 70%
(272.372528, 182.202072) (551.425903, 603.950012)
sub22_b4_sg_2_275.jpg: Predicted in 0.156717 seconds.
person: 68%
(279.616608, 175.917526) (543.062622, 607.006287)
sub22_b4_sg_2_276.jpg: Predicted in 0.173918 seconds.
person: 68%
(276.539124, 178.232620) (547.842957, 608.843689)
sub22_b4_sg_2_277.jpg: Predicted in 0.157510 seconds.
person: 66%
(275.401550, 181.631348) (551.526184, 607.857971)
sub22_b4_sg_2_278.jpg: Predicted in 0.157435 seconds.
person: 68%
(280.118286, 184.278564) (545.474365, 612.203613)
sub22_b4_sg_2_279.jpg: Predicted in 0.157647 seconds.
person: 65%
(268.687500, 176.964752) (556.105225, 613.948975)
sub22_b4_sg_2_280.jpg: Predicted in 0.156331 seconds.
person: 69%
(272.625000, 177.494263) (551.163818, 607.344055)
sub22_b4_sg_2_281.jpg: Predicted in 0.156861 seconds.
person: 69%
(283.943787, 176.321198) (539.948425, 609.253601)
sub22_b4_sg_2_282.jpg: Predicted in 0.157831 seconds.
person: 69%
(280.986450, 175.814728) (546.607361, 608.679016)
sub22_b4_sg_2_283.jpg: Predicted in 0.156166 seconds.
person: 67%
(279.980225, 177.966888) (543.657288, 609.634705)
sub22_b4_sg_2_284.jpg: Predicted in 0.155893 seconds.
person: 66%
(279.186188, 184.465027) (546.773987, 608.386719)
sub22_b4_sg_2_285.jpg: Predicted in 0.155214 seconds.
person: 66%
(288.509766, 191.698807) (544.580994, 609.482300)
sub22_b4_sg_2_286.jpg: Predicted in 0.157816 seconds.
person: 69%
(286.797333, 194.746750) (542.240356, 604.091919)
sub22_b4_sg_2_287.jpg: Predicted in 0.156082 seconds.
person: 68%
(285.879730, 195.005768) (544.584900, 604.281006)
sub22_b4_sg_2_288.jpg: Predicted in 0.165760 seconds.
person: 68%
(279.909027, 193.701813) (550.379211, 605.133667)
sub22_b4_sg_2_289.jpg: Predicted in 0.156767 seconds.
person: 73%
(279.387909, 193.607376) (552.408997, 604.980347)
sub22_b4_sg_2_290.jpg: Predicted in 0.157639 seconds.
person: 74%
(277.015289, 194.913620) (563.329712, 607.914795)
sub22_b4_sg_2_291.jpg: Predicted in 0.154875 seconds.
person: 72%
(274.426788, 200.081543) (563.715820, 604.762817)
sub22_b4_sg_2_292.jpg: Predicted in 0.163036 seconds.
person: 72%
(275.476044, 196.932266) (566.775269, 605.684875)
sub22_b4_sg_2_293.jpg: Predicted in 0.158466 seconds.
person: 72%
(262.833160, 191.035751) (577.379395, 605.766418)
sub22_b4_sg_2_294.jpg: Predicted in 0.157745 seconds.
person: 72%
(259.946442, 192.865295) (579.623169, 604.244324)
sub22_b4_sg_2_295.jpg: Predicted in 0.155610 seconds.
person: 72%
(256.156616, 191.723389) (580.559998, 604.199585)
sub22_b4_sg_2_296.jpg: Predicted in 0.157645 seconds.
person: 75%
(251.806671, 190.979584) (586.013428, 601.250793)
sub22_b4_sg_2_297.jpg: Predicted in 0.155769 seconds.
person: 74%
(253.432220, 192.582962) (591.987183, 600.764832)
sub22_b4_sg_2_298.jpg: Predicted in 0.161813 seconds.
person: 73%
(258.541321, 195.563965) (584.154724, 598.341797)
sub22_b4_sg_2_299.jpg: Predicted in 0.157490 seconds.
person: 74%
(259.473328, 188.694809) (592.172546, 596.373047)
sub22_b4_sg_2_300.jpg: Predicted in 0.155480 seconds.
person: 75%
(253.882507, 180.220245) (583.210449, 600.594788)
sub22_b4_sg_2_301.jpg: Predicted in 0.155412 seconds.
person: 72%
(259.308075, 182.514435) (575.870056, 602.363892)
sub22_b4_sg_2_302.jpg: Predicted in 0.156709 seconds.
person: 72%
(253.653503, 186.736328) (583.796997, 601.599915)
sub22_b4_sg_2_303.jpg: Predicted in 0.156161 seconds.
person: 74%
(254.838196, 186.567108) (580.160889, 605.211731)
sub22_b4_sg_2_304.jpg: Predicted in 0.158650 seconds.
person: 75%
(246.754532, 190.027496) (581.125427, 603.725342)
sub22_b4_sg_2_305.jpg: Predicted in 0.157317 seconds.
person: 73%
(248.200500, 190.851501) (579.520630, 603.270935)
sub22_b4_sg_2_306.jpg: Predicted in 0.164953 seconds.
person: 70%
(250.131378, 186.954025) (573.599609, 602.140564)
sub22_b4_sg_2_307.jpg: Predicted in 0.155883 seconds.
person: 69%
(249.323181, 183.939056) (571.799744, 604.482544)
sub22_b4_sg_2_308.jpg: Predicted in 0.157480 seconds.
person: 69%
(249.604279, 187.598450) (575.314514, 603.161682)
sub22_b4_sg_2_309.jpg: Predicted in 0.155092 seconds.
person: 69%
(252.158600, 184.579117) (567.000244, 605.261169)
sub22_b4_sg_2_310.jpg: Predicted in 0.156582 seconds.
person: 68%
(252.963928, 183.336349) (565.864563, 604.089905)
sub22_b4_sg_2_311.jpg: Predicted in 0.155540 seconds.
person: 70%
(250.055069, 181.467575) (569.124084, 604.836914)
sub22_b4_sg_2_312.jpg: Predicted in 0.158369 seconds.
person: 72%
(252.570312, 185.941650) (563.195435, 603.152222)
sub22_b4_sg_2_313.jpg: Predicted in 0.155147 seconds.
person: 72%
(257.152924, 186.567184) (557.248718, 602.909424)
sub22_b4_sg_2_314.jpg: Predicted in 0.156687 seconds.
person: 69%
(264.291229, 183.916290) (552.070557, 603.742249)
sub22_b4_sg_2_315.jpg: Predicted in 0.157435 seconds.
person: 67%
(264.875702, 189.067841) (553.604919, 604.714905)
sub22_b4_sg_2_316.jpg: Predicted in 0.157971 seconds.
person: 67%
(262.213104, 194.184494) (559.938293, 600.362732)
sub22_b4_sg_2_317.jpg: Predicted in 0.158423 seconds.
person: 68%
(274.183197, 195.301437) (546.425293, 600.903625)
sub22_b4_sg_2_318.jpg: Predicted in 0.166023 seconds.
person: 70%
(274.692505, 196.568604) (544.658936, 601.403381)
sub22_b4_sg_2_319.jpg: Predicted in 0.158772 seconds.
person: 72%
(276.324219, 196.573685) (543.312378, 599.924438)
sub22_b4_sg_2_320.jpg: Predicted in 0.158265 seconds.
person: 71%
(278.322723, 196.144073) (536.423889, 601.092651)
sub22_b4_sg_2_321.jpg: Predicted in 0.166011 seconds.
person: 72%
(280.644348, 198.521713) (533.208069, 600.354187)
