sub20_b4_lg_1_001.jpg: Predicted in 0.158736 seconds.
person: 45%
(184.957306, 200.629135) (469.699310, 616.618835)
sub20_b4_lg_1_002.jpg: Predicted in 0.158176 seconds.
person: 46%
(183.430557, 199.071030) (469.340271, 617.995667)
sub20_b4_lg_1_003.jpg: Predicted in 0.159445 seconds.
person: 44%
(180.176102, 199.533463) (470.727142, 618.647583)
sub20_b4_lg_1_004.jpg: Predicted in 0.157957 seconds.
person: 46%
(180.714478, 198.496765) (472.147461, 619.572693)
sub20_b4_lg_1_005.jpg: Predicted in 0.158836 seconds.
person: 50%
(182.343094, 196.227219) (468.523163, 620.560974)
sub20_b4_lg_1_006.jpg: Predicted in 0.161252 seconds.
person: 49%
(183.935913, 195.701385) (466.322052, 621.260315)
sub20_b4_lg_1_007.jpg: Predicted in 0.159816 seconds.
person: 48%
(183.281158, 193.807266) (464.814331, 622.074829)
sub20_b4_lg_1_008.jpg: Predicted in 0.161746 seconds.
person: 50%
(184.637314, 194.703888) (465.386505, 619.595703)
sub20_b4_lg_1_009.jpg: Predicted in 0.159612 seconds.
person: 50%
(185.443024, 195.599655) (464.847900, 620.300171)
sub20_b4_lg_1_010.jpg: Predicted in 0.159510 seconds.
person: 50%
(186.741135, 199.060196) (464.807800, 619.486084)
sub20_b4_lg_1_011.jpg: Predicted in 0.158801 seconds.
person: 30%
(398.847137, 252.067963) (444.553680, 335.270294)
person: 48%
(187.390884, 200.309998) (464.888458, 618.698181)
sub20_b4_lg_1_012.jpg: Predicted in 0.161279 seconds.
person: 48%
(187.462433, 196.897812) (465.028046, 622.185120)
sub20_b4_lg_1_013.jpg: Predicted in 0.157803 seconds.
person: 47%
(189.360062, 196.496201) (464.540833, 622.963440)
sub20_b4_lg_1_014.jpg: Predicted in 0.160559 seconds.
person: 46%
(186.444427, 197.986435) (464.674866, 621.182434)
sub20_b4_lg_1_015.jpg: Predicted in 0.160100 seconds.
person: 31%
(397.288361, 253.863785) (442.455139, 335.335724)
person: 44%
(190.687607, 200.843353) (464.945923, 619.965027)
sub20_b4_lg_1_016.jpg: Predicted in 0.162709 seconds.
person: 45%
(192.189087, 202.593811) (462.297150, 619.272339)
sub20_b4_lg_1_017.jpg: Predicted in 0.161177 seconds.
person: 44%
(195.987793, 207.685089) (458.542542, 615.989197)
sub20_b4_lg_1_018.jpg: Predicted in 0.159066 seconds.
person: 45%
(194.146667, 208.728333) (460.007141, 615.597961)
sub20_b4_lg_1_019.jpg: Predicted in 0.161092 seconds.
person: 46%
(194.406311, 208.604126) (458.277771, 615.306763)
sub20_b4_lg_1_020.jpg: Predicted in 0.158453 seconds.
person: 46%
(193.254852, 209.991638) (455.469727, 612.143616)
sub20_b4_lg_1_021.jpg: Predicted in 0.157623 seconds.
person: 46%
(192.475037, 207.056900) (456.727753, 611.971313)
sub20_b4_lg_1_022.jpg: Predicted in 0.157328 seconds.
person: 46%
(191.744827, 207.366440) (458.456451, 614.591125)
sub20_b4_lg_1_023.jpg: Predicted in 0.158847 seconds.
person: 49%
(192.767075, 207.250397) (459.822723, 614.257812)
sub20_b4_lg_1_024.jpg: Predicted in 0.161374 seconds.
person: 48%
(195.545898, 207.452179) (458.588318, 613.613342)
sub20_b4_lg_1_025.jpg: Predicted in 0.163092 seconds.
person: 45%
(193.714981, 207.673355) (458.190613, 613.612671)
sub20_b4_lg_1_026.jpg: Predicted in 0.160169 seconds.
person: 45%
(194.143295, 203.426407) (456.881470, 615.771545)
sub20_b4_lg_1_027.jpg: Predicted in 0.157391 seconds.
person: 46%
(193.477325, 200.978439) (454.753784, 617.032288)
sub20_b4_lg_1_028.jpg: Predicted in 0.159231 seconds.
person: 47%
(192.365051, 202.366547) (455.328644, 615.430054)
sub20_b4_lg_1_029.jpg: Predicted in 0.158689 seconds.
person: 48%
(191.354691, 201.946991) (454.066833, 615.349426)
sub20_b4_lg_1_030.jpg: Predicted in 0.158918 seconds.
person: 50%
(187.976624, 201.000839) (456.319183, 617.703369)
sub20_b4_lg_1_031.jpg: Predicted in 0.157890 seconds.
person: 54%
(185.958466, 199.049759) (457.239105, 620.239075)
sub20_b4_lg_1_032.jpg: Predicted in 0.158593 seconds.
person: 52%
(184.876297, 195.931870) (455.168091, 622.672913)
sub20_b4_lg_1_033.jpg: Predicted in 0.159548 seconds.
person: 52%
(184.702301, 197.508759) (456.269684, 622.507935)
sub20_b4_lg_1_034.jpg: Predicted in 0.159329 seconds.
person: 55%
(184.217896, 199.274200) (456.606232, 619.582214)
sub20_b4_lg_1_035.jpg: Predicted in 0.157639 seconds.
person: 30%
(394.726379, 254.725418) (440.817352, 337.565094)
person: 55%
(181.325775, 197.871109) (456.043152, 620.492371)
sub20_b4_lg_1_036.jpg: Predicted in 0.159552 seconds.
person: 56%
(183.824371, 197.605270) (455.769379, 619.733398)
sub20_b4_lg_1_037.jpg: Predicted in 0.157855 seconds.
person: 57%
(184.708069, 199.593109) (453.750336, 619.102356)
sub20_b4_lg_1_038.jpg: Predicted in 0.160412 seconds.
person: 59%
(184.570251, 201.758072) (453.737396, 618.600403)
sub20_b4_lg_1_039.jpg: Predicted in 0.158922 seconds.
person: 58%
(186.672501, 201.924683) (452.566223, 618.938660)
sub20_b4_lg_1_040.jpg: Predicted in 0.158092 seconds.
person: 57%
(184.257492, 203.439301) (454.780365, 618.902710)
sub20_b4_lg_1_041.jpg: Predicted in 0.158127 seconds.
person: 55%
(181.932846, 202.698059) (456.416321, 619.974426)
sub20_b4_lg_1_042.jpg: Predicted in 0.159117 seconds.
person: 56%
(181.904572, 200.843842) (457.012909, 621.920654)
sub20_b4_lg_1_043.jpg: Predicted in 0.157954 seconds.
person: 60%
(181.423157, 197.913956) (457.267151, 623.888855)
sub20_b4_lg_1_044.jpg: Predicted in 0.158483 seconds.
person: 58%
(182.508972, 197.938568) (456.771484, 625.037048)
sub20_b4_lg_1_045.jpg: Predicted in 0.159643 seconds.
person: 62%
(179.726624, 197.557877) (456.807922, 624.363647)
sub20_b4_lg_1_046.jpg: Predicted in 0.158448 seconds.
person: 61%
(180.725021, 197.547989) (456.910980, 623.583130)
sub20_b4_lg_1_047.jpg: Predicted in 0.161035 seconds.
person: 65%
(186.014160, 197.420456) (455.660400, 623.275452)
sub20_b4_lg_1_048.jpg: Predicted in 0.161929 seconds.
person: 67%
(189.795105, 198.679611) (453.199127, 620.463806)
sub20_b4_lg_1_049.jpg: Predicted in 0.160021 seconds.
person: 69%
(193.543167, 197.840256) (450.234131, 619.804626)
sub20_b4_lg_1_050.jpg: Predicted in 0.158065 seconds.
person: 69%
(193.245483, 196.581268) (450.830902, 621.452026)
sub20_b4_lg_1_051.jpg: Predicted in 0.158762 seconds.
person: 69%
(193.305496, 195.513626) (451.501801, 621.834106)
sub20_b4_lg_1_052.jpg: Predicted in 0.161449 seconds.
person: 66%
(194.527679, 196.166138) (450.960693, 621.801086)
sub20_b4_lg_1_053.jpg: Predicted in 0.160816 seconds.
person: 65%
(197.328018, 197.042328) (451.626587, 622.885925)
sub20_b4_lg_1_054.jpg: Predicted in 0.159858 seconds.
person: 64%
(195.315735, 197.899414) (453.940796, 622.765015)
sub20_b4_lg_1_055.jpg: Predicted in 0.160582 seconds.
person: 63%
(194.711807, 198.954865) (455.272247, 622.828857)
sub20_b4_lg_1_056.jpg: Predicted in 0.161321 seconds.
person: 62%
(195.966965, 198.693161) (456.431183, 622.455322)
sub20_b4_lg_1_057.jpg: Predicted in 0.157998 seconds.
person: 64%
(194.665390, 196.634048) (457.085388, 622.173340)
sub20_b4_lg_1_058.jpg: Predicted in 0.159103 seconds.
person: 68%
(197.058578, 196.182800) (456.808014, 621.172852)
sub20_b4_lg_1_059.jpg: Predicted in 0.160843 seconds.
person: 69%
(197.121765, 196.122116) (457.791107, 620.589111)
sub20_b4_lg_1_060.jpg: Predicted in 0.160178 seconds.
person: 68%
(200.100540, 196.206253) (456.611725, 619.168762)
sub20_b4_lg_1_061.jpg: Predicted in 0.161421 seconds.
person: 66%
(200.930130, 196.472351) (454.516357, 619.971558)
sub20_b4_lg_1_062.jpg: Predicted in 0.157920 seconds.
person: 68%
(198.857071, 198.738678) (457.000031, 619.256287)
sub20_b4_lg_1_063.jpg: Predicted in 0.158402 seconds.
person: 30%
(398.873810, 256.509338) (443.136475, 333.056702)
person: 69%
(202.311691, 200.111649) (452.878510, 616.253418)
sub20_b4_lg_1_064.jpg: Predicted in 0.159225 seconds.
person: 66%
(203.093124, 201.155350) (450.866058, 614.942566)
sub20_b4_lg_1_065.jpg: Predicted in 0.165060 seconds.
person: 64%
(203.313751, 200.967987) (451.784363, 615.653992)
sub20_b4_lg_1_066.jpg: Predicted in 0.162368 seconds.
person: 66%
(201.689468, 198.765091) (452.248291, 613.925842)
sub20_b4_lg_1_067.jpg: Predicted in 0.174950 seconds.
person: 30%
(398.502472, 255.758759) (443.282501, 334.903717)
person: 67%
(200.717224, 198.285263) (454.561340, 612.379944)
sub20_b4_lg_1_068.jpg: Predicted in 0.158855 seconds.
person: 30%
(397.279449, 256.407898) (442.475098, 335.241364)
person: 64%
(201.229584, 200.074249) (458.985260, 610.346741)
sub20_b4_lg_1_069.jpg: Predicted in 0.162911 seconds.
person: 65%
(203.363785, 202.236252) (458.561401, 609.323059)
sub20_b4_lg_1_070.jpg: Predicted in 0.164167 seconds.
person: 30%
(397.460846, 256.463928) (442.730103, 333.985504)
person: 65%
(207.074265, 202.962372) (457.284424, 609.291565)
sub20_b4_lg_1_071.jpg: Predicted in 0.166267 seconds.
person: 30%
(397.434082, 256.821320) (443.393799, 333.728333)
person: 67%
(207.508392, 204.283859) (458.982483, 606.336670)
sub20_b4_lg_1_072.jpg: Predicted in 0.161664 seconds.
person: 31%
(397.043640, 256.704285) (443.373596, 334.054413)
person: 67%
(213.150162, 202.168823) (458.195679, 605.889160)
sub20_b4_lg_1_073.jpg: Predicted in 0.159236 seconds.
person: 32%
(396.768372, 256.509216) (443.420593, 334.399231)
person: 67%
(214.434006, 201.345184) (458.825195, 604.721436)
sub20_b4_lg_1_074.jpg: Predicted in 0.159418 seconds.
person: 31%
(397.708252, 256.885223) (443.063019, 334.153900)
person: 67%
(216.873383, 203.427734) (456.288696, 602.756104)
sub20_b4_lg_1_075.jpg: Predicted in 0.160365 seconds.
person: 30%
(398.819000, 256.684052) (442.083099, 333.483429)
person: 70%
(211.148666, 201.284958) (459.302399, 604.067261)
sub20_b4_lg_1_076.jpg: Predicted in 0.160878 seconds.
person: 30%
(399.048218, 256.993164) (441.884247, 333.010345)
person: 69%
(208.228622, 202.259872) (462.647858, 604.812561)
sub20_b4_lg_1_077.jpg: Predicted in 0.157165 seconds.
person: 30%
(399.353882, 257.385773) (441.552887, 332.173218)
person: 70%
(205.756668, 200.737183) (464.241028, 607.220825)
sub20_b4_lg_1_078.jpg: Predicted in 0.166586 seconds.
person: 70%
(205.379944, 200.938766) (467.366394, 609.936951)
sub20_b4_lg_1_079.jpg: Predicted in 0.158305 seconds.
person: 71%
(207.961411, 198.376114) (463.512207, 612.646545)
sub20_b4_lg_1_080.jpg: Predicted in 0.158413 seconds.
person: 72%
(208.354095, 196.846527) (459.856201, 614.397644)
sub20_b4_lg_1_081.jpg: Predicted in 0.160722 seconds.
person: 72%
(211.018799, 197.621078) (458.960236, 615.152222)
sub20_b4_lg_1_082.jpg: Predicted in 0.162478 seconds.
person: 73%
(209.583801, 194.937180) (458.625275, 614.089233)
sub20_b4_lg_1_083.jpg: Predicted in 0.158374 seconds.
person: 71%
(207.220016, 193.897720) (459.646210, 614.533813)
sub20_b4_lg_1_084.jpg: Predicted in 0.158695 seconds.
person: 70%
(208.179794, 195.026871) (460.718506, 615.519043)
sub20_b4_lg_1_085.jpg: Predicted in 0.158939 seconds.
person: 70%
(212.474182, 198.175766) (461.015961, 615.595093)
sub20_b4_lg_1_086.jpg: Predicted in 0.158610 seconds.
person: 31%
(399.020935, 255.583206) (444.713745, 333.592163)
person: 70%
(208.487198, 195.278809) (462.211731, 618.368103)
sub20_b4_lg_1_087.jpg: Predicted in 0.158799 seconds.
person: 69%
(208.464691, 194.788651) (460.389587, 619.202637)
sub20_b4_lg_1_088.jpg: Predicted in 0.158289 seconds.
person: 69%
(212.279694, 196.095016) (458.176849, 617.973755)
sub20_b4_lg_1_089.jpg: Predicted in 0.157331 seconds.
person: 68%
(214.012100, 196.224121) (457.928375, 618.649292)
sub20_b4_lg_1_090.jpg: Predicted in 0.163371 seconds.
person: 67%
(213.817444, 197.203613) (455.142670, 618.278625)
sub20_b4_lg_1_091.jpg: Predicted in 0.159870 seconds.
person: 66%
(216.364731, 196.211792) (452.591339, 618.764404)
sub20_b4_lg_1_092.jpg: Predicted in 0.159703 seconds.
person: 30%
(397.873383, 255.739471) (443.929047, 334.051025)
person: 64%
(218.103729, 201.296204) (454.522156, 616.990417)
sub20_b4_lg_1_093.jpg: Predicted in 0.158588 seconds.
person: 63%
(218.724503, 203.933121) (457.771454, 617.621460)
sub20_b4_lg_1_094.jpg: Predicted in 0.158325 seconds.
person: 32%
(396.260559, 252.343704) (443.847015, 334.776245)
person: 64%
(220.944122, 206.486893) (462.097351, 614.868347)
sub20_b4_lg_1_095.jpg: Predicted in 0.165271 seconds.
person: 31%
(396.812134, 252.328674) (444.392700, 336.189941)
person: 65%
(220.834290, 206.103561) (463.219666, 616.669800)
sub20_b4_lg_1_096.jpg: Predicted in 0.158943 seconds.
person: 31%
(397.038330, 253.246643) (444.189850, 336.512085)
person: 64%
(217.868332, 204.593567) (463.446808, 615.309448)
sub20_b4_lg_1_097.jpg: Predicted in 0.160612 seconds.
person: 31%
(397.897858, 254.003616) (444.114716, 335.572540)
person: 64%
(217.743179, 209.405685) (463.630798, 613.707825)
sub20_b4_lg_1_098.jpg: Predicted in 0.158537 seconds.
person: 32%
(398.462433, 254.062698) (443.708344, 335.225616)
person: 66%
(214.880707, 209.198456) (467.034821, 615.496155)
sub20_b4_lg_1_099.jpg: Predicted in 0.167681 seconds.
person: 31%
(397.602875, 253.817047) (442.978943, 334.480682)
person: 65%
(216.364319, 213.146240) (467.706268, 613.850952)
sub20_b4_lg_1_100.jpg: Predicted in 0.159508 seconds.
sports ball: 31%
(1187.559326, 90.330986) (1211.331177, 110.279419)
person: 32%
(397.846649, 253.311157) (443.979675, 334.681610)
person: 66%
(216.578400, 209.490128) (466.376465, 615.203918)
sub20_b4_lg_1_101.jpg: Predicted in 0.159282 seconds.
sports ball: 31%
(1186.738770, 89.145874) (1210.086548, 108.391212)
person: 31%
(398.596832, 253.273010) (444.153809, 333.418976)
person: 68%
(216.398468, 210.438354) (463.210144, 612.468079)
sub20_b4_lg_1_102.jpg: Predicted in 0.158918 seconds.
person: 32%
(398.661652, 253.193237) (443.894501, 333.440399)
person: 69%
(216.906097, 207.677704) (463.324371, 614.223450)
sub20_b4_lg_1_103.jpg: Predicted in 0.157475 seconds.
person: 32%
(398.598816, 253.079254) (443.704956, 333.282593)
person: 67%
(221.898727, 205.339508) (462.326294, 613.666626)
sub20_b4_lg_1_104.jpg: Predicted in 0.157804 seconds.
person: 31%
(399.649353, 254.377960) (443.552551, 333.256744)
person: 67%
(221.563766, 206.761139) (461.077362, 613.633484)
sub20_b4_lg_1_105.jpg: Predicted in 0.158401 seconds.
person: 31%
(400.043335, 255.345459) (443.207306, 333.619537)
person: 68%
(220.670670, 209.211105) (462.212463, 613.141479)
sub20_b4_lg_1_106.jpg: Predicted in 0.159060 seconds.
person: 32%
(399.887909, 255.205093) (443.037445, 334.152679)
person: 66%
(220.528519, 210.153503) (462.371033, 612.352844)
sub20_b4_lg_1_107.jpg: Predicted in 0.159257 seconds.
person: 31%
(400.156372, 256.328583) (443.019073, 333.613251)
person: 63%
(222.245239, 218.410812) (460.495239, 607.143433)
sub20_b4_lg_1_108.jpg: Predicted in 0.167991 seconds.
person: 32%
(400.054565, 255.375595) (442.882446, 333.663055)
person: 64%
(227.433487, 215.998703) (457.758789, 606.710205)
sub20_b4_lg_1_109.jpg: Predicted in 0.163802 seconds.
person: 32%
(400.359985, 255.492645) (443.363068, 333.673798)
person: 64%
(226.941895, 213.421646) (454.698059, 606.997375)
sub20_b4_lg_1_110.jpg: Predicted in 0.159790 seconds.
person: 31%
(400.108429, 255.583542) (443.205780, 332.926544)
person: 66%
(224.188141, 214.980148) (455.227539, 605.215515)
sub20_b4_lg_1_111.jpg: Predicted in 0.160873 seconds.
person: 30%
(399.853394, 256.105194) (443.174622, 332.385956)
person: 66%
(223.200943, 217.756104) (454.859283, 604.066833)
sub20_b4_lg_1_112.jpg: Predicted in 0.163851 seconds.
person: 65%
(226.055939, 218.584305) (459.008759, 605.308594)
sub20_b4_lg_1_113.jpg: Predicted in 0.159703 seconds.
person: 30%
(400.299255, 256.000854) (443.490784, 331.729218)
person: 64%
(223.765305, 218.443069) (459.623047, 606.160034)
sub20_b4_lg_1_114.jpg: Predicted in 0.159010 seconds.
person: 61%
(224.431900, 216.049377) (457.577850, 604.557434)
sub20_b4_lg_1_115.jpg: Predicted in 0.156783 seconds.
person: 65%
(221.908661, 217.972137) (461.454590, 603.230408)
sub20_b4_lg_1_116.jpg: Predicted in 0.159363 seconds.
person: 67%
(224.226501, 214.741440) (462.085602, 605.434387)
sub20_b4_lg_1_117.jpg: Predicted in 0.158772 seconds.
person: 66%
(224.568222, 215.377075) (462.473541, 606.627136)
sub20_b4_lg_1_118.jpg: Predicted in 0.159037 seconds.
person: 66%
(223.740082, 217.891006) (461.853088, 605.541565)
sub20_b4_lg_1_119.jpg: Predicted in 0.167370 seconds.
person: 31%
(401.437866, 257.525696) (443.764618, 328.678223)
person: 69%
(224.969360, 214.163666) (460.168121, 606.634521)
sub20_b4_lg_1_120.jpg: Predicted in 0.157397 seconds.
person: 31%
(401.215515, 256.672363) (443.814148, 329.480286)
person: 70%
(225.510162, 211.218079) (459.934479, 607.960388)
sub20_b4_lg_1_121.jpg: Predicted in 0.158711 seconds.
person: 30%
(401.756348, 257.347260) (443.660065, 329.541962)
person: 69%
(220.771362, 210.148178) (462.017090, 609.029175)
sub20_b4_lg_1_122.jpg: Predicted in 0.160020 seconds.
person: 68%
(222.408386, 211.621948) (462.259521, 607.969543)
sub20_b4_lg_1_123.jpg: Predicted in 0.158050 seconds.
person: 68%
(221.392090, 210.760422) (460.406006, 607.732178)
sub20_b4_lg_1_124.jpg: Predicted in 0.159579 seconds.
person: 67%
(223.077789, 212.457458) (461.887024, 605.976685)
sub20_b4_lg_1_125.jpg: Predicted in 0.185284 seconds.
person: 32%
(399.062775, 255.596924) (443.724854, 328.635651)
person: 68%
(225.107834, 209.223907) (459.051575, 606.005615)
sub20_b4_lg_1_126.jpg: Predicted in 0.157356 seconds.
person: 32%
(398.207367, 255.513107) (443.625732, 329.638550)
person: 70%
(222.919891, 203.627258) (457.341888, 608.249695)
sub20_b4_lg_1_127.jpg: Predicted in 0.159625 seconds.
person: 32%
(398.326538, 255.092300) (443.977783, 331.165100)
person: 70%
(221.906525, 203.938797) (457.924957, 605.999939)
sub20_b4_lg_1_128.jpg: Predicted in 0.160584 seconds.
person: 32%
(397.726471, 254.806351) (443.156616, 330.258911)
person: 69%
(223.343216, 207.484848) (460.860199, 606.326538)
sub20_b4_lg_1_129.jpg: Predicted in 0.159891 seconds.
person: 32%
(397.485992, 255.422256) (442.684448, 329.899231)
person: 68%
(219.849182, 209.014130) (460.940460, 606.271912)
sub20_b4_lg_1_130.jpg: Predicted in 0.157435 seconds.
person: 32%
(397.762909, 255.347015) (442.892975, 330.123932)
person: 68%
(217.535706, 208.614700) (461.816040, 605.760620)
sub20_b4_lg_1_131.jpg: Predicted in 0.159090 seconds.
person: 32%
(398.826477, 256.073883) (442.849091, 329.650940)
person: 67%
(221.308334, 210.147385) (464.205200, 605.951416)
sub20_b4_lg_1_132.jpg: Predicted in 0.159036 seconds.
person: 32%
(399.060455, 256.720245) (442.787079, 328.775848)
person: 66%
(221.242859, 211.133057) (464.811981, 605.780945)
sub20_b4_lg_1_133.jpg: Predicted in 0.157628 seconds.
person: 66%
(225.372437, 211.069534) (464.274170, 606.313110)
sub20_b4_lg_1_134.jpg: Predicted in 0.168273 seconds.
person: 66%
(225.669159, 213.675507) (466.579376, 606.159973)
sub20_b4_lg_1_135.jpg: Predicted in 0.157712 seconds.
person: 66%
(224.782013, 210.849396) (466.684204, 609.342957)
sub20_b4_lg_1_136.jpg: Predicted in 0.163125 seconds.
person: 67%
(228.582596, 211.800034) (462.551605, 608.242126)
sub20_b4_lg_1_137.jpg: Predicted in 0.166801 seconds.
person: 66%
(225.273468, 211.388885) (462.481659, 610.525757)
sub20_b4_lg_1_138.jpg: Predicted in 0.158239 seconds.
person: 68%
(223.445374, 210.913666) (461.861572, 609.187500)
sub20_b4_lg_1_139.jpg: Predicted in 0.158337 seconds.
person: 62%
(222.863846, 216.156006) (466.519531, 608.376221)
sub20_b4_lg_1_140.jpg: Predicted in 0.158402 seconds.
person: 60%
(255.530624, 253.478210) (442.901764, 562.420227)
sub20_b4_lg_1_141.jpg: Predicted in 0.159745 seconds.
person: 63%
(257.147522, 250.522873) (440.866241, 565.301819)
sub20_b4_lg_1_142.jpg: Predicted in 0.165879 seconds.
person: 62%
(232.932373, 214.752502) (465.612244, 606.586731)
sub20_b4_lg_1_143.jpg: Predicted in 0.166110 seconds.
person: 64%
(236.621338, 214.653259) (463.968964, 607.510437)
sub20_b4_lg_1_144.jpg: Predicted in 0.160262 seconds.
person: 67%
(238.242523, 215.597672) (461.128052, 607.104370)
sub20_b4_lg_1_145.jpg: Predicted in 0.159396 seconds.
person: 66%
(238.276566, 212.872650) (460.333130, 608.243530)
sub20_b4_lg_1_146.jpg: Predicted in 0.160410 seconds.
person: 67%
(230.127045, 213.945801) (460.419067, 608.216614)
sub20_b4_lg_1_147.jpg: Predicted in 0.161497 seconds.
person: 63%
(232.934998, 211.520950) (461.946136, 608.543579)
sub20_b4_lg_1_148.jpg: Predicted in 0.160456 seconds.
person: 63%
(230.574219, 212.957031) (465.618347, 609.216003)
sub20_b4_lg_1_149.jpg: Predicted in 0.159035 seconds.
person: 65%
(231.593674, 211.805969) (465.496399, 609.737366)
sub20_b4_lg_1_150.jpg: Predicted in 0.157169 seconds.
person: 62%
(228.477188, 215.975769) (466.722687, 607.407104)
sub20_b4_lg_1_151.jpg: Predicted in 0.159143 seconds.
person: 62%
(229.536346, 215.300568) (466.252533, 605.155334)
sub20_b4_lg_1_152.jpg: Predicted in 0.156891 seconds.
person: 67%
(235.544205, 215.376007) (466.738586, 604.515808)
sub20_b4_lg_1_153.jpg: Predicted in 0.168512 seconds.
person: 66%
(233.553894, 211.315384) (468.533356, 607.740051)
sub20_b4_lg_1_154.jpg: Predicted in 0.194657 seconds.
person: 58%
(228.394806, 213.662155) (474.227722, 608.343018)
sub20_b4_lg_1_155.jpg: Predicted in 0.158092 seconds.
person: 53%
(266.176300, 264.032349) (446.188568, 554.085083)
sub20_b4_lg_1_156.jpg: Predicted in 0.160168 seconds.
person: 52%
(263.415161, 260.168884) (444.697266, 557.288391)
sub20_b4_lg_1_157.jpg: Predicted in 0.159916 seconds.
person: 43%
(220.209396, 209.760178) (485.004456, 608.079651)
sub20_b4_lg_1_158.jpg: Predicted in 0.157796 seconds.
person: 44%
(219.254013, 207.611206) (481.084045, 608.634827)
sub20_b4_lg_1_159.jpg: Predicted in 0.159387 seconds.
person: 52%
(210.576172, 209.225113) (483.554932, 608.145813)
sub20_b4_lg_1_160.jpg: Predicted in 0.156645 seconds.
person: 57%
(207.123352, 210.518005) (480.624908, 607.609131)
sub20_b4_lg_1_161.jpg: Predicted in 0.159059 seconds.
person: 55%
(208.152802, 210.041672) (484.606964, 606.415588)
sub20_b4_lg_1_162.jpg: Predicted in 0.164193 seconds.
person: 55%
(265.767090, 253.453369) (448.533386, 562.328308)
sub20_b4_lg_1_163.jpg: Predicted in 0.158635 seconds.
person: 58%
(208.629639, 218.224823) (485.300873, 603.420349)
sub20_b4_lg_1_164.jpg: Predicted in 0.161530 seconds.
person: 56%
(262.978088, 252.488785) (451.605896, 564.607422)
sub20_b4_lg_1_165.jpg: Predicted in 0.157586 seconds.
person: 58%
(263.806274, 251.376236) (447.894836, 565.249451)
sub20_b4_lg_1_166.jpg: Predicted in 0.156766 seconds.
person: 49%
(273.047699, 253.587509) (446.769806, 566.935181)
sub20_b4_lg_1_167.jpg: Predicted in 0.161342 seconds.
person: 45%
(214.127319, 208.185165) (492.557922, 614.484802)
sub20_b4_lg_1_168.jpg: Predicted in 0.160737 seconds.
person: 49%
(214.840912, 208.100800) (490.103699, 615.218628)
sub20_b4_lg_1_169.jpg: Predicted in 0.157598 seconds.
person: 50%
(277.953888, 265.013733) (445.366272, 561.987549)
sub20_b4_lg_1_170.jpg: Predicted in 0.158503 seconds.
person: 50%
(279.352173, 261.612000) (444.042908, 560.759888)
sub20_b4_lg_1_171.jpg: Predicted in 0.158277 seconds.
person: 43%
(267.457031, 310.984406) (469.953613, 576.940918)
sub20_b4_lg_1_172.jpg: Predicted in 0.158868 seconds.
person: 40%
(268.721405, 307.511383) (469.104431, 580.231873)
sub20_b4_lg_1_173.jpg: Predicted in 0.160487 seconds.
person: 45%
(216.252151, 198.155685) (486.128235, 624.681213)
sub20_b4_lg_1_174.jpg: Predicted in 0.159700 seconds.
person: 46%
(217.151169, 199.758148) (485.624847, 622.645569)
sub20_b4_lg_1_175.jpg: Predicted in 0.159517 seconds.
person: 52%
(220.179810, 199.253128) (485.774780, 622.953247)
sub20_b4_lg_1_176.jpg: Predicted in 0.169614 seconds.
person: 63%
(222.912079, 194.849487) (482.242493, 625.150757)
sub20_b4_lg_1_177.jpg: Predicted in 0.166700 seconds.
person: 56%
(223.662079, 199.365814) (484.745819, 620.315186)
sub20_b4_lg_1_178.jpg: Predicted in 0.158238 seconds.
person: 45%
(269.811859, 304.733612) (469.181824, 581.760864)
sub20_b4_lg_1_179.jpg: Predicted in 0.161298 seconds.
person: 43%
(269.215515, 305.056122) (469.050537, 585.263855)
sub20_b4_lg_1_180.jpg: Predicted in 0.156382 seconds.
person: 46%
(216.480240, 245.682648) (495.672852, 656.479553)
sub20_b4_lg_1_181.jpg: Predicted in 0.158860 seconds.
person: 45%
(217.299271, 196.437866) (486.441803, 623.118835)
sub20_b4_lg_1_182.jpg: Predicted in 0.165518 seconds.
person: 47%
(214.585876, 197.256180) (486.177124, 626.707153)
sub20_b4_lg_1_183.jpg: Predicted in 0.159440 seconds.
person: 49%
(210.503525, 242.340393) (496.555786, 657.966309)
sub20_b4_lg_1_184.jpg: Predicted in 0.159970 seconds.
person: 56%
(215.429733, 200.449722) (488.320343, 624.937744)
sub20_b4_lg_1_185.jpg: Predicted in 0.157591 seconds.
person: 52%
(214.553604, 195.531967) (487.830444, 630.489807)
sub20_b4_lg_1_186.jpg: Predicted in 0.159698 seconds.
person: 56%
(213.408951, 196.752090) (486.745911, 627.844299)
sub20_b4_lg_1_187.jpg: Predicted in 0.161218 seconds.
person: 31%
(394.535553, 253.953079) (440.339325, 326.681030)
person: 49%
(220.147049, 204.864807) (484.425262, 622.442627)
sub20_b4_lg_1_188.jpg: Predicted in 0.156917 seconds.
person: 32%
(394.267517, 254.257126) (439.964050, 329.035217)
person: 53%
(220.618439, 206.333450) (484.012756, 619.446777)
sub20_b4_lg_1_189.jpg: Predicted in 0.199763 seconds.
person: 31%
(393.653442, 255.044800) (439.028809, 328.757965)
person: 54%
(218.831421, 202.911087) (485.835938, 622.154053)
sub20_b4_lg_1_190.jpg: Predicted in 0.161520 seconds.
person: 52%
(218.300201, 200.580856) (489.139771, 626.100098)
baseball bat: 31%
(432.704651, 425.912720) (650.531799, 518.014282)
sub20_b4_lg_1_191.jpg: Predicted in 0.157725 seconds.
person: 30%
(393.432068, 254.549683) (439.266907, 327.923309)
person: 56%
(211.037384, 206.712265) (494.322418, 622.127197)
baseball bat: 30%
(430.123444, 424.927490) (650.113586, 517.589111)
sub20_b4_lg_1_192.jpg: Predicted in 0.159611 seconds.
person: 59%
(210.277924, 202.419785) (498.352142, 625.872864)
sub20_b4_lg_1_193.jpg: Predicted in 0.160391 seconds.
person: 61%
(214.372528, 205.258148) (496.089050, 624.332458)
baseball bat: 32%
(433.315399, 421.845764) (652.121399, 518.105286)
sub20_b4_lg_1_194.jpg: Predicted in 0.157145 seconds.
person: 64%
(212.141113, 203.615265) (492.969727, 622.302734)
sub20_b4_lg_1_195.jpg: Predicted in 0.168446 seconds.
person: 59%
(213.265106, 204.293518) (498.379486, 624.419495)
sub20_b4_lg_1_196.jpg: Predicted in 0.156338 seconds.
person: 62%
(214.951752, 206.104584) (492.582184, 622.273926)
sub20_b4_lg_1_197.jpg: Predicted in 0.164347 seconds.
person: 63%
(214.378281, 210.773224) (494.152893, 621.188293)
sub20_b4_lg_1_198.jpg: Predicted in 0.159156 seconds.
person: 61%
(215.565781, 209.475037) (493.530670, 623.329834)
sub20_b4_lg_1_199.jpg: Predicted in 0.156783 seconds.
person: 64%
(212.405762, 210.675598) (492.184296, 623.781799)
sub20_b4_lg_1_200.jpg: Predicted in 0.159874 seconds.
person: 61%
(211.648438, 212.084671) (495.638702, 622.573547)
sub20_b4_lg_1_201.jpg: Predicted in 0.159136 seconds.
person: 64%
(211.887512, 212.309219) (493.111877, 622.337280)
sub20_b4_lg_1_202.jpg: Predicted in 0.159612 seconds.
person: 66%
(206.883224, 212.538361) (495.127747, 622.160889)
baseball bat: 30%
(429.962616, 426.911896) (650.705627, 518.359131)
sub20_b4_lg_1_203.jpg: Predicted in 0.157619 seconds.
person: 66%
(203.539963, 213.747910) (495.641724, 622.901978)
baseball bat: 34%
(430.711273, 428.006989) (649.633728, 517.907654)
sub20_b4_lg_1_204.jpg: Predicted in 0.158124 seconds.
person: 65%
(202.170273, 213.305756) (491.219910, 621.976074)
baseball bat: 34%
(432.382538, 426.873810) (651.572632, 518.487061)
sub20_b4_lg_1_205.jpg: Predicted in 0.160610 seconds.
person: 30%
(394.191437, 256.989960) (439.401245, 329.626038)
person: 65%
(196.754807, 213.796646) (489.970123, 621.036682)
baseball bat: 31%
(429.678375, 425.841034) (651.313232, 519.390564)
sub20_b4_lg_1_206.jpg: Predicted in 0.159435 seconds.
person: 30%
(393.872406, 256.600647) (438.461578, 330.266602)
person: 62%
(195.949387, 218.621582) (494.991608, 618.654663)
baseball bat: 31%
(429.314514, 426.013702) (652.728699, 519.731934)
sub20_b4_lg_1_207.jpg: Predicted in 0.163023 seconds.
person: 60%
(196.890808, 217.622849) (499.613251, 620.234985)
baseball bat: 30%
(430.341125, 425.963928) (651.957397, 518.137695)
sub20_b4_lg_1_208.jpg: Predicted in 0.158799 seconds.
person: 57%
(189.781540, 241.160721) (502.424255, 662.278137)
baseball bat: 31%
(428.295380, 425.284027) (653.636292, 519.472656)
sub20_b4_lg_1_209.jpg: Predicted in 0.158745 seconds.
person: 56%
(194.037308, 237.350327) (502.988434, 663.762207)
baseball bat: 32%
(431.363098, 425.966125) (651.019470, 518.524902)
sub20_b4_lg_1_210.jpg: Predicted in 0.159249 seconds.
person: 52%
(201.735046, 246.058578) (499.890076, 661.124573)
baseball bat: 31%
(429.046967, 425.300507) (652.028198, 520.234558)
sub20_b4_lg_1_211.jpg: Predicted in 0.158374 seconds.
person: 53%
(198.897293, 250.552155) (500.019623, 656.581238)
baseball bat: 34%
(427.389740, 421.914001) (653.047607, 521.342102)
sub20_b4_lg_1_212.jpg: Predicted in 0.158738 seconds.
person: 52%
(197.426407, 256.999542) (498.795746, 653.111328)
baseball bat: 30%
(425.953827, 422.882751) (652.866760, 522.133057)
sub20_b4_lg_1_213.jpg: Predicted in 0.158013 seconds.
person: 55%
(196.335297, 254.667587) (498.153992, 656.864685)
sub20_b4_lg_1_214.jpg: Predicted in 0.161352 seconds.
person: 54%
(203.605591, 250.198502) (496.102905, 660.052734)
sub20_b4_lg_1_215.jpg: Predicted in 0.158969 seconds.
person: 51%
(206.307449, 254.113846) (492.942261, 655.600098)
sub20_b4_lg_1_216.jpg: Predicted in 0.160787 seconds.
person: 49%
(206.936295, 254.131454) (490.493286, 656.300781)
sub20_b4_lg_1_217.jpg: Predicted in 0.157490 seconds.
person: 48%
(208.793564, 248.425125) (487.140198, 657.338379)
sub20_b4_lg_1_218.jpg: Predicted in 0.158283 seconds.
person: 52%
(214.622238, 248.872238) (481.469299, 657.420227)
sub20_b4_lg_1_219.jpg: Predicted in 0.160981 seconds.
person: 33%
(245.734482, 299.659454) (438.955536, 518.594055)
person: 46%
(214.623901, 250.244171) (485.783203, 655.114441)
sub20_b4_lg_1_220.jpg: Predicted in 0.158939 seconds.
person: 33%
(260.341644, 293.410828) (439.404297, 523.838318)
person: 44%
(221.961685, 246.117737) (482.406830, 656.349792)
sub20_b4_lg_1_221.jpg: Predicted in 0.158272 seconds.
person: 51%
(220.727112, 243.566925) (485.673401, 656.570679)
sub20_b4_lg_1_222.jpg: Predicted in 0.158482 seconds.
person: 53%
(215.256439, 243.752045) (490.577545, 656.327026)
sub20_b4_lg_1_223.jpg: Predicted in 0.158915 seconds.
person: 40%
(265.769867, 277.640594) (442.556915, 546.123047)
person: 53%
(207.316223, 235.650391) (491.164246, 662.627258)
sub20_b4_lg_1_224.jpg: Predicted in 0.168478 seconds.
person: 41%
(259.856018, 287.631226) (451.814209, 526.767151)
person: 45%
(210.034805, 245.702072) (502.137421, 653.253357)
sub20_b4_lg_1_225.jpg: Predicted in 0.158211 seconds.
person: 43%
(263.124207, 285.324799) (452.541840, 531.169983)
person: 47%
(208.874756, 241.468002) (502.119598, 655.083435)
sub20_b4_lg_1_226.jpg: Predicted in 0.160455 seconds.
person: 46%
(261.027588, 282.903046) (453.382721, 530.705872)
person: 48%
(208.285934, 240.379425) (499.054779, 654.984863)
sub20_b4_lg_1_227.jpg: Predicted in 0.159712 seconds.
person: 49%
(260.936218, 277.141144) (456.254730, 538.930176)
sub20_b4_lg_1_228.jpg: Predicted in 0.157586 seconds.
person: 53%
(209.928299, 238.405563) (498.355255, 655.927612)
sub20_b4_lg_1_229.jpg: Predicted in 0.157736 seconds.
person: 55%
(264.768341, 271.869904) (458.259827, 544.841431)
sub20_b4_lg_1_230.jpg: Predicted in 0.161988 seconds.
person: 57%
(264.406891, 267.268280) (463.562317, 549.186218)
sub20_b4_lg_1_231.jpg: Predicted in 0.159059 seconds.
person: 52%
(269.471161, 271.228607) (459.480927, 542.714844)
sub20_b4_lg_1_232.jpg: Predicted in 0.157792 seconds.
person: 56%
(272.705170, 265.711334) (459.355225, 544.801331)
baseball bat: 32%
(413.708862, 410.447540) (655.003845, 527.251770)
sub20_b4_lg_1_233.jpg: Predicted in 0.157435 seconds.
person: 56%
(274.455475, 262.100861) (465.946991, 553.888245)
sub20_b4_lg_1_234.jpg: Predicted in 0.158451 seconds.
person: 53%
(208.622986, 233.468552) (498.627228, 656.803406)
baseball bat: 36%
(420.515259, 410.345032) (654.432007, 527.079712)
sub20_b4_lg_1_235.jpg: Predicted in 0.168134 seconds.
person: 57%
(209.559814, 230.476898) (496.253632, 660.611023)
baseball bat: 34%
(420.203552, 411.711700) (652.468872, 526.775635)
sub20_b4_lg_1_236.jpg: Predicted in 0.159939 seconds.
person: 55%
(207.066177, 229.248383) (500.642853, 663.501892)
baseball bat: 38%
(419.822571, 412.015106) (650.705383, 524.183716)
sub20_b4_lg_1_237.jpg: Predicted in 0.159383 seconds.
person: 57%
(274.344391, 268.461639) (464.387543, 550.973022)
baseball bat: 34%
(418.143036, 412.576996) (650.169434, 523.865601)
sub20_b4_lg_1_238.jpg: Predicted in 0.160132 seconds.
person: 59%
(276.356323, 262.404846) (463.946106, 553.912354)
baseball bat: 34%
(418.393341, 408.422791) (651.818237, 522.799438)
sub20_b4_lg_1_239.jpg: Predicted in 0.160898 seconds.
person: 62%
(275.491089, 259.123932) (467.673370, 557.370789)
baseball bat: 32%
(418.327362, 409.663086) (650.348816, 520.919922)
sub20_b4_lg_1_240.jpg: Predicted in 0.161289 seconds.
person: 64%
(269.981323, 260.727295) (470.651459, 553.864502)
baseball bat: 36%
(418.880463, 406.741180) (653.463684, 520.091797)
sub20_b4_lg_1_241.jpg: Predicted in 0.164341 seconds.
person: 66%
(270.022278, 258.614075) (469.310974, 555.247620)
baseball bat: 32%
(416.739594, 404.078888) (658.457153, 521.725220)
sub20_b4_lg_1_242.jpg: Predicted in 0.164635 seconds.
person: 64%
(272.418915, 254.905411) (465.936096, 554.903198)
baseball bat: 35%
(414.493958, 404.938690) (654.698730, 522.311401)
sub20_b4_lg_1_243.jpg: Predicted in 0.157741 seconds.
person: 69%
(276.460754, 251.899963) (466.180237, 558.492615)
baseball bat: 32%
(412.232147, 404.415222) (656.448608, 524.538513)
sub20_b4_lg_1_244.jpg: Predicted in 0.158122 seconds.
person: 68%
(278.536346, 253.361664) (464.776031, 558.007935)
baseball bat: 35%
(412.538208, 401.570160) (657.308167, 525.235413)
sub20_b4_lg_1_245.jpg: Predicted in 0.157657 seconds.
person: 69%
(274.900970, 252.309357) (464.025574, 559.634094)
sub20_b4_lg_1_246.jpg: Predicted in 0.159285 seconds.
person: 65%
(271.339203, 249.456207) (465.907654, 562.282593)
sub20_b4_lg_1_247.jpg: Predicted in 0.158664 seconds.
person: 57%
(269.265015, 248.867630) (460.035522, 559.112305)
sub20_b4_lg_1_248.jpg: Predicted in 0.166937 seconds.
person: 59%
(266.018341, 239.476486) (461.494934, 562.692444)
sub20_b4_lg_1_249.jpg: Predicted in 0.160013 seconds.
person: 57%
(220.812057, 223.231323) (487.723541, 603.704468)
baseball bat: 30%
(417.831116, 401.595337) (658.540710, 532.089783)
sub20_b4_lg_1_250.jpg: Predicted in 0.159254 seconds.
person: 61%
(224.012756, 223.250046) (484.658661, 602.721008)
sub20_b4_lg_1_251.jpg: Predicted in 0.164764 seconds.
person: 68%
(230.323364, 228.167236) (483.979523, 596.114441)
sub20_b4_lg_1_252.jpg: Predicted in 0.158938 seconds.
person: 67%
(233.170807, 230.808670) (489.100769, 593.138184)
sub20_b4_lg_1_253.jpg: Predicted in 0.157969 seconds.
person: 67%
(225.067795, 224.510910) (490.412689, 596.983582)
sub20_b4_lg_1_254.jpg: Predicted in 0.158659 seconds.
person: 67%
(226.058441, 224.449982) (495.888519, 597.352234)
baseball bat: 31%
(425.116760, 401.038818) (655.454651, 528.071594)
sub20_b4_lg_1_255.jpg: Predicted in 0.156999 seconds.
person: 68%
(222.748734, 220.711670) (505.108704, 599.103760)
sub20_b4_lg_1_256.jpg: Predicted in 0.158765 seconds.
person: 64%
(221.724792, 218.631653) (499.687195, 604.923218)
baseball bat: 34%
(427.214600, 408.736389) (651.833801, 525.564209)
sub20_b4_lg_1_257.jpg: Predicted in 0.157368 seconds.
person: 67%
(220.236115, 219.939331) (488.992767, 604.156006)
baseball bat: 41%
(426.037109, 402.023285) (656.863220, 525.770813)
sub20_b4_lg_1_258.jpg: Predicted in 0.160578 seconds.
person: 66%
(218.852234, 220.076767) (489.836273, 605.622681)
baseball bat: 43%
(429.605469, 405.039551) (657.041931, 521.071289)
sub20_b4_lg_1_259.jpg: Predicted in 0.157230 seconds.
person: 67%
(217.317932, 221.304016) (498.014313, 604.309082)
baseball bat: 32%
(432.695526, 396.007172) (654.581482, 523.760193)
sub20_b4_lg_1_260.jpg: Predicted in 0.158210 seconds.
person: 66%
(218.958130, 219.902222) (502.822327, 607.605957)
sub20_b4_lg_1_261.jpg: Predicted in 0.160019 seconds.
person: 64%
(217.688309, 218.271927) (501.765198, 610.771729)
sub20_b4_lg_1_262.jpg: Predicted in 0.158495 seconds.
person: 67%
(218.616516, 219.839874) (507.389709, 608.423401)
baseball bat: 33%
(437.897064, 303.985321) (645.593201, 503.912720)
sub20_b4_lg_1_263.jpg: Predicted in 0.158095 seconds.
person: 67%
(219.615906, 217.874832) (505.314148, 609.213806)
baseball bat: 35%
(437.989563, 309.332550) (643.972412, 502.122498)
sub20_b4_lg_1_264.jpg: Predicted in 0.168432 seconds.
person: 67%
(219.814133, 217.826706) (503.668915, 609.116028)
baseball bat: 41%
(437.340210, 311.322540) (633.545410, 499.746368)
sub20_b4_lg_1_265.jpg: Predicted in 0.159851 seconds.
person: 62%
(218.900146, 213.825363) (502.253571, 614.011230)
baseball bat: 42%
(436.533783, 315.498718) (631.327332, 498.233551)
sub20_b4_lg_1_266.jpg: Predicted in 0.171577 seconds.
person: 63%
(217.502533, 210.703522) (500.759338, 617.843201)
baseball bat: 47%
(442.556641, 316.523224) (628.975586, 501.494354)
sub20_b4_lg_1_267.jpg: Predicted in 0.158101 seconds.
person: 66%
(214.538910, 211.489349) (497.215240, 617.161011)
baseball bat: 48%
(434.645325, 316.648895) (632.288086, 500.752716)
sub20_b4_lg_1_268.jpg: Predicted in 0.160523 seconds.
person: 66%
(215.075897, 210.144180) (496.538025, 614.669861)
baseball bat: 47%
(427.342804, 310.450806) (633.472961, 501.328979)
sub20_b4_lg_1_269.jpg: Predicted in 0.166138 seconds.
person: 67%
(217.895966, 211.086105) (499.252075, 612.292358)
baseball bat: 46%
(426.160645, 310.036957) (630.540527, 497.300323)
sub20_b4_lg_1_270.jpg: Predicted in 0.157432 seconds.
person: 65%
(218.513000, 211.302277) (498.392914, 612.207886)
baseball bat: 49%
(422.644684, 306.198395) (629.855469, 497.878204)
sub20_b4_lg_1_271.jpg: Predicted in 0.157442 seconds.
person: 64%
(218.725601, 212.061661) (500.177979, 610.109375)
baseball bat: 46%
(421.177734, 300.768219) (633.491760, 494.891479)
sub20_b4_lg_1_272.jpg: Predicted in 0.160041 seconds.
person: 63%
(219.060532, 215.502274) (499.624176, 608.007202)
baseball bat: 49%
(410.673370, 297.048065) (637.184387, 499.863098)
sub20_b4_lg_1_273.jpg: Predicted in 0.157879 seconds.
sports ball: 31%
(713.836609, 276.860229) (764.673950, 300.713318)
person: 65%
(218.350006, 213.485535) (504.212616, 610.862732)
baseball bat: 52%
(419.067108, 302.671967) (627.139954, 490.028198)
sub20_b4_lg_1_274.jpg: Predicted in 0.161447 seconds.
sports ball: 37%
(705.242798, 277.398834) (756.939697, 302.967560)
person: 64%
(219.535126, 215.447540) (500.609894, 609.475403)
baseball bat: 59%
(416.382111, 303.179871) (630.941833, 487.040436)
sub20_b4_lg_1_275.jpg: Predicted in 0.159657 seconds.
person: 64%
(222.360046, 216.217377) (499.660126, 609.912842)
baseball bat: 57%
(415.633331, 305.955200) (635.584290, 487.952545)
sub20_b4_lg_1_276.jpg: Predicted in 0.156964 seconds.
person: 64%
(225.177277, 217.571152) (494.834839, 606.534119)
baseball bat: 62%
(417.479584, 306.181488) (637.300903, 488.893524)
sub20_b4_lg_1_277.jpg: Predicted in 0.159871 seconds.
person: 64%
(226.634903, 218.737854) (494.567505, 605.619568)
baseball bat: 66%
(412.862000, 305.080261) (647.871582, 491.616669)
sub20_b4_lg_1_278.jpg: Predicted in 0.161147 seconds.
person: 61%
(228.464020, 219.099503) (487.979218, 606.368469)
baseball bat: 65%
(417.950043, 307.064178) (654.852905, 489.937561)
sub20_b4_lg_1_279.jpg: Predicted in 0.160748 seconds.
person: 61%
(228.566238, 217.985886) (485.840424, 607.145813)
baseball bat: 68%
(412.951263, 309.709625) (655.848083, 491.352203)
sub20_b4_lg_1_280.jpg: Predicted in 0.157066 seconds.
person: 67%
(228.630661, 219.137100) (482.341644, 601.200562)
baseball bat: 73%
(400.298248, 307.864716) (665.095947, 491.759949)
sub20_b4_lg_1_281.jpg: Predicted in 0.168639 seconds.
sports ball: 32%
(686.535217, 303.542847) (732.323853, 325.121796)
person: 66%
(227.858780, 220.232468) (485.241791, 601.457458)
baseball bat: 72%
(397.724426, 309.803802) (671.719299, 486.735443)
sub20_b4_lg_1_282.jpg: Predicted in 0.158940 seconds.
sports ball: 45%
(685.164734, 303.601532) (732.844604, 327.670502)
person: 65%
(228.437149, 220.248550) (488.702972, 599.778442)
baseball bat: 74%
(392.119324, 310.211548) (670.374390, 490.300873)
sub20_b4_lg_1_283.jpg: Predicted in 0.158967 seconds.
sports ball: 43%
(687.107910, 307.063049) (725.134521, 329.725006)
person: 65%
(226.555923, 220.630737) (491.297394, 601.683899)
baseball bat: 70%
(397.165710, 309.561615) (666.414551, 490.905304)
sub20_b4_lg_1_284.jpg: Predicted in 0.157602 seconds.
sports ball: 41%
(686.351501, 307.872223) (724.396912, 330.397156)
person: 67%
(227.002884, 218.175568) (493.894562, 604.788635)
baseball bat: 63%
(400.298584, 311.870270) (658.591125, 487.773804)
sub20_b4_lg_1_285.jpg: Predicted in 0.156178 seconds.
sports ball: 45%
(684.601379, 305.944397) (720.283569, 330.800995)
person: 68%
(223.351532, 216.930740) (491.054047, 604.147278)
baseball bat: 64%
(398.080505, 310.771484) (667.232056, 481.051208)
sub20_b4_lg_1_286.jpg: Predicted in 0.160170 seconds.
sports ball: 40%
(685.143860, 306.780975) (715.976440, 330.567139)
person: 67%
(223.171707, 213.552658) (488.869293, 607.805359)
baseball bat: 66%
(402.541931, 311.547485) (666.085449, 488.250153)
sub20_b4_lg_1_287.jpg: Predicted in 0.156861 seconds.
sports ball: 43%
(682.262573, 305.868225) (714.743652, 330.843903)
person: 66%
(221.911362, 209.282059) (492.119629, 614.858276)
baseball bat: 66%
(408.298706, 313.268585) (666.755615, 483.708496)
sub20_b4_lg_1_288.jpg: Predicted in 0.166062 seconds.
person: 68%
(223.160721, 211.646072) (488.338898, 611.362976)
baseball bat: 64%
(410.193909, 314.924255) (669.670349, 482.797272)
sub20_b4_lg_1_289.jpg: Predicted in 0.159950 seconds.
person: 67%
(222.053116, 210.356003) (490.753571, 612.073853)
baseball bat: 60%
(408.899231, 309.639069) (673.809814, 485.992950)
sub20_b4_lg_1_290.jpg: Predicted in 0.157500 seconds.
sports ball: 33%
(645.459778, 319.467285) (684.772888, 343.705231)
person: 67%
(219.895660, 210.288574) (494.067810, 612.961365)
baseball bat: 62%
(414.546143, 310.674683) (678.030151, 484.633575)
sub20_b4_lg_1_291.jpg: Predicted in 0.158213 seconds.
sports ball: 34%
(645.155701, 318.576508) (684.071716, 341.543823)
person: 68%
(220.526413, 211.917572) (497.282349, 611.545410)
baseball bat: 59%
(416.032562, 307.395905) (680.018188, 485.009216)
sub20_b4_lg_1_292.jpg: Predicted in 0.157502 seconds.
person: 67%
(220.463181, 212.134521) (502.233582, 612.600830)
baseball bat: 51%
(426.132294, 311.115479) (673.227539, 481.122864)
sub20_b4_lg_1_293.jpg: Predicted in 0.158280 seconds.
person: 67%
(221.833008, 208.912155) (497.679779, 614.821350)
baseball bat: 50%
(427.459259, 314.799805) (667.678894, 481.553162)
sub20_b4_lg_1_294.jpg: Predicted in 0.158478 seconds.
person: 64%
(217.785019, 207.842667) (504.778839, 615.340332)
baseball bat: 49%
(427.182465, 315.185089) (667.575623, 485.062286)
sub20_b4_lg_1_295.jpg: Predicted in 0.158548 seconds.
person: 64%
(217.971848, 206.475830) (508.436676, 615.872314)
baseball bat: 44%
(418.932343, 317.416779) (672.694397, 480.543488)
sub20_b4_lg_1_296.jpg: Predicted in 0.157765 seconds.
person: 64%
(219.143982, 204.834457) (504.330811, 615.838989)
baseball bat: 38%
(419.850769, 313.529053) (665.926575, 494.778992)
sub20_b4_lg_1_297.jpg: Predicted in 0.157988 seconds.
person: 64%
(220.514297, 203.975296) (504.591064, 615.338135)
baseball bat: 37%
(418.851898, 317.621399) (666.293640, 494.012207)
sub20_b4_lg_1_298.jpg: Predicted in 0.161312 seconds.
person: 65%
(222.051910, 205.864090) (502.704163, 615.656067)
baseball bat: 39%
(417.105469, 318.346161) (669.084534, 493.978851)
sub20_b4_lg_1_299.jpg: Predicted in 0.159118 seconds.
person: 66%
(222.796951, 201.604874) (502.185425, 621.542725)
baseball bat: 42%
(427.596649, 315.307129) (665.019226, 493.882660)
sub20_b4_lg_1_300.jpg: Predicted in 0.157692 seconds.
person: 66%
(220.893311, 201.639206) (505.065002, 624.208923)
baseball bat: 42%
(432.229156, 317.563110) (661.261047, 492.388092)
sub20_b4_lg_1_301.jpg: Predicted in 0.157453 seconds.
person: 66%
(219.813705, 205.087570) (502.338623, 618.784790)
baseball bat: 38%
(426.499847, 308.572998) (662.960327, 495.098175)
sub20_b4_lg_1_302.jpg: Predicted in 0.157662 seconds.
person: 66%
(218.612305, 204.230087) (502.092438, 615.317749)
baseball bat: 39%
(412.076752, 301.324188) (672.559875, 498.027802)
sub20_b4_lg_1_303.jpg: Predicted in 0.161192 seconds.
person: 67%
(218.937408, 202.244095) (507.454102, 616.649170)
baseball bat: 36%
(412.675110, 303.074402) (673.120117, 494.230286)
sub20_b4_lg_1_304.jpg: Predicted in 0.156991 seconds.
person: 67%
(219.146225, 204.056412) (508.722198, 616.189697)
baseball bat: 35%
(415.927521, 301.985718) (668.522949, 497.135742)
sub20_b4_lg_1_305.jpg: Predicted in 0.157979 seconds.
person: 67%
(217.701965, 201.857834) (511.737213, 618.304077)
baseball bat: 35%
(417.981812, 300.745483) (673.002441, 495.348602)
sub20_b4_lg_1_306.jpg: Predicted in 0.158534 seconds.
person: 66%
(216.612213, 201.616211) (514.847046, 620.402222)
baseball bat: 34%
(420.193176, 294.307892) (675.657043, 497.442352)
sub20_b4_lg_1_307.jpg: Predicted in 0.159776 seconds.
person: 67%
(214.512604, 201.255173) (515.469849, 619.779236)
baseball bat: 34%
(422.611786, 296.973663) (674.077881, 495.139496)
sub20_b4_lg_1_308.jpg: Predicted in 0.158878 seconds.
person: 68%
(215.226624, 202.767761) (511.450409, 614.540100)
baseball bat: 41%
(415.566040, 285.060699) (690.358154, 500.599152)
sub20_b4_lg_1_309.jpg: Predicted in 0.158940 seconds.
person: 68%
(218.107391, 204.806351) (510.601044, 612.491882)
baseball bat: 40%
(412.447296, 288.046906) (695.778381, 497.653473)
sub20_b4_lg_1_310.jpg: Predicted in 0.157291 seconds.
baseball bat: 38%
(408.241760, 302.764282) (702.003052, 392.942505)
person: 67%
(218.544891, 205.335159) (508.562042, 612.565308)
sub20_b4_lg_1_311.jpg: Predicted in 0.159778 seconds.
person: 68%
(222.492004, 206.309601) (504.829773, 607.096497)
baseball bat: 45%
(424.103546, 284.486969) (690.022522, 497.036652)
sub20_b4_lg_1_312.jpg: Predicted in 0.160149 seconds.
person: 69%
(221.823196, 206.613251) (506.202454, 608.358948)
baseball bat: 45%
(430.718292, 283.253479) (679.026062, 500.233063)
sub20_b4_lg_1_313.jpg: Predicted in 0.160316 seconds.
person: 68%
(222.292831, 206.782745) (506.784760, 607.835754)
baseball bat: 48%
(426.155518, 281.965607) (682.917419, 504.928223)
sub20_b4_lg_1_314.jpg: Predicted in 0.158247 seconds.
person: 67%
(222.558395, 206.773972) (505.903595, 606.924011)
baseball bat: 42%
(422.720215, 283.443512) (679.465149, 503.397766)
sub20_b4_lg_1_315.jpg: Predicted in 0.158907 seconds.
person: 68%
(221.936386, 208.004288) (507.559082, 609.282715)
baseball bat: 38%
(419.578705, 282.427063) (679.679321, 503.449341)
sub20_b4_lg_1_316.jpg: Predicted in 0.165039 seconds.
person: 68%
(219.744308, 211.140366) (513.631531, 608.687378)
baseball bat: 41%
(417.173248, 274.818848) (685.025391, 506.688843)
sub20_b4_lg_1_317.jpg: Predicted in 0.158330 seconds.
baseball bat: 39%
(416.922180, 285.380188) (694.746277, 401.082703)
person: 69%
(220.574341, 209.443359) (511.026978, 609.956665)
sub20_b4_lg_1_318.jpg: Predicted in 0.160002 seconds.
baseball bat: 39%
(420.113800, 282.162872) (696.122070, 401.995605)
person: 68%
(219.991852, 207.583374) (512.157104, 612.504639)
sub20_b4_lg_1_319.jpg: Predicted in 0.159144 seconds.
person: 68%
(219.708603, 205.948853) (510.816284, 615.419739)
baseball bat: 31%
(425.296448, 288.511658) (675.843018, 498.270264)
sub20_b4_lg_1_320.jpg: Predicted in 0.159822 seconds.
baseball bat: 33%
(416.720428, 279.790771) (698.352600, 400.604675)
person: 67%
(218.485382, 206.702759) (510.250519, 614.567139)
sub20_b4_lg_1_321.jpg: Predicted in 0.160350 seconds.
person: 66%
(217.653290, 207.317429) (511.987366, 615.532593)
