sub9_l2_lg_2_001.jpg: Predicted in 0.164600 seconds.
baseball bat: 54%
(523.835144, 286.685120) (607.720215, 315.023712)
baseball bat: 33%
(546.073914, 295.053986) (613.579590, 327.848419)
sub9_l2_lg_2_002.jpg: Predicted in 0.156792 seconds.
baseball bat: 56%
(522.117676, 286.216278) (607.293335, 314.357086)
sub9_l2_lg_2_003.jpg: Predicted in 0.156113 seconds.
baseball bat: 60%
(523.106995, 286.477081) (606.354736, 314.204681)
sub9_l2_lg_2_004.jpg: Predicted in 0.158170 seconds.
baseball bat: 61%
(524.377319, 287.370819) (606.046326, 313.322327)
sub9_l2_lg_2_005.jpg: Predicted in 0.157234 seconds.
baseball bat: 64%
(526.521240, 287.310760) (604.729919, 314.157715)
sub9_l2_lg_2_006.jpg: Predicted in 0.166897 seconds.
baseball bat: 64%
(529.547424, 287.954956) (597.996643, 313.750549)
sub9_l2_lg_2_007.jpg: Predicted in 0.155270 seconds.
baseball bat: 65%
(528.065979, 288.411285) (594.150208, 312.565247)
sub9_l2_lg_2_008.jpg: Predicted in 0.155294 seconds.
baseball bat: 69%
(529.802368, 285.294678) (595.664673, 312.925720)
sub9_l2_lg_2_009.jpg: Predicted in 0.159048 seconds.
baseball bat: 67%
(528.098755, 287.563385) (596.066956, 312.741028)
sub9_l2_lg_2_010.jpg: Predicted in 0.156009 seconds.
baseball bat: 62%
(529.084106, 288.351471) (592.792664, 313.804749)
sub9_l2_lg_2_011.jpg: Predicted in 0.157158 seconds.
baseball bat: 65%
(534.229980, 286.385284) (590.434570, 314.219940)
sub9_l2_lg_2_012.jpg: Predicted in 0.156549 seconds.
baseball bat: 59%
(534.305542, 289.118835) (587.102295, 314.670837)
sub9_l2_lg_2_013.jpg: Predicted in 0.155746 seconds.
baseball bat: 56%
(534.766296, 290.310242) (585.728699, 315.110321)
sub9_l2_lg_2_014.jpg: Predicted in 0.154612 seconds.
baseball bat: 57%
(538.412964, 289.379272) (582.261414, 316.299530)
sub9_l2_lg_2_015.jpg: Predicted in 0.155832 seconds.
baseball bat: 51%
(534.710144, 291.787689) (582.053955, 316.098694)
sub9_l2_lg_2_016.jpg: Predicted in 0.156773 seconds.
baseball bat: 48%
(535.935181, 292.437622) (581.527283, 315.516205)
baseball bat: 37%
(547.347656, 298.529663) (589.306763, 323.885468)
sub9_l2_lg_2_017.jpg: Predicted in 0.155342 seconds.
baseball bat: 39%
(534.299927, 293.532867) (581.033447, 315.916748)
baseball bat: 43%
(547.617798, 299.964203) (589.335510, 324.665253)
sub9_l2_lg_2_018.jpg: Predicted in 0.166921 seconds.
baseball bat: 38%
(533.600159, 294.140137) (578.924194, 315.946075)
baseball bat: 45%
(547.146484, 300.078552) (587.339539, 324.540833)
sub9_l2_lg_2_019.jpg: Predicted in 0.158304 seconds.
baseball bat: 45%
(536.598450, 292.530640) (576.946167, 316.814819)
sub9_l2_lg_2_020.jpg: Predicted in 0.156846 seconds.
baseball bat: 32%
(536.015076, 292.468292) (581.863281, 318.109436)
baseball bat: 47%
(550.794250, 299.352325) (588.986328, 326.460205)
sub9_l2_lg_2_021.jpg: Predicted in 0.155648 seconds.
baseball bat: 44%
(554.406372, 304.337219) (590.218689, 329.141205)
sub9_l2_lg_2_022.jpg: Predicted in 0.156931 seconds.
baseball bat: 38%
(556.322388, 303.888031) (580.961121, 330.191681)
sub9_l2_lg_2_023.jpg: Predicted in 0.164951 seconds.
baseball bat: 35%
(557.121399, 306.231201) (581.127502, 330.682587)
sub9_l2_lg_2_024.jpg: Predicted in 0.154362 seconds.
baseball bat: 40%
(553.876953, 305.037140) (576.083862, 328.612152)
sub9_l2_lg_2_025.jpg: Predicted in 0.156973 seconds.
baseball bat: 39%
(551.696655, 306.235718) (574.054016, 327.939728)
sub9_l2_lg_2_026.jpg: Predicted in 0.158487 seconds.
baseball bat: 41%
(547.565674, 305.170593) (569.696167, 327.475830)
sub9_l2_lg_2_027.jpg: Predicted in 0.157013 seconds.
baseball bat: 42%
(546.390747, 305.359711) (567.742676, 326.950897)
sub9_l2_lg_2_028.jpg: Predicted in 0.155873 seconds.
baseball bat: 44%
(545.495911, 306.054352) (566.642090, 328.373291)
sub9_l2_lg_2_029.jpg: Predicted in 0.155474 seconds.
baseball bat: 45%
(545.640076, 306.924957) (566.786987, 329.023773)
sub9_l2_lg_2_030.jpg: Predicted in 0.155886 seconds.
baseball bat: 48%
(545.185791, 308.290588) (570.451111, 330.965942)
sub9_l2_lg_2_031.jpg: Predicted in 0.158297 seconds.
baseball bat: 47%
(544.114136, 310.280914) (569.358887, 331.888214)
sub9_l2_lg_2_032.jpg: Predicted in 0.157832 seconds.
baseball bat: 50%
(541.500061, 310.528534) (568.035950, 332.542358)
sub9_l2_lg_2_033.jpg: Predicted in 0.164979 seconds.
baseball bat: 55%
(540.469971, 309.384460) (568.236816, 333.961823)
sub9_l2_lg_2_034.jpg: Predicted in 0.159046 seconds.
baseball bat: 58%
(539.879517, 309.518860) (570.663391, 334.653961)
sub9_l2_lg_2_035.jpg: Predicted in 0.158006 seconds.
baseball bat: 62%
(536.259644, 309.564026) (570.122559, 336.165497)
sub9_l2_lg_2_036.jpg: Predicted in 0.161182 seconds.
baseball bat: 64%
(533.946411, 311.646698) (572.550537, 337.518219)
sub9_l2_lg_2_037.jpg: Predicted in 0.157894 seconds.
baseball bat: 66%
(532.032776, 313.068481) (572.551575, 339.465118)
sub9_l2_lg_2_038.jpg: Predicted in 0.155511 seconds.
baseball bat: 68%
(532.505493, 313.261963) (574.031982, 339.270660)
sub9_l2_lg_2_039.jpg: Predicted in 0.157048 seconds.
baseball bat: 70%
(530.541138, 314.629242) (578.299744, 341.099609)
sub9_l2_lg_2_040.jpg: Predicted in 0.162270 seconds.
baseball bat: 71%
(527.632263, 316.114746) (582.018433, 341.243958)
sub9_l2_lg_2_041.jpg: Predicted in 0.156115 seconds.
baseball bat: 72%
(527.614990, 316.881958) (583.667725, 342.493469)
sub9_l2_lg_2_042.jpg: Predicted in 0.157288 seconds.
baseball bat: 72%
(524.026367, 318.014984) (583.133118, 342.764465)
sub9_l2_lg_2_043.jpg: Predicted in 0.157050 seconds.
baseball bat: 73%
(522.639465, 319.284210) (585.159180, 343.651398)
sub9_l2_lg_2_044.jpg: Predicted in 0.155399 seconds.
baseball bat: 72%
(519.667419, 321.268066) (588.477844, 344.130524)
sub9_l2_lg_2_045.jpg: Predicted in 0.156166 seconds.
baseball bat: 73%
(518.241272, 321.776764) (591.521301, 344.283722)
sub9_l2_lg_2_046.jpg: Predicted in 0.155414 seconds.
baseball bat: 73%
(518.024048, 322.384552) (589.531006, 344.536255)
sub9_l2_lg_2_047.jpg: Predicted in 0.155170 seconds.
baseball bat: 73%
(515.475098, 323.638641) (587.543579, 343.872528)
sub9_l2_lg_2_048.jpg: Predicted in 0.156127 seconds.
baseball bat: 73%
(510.916534, 324.887848) (587.468567, 344.805328)
sub9_l2_lg_2_049.jpg: Predicted in 0.165312 seconds.
baseball bat: 70%
(508.819427, 327.505554) (588.010193, 346.058929)
sub9_l2_lg_2_050.jpg: Predicted in 0.155629 seconds.
baseball bat: 71%
(505.029053, 327.886780) (591.340088, 346.395508)
sub9_l2_lg_2_051.jpg: Predicted in 0.160433 seconds.
baseball bat: 69%
(504.441711, 330.810760) (588.833374, 347.645325)
sub9_l2_lg_2_052.jpg: Predicted in 0.158388 seconds.
baseball bat: 70%
(500.192749, 331.133698) (585.931458, 348.027863)
sub9_l2_lg_2_053.jpg: Predicted in 0.156687 seconds.
baseball bat: 69%
(498.525299, 333.813934) (590.431091, 349.666473)
sub9_l2_lg_2_054.jpg: Predicted in 0.157493 seconds.
baseball bat: 69%
(497.212769, 334.450226) (591.944885, 349.695343)
sub9_l2_lg_2_055.jpg: Predicted in 0.158318 seconds.
baseball bat: 70%
(493.685150, 334.894470) (593.699829, 350.991821)
sub9_l2_lg_2_056.jpg: Predicted in 0.156645 seconds.
baseball bat: 70%
(492.320618, 336.275299) (595.911987, 351.643219)
sub9_l2_lg_2_057.jpg: Predicted in 0.154913 seconds.
baseball bat: 68%
(490.626434, 337.357483) (602.075623, 351.888733)
sub9_l2_lg_2_058.jpg: Predicted in 0.154792 seconds.
baseball bat: 65%
(490.946442, 340.268768) (601.796021, 353.457153)
sub9_l2_lg_2_059.jpg: Predicted in 0.156060 seconds.
baseball bat: 65%
(490.414032, 341.561920) (602.270508, 354.248657)
sub9_l2_lg_2_060.jpg: Predicted in 0.156553 seconds.
baseball bat: 61%
(485.505981, 342.992584) (603.649902, 354.580658)
sub9_l2_lg_2_061.jpg: Predicted in 0.165754 seconds.
baseball bat: 63%
(484.096741, 344.498627) (602.179504, 356.210358)
sub9_l2_lg_2_062.jpg: Predicted in 0.155182 seconds.
baseball bat: 64%
(482.308838, 344.939484) (604.197449, 356.325043)
sub9_l2_lg_2_063.jpg: Predicted in 0.155941 seconds.
baseball bat: 60%
(478.882111, 346.293213) (608.840576, 356.446686)
sub9_l2_lg_2_064.jpg: Predicted in 0.156988 seconds.
baseball bat: 54%
(478.023743, 347.184967) (614.146118, 356.037781)
sub9_l2_lg_2_065.jpg: Predicted in 0.156481 seconds.
baseball bat: 56%
(480.191467, 347.562042) (615.771790, 356.563751)
sub9_l2_lg_2_066.jpg: Predicted in 0.159991 seconds.
baseball bat: 57%
(480.568268, 348.697754) (619.430908, 357.593353)
sub9_l2_lg_2_067.jpg: Predicted in 0.155062 seconds.
baseball bat: 55%
(478.600159, 349.952301) (623.990784, 358.200592)
sub9_l2_lg_2_068.jpg: Predicted in 0.161364 seconds.
baseball bat: 55%
(480.754639, 350.885071) (628.254333, 358.873993)
sub9_l2_lg_2_069.jpg: Predicted in 0.157212 seconds.
baseball bat: 51%
(476.749359, 351.307343) (628.752136, 359.206024)
sub9_l2_lg_2_070.jpg: Predicted in 0.164446 seconds.
baseball bat: 50%
(482.869263, 352.779694) (629.625183, 360.083862)
sub9_l2_lg_2_071.jpg: Predicted in 0.156188 seconds.
baseball bat: 47%
(482.165009, 353.328918) (632.065125, 360.266693)
sub9_l2_lg_2_072.jpg: Predicted in 0.159278 seconds.
baseball bat: 50%
(479.992371, 354.084808) (636.031189, 361.173798)
sub9_l2_lg_2_073.jpg: Predicted in 0.154705 seconds.
baseball bat: 47%
(479.859680, 354.956726) (640.583984, 361.631042)
sub9_l2_lg_2_074.jpg: Predicted in 0.156973 seconds.
baseball bat: 48%
(477.315002, 355.296143) (644.633057, 362.034180)
sub9_l2_lg_2_075.jpg: Predicted in 0.157687 seconds.
baseball bat: 45%
(474.263092, 356.041290) (645.517578, 362.394623)
sub9_l2_lg_2_076.jpg: Predicted in 0.157412 seconds.
baseball bat: 47%
(473.166138, 356.536102) (647.730225, 363.127289)
sub9_l2_lg_2_077.jpg: Predicted in 0.156403 seconds.
baseball bat: 47%
(472.018982, 357.592743) (651.686279, 364.160278)
sub9_l2_lg_2_078.jpg: Predicted in 0.155480 seconds.
baseball bat: 48%
(471.610443, 358.825348) (655.811646, 365.546600)
sub9_l2_lg_2_079.jpg: Predicted in 0.158222 seconds.
baseball bat: 52%
(468.543365, 359.030365) (658.442932, 366.334869)
sub9_l2_lg_2_080.jpg: Predicted in 0.155323 seconds.
baseball bat: 56%
(463.328827, 359.902710) (659.919006, 368.075500)
sub9_l2_lg_2_081.jpg: Predicted in 0.158238 seconds.
baseball bat: 66%
(463.862915, 360.077026) (662.545227, 370.749878)
sub9_l2_lg_2_082.jpg: Predicted in 0.156140 seconds.
baseball bat: 64%
(463.412079, 361.027618) (664.654053, 371.379669)
sub9_l2_lg_2_083.jpg: Predicted in 0.158556 seconds.
baseball bat: 68%
(461.291626, 360.683777) (671.145874, 372.520935)
sub9_l2_lg_2_084.jpg: Predicted in 0.164190 seconds.
baseball bat: 70%
(461.104187, 360.493988) (673.346802, 373.535492)
sub9_l2_lg_2_085.jpg: Predicted in 0.156320 seconds.
baseball bat: 67%
(458.399414, 361.239716) (675.684143, 373.829895)
sub9_l2_lg_2_086.jpg: Predicted in 0.157524 seconds.
baseball bat: 72%
(455.958710, 363.771210) (685.955078, 377.923523)
sub9_l2_lg_2_087.jpg: Predicted in 0.156296 seconds.
baseball bat: 79%
(457.787537, 362.544098) (690.144348, 380.208679)
sub9_l2_lg_2_088.jpg: Predicted in 0.154643 seconds.
baseball bat: 81%
(451.457184, 362.737823) (691.002380, 382.907501)
sub9_l2_lg_2_089.jpg: Predicted in 0.157536 seconds.
baseball bat: 83%
(451.935089, 362.427399) (694.189270, 384.647614)
sub9_l2_lg_2_090.jpg: Predicted in 0.155804 seconds.
baseball bat: 83%
(453.142456, 362.668762) (699.755066, 385.427521)
sub9_l2_lg_2_091.jpg: Predicted in 0.157106 seconds.
baseball bat: 83%
(452.130096, 363.056213) (700.304199, 386.332184)
sub9_l2_lg_2_092.jpg: Predicted in 0.156604 seconds.
baseball bat: 84%
(453.443878, 363.485687) (701.899292, 388.008057)
sub9_l2_lg_2_093.jpg: Predicted in 0.155210 seconds.
baseball bat: 86%
(454.870667, 363.686707) (708.541931, 389.261353)
sub9_l2_lg_2_094.jpg: Predicted in 0.156148 seconds.
baseball bat: 86%
(455.370605, 363.162018) (711.537048, 391.417297)
sub9_l2_lg_2_095.jpg: Predicted in 0.155619 seconds.
baseball bat: 86%
(455.124146, 364.531799) (713.388611, 392.515808)
sub9_l2_lg_2_096.jpg: Predicted in 0.155391 seconds.
baseball bat: 87%
(454.262512, 363.413971) (715.769958, 393.582581)
sub9_l2_lg_2_097.jpg: Predicted in 0.160768 seconds.
baseball bat: 87%
(449.298035, 362.804016) (720.934875, 395.105316)
sub9_l2_lg_2_098.jpg: Predicted in 0.157181 seconds.
baseball bat: 87%
(448.127075, 362.452515) (721.706299, 396.415009)
sub9_l2_lg_2_099.jpg: Predicted in 0.157947 seconds.
baseball bat: 87%
(442.727020, 362.247681) (723.014893, 397.764191)
sub9_l2_lg_2_100.jpg: Predicted in 0.156305 seconds.
baseball bat: 86%
(442.441589, 362.195068) (721.590637, 399.155273)
sub9_l2_lg_2_101.jpg: Predicted in 0.158419 seconds.
baseball bat: 86%
(434.493530, 361.043488) (726.541687, 402.840759)
sub9_l2_lg_2_102.jpg: Predicted in 0.156871 seconds.
baseball bat: 86%
(437.193481, 361.551575) (726.613770, 404.177277)
sub9_l2_lg_2_103.jpg: Predicted in 0.156504 seconds.
baseball bat: 88%
(439.138916, 362.207092) (728.788574, 406.172821)
sub9_l2_lg_2_104.jpg: Predicted in 0.163977 seconds.
baseball bat: 89%
(440.034851, 363.038208) (728.760254, 407.472778)
sub9_l2_lg_2_105.jpg: Predicted in 0.157019 seconds.
baseball bat: 90%
(442.539246, 363.338623) (730.423767, 408.575989)
sub9_l2_lg_2_106.jpg: Predicted in 0.156868 seconds.
baseball bat: 89%
(440.001068, 363.973267) (733.504272, 408.778015)
sub9_l2_lg_2_107.jpg: Predicted in 0.157423 seconds.
baseball bat: 89%
(437.860901, 364.021759) (735.591125, 410.509521)
sub9_l2_lg_2_108.jpg: Predicted in 0.158174 seconds.
baseball bat: 87%
(441.102844, 363.756714) (733.274902, 412.313507)
sub9_l2_lg_2_109.jpg: Predicted in 0.160391 seconds.
baseball bat: 86%
(442.193848, 365.670258) (733.184937, 414.406677)
sub9_l2_lg_2_110.jpg: Predicted in 0.157141 seconds.
baseball bat: 88%
(449.697327, 368.974121) (741.790527, 416.145630)
sub9_l2_lg_2_111.jpg: Predicted in 0.156210 seconds.
baseball bat: 89%
(450.029022, 367.505280) (744.263733, 415.504639)
sub9_l2_lg_2_112.jpg: Predicted in 0.156274 seconds.
baseball bat: 90%
(453.040222, 367.222839) (742.993408, 417.472870)
sub9_l2_lg_2_113.jpg: Predicted in 0.156375 seconds.
baseball bat: 90%
(452.609772, 368.301422) (743.841431, 417.336365)
sub9_l2_lg_2_114.jpg: Predicted in 0.158156 seconds.
baseball bat: 89%
(456.811188, 368.577209) (746.011597, 417.206970)
sub9_l2_lg_2_115.jpg: Predicted in 0.163338 seconds.
baseball bat: 89%
(461.770996, 368.320557) (748.110535, 418.023895)
sub9_l2_lg_2_116.jpg: Predicted in 0.157639 seconds.
baseball bat: 90%
(468.998138, 368.017944) (748.053772, 419.097260)
sub9_l2_lg_2_117.jpg: Predicted in 0.157176 seconds.
baseball bat: 90%
(472.059448, 367.177032) (748.706360, 421.146790)
sub9_l2_lg_2_118.jpg: Predicted in 0.154635 seconds.
baseball bat: 89%
(476.521118, 366.498016) (750.318726, 423.387756)
sub9_l2_lg_2_119.jpg: Predicted in 0.155738 seconds.
baseball bat: 89%
(477.201813, 366.678802) (754.198853, 424.243683)
sub9_l2_lg_2_120.jpg: Predicted in 0.157234 seconds.
baseball bat: 89%
(489.806305, 367.636414) (755.867371, 426.288147)
sub9_l2_lg_2_121.jpg: Predicted in 0.155374 seconds.
baseball bat: 89%
(495.403290, 367.307343) (758.814697, 428.432678)
sub9_l2_lg_2_122.jpg: Predicted in 0.159421 seconds.
baseball bat: 90%
(501.167694, 366.899414) (762.691650, 430.016357)
sub9_l2_lg_2_123.jpg: Predicted in 0.156990 seconds.
baseball bat: 90%
(506.728973, 367.301208) (764.001526, 431.275085)
sub9_l2_lg_2_124.jpg: Predicted in 0.157225 seconds.
baseball bat: 90%
(512.282166, 366.538574) (762.609802, 432.339081)
sub9_l2_lg_2_125.jpg: Predicted in 0.163333 seconds.
baseball bat: 91%
(518.293335, 366.160339) (763.188110, 433.377594)
sub9_l2_lg_2_126.jpg: Predicted in 0.156213 seconds.
baseball bat: 90%
(525.423584, 365.791840) (761.862305, 434.426086)
sub9_l2_lg_2_127.jpg: Predicted in 0.156568 seconds.
baseball bat: 90%
(534.269653, 364.681946) (764.928650, 435.751312)
sub9_l2_lg_2_128.jpg: Predicted in 0.156233 seconds.
baseball bat: 91%
(541.586731, 365.088165) (765.740234, 437.315857)
sub9_l2_lg_2_129.jpg: Predicted in 0.156263 seconds.
baseball bat: 91%
(549.723022, 366.634094) (766.585999, 438.428497)
sub9_l2_lg_2_130.jpg: Predicted in 0.162420 seconds.
baseball bat: 91%
(556.345398, 366.940552) (766.480103, 440.062195)
sub9_l2_lg_2_131.jpg: Predicted in 0.155004 seconds.
baseball bat: 91%
(563.976562, 366.935059) (766.904297, 441.914764)
sub9_l2_lg_2_132.jpg: Predicted in 0.156208 seconds.
baseball bat: 91%
(571.831360, 369.061523) (770.213135, 444.038727)
sub9_l2_lg_2_133.jpg: Predicted in 0.157294 seconds.
baseball bat: 91%
(581.541931, 369.345917) (773.652771, 446.448639)
sub9_l2_lg_2_134.jpg: Predicted in 0.157712 seconds.
baseball bat: 90%
(588.680237, 371.083313) (775.755005, 450.501190)
sub9_l2_lg_2_135.jpg: Predicted in 0.156334 seconds.
baseball bat: 90%
(592.449829, 372.186859) (776.860596, 454.470245)
sub9_l2_lg_2_136.jpg: Predicted in 0.155546 seconds.
baseball bat: 90%
(597.536987, 370.643127) (774.913269, 452.226654)
sub9_l2_lg_2_137.jpg: Predicted in 0.156723 seconds.
baseball bat: 89%
(615.936768, 367.792877) (781.749756, 450.551056)
sub9_l2_lg_2_138.jpg: Predicted in 0.157648 seconds.
baseball bat: 88%
(628.893921, 372.799225) (777.730408, 446.520691)
sub9_l2_lg_2_139.jpg: Predicted in 0.157361 seconds.
baseball bat: 88%
(635.146179, 371.877075) (782.215759, 447.247986)
sub9_l2_lg_2_140.jpg: Predicted in 0.157518 seconds.
baseball bat: 85%
(640.773865, 373.185394) (786.066650, 447.398041)
sub9_l2_lg_2_141.jpg: Predicted in 0.155869 seconds.
baseball bat: 86%
(646.626343, 373.396912) (788.987061, 448.564484)
sub9_l2_lg_2_142.jpg: Predicted in 0.158353 seconds.
baseball bat: 84%
(653.149902, 374.336365) (791.685120, 449.474030)
sub9_l2_lg_2_143.jpg: Predicted in 0.157860 seconds.
baseball bat: 80%
(666.534058, 374.760620) (793.439392, 450.975433)
sub9_l2_lg_2_144.jpg: Predicted in 0.156085 seconds.
baseball bat: 74%
(680.898438, 377.761658) (791.480591, 448.171997)
sub9_l2_lg_2_145.jpg: Predicted in 0.158461 seconds.
baseball bat: 78%
(690.092468, 376.062225) (789.716492, 449.350525)
sub9_l2_lg_2_146.jpg: Predicted in 0.155388 seconds.
baseball bat: 79%
(696.507202, 375.057770) (786.108276, 449.055786)
sub9_l2_lg_2_147.jpg: Predicted in 0.154224 seconds.
baseball bat: 77%
(714.445435, 371.969513) (786.680786, 446.311737)
sub9_l2_lg_2_148.jpg: Predicted in 0.158089 seconds.
baseball bat: 67%
(726.413452, 370.051727) (783.739258, 440.597656)
sub9_l2_lg_2_149.jpg: Predicted in 0.156203 seconds.
baseball bat: 45%
(738.468933, 366.761322) (778.124695, 435.059540)
sub9_l2_lg_2_150.jpg: Predicted in 0.155470 seconds.
baseball bat: 44%
(746.526245, 367.789185) (779.273193, 433.046539)
sub9_l2_lg_2_151.jpg: Predicted in 0.156763 seconds.
baseball bat: 31%
(756.418579, 366.949371) (778.297913, 430.664551)
sub9_l2_lg_2_152.jpg: Predicted in 0.167219 seconds.
sub9_l2_lg_2_153.jpg: Predicted in 0.158470 seconds.
sub9_l2_lg_2_154.jpg: Predicted in 0.161681 seconds.
sub9_l2_lg_2_155.jpg: Predicted in 0.157361 seconds.
sub9_l2_lg_2_156.jpg: Predicted in 0.159331 seconds.
sub9_l2_lg_2_157.jpg: Predicted in 0.165266 seconds.
sub9_l2_lg_2_158.jpg: Predicted in 0.155324 seconds.
sub9_l2_lg_2_159.jpg: Predicted in 0.157686 seconds.
sub9_l2_lg_2_160.jpg: Predicted in 0.155697 seconds.
baseball bat: 32%
(785.639526, 373.539673) (869.177795, 424.346405)
sub9_l2_lg_2_161.jpg: Predicted in 0.155946 seconds.
sub9_l2_lg_2_162.jpg: Predicted in 0.155913 seconds.
sub9_l2_lg_2_163.jpg: Predicted in 0.157518 seconds.
sub9_l2_lg_2_164.jpg: Predicted in 0.157273 seconds.
sub9_l2_lg_2_165.jpg: Predicted in 0.158209 seconds.
sub9_l2_lg_2_166.jpg: Predicted in 0.157050 seconds.
sub9_l2_lg_2_167.jpg: Predicted in 0.156472 seconds.
sub9_l2_lg_2_168.jpg: Predicted in 0.157090 seconds.
sub9_l2_lg_2_169.jpg: Predicted in 0.163692 seconds.
sub9_l2_lg_2_170.jpg: Predicted in 0.156411 seconds.
sub9_l2_lg_2_171.jpg: Predicted in 0.156792 seconds.
sub9_l2_lg_2_172.jpg: Predicted in 0.157765 seconds.
sub9_l2_lg_2_173.jpg: Predicted in 0.166800 seconds.
sub9_l2_lg_2_174.jpg: Predicted in 0.155151 seconds.
sub9_l2_lg_2_175.jpg: Predicted in 0.155206 seconds.
sub9_l2_lg_2_176.jpg: Predicted in 0.157057 seconds.
sub9_l2_lg_2_177.jpg: Predicted in 0.156713 seconds.
sub9_l2_lg_2_178.jpg: Predicted in 0.157455 seconds.
sub9_l2_lg_2_179.jpg: Predicted in 0.154530 seconds.
sub9_l2_lg_2_180.jpg: Predicted in 0.157535 seconds.
sub9_l2_lg_2_181.jpg: Predicted in 0.164757 seconds.
sub9_l2_lg_2_182.jpg: Predicted in 0.156814 seconds.
sub9_l2_lg_2_183.jpg: Predicted in 0.156811 seconds.
sub9_l2_lg_2_184.jpg: Predicted in 0.157913 seconds.
sub9_l2_lg_2_185.jpg: Predicted in 0.157163 seconds.
sub9_l2_lg_2_186.jpg: Predicted in 0.157295 seconds.
sub9_l2_lg_2_187.jpg: Predicted in 0.156789 seconds.
sub9_l2_lg_2_188.jpg: Predicted in 0.155901 seconds.
sub9_l2_lg_2_189.jpg: Predicted in 0.157346 seconds.
sub9_l2_lg_2_190.jpg: Predicted in 0.165376 seconds.
sub9_l2_lg_2_191.jpg: Predicted in 0.155924 seconds.
sub9_l2_lg_2_192.jpg: Predicted in 0.155300 seconds.
sub9_l2_lg_2_193.jpg: Predicted in 0.157084 seconds.
sub9_l2_lg_2_194.jpg: Predicted in 0.163151 seconds.
sub9_l2_lg_2_195.jpg: Predicted in 0.161468 seconds.
