sub9_h1_lg_2_001.jpg: Predicted in 0.155757 seconds.
baseball bat: 86%
(519.711182, 227.331299) (626.580383, 301.341736)
sub9_h1_lg_2_002.jpg: Predicted in 0.154269 seconds.
baseball bat: 85%
(521.511963, 227.221268) (629.555603, 302.671051)
sub9_h1_lg_2_003.jpg: Predicted in 0.155323 seconds.
baseball bat: 85%
(524.491089, 228.986420) (631.584900, 303.808441)
sub9_h1_lg_2_004.jpg: Predicted in 0.154784 seconds.
baseball bat: 85%
(524.804871, 230.766602) (630.398376, 304.546295)
sub9_h1_lg_2_005.jpg: Predicted in 0.162089 seconds.
baseball bat: 84%
(522.616150, 233.808838) (631.251526, 307.448273)
sub9_h1_lg_2_006.jpg: Predicted in 0.155640 seconds.
baseball bat: 83%
(522.526794, 237.287735) (629.809570, 307.216187)
sub9_h1_lg_2_007.jpg: Predicted in 0.155379 seconds.
baseball bat: 83%
(523.119873, 238.312073) (629.964233, 306.678192)
sub9_h1_lg_2_008.jpg: Predicted in 0.156997 seconds.
baseball bat: 84%
(522.647644, 239.081711) (632.629333, 308.195740)
sub9_h1_lg_2_009.jpg: Predicted in 0.154205 seconds.
baseball bat: 84%
(523.549927, 239.396729) (635.336975, 307.548279)
sub9_h1_lg_2_010.jpg: Predicted in 0.155783 seconds.
baseball bat: 85%
(524.821167, 238.103195) (635.590332, 305.024200)
sub9_h1_lg_2_011.jpg: Predicted in 0.155214 seconds.
baseball bat: 86%
(524.669800, 236.945358) (634.638000, 304.517883)
sub9_h1_lg_2_012.jpg: Predicted in 0.155261 seconds.
baseball bat: 84%
(525.740845, 240.212280) (635.765198, 306.071045)
sub9_h1_lg_2_013.jpg: Predicted in 0.154825 seconds.
baseball bat: 84%
(527.498291, 242.167709) (635.905945, 308.040771)
sub9_h1_lg_2_014.jpg: Predicted in 0.198557 seconds.
baseball bat: 83%
(527.881348, 242.241745) (634.189636, 307.697083)
sub9_h1_lg_2_015.jpg: Predicted in 0.154610 seconds.
baseball bat: 83%
(526.583313, 243.708450) (634.846191, 307.361145)
sub9_h1_lg_2_016.jpg: Predicted in 0.155997 seconds.
baseball bat: 85%
(526.521790, 244.091446) (635.182129, 305.644958)
sub9_h1_lg_2_017.jpg: Predicted in 0.157203 seconds.
baseball bat: 84%
(527.988159, 244.900314) (633.584717, 306.031799)
sub9_h1_lg_2_018.jpg: Predicted in 0.158748 seconds.
baseball bat: 83%
(526.939575, 246.785324) (632.041382, 306.471039)
sub9_h1_lg_2_019.jpg: Predicted in 0.155935 seconds.
baseball bat: 80%
(526.007690, 251.259293) (629.611023, 308.128387)
sub9_h1_lg_2_020.jpg: Predicted in 0.155627 seconds.
baseball bat: 81%
(524.883423, 248.248901) (634.777100, 309.330627)
sub9_h1_lg_2_021.jpg: Predicted in 0.155087 seconds.
baseball bat: 84%
(526.659363, 245.742798) (638.077332, 308.666229)
sub9_h1_lg_2_022.jpg: Predicted in 0.156044 seconds.
baseball bat: 87%
(528.073853, 241.317917) (638.114929, 304.209534)
sub9_h1_lg_2_023.jpg: Predicted in 0.157075 seconds.
baseball bat: 86%
(528.027161, 242.742340) (637.226318, 303.417175)
sub9_h1_lg_2_024.jpg: Predicted in 0.155520 seconds.
baseball bat: 86%
(528.777405, 243.301895) (637.010254, 303.852264)
sub9_h1_lg_2_025.jpg: Predicted in 0.156961 seconds.
baseball bat: 86%
(528.787537, 243.329666) (636.906128, 302.567627)
sub9_h1_lg_2_026.jpg: Predicted in 0.154873 seconds.
baseball bat: 86%
(529.045715, 246.494659) (635.096375, 303.416443)
sub9_h1_lg_2_027.jpg: Predicted in 0.154625 seconds.
baseball bat: 85%
(529.251526, 248.124908) (633.533813, 304.770386)
sub9_h1_lg_2_028.jpg: Predicted in 0.156021 seconds.
baseball bat: 84%
(529.429810, 249.373138) (632.346130, 304.912109)
sub9_h1_lg_2_029.jpg: Predicted in 0.157287 seconds.
baseball bat: 84%
(530.345886, 249.852783) (633.362366, 306.137970)
sub9_h1_lg_2_030.jpg: Predicted in 0.157611 seconds.
baseball bat: 86%
(532.135681, 248.474518) (633.805176, 305.986633)
sub9_h1_lg_2_031.jpg: Predicted in 0.160836 seconds.
baseball bat: 85%
(531.093811, 248.478531) (634.100220, 304.718384)
sub9_h1_lg_2_032.jpg: Predicted in 0.156291 seconds.
baseball bat: 82%
(533.223083, 251.647614) (629.818359, 305.347260)
sub9_h1_lg_2_033.jpg: Predicted in 0.156452 seconds.
baseball bat: 82%
(534.054749, 253.935684) (627.411438, 305.141907)
sub9_h1_lg_2_034.jpg: Predicted in 0.156256 seconds.
baseball bat: 81%
(534.840149, 255.081406) (625.092224, 304.305023)
sub9_h1_lg_2_035.jpg: Predicted in 0.154858 seconds.
baseball bat: 81%
(533.831055, 256.989899) (622.965332, 304.432251)
sub9_h1_lg_2_036.jpg: Predicted in 0.154105 seconds.
baseball bat: 81%
(533.659363, 256.966064) (623.391296, 305.729736)
sub9_h1_lg_2_037.jpg: Predicted in 0.155193 seconds.
baseball bat: 78%
(533.924072, 260.687622) (620.770264, 306.985260)
sub9_h1_lg_2_038.jpg: Predicted in 0.154632 seconds.
baseball bat: 80%
(533.323730, 259.309662) (623.105835, 307.874603)
sub9_h1_lg_2_039.jpg: Predicted in 0.155001 seconds.
baseball bat: 81%
(533.641357, 256.923340) (625.306763, 307.290833)
sub9_h1_lg_2_040.jpg: Predicted in 0.156209 seconds.
baseball bat: 80%
(535.615417, 259.729462) (622.453125, 309.877747)
sub9_h1_lg_2_041.jpg: Predicted in 0.154204 seconds.
baseball bat: 80%
(536.082581, 261.347351) (621.791199, 310.677612)
sub9_h1_lg_2_042.jpg: Predicted in 0.153852 seconds.
baseball bat: 77%
(535.097351, 263.770020) (615.658569, 308.772949)
sub9_h1_lg_2_043.jpg: Predicted in 0.156393 seconds.
baseball bat: 77%
(535.555481, 264.148621) (613.274170, 308.074982)
sub9_h1_lg_2_044.jpg: Predicted in 0.155433 seconds.
baseball bat: 77%
(535.849915, 264.596039) (611.905945, 307.674255)
sub9_h1_lg_2_045.jpg: Predicted in 0.155881 seconds.
baseball bat: 77%
(536.280762, 266.146790) (609.978699, 308.480225)
sub9_h1_lg_2_046.jpg: Predicted in 0.156493 seconds.
baseball bat: 74%
(536.533936, 269.607697) (607.376221, 309.196991)
sub9_h1_lg_2_047.jpg: Predicted in 0.156352 seconds.
baseball bat: 75%
(535.416077, 269.857758) (606.884399, 308.673523)
sub9_h1_lg_2_048.jpg: Predicted in 0.156515 seconds.
baseball bat: 76%
(534.641907, 269.002441) (610.219543, 309.038574)
sub9_h1_lg_2_049.jpg: Predicted in 0.156456 seconds.
baseball bat: 76%
(535.339355, 268.514648) (613.767822, 309.278046)
sub9_h1_lg_2_050.jpg: Predicted in 0.156844 seconds.
baseball bat: 78%
(536.993958, 266.137604) (615.300110, 308.805084)
sub9_h1_lg_2_051.jpg: Predicted in 0.156983 seconds.
baseball bat: 77%
(537.330078, 267.787079) (615.289734, 309.383820)
sub9_h1_lg_2_052.jpg: Predicted in 0.157280 seconds.
baseball bat: 75%
(538.318115, 270.133270) (612.943542, 309.779297)
sub9_h1_lg_2_053.jpg: Predicted in 0.159441 seconds.
baseball bat: 73%
(539.549377, 272.821350) (609.409668, 312.920044)
sub9_h1_lg_2_054.jpg: Predicted in 0.156908 seconds.
baseball bat: 73%
(537.758545, 273.046051) (608.455383, 312.240814)
sub9_h1_lg_2_055.jpg: Predicted in 0.157598 seconds.
baseball bat: 73%
(537.247314, 272.883881) (609.016907, 311.672363)
sub9_h1_lg_2_056.jpg: Predicted in 0.164331 seconds.
baseball bat: 74%
(535.787659, 272.936981) (609.734253, 311.401642)
sub9_h1_lg_2_057.jpg: Predicted in 0.157009 seconds.
baseball bat: 75%
(537.166016, 271.133453) (612.209717, 312.681244)
sub9_h1_lg_2_058.jpg: Predicted in 0.155013 seconds.
baseball bat: 78%
(538.586853, 268.048279) (613.308289, 311.788086)
sub9_h1_lg_2_059.jpg: Predicted in 0.155538 seconds.
baseball bat: 77%
(538.349304, 268.332153) (613.101562, 311.837433)
sub9_h1_lg_2_060.jpg: Predicted in 0.155685 seconds.
baseball bat: 77%
(541.059448, 270.317780) (613.841125, 315.048615)
sub9_h1_lg_2_061.jpg: Predicted in 0.157062 seconds.
baseball bat: 78%
(540.444702, 268.951385) (614.753418, 312.753479)
sub9_h1_lg_2_062.jpg: Predicted in 0.155667 seconds.
baseball bat: 77%
(539.095398, 269.519196) (614.466919, 311.777069)
sub9_h1_lg_2_063.jpg: Predicted in 0.153561 seconds.
baseball bat: 75%
(541.137756, 272.601654) (611.266968, 314.819336)
sub9_h1_lg_2_064.jpg: Predicted in 0.155612 seconds.
baseball bat: 76%
(540.517578, 271.600494) (609.950195, 314.578796)
sub9_h1_lg_2_065.jpg: Predicted in 0.156654 seconds.
baseball bat: 76%
(540.017456, 271.948303) (610.868225, 314.010162)
sub9_h1_lg_2_066.jpg: Predicted in 0.156916 seconds.
baseball bat: 75%
(539.805847, 273.476715) (608.895142, 313.658417)
sub9_h1_lg_2_067.jpg: Predicted in 0.155403 seconds.
baseball bat: 75%
(539.137695, 273.440521) (608.456421, 312.541107)
sub9_h1_lg_2_068.jpg: Predicted in 0.156856 seconds.
baseball bat: 75%
(539.305603, 273.977356) (607.538086, 312.025421)
sub9_h1_lg_2_069.jpg: Predicted in 0.157340 seconds.
baseball bat: 73%
(538.400513, 275.065826) (610.830139, 312.688416)
sub9_h1_lg_2_070.jpg: Predicted in 0.156585 seconds.
baseball bat: 74%
(538.830994, 275.539490) (608.886963, 313.145844)
sub9_h1_lg_2_071.jpg: Predicted in 0.156089 seconds.
baseball bat: 74%
(538.562988, 275.888123) (609.750244, 313.751068)
sub9_h1_lg_2_072.jpg: Predicted in 0.155246 seconds.
baseball bat: 73%
(537.927917, 275.826843) (613.087219, 313.754944)
sub9_h1_lg_2_073.jpg: Predicted in 0.154009 seconds.
baseball bat: 73%
(537.263794, 276.881409) (612.320251, 313.808350)
sub9_h1_lg_2_074.jpg: Predicted in 0.156902 seconds.
baseball bat: 73%
(536.761963, 277.477112) (610.751526, 314.364014)
sub9_h1_lg_2_075.jpg: Predicted in 0.157735 seconds.
baseball bat: 75%
(537.014038, 275.839508) (613.907898, 315.127991)
sub9_h1_lg_2_076.jpg: Predicted in 0.154903 seconds.
baseball bat: 75%
(536.914368, 276.405365) (612.026428, 315.579773)
sub9_h1_lg_2_077.jpg: Predicted in 0.156247 seconds.
baseball bat: 76%
(538.839600, 275.955566) (613.584045, 315.343201)
sub9_h1_lg_2_078.jpg: Predicted in 0.157008 seconds.
baseball bat: 77%
(539.286133, 275.279541) (612.865295, 316.255737)
sub9_h1_lg_2_079.jpg: Predicted in 0.156052 seconds.
baseball bat: 77%
(542.134949, 274.308197) (612.699646, 317.407715)
sub9_h1_lg_2_080.jpg: Predicted in 0.157048 seconds.
baseball bat: 76%
(542.735962, 275.386993) (613.041870, 317.637909)
sub9_h1_lg_2_081.jpg: Predicted in 0.154648 seconds.
baseball bat: 78%
(542.388550, 275.395813) (615.173462, 318.444977)
sub9_h1_lg_2_082.jpg: Predicted in 0.157223 seconds.
baseball bat: 78%
(543.753235, 273.584442) (614.028687, 317.472961)
sub9_h1_lg_2_083.jpg: Predicted in 0.155328 seconds.
baseball bat: 78%
(544.641113, 274.497498) (611.961792, 318.291199)
sub9_h1_lg_2_084.jpg: Predicted in 0.156970 seconds.
baseball bat: 78%
(545.342163, 275.298462) (609.710632, 318.737122)
sub9_h1_lg_2_085.jpg: Predicted in 0.156206 seconds.
baseball bat: 79%
(545.334229, 274.923950) (608.318909, 318.318359)
sub9_h1_lg_2_086.jpg: Predicted in 0.154679 seconds.
baseball bat: 79%
(546.316528, 274.470581) (609.089478, 318.724091)
sub9_h1_lg_2_087.jpg: Predicted in 0.156529 seconds.
baseball bat: 78%
(545.935364, 274.819336) (608.572571, 319.035614)
sub9_h1_lg_2_088.jpg: Predicted in 0.155218 seconds.
baseball bat: 79%
(546.248535, 274.249084) (608.467346, 319.363831)
sub9_h1_lg_2_089.jpg: Predicted in 0.156093 seconds.
baseball bat: 80%
(547.502686, 273.479004) (610.192932, 320.505981)
sub9_h1_lg_2_090.jpg: Predicted in 0.156877 seconds.
baseball bat: 79%
(548.778625, 274.394501) (612.799683, 322.359283)
sub9_h1_lg_2_091.jpg: Predicted in 0.156369 seconds.
baseball bat: 78%
(548.341003, 275.336121) (612.766052, 323.288147)
sub9_h1_lg_2_092.jpg: Predicted in 0.156110 seconds.
baseball bat: 79%
(548.822021, 274.205261) (611.604126, 322.086273)
sub9_h1_lg_2_093.jpg: Predicted in 0.155754 seconds.
baseball bat: 79%
(549.311462, 274.575104) (610.781128, 322.388611)
sub9_h1_lg_2_094.jpg: Predicted in 0.154525 seconds.
baseball bat: 78%
(547.751343, 276.502502) (612.795898, 323.627808)
sub9_h1_lg_2_095.jpg: Predicted in 0.155386 seconds.
baseball bat: 77%
(547.918579, 277.691284) (612.570496, 325.007080)
sub9_h1_lg_2_096.jpg: Predicted in 0.157806 seconds.
baseball bat: 77%
(548.452393, 278.747314) (610.699280, 325.308716)
sub9_h1_lg_2_097.jpg: Predicted in 0.154749 seconds.
baseball bat: 76%
(548.901306, 280.281342) (606.731812, 325.269653)
sub9_h1_lg_2_098.jpg: Predicted in 0.156685 seconds.
baseball bat: 77%
(550.515381, 279.439270) (603.544189, 325.654266)
sub9_h1_lg_2_099.jpg: Predicted in 0.155365 seconds.
baseball bat: 78%
(552.256714, 277.743683) (601.867737, 326.188904)
sub9_h1_lg_2_100.jpg: Predicted in 0.155759 seconds.
baseball bat: 77%
(554.417786, 278.047546) (602.598511, 326.866211)
sub9_h1_lg_2_101.jpg: Predicted in 0.155932 seconds.
baseball bat: 74%
(554.968384, 280.362701) (603.403931, 327.831696)
sub9_h1_lg_2_102.jpg: Predicted in 0.156824 seconds.
baseball bat: 73%
(556.236816, 280.152588) (600.562744, 328.524414)
sub9_h1_lg_2_103.jpg: Predicted in 0.155887 seconds.
baseball bat: 72%
(558.319397, 281.559937) (598.359863, 327.975647)
sub9_h1_lg_2_104.jpg: Predicted in 0.156054 seconds.
baseball bat: 71%
(559.869812, 281.943817) (598.318176, 328.145447)
sub9_h1_lg_2_105.jpg: Predicted in 0.156472 seconds.
baseball bat: 64%
(559.349976, 283.162720) (597.825073, 327.991913)
sub9_h1_lg_2_106.jpg: Predicted in 0.154337 seconds.
baseball bat: 62%
(564.441711, 290.474915) (595.812683, 332.023895)
sub9_h1_lg_2_107.jpg: Predicted in 0.157023 seconds.
baseball bat: 64%
(564.335022, 289.121185) (593.553894, 332.988037)
sub9_h1_lg_2_108.jpg: Predicted in 0.155497 seconds.
baseball bat: 64%
(564.558228, 288.411713) (592.520508, 333.460052)
sub9_h1_lg_2_109.jpg: Predicted in 0.156728 seconds.
baseball bat: 63%
(565.789062, 290.149994) (592.045105, 332.659729)
sub9_h1_lg_2_110.jpg: Predicted in 0.155076 seconds.
baseball bat: 60%
(568.494507, 287.855713) (590.705139, 334.012085)
sub9_h1_lg_2_111.jpg: Predicted in 0.156860 seconds.
baseball bat: 61%
(569.817200, 288.110443) (591.254272, 334.817993)
sub9_h1_lg_2_112.jpg: Predicted in 0.157046 seconds.
baseball bat: 59%
(570.344055, 288.393494) (590.099976, 335.122467)
sub9_h1_lg_2_113.jpg: Predicted in 0.166529 seconds.
baseball bat: 59%
(570.185059, 288.707794) (589.449646, 335.655243)
sub9_h1_lg_2_114.jpg: Predicted in 0.154735 seconds.
baseball bat: 55%
(571.894775, 290.854034) (587.797058, 337.815430)
sub9_h1_lg_2_115.jpg: Predicted in 0.155974 seconds.
baseball bat: 51%
(571.614014, 292.772339) (585.677124, 337.151520)
sub9_h1_lg_2_116.jpg: Predicted in 0.162378 seconds.
baseball bat: 48%
(571.570068, 294.863434) (584.996033, 337.242767)
sub9_h1_lg_2_117.jpg: Predicted in 0.155808 seconds.
baseball bat: 48%
(572.436279, 295.567627) (585.938904, 338.186951)
sub9_h1_lg_2_118.jpg: Predicted in 0.154175 seconds.
baseball bat: 45%
(573.611694, 296.351410) (585.889709, 338.845703)
sub9_h1_lg_2_119.jpg: Predicted in 0.155932 seconds.
baseball bat: 44%
(574.313721, 295.169312) (585.864319, 340.543610)
sub9_h1_lg_2_120.jpg: Predicted in 0.154584 seconds.
baseball bat: 41%
(575.321106, 296.584259) (585.203308, 343.694427)
sub9_h1_lg_2_121.jpg: Predicted in 0.154883 seconds.
baseball bat: 39%
(575.626648, 297.574066) (585.129578, 344.431702)
sub9_h1_lg_2_122.jpg: Predicted in 0.155310 seconds.
baseball bat: 35%
(574.635071, 297.378235) (583.155823, 346.356140)
sub9_h1_lg_2_123.jpg: Predicted in 0.156851 seconds.
baseball bat: 34%
(574.437500, 301.850952) (582.973694, 347.291565)
sub9_h1_lg_2_124.jpg: Predicted in 0.161676 seconds.
baseball bat: 34%
(573.997803, 302.332977) (582.367493, 348.328827)
sub9_h1_lg_2_125.jpg: Predicted in 0.157036 seconds.
baseball bat: 36%
(574.467834, 302.179077) (583.130981, 347.491699)
sub9_h1_lg_2_126.jpg: Predicted in 0.157455 seconds.
baseball bat: 39%
(573.752502, 303.313934) (583.095215, 346.961975)
sub9_h1_lg_2_127.jpg: Predicted in 0.157052 seconds.
baseball bat: 45%
(572.715210, 301.081146) (583.110901, 346.321167)
sub9_h1_lg_2_128.jpg: Predicted in 0.154619 seconds.
baseball bat: 50%
(572.761719, 302.329041) (584.606506, 345.362976)
sub9_h1_lg_2_129.jpg: Predicted in 0.155341 seconds.
baseball bat: 55%
(571.991089, 302.470459) (585.295044, 346.331451)
sub9_h1_lg_2_130.jpg: Predicted in 0.165284 seconds.
baseball bat: 62%
(571.638855, 302.023712) (587.146667, 347.032166)
sub9_h1_lg_2_131.jpg: Predicted in 0.157033 seconds.
baseball bat: 68%
(568.951660, 301.924133) (587.726929, 347.175232)
sub9_h1_lg_2_132.jpg: Predicted in 0.156109 seconds.
baseball bat: 72%
(567.317261, 301.876099) (588.877502, 348.021118)
sub9_h1_lg_2_133.jpg: Predicted in 0.154369 seconds.
baseball bat: 75%
(565.972595, 301.790009) (590.164307, 347.934814)
sub9_h1_lg_2_134.jpg: Predicted in 0.155730 seconds.
baseball bat: 77%
(563.390869, 303.025452) (590.694641, 348.270691)
sub9_h1_lg_2_135.jpg: Predicted in 0.155591 seconds.
baseball bat: 77%
(562.048645, 304.038391) (591.838623, 347.968597)
sub9_h1_lg_2_136.jpg: Predicted in 0.155518 seconds.
baseball bat: 79%
(559.719971, 304.666077) (593.525330, 347.174347)
sub9_h1_lg_2_137.jpg: Predicted in 0.154629 seconds.
baseball bat: 79%
(558.637512, 305.610046) (594.267639, 347.924072)
sub9_h1_lg_2_138.jpg: Predicted in 0.156400 seconds.
baseball bat: 80%
(557.474609, 305.960144) (596.115601, 347.557495)
sub9_h1_lg_2_139.jpg: Predicted in 0.158401 seconds.
baseball bat: 80%
(554.905823, 307.186310) (597.243652, 347.770569)
sub9_h1_lg_2_140.jpg: Predicted in 0.154808 seconds.
baseball bat: 81%
(551.373352, 307.812805) (599.140320, 348.434174)
sub9_h1_lg_2_141.jpg: Predicted in 0.155970 seconds.
baseball bat: 81%
(550.966675, 309.041046) (599.155212, 348.688202)
sub9_h1_lg_2_142.jpg: Predicted in 0.154678 seconds.
baseball bat: 81%
(549.223938, 311.173248) (601.029358, 347.386658)
sub9_h1_lg_2_143.jpg: Predicted in 0.156979 seconds.
baseball bat: 81%
(548.213379, 312.741089) (602.712280, 347.450989)
sub9_h1_lg_2_144.jpg: Predicted in 0.155703 seconds.
baseball bat: 81%
(545.744019, 314.196594) (603.255676, 347.878693)
sub9_h1_lg_2_145.jpg: Predicted in 0.156182 seconds.
baseball bat: 81%
(545.281311, 316.161957) (605.508423, 348.704865)
sub9_h1_lg_2_146.jpg: Predicted in 0.157367 seconds.
baseball bat: 80%
(544.379822, 318.180511) (606.962524, 349.056763)
sub9_h1_lg_2_147.jpg: Predicted in 0.157263 seconds.
baseball bat: 80%
(544.004211, 319.874847) (608.904175, 350.539825)
sub9_h1_lg_2_148.jpg: Predicted in 0.155266 seconds.
baseball bat: 81%
(542.823303, 321.563873) (612.118042, 352.039276)
sub9_h1_lg_2_149.jpg: Predicted in 0.155912 seconds.
baseball bat: 81%
(541.174072, 322.232605) (615.479370, 353.215057)
sub9_h1_lg_2_150.jpg: Predicted in 0.154838 seconds.
baseball bat: 81%
(540.517822, 323.957581) (617.072021, 353.576294)
sub9_h1_lg_2_151.jpg: Predicted in 0.155055 seconds.
baseball bat: 80%
(539.398743, 326.027924) (619.135498, 354.644989)
sub9_h1_lg_2_152.jpg: Predicted in 0.154679 seconds.
baseball bat: 80%
(536.556946, 328.314209) (622.086914, 355.149139)
sub9_h1_lg_2_153.jpg: Predicted in 0.157720 seconds.
baseball bat: 80%
(534.480103, 329.912079) (624.314453, 355.396423)
sub9_h1_lg_2_154.jpg: Predicted in 0.157624 seconds.
baseball bat: 79%
(533.192139, 332.105530) (626.156067, 355.866760)
sub9_h1_lg_2_155.jpg: Predicted in 0.154665 seconds.
baseball bat: 78%
(531.462830, 334.230927) (626.386047, 355.895844)
sub9_h1_lg_2_156.jpg: Predicted in 0.155035 seconds.
baseball bat: 78%
(529.027893, 334.661377) (627.460754, 356.312012)
sub9_h1_lg_2_157.jpg: Predicted in 0.156855 seconds.
baseball bat: 77%
(526.671509, 336.501801) (628.365662, 356.647919)
sub9_h1_lg_2_158.jpg: Predicted in 0.160229 seconds.
baseball bat: 76%
(525.742737, 338.246399) (629.536560, 357.441406)
sub9_h1_lg_2_159.jpg: Predicted in 0.156605 seconds.
baseball bat: 75%
(523.951172, 339.933990) (631.314392, 357.960876)
sub9_h1_lg_2_160.jpg: Predicted in 0.154850 seconds.
baseball bat: 74%
(519.192993, 341.900604) (633.996399, 359.159027)
sub9_h1_lg_2_161.jpg: Predicted in 0.155087 seconds.
baseball bat: 74%
(515.553711, 343.282471) (636.351562, 359.582489)
sub9_h1_lg_2_162.jpg: Predicted in 0.154464 seconds.
baseball bat: 74%
(513.782776, 343.982025) (638.276794, 359.657349)
sub9_h1_lg_2_163.jpg: Predicted in 0.157558 seconds.
baseball bat: 73%
(511.694672, 345.604980) (642.017700, 360.430450)
sub9_h1_lg_2_164.jpg: Predicted in 0.156635 seconds.
baseball bat: 73%
(511.995544, 346.644104) (644.034790, 361.061737)
sub9_h1_lg_2_165.jpg: Predicted in 0.157680 seconds.
baseball bat: 69%
(509.967163, 348.174500) (645.077576, 360.886322)
sub9_h1_lg_2_166.jpg: Predicted in 0.155700 seconds.
baseball bat: 67%
(508.968018, 349.245483) (647.722168, 360.892883)
sub9_h1_lg_2_167.jpg: Predicted in 0.158301 seconds.
baseball bat: 64%
(507.905823, 350.552124) (647.268677, 360.905426)
sub9_h1_lg_2_168.jpg: Predicted in 0.155254 seconds.
baseball bat: 61%
(509.198425, 351.333252) (650.026978, 360.928619)
sub9_h1_lg_2_169.jpg: Predicted in 0.157422 seconds.
baseball bat: 62%
(507.756531, 352.064636) (651.232483, 361.867462)
sub9_h1_lg_2_170.jpg: Predicted in 0.154530 seconds.
baseball bat: 51%
(505.545837, 352.537720) (651.219055, 360.617096)
sub9_h1_lg_2_171.jpg: Predicted in 0.156139 seconds.
baseball bat: 50%
(502.512177, 352.581024) (653.125671, 360.241119)
sub9_h1_lg_2_172.jpg: Predicted in 0.155947 seconds.
baseball bat: 49%
(504.347412, 353.287170) (654.939453, 360.731232)
sub9_h1_lg_2_173.jpg: Predicted in 0.156966 seconds.
baseball bat: 44%
(502.061005, 354.124207) (657.953125, 361.047699)
sub9_h1_lg_2_174.jpg: Predicted in 0.157194 seconds.
baseball bat: 38%
(500.187958, 354.872650) (659.825806, 361.456207)
sub9_h1_lg_2_175.jpg: Predicted in 0.155175 seconds.
baseball bat: 36%
(496.937683, 355.451508) (661.901489, 361.847992)
sub9_h1_lg_2_176.jpg: Predicted in 0.155269 seconds.
baseball bat: 34%
(496.812744, 355.824921) (665.000305, 362.371765)
sub9_h1_lg_2_177.jpg: Predicted in 0.156306 seconds.
baseball bat: 31%
(504.322357, 357.907684) (694.157654, 364.655121)
sub9_h1_lg_2_178.jpg: Predicted in 0.155239 seconds.
baseball bat: 33%
(502.374298, 359.021423) (698.451599, 365.722931)
sub9_h1_lg_2_179.jpg: Predicted in 0.154267 seconds.
baseball bat: 40%
(502.163910, 359.322662) (699.507751, 367.453705)
sub9_h1_lg_2_180.jpg: Predicted in 0.155525 seconds.
baseball bat: 47%
(504.412048, 360.027283) (697.708008, 368.779053)
sub9_h1_lg_2_181.jpg: Predicted in 0.154546 seconds.
baseball bat: 50%
(502.768524, 360.968750) (697.745972, 370.900604)
sub9_h1_lg_2_182.jpg: Predicted in 0.155804 seconds.
baseball bat: 65%
(502.504639, 360.863007) (698.187378, 373.565521)
sub9_h1_lg_2_183.jpg: Predicted in 0.156055 seconds.
baseball bat: 71%
(496.725464, 360.289246) (702.742065, 375.596283)
sub9_h1_lg_2_184.jpg: Predicted in 0.156573 seconds.
baseball bat: 79%
(496.334381, 360.598053) (699.971619, 380.555756)
sub9_h1_lg_2_185.jpg: Predicted in 0.153953 seconds.
baseball bat: 82%
(494.292664, 360.159607) (702.896240, 381.612122)
sub9_h1_lg_2_186.jpg: Predicted in 0.155583 seconds.
baseball bat: 82%
(494.064026, 360.255768) (703.565613, 382.125610)
sub9_h1_lg_2_187.jpg: Predicted in 0.154757 seconds.
baseball bat: 82%
(493.596222, 360.556122) (708.073792, 382.141998)
sub9_h1_lg_2_188.jpg: Predicted in 0.156542 seconds.
baseball bat: 82%
(492.585236, 360.989899) (709.867676, 382.527588)
sub9_h1_lg_2_189.jpg: Predicted in 0.155020 seconds.
baseball bat: 83%
(493.362549, 359.672089) (710.302063, 384.151581)
sub9_h1_lg_2_190.jpg: Predicted in 0.157659 seconds.
baseball bat: 83%
(493.415131, 360.811066) (713.369080, 384.789246)
sub9_h1_lg_2_191.jpg: Predicted in 0.156362 seconds.
baseball bat: 81%
(490.675476, 361.685608) (715.727600, 384.894806)
sub9_h1_lg_2_192.jpg: Predicted in 0.155158 seconds.
baseball bat: 82%
(487.804596, 362.717438) (718.872986, 386.609039)
sub9_h1_lg_2_193.jpg: Predicted in 0.164264 seconds.
baseball bat: 81%
(485.787720, 363.490265) (722.129578, 388.294312)
sub9_h1_lg_2_194.jpg: Predicted in 0.157170 seconds.
baseball bat: 81%
(485.040710, 363.285889) (725.250061, 389.950775)
sub9_h1_lg_2_195.jpg: Predicted in 0.155930 seconds.
baseball bat: 82%
(483.580597, 363.917236) (727.427246, 392.034393)
sub9_h1_lg_2_196.jpg: Predicted in 0.154116 seconds.
baseball bat: 82%
(483.277740, 363.844482) (731.708374, 393.312622)
sub9_h1_lg_2_197.jpg: Predicted in 0.156544 seconds.
baseball bat: 83%
(484.466583, 363.562042) (736.848206, 394.985748)
sub9_h1_lg_2_198.jpg: Predicted in 0.156474 seconds.
baseball bat: 84%
(485.933716, 363.649963) (737.851257, 396.407593)
sub9_h1_lg_2_199.jpg: Predicted in 0.157448 seconds.
baseball bat: 84%
(490.254211, 363.348572) (740.195679, 399.094818)
sub9_h1_lg_2_200.jpg: Predicted in 0.165080 seconds.
baseball bat: 84%
(488.008453, 363.728363) (742.796753, 399.837952)
sub9_h1_lg_2_201.jpg: Predicted in 0.154113 seconds.
baseball bat: 84%
(482.044830, 364.557983) (744.122253, 401.844482)
sub9_h1_lg_2_202.jpg: Predicted in 0.155212 seconds.
baseball bat: 84%
(483.250854, 364.931091) (746.244324, 404.310303)
sub9_h1_lg_2_203.jpg: Predicted in 0.156585 seconds.
baseball bat: 84%
(482.389435, 366.490082) (744.128662, 404.999725)
sub9_h1_lg_2_204.jpg: Predicted in 0.153875 seconds.
baseball bat: 83%
(486.333069, 366.482178) (741.108032, 406.680939)
sub9_h1_lg_2_205.jpg: Predicted in 0.155178 seconds.
baseball bat: 82%
(487.831360, 367.187042) (742.808228, 408.439423)
sub9_h1_lg_2_206.jpg: Predicted in 0.155807 seconds.
baseball bat: 83%
(483.353210, 363.264313) (750.135864, 411.391876)
sub9_h1_lg_2_207.jpg: Predicted in 0.155142 seconds.
baseball bat: 84%
(475.524536, 362.795471) (755.661377, 412.334930)
sub9_h1_lg_2_208.jpg: Predicted in 0.154626 seconds.
baseball bat: 76%
(486.475220, 363.280518) (756.921387, 411.332031)
sub9_h1_lg_2_209.jpg: Predicted in 0.155491 seconds.
baseball bat: 69%
(485.091309, 363.661377) (762.513123, 411.322723)
sub9_h1_lg_2_210.jpg: Predicted in 0.155317 seconds.
baseball bat: 68%
(480.792786, 364.052216) (763.732422, 413.676147)
sub9_h1_lg_2_211.jpg: Predicted in 0.157830 seconds.
baseball bat: 75%
(488.586731, 364.713745) (768.390259, 414.637756)
sub9_h1_lg_2_212.jpg: Predicted in 0.158361 seconds.
baseball bat: 80%
(487.658417, 363.289856) (766.008911, 418.073456)
sub9_h1_lg_2_213.jpg: Predicted in 0.155443 seconds.
baseball bat: 86%
(486.701294, 364.777100) (775.679260, 417.190796)
sub9_h1_lg_2_214.jpg: Predicted in 0.154947 seconds.
baseball bat: 87%
(491.366425, 364.134705) (785.486450, 417.838715)
sub9_h1_lg_2_215.jpg: Predicted in 0.156068 seconds.
baseball bat: 87%
(494.640259, 365.100372) (784.657166, 418.638672)
sub9_h1_lg_2_216.jpg: Predicted in 0.158318 seconds.
baseball bat: 88%
(494.343567, 364.875885) (789.216431, 420.210754)
sub9_h1_lg_2_217.jpg: Predicted in 0.167279 seconds.
baseball bat: 89%
(498.754211, 365.149689) (795.574829, 418.933044)
sub9_h1_lg_2_218.jpg: Predicted in 0.157910 seconds.
baseball bat: 89%
(500.508057, 366.351532) (799.985840, 418.826294)
sub9_h1_lg_2_219.jpg: Predicted in 0.155100 seconds.
baseball bat: 89%
(508.380371, 365.932922) (800.981079, 421.130951)
sub9_h1_lg_2_220.jpg: Predicted in 0.157700 seconds.
baseball bat: 88%
(507.262665, 365.501404) (803.591370, 424.728424)
sub9_h1_lg_2_221.jpg: Predicted in 0.158089 seconds.
baseball bat: 89%
(516.263916, 367.184601) (806.395264, 423.210144)
sub9_h1_lg_2_222.jpg: Predicted in 0.155689 seconds.
baseball bat: 89%
(520.965393, 367.156616) (809.078857, 426.722778)
sub9_h1_lg_2_223.jpg: Predicted in 0.154039 seconds.
baseball bat: 89%
(529.741577, 369.296906) (813.554810, 425.730835)
sub9_h1_lg_2_224.jpg: Predicted in 0.153868 seconds.
baseball bat: 90%
(532.485046, 368.543396) (812.538757, 427.532135)
sub9_h1_lg_2_225.jpg: Predicted in 0.155461 seconds.
baseball bat: 90%
(540.978088, 369.808899) (813.413696, 427.204407)
sub9_h1_lg_2_226.jpg: Predicted in 0.162521 seconds.
baseball bat: 91%
(547.287964, 369.021271) (810.195068, 429.245239)
sub9_h1_lg_2_227.jpg: Predicted in 0.156715 seconds.
baseball bat: 91%
(554.239807, 370.537048) (809.439697, 431.592102)
sub9_h1_lg_2_228.jpg: Predicted in 0.157770 seconds.
baseball bat: 91%
(556.511108, 369.062378) (808.734741, 434.002930)
sub9_h1_lg_2_229.jpg: Predicted in 0.156596 seconds.
baseball bat: 91%
(560.600769, 368.400604) (807.868042, 433.608215)
sub9_h1_lg_2_230.jpg: Predicted in 0.157080 seconds.
baseball bat: 91%
(565.548462, 365.943695) (803.821472, 440.446503)
sub9_h1_lg_2_231.jpg: Predicted in 0.155329 seconds.
baseball bat: 90%
(579.984070, 366.256805) (808.784363, 436.629974)
sub9_h1_lg_2_232.jpg: Predicted in 0.165864 seconds.
baseball bat: 90%
(583.872559, 368.130951) (806.736389, 436.219727)
sub9_h1_lg_2_233.jpg: Predicted in 0.158633 seconds.
baseball bat: 90%
(591.477783, 367.104309) (802.596497, 437.064667)
sub9_h1_lg_2_234.jpg: Predicted in 0.155506 seconds.
baseball bat: 90%
(594.437866, 368.647003) (803.777649, 438.120575)
sub9_h1_lg_2_235.jpg: Predicted in 0.155820 seconds.
baseball bat: 89%
(599.844727, 368.348145) (804.737915, 445.678223)
sub9_h1_lg_2_236.jpg: Predicted in 0.154522 seconds.
baseball bat: 89%
(612.991577, 367.830261) (806.618103, 443.935608)
sub9_h1_lg_2_237.jpg: Predicted in 0.156052 seconds.
baseball bat: 89%
(621.562378, 368.201324) (808.968506, 445.315186)
sub9_h1_lg_2_238.jpg: Predicted in 0.155049 seconds.
baseball bat: 89%
(628.139404, 367.631348) (810.606323, 446.026978)
sub9_h1_lg_2_239.jpg: Predicted in 0.155588 seconds.
baseball bat: 86%
(639.098999, 368.265991) (818.871765, 445.131500)
sub9_h1_lg_2_240.jpg: Predicted in 0.154645 seconds.
baseball bat: 87%
(631.780579, 372.354279) (816.883972, 454.220825)
sub9_h1_lg_2_241.jpg: Predicted in 0.155836 seconds.
baseball bat: 86%
(638.750916, 371.805359) (822.397339, 451.403259)
sub9_h1_lg_2_242.jpg: Predicted in 0.155507 seconds.
baseball bat: 81%
(645.363281, 370.187561) (825.175842, 448.984344)
sub9_h1_lg_2_243.jpg: Predicted in 0.187608 seconds.
baseball bat: 85%
(645.432434, 372.980865) (825.148499, 456.230560)
sub9_h1_lg_2_244.jpg: Predicted in 0.155825 seconds.
baseball bat: 82%
(652.618896, 372.262848) (826.647339, 456.747070)
sub9_h1_lg_2_245.jpg: Predicted in 0.156177 seconds.
baseball bat: 80%
(655.797974, 371.016418) (826.345093, 462.199127)
sub9_h1_lg_2_246.jpg: Predicted in 0.156024 seconds.
baseball bat: 76%
(676.620544, 376.850098) (814.082275, 446.617371)
sub9_h1_lg_2_247.jpg: Predicted in 0.157124 seconds.
baseball bat: 76%
(680.857178, 378.944244) (811.794983, 450.209015)
sub9_h1_lg_2_248.jpg: Predicted in 0.157353 seconds.
baseball bat: 76%
(704.136353, 378.860565) (812.369995, 443.385437)
sub9_h1_lg_2_249.jpg: Predicted in 0.157143 seconds.
baseball bat: 76%
(717.256836, 376.883209) (814.218201, 439.966614)
sub9_h1_lg_2_250.jpg: Predicted in 0.162693 seconds.
baseball bat: 74%
(732.730713, 374.349854) (813.634155, 438.571655)
sub9_h1_lg_2_251.jpg: Predicted in 0.155811 seconds.
baseball bat: 72%
(744.699768, 372.819794) (812.543091, 433.584961)
sub9_h1_lg_2_252.jpg: Predicted in 0.161434 seconds.
baseball bat: 71%
(757.421021, 379.710266) (825.430542, 440.788666)
sub9_h1_lg_2_253.jpg: Predicted in 0.157181 seconds.
baseball bat: 73%
(765.319214, 377.278046) (821.764404, 440.527222)
sub9_h1_lg_2_254.jpg: Predicted in 0.165615 seconds.
baseball bat: 53%
(776.494446, 375.375427) (818.513916, 431.297150)
sub9_h1_lg_2_255.jpg: Predicted in 0.157236 seconds.
baseball bat: 43%
(790.671265, 374.857849) (819.228943, 430.901123)
sub9_h1_lg_2_256.jpg: Predicted in 0.155623 seconds.
sub9_h1_lg_2_257.jpg: Predicted in 0.155993 seconds.
sub9_h1_lg_2_258.jpg: Predicted in 0.158501 seconds.
sub9_h1_lg_2_259.jpg: Predicted in 0.157176 seconds.
baseball bat: 30%
(806.652649, 377.705109) (832.699890, 423.252167)
sub9_h1_lg_2_260.jpg: Predicted in 0.157472 seconds.
baseball bat: 39%
(807.827759, 377.713654) (848.805542, 429.229370)
sub9_h1_lg_2_261.jpg: Predicted in 0.157538 seconds.
baseball bat: 55%
(807.300354, 378.272034) (864.948792, 431.293701)
sub9_h1_lg_2_262.jpg: Predicted in 0.155216 seconds.
baseball bat: 65%
(809.420837, 379.599182) (881.757568, 431.262878)
sub9_h1_lg_2_263.jpg: Predicted in 0.158634 seconds.
baseball bat: 58%
(805.077148, 377.727814) (894.166321, 428.613281)
sub9_h1_lg_2_264.jpg: Predicted in 0.155368 seconds.
baseball bat: 50%
(798.444458, 378.612976) (903.497681, 424.925812)
sub9_h1_lg_2_265.jpg: Predicted in 0.156138 seconds.
baseball bat: 36%
(792.389160, 380.018372) (912.198059, 423.008331)
sub9_h1_lg_2_266.jpg: Predicted in 0.156842 seconds.
baseball bat: 35%
(786.203857, 381.603760) (928.161804, 424.495178)
sub9_h1_lg_2_267.jpg: Predicted in 0.155894 seconds.
baseball bat: 33%
(783.043762, 384.806030) (939.939148, 423.060822)
sub9_h1_lg_2_268.jpg: Predicted in 0.165406 seconds.
sub9_h1_lg_2_269.jpg: Predicted in 0.155877 seconds.
sub9_h1_lg_2_270.jpg: Predicted in 0.154834 seconds.
sub9_h1_lg_2_271.jpg: Predicted in 0.156092 seconds.
sub9_h1_lg_2_272.jpg: Predicted in 0.154639 seconds.
sub9_h1_lg_2_273.jpg: Predicted in 0.155714 seconds.
sub9_h1_lg_2_274.jpg: Predicted in 0.158501 seconds.
sub9_h1_lg_2_275.jpg: Predicted in 0.156052 seconds.
sub9_h1_lg_2_276.jpg: Predicted in 0.165467 seconds.
sub9_h1_lg_2_277.jpg: Predicted in 0.156967 seconds.
sub9_h1_lg_2_278.jpg: Predicted in 0.157270 seconds.
sub9_h1_lg_2_279.jpg: Predicted in 0.155152 seconds.
sub9_h1_lg_2_280.jpg: Predicted in 0.157629 seconds.
sub9_h1_lg_2_281.jpg: Predicted in 0.156701 seconds.
sub9_h1_lg_2_282.jpg: Predicted in 0.155350 seconds.
sub9_h1_lg_2_283.jpg: Predicted in 0.156951 seconds.
sub9_h1_lg_2_284.jpg: Predicted in 0.158435 seconds.
sub9_h1_lg_2_285.jpg: Predicted in 0.156679 seconds.
sub9_h1_lg_2_286.jpg: Predicted in 0.165063 seconds.
sub9_h1_lg_2_287.jpg: Predicted in 0.179488 seconds.
sub9_h1_lg_2_288.jpg: Predicted in 0.157074 seconds.
sub9_h1_lg_2_289.jpg: Predicted in 0.155859 seconds.
sub9_h1_lg_2_290.jpg: Predicted in 0.158570 seconds.
sub9_h1_lg_2_291.jpg: Predicted in 0.155943 seconds.
sub9_h1_lg_2_292.jpg: Predicted in 0.157030 seconds.
sub9_h1_lg_2_293.jpg: Predicted in 0.157290 seconds.
sub9_h1_lg_2_294.jpg: Predicted in 0.155654 seconds.
sub9_h1_lg_2_295.jpg: Predicted in 0.154120 seconds.
sub9_h1_lg_2_296.jpg: Predicted in 0.156846 seconds.
sub9_h1_lg_2_297.jpg: Predicted in 0.155895 seconds.
